Division,WeightClassKg,Place,Name,Team,BodyweightKg,Best3SquatKg,Best3BenchKg,Best3DeadliftKg,TotalKg,Equipment,Event,Sex
Boys,51.71,1,Alex Berrones,Brownsville Lopez,51.3,154.22,106.59,197.31,458.13,Single-ply,SBD,M
Boys,51.71,2,Leo Alaniz,Brownsville Lopez,51.35,133.81,79.38,161.03,374.21,Single-ply,SBD,M
Boys,51.71,3,Tyrone Irizarry,Brownsville Lopez,50.12,81.65,61.23,117.93,260.82,Single-ply,SBD,M
Boys,51.71,4,Rafael Cuellar,Brownsville Porter,51.66,83.91,61.23,108.86,254.01,Single-ply,SBD,M
Boys,51.71,5,Bryan Loera,Brownsville Lopez,45.59,83.91,52.16,106.59,242.67,Single-ply,SBD,M
Boys,55.79,1,Jose Quitero,Brownsville Lopez,55.47,136.08,92.99,,229.06,Single-ply,SB,M
Boys,55.79,2,Bradly Salinas,Brownsville Porter,53.98,140.61,77.11,,217.72,Single-ply,SB,M
Boys,55.79,3,Victor Alegre,Brownsville Rivera,54.98,145.15,,,145.15,Single-ply,S,M
Boys,55.79,4,Gerarado Cardenas,Brownsville Rivera,54.93,81.65,54.43,,136.08,Single-ply,SB,M
Boys,55.79,5,Anthony Soriano,Brownsville Porter,53.34,115.67,,,115.67,Single-ply,S,M
Boys,59.87,1,Jose Alvarado #2,Brownsville Lopez,59.83,204.12,120.2,179.17,503.49,Single-ply,SBD,M
Boys,59.87,2,Angel Reyes,Brownsville Porter,58.88,131.54,77.11,176.9,385.55,Single-ply,SBD,M
Boys,59.87,3,Adrian Guerrero,Brownsville Porter,59.87,115.67,65.77,149.69,331.12,Single-ply,SBD,M
Boys,59.87,4,Abel Trevino,Brownsville Rivera,58.92,92.99,65.77,129.27,288.03,Single-ply,SBD,M
Boys,59.87,DQ,Alex Rivera #1,Brownsville Lopez,58.97,,,,,Single-ply,SBD,M
Boys,67.13,1,Hugo Salas,Brownsville Lopez,67.04,226.8,113.4,219.99,560.19,Single-ply,SBD,M
Boys,67.13,2,Jesus Muniz,Brownsville Rivera,65.91,165.56,104.33,165.56,435.45,Single-ply,SBD,M
Boys,67.13,3,Mike Reyes,Brownsville Porter,66.59,170.1,,195.04,365.14,Single-ply,SD,M
Boys,67.13,4,Domingo Granado,Brownsville Porter,65.36,115.67,104.33,122.47,342.46,Single-ply,SBD,M
Boys,67.13,5,Miquel Villanueva,Brownsville Porter,62.05,88.45,54.43,149.69,292.57,Single-ply,SBD,M
Boys,67.13,6,Israel Lozano,Brownsville Rivera,66.45,,83.91,156.49,240.4,Single-ply,BD,M
Boys,74.84,1,Rogelio Pulido,Brownsville Lopez,72.48,247.21,117.93,260.82,625.96,Single-ply,SBD,M
Boys,74.84,2,Angel Loera,Brownsville Rivera,74.12,226.8,115.67,206.38,548.85,Single-ply,SBD,M
Boys,74.84,3,Juan Acuna,Brownsville Porter,73.03,172.37,97.52,181.44,451.32,Single-ply,SBD,M
Boys,74.84,4,Guillermo Hernandez,Brownsville Porter,69.08,179.17,111.13,111.13,401.43,Single-ply,SBD,M
Boys,74.84,5,Jose Garza,Brownsville Porter,68.58,111.13,68.04,167.83,347,Single-ply,SBD,M
Boys,82.1,1,Gio Martinez,Brownsville Porter,79.29,161.03,115.67,197.31,474,Single-ply,SBD,M
Boys,82.1,2,Juan Sanchez #3,Brownsville Porter,80.33,167.83,72.57,163.29,403.7,Single-ply,SBD,M
Boys,82.1,3,Donavan Trevino,Brownsville Rivera,80.97,142.88,74.84,181.44,399.16,Single-ply,SBD,M
Boys,82.1,4,Ivan Cortez,Brownsville Rivera,80.92,170.1,,199.58,369.68,Single-ply,SD,M
Boys,82.1,5,Leo Hinojosa,Brownsville Porter,77.47,122.47,61.23,122.47,306.17,Single-ply,SBD,M
Boys,82.1,6,Deigo Rocha,Brownsville Porter,79.38,111.13,49.9,138.35,299.37,Single-ply,SBD,M
Boys,82.1,7,Pablo Garcia,Brownsville Lopez,81.65,74.84,65.77,108.86,249.48,Single-ply,SBD,M
Boys,82.1,8,Jesus Luna,Brownsville Lopez,81.87,222.26,,,222.26,Single-ply,S,M
Boys,89.81,1,Danny Ramos,Brownsville Lopez,88.22,272.16,138.35,240.4,650.91,Single-ply,SBD,M
Boys,89.81,2,Alexis Olalde,Brownsville Lopez,89.49,240.4,122.47,240.4,603.28,Single-ply,SBD,M
Boys,89.81,3,Robert Reyes,Brownsville Porter,87.59,210.92,127.01,219.99,557.92,Single-ply,SBD,M
Boys,89.81,4,Ivan De Los Reyes,Brownsville Rivera,88,183.7,108.86,190.51,483.08,Single-ply,SBD,M
Boys,89.81,5,Frank Alvarado,Brownsville Porter,83.01,172.37,81.65,158.76,412.77,Single-ply,SBD,M
Boys,89.81,6,Daneil Valdez,Brownsville Porter,86.64,145.15,65.77,190.51,401.43,Single-ply,SBD,M
Boys,89.81,7,Marco Garcia,Brownsville Rivera,88.45,197.31,102.06,,299.37,Single-ply,SB,M
Boys,89.81,DQ,Mark Sanchez,Brownsville Porter,87.36,,,,,Single-ply,SBD,M
Boys,99.79,1,Carlos Rodriquez,Brownsville Rivera,98.97,199.58,124.74,183.7,508.02,Single-ply,SBD,M
Boys,99.79,2,Lee Lozano,Brownsville Porter,93.8,195.04,99.79,192.78,487.61,Single-ply,SBD,M
Boys,99.79,3,Angel Pena,Brownsville Rivera,96.48,145.15,70.31,156.49,371.95,Single-ply,SBD,M
Boys,99.79,4,Mathew Cortinas,Brownsville Lopez,97.52,81.65,65.77,133.81,281.23,Single-ply,SBD,M
Boys,109.77,1,Kevin Martínez,Brownsville Rivera,109.18,138.35,70.31,136.08,344.73,Single-ply,SBD,M
Boys,124.74,1,Justin Garza,Brownsville Rivera,122.65,229.06,145.15,224.53,598.74,Single-ply,SBD,M
Boys,124.74,2,Juan Lopez,Brownsville Porter,124.74,235.87,106.59,,342.46,Single-ply,SB,M
Boys,124.74+,1,Josh Trevino,Brownsville Lopez,136.08,281.23,161.03,263.08,705.34,Single-ply,SBD,M
Boys,124.74+,2,Kevin Garcia,Brownsville Porter,129.27,260.82,142.88,219.99,623.69,Single-ply,SBD,M
Boys,124.74+,3,Jason Rodriquez,Brownsville Rivera,132.13,154.22,97.52,176.9,428.64,Single-ply,SBD,M
