Division,WeightClassKg,Place,Name,Team,BodyweightKg,Best3SquatKg,Best3BenchKg,Best3DeadliftKg,TotalKg,Equipment,Event,Sex
Boys,51.71,1,Esteban Urquieta,Corpus Christi Tuloso-Midway,51.62,165.56,65.77,156.49,387.82,Single-ply,SBD,M
Boys,51.71,2,Cole Terry,Skidmore-Tynan,50.35,140.61,81.65,145.15,367.41,Single-ply,SBD,M
Boys,51.71,3,Ethan Bass,Ingleside,51.71,142.88,74.84,142.88,360.61,Single-ply,SBD,M
Boys,51.71,4,Jose Hernandez #13,Corpus Christi West Oso,51.71,133.81,77.11,140.61,351.53,Single-ply,SBD,M
Boys,51.71,DQ,Zach Blanco,Corpus Christi Tuloso-Midway,50.62,111.13,,,,Single-ply,SBD,M
Boys,55.79,1,Chris Anderson #11,Ingleside,55.79,147.42,70.31,158.76,376.48,Single-ply,SBD,M
Boys,55.79,2,Juan Vasquez #1,Corpus Christi Calallen,55.34,131.54,58.97,149.69,340.19,Single-ply,SBD,M
Boys,55.79,3,Eloy Ybarra,Corpus Christi West Oso,55.07,97.52,63.5,115.67,276.69,Single-ply,SBD,M
Boys,55.79,4,Trey Nunez,Bishop,53.52,77.11,34.02,102.06,213.19,Single-ply,SBD,M
Boys,59.87,1,Andres Ramos #1,Ingleside,58.97,229.06,113.4,208.65,551.11,Single-ply,SBD,M
Boys,59.87,2,Noe Herrera,Kingsville King,58.69,154.22,86.18,172.37,412.77,Single-ply,SBD,M
Boys,59.87,3,Tyler Harris,Skidmore-Tynan,57.61,142.88,72.57,163.29,378.75,Single-ply,SBD,M
Boys,59.87,4,Jeremiah Pena,Corpus Christi Calallen,58.24,140.61,77.11,158.76,376.48,Single-ply,SBD,M
Boys,59.87,5,Josue Tortu,Corpus Christi West Oso,59.69,151.95,74.84,147.42,374.21,Single-ply,SBD,M
Boys,59.87,6,Case Scarborough,Banquete,56.61,104.33,58.97,104.33,267.62,Single-ply,SBD,M
Boys,67.13,1,Arturo Reyna,Bishop,66.22,195.04,117.93,199.58,512.56,Single-ply,SBD,M
Boys,67.13,2,Cristian Alvarado,Corpus Christi Calallen,64.68,188.24,97.52,206.38,492.15,Single-ply,SBD,M
Boys,67.13,3,Johnathan Galvan,Corpus Christi Tuloso-Midway,67.13,185.97,108.86,197.31,492.15,Single-ply,SBD,M
Boys,67.13,4,Daniel Tortu,Corpus Christi West Oso,62.96,197.31,113.4,174.63,485.34,Single-ply,SBD,M
Boys,67.13,5,Isaac Blanco,Corpus Christi Tuloso-Midway,64.68,167.83,86.18,185.97,439.98,Single-ply,SBD,M
Boys,67.13,6,Ozzy Ayarzagoitia,Kingsville King,65.32,163.29,86.18,185.97,435.45,Single-ply,SBD,M
Boys,67.13,7,Adrian Fuentes,George West,65.77,142.88,104.33,185.97,433.18,Single-ply,SBD,M
Boys,67.13,8,Javier Galvan,Aransas Pass,67.13,156.49,113.4,161.03,430.91,Single-ply,SBD,M
Boys,67.13,9,Logan Schanan,Skidmore-Tynan,65.77,165.56,83.91,163.29,412.77,Single-ply,SBD,M
Boys,67.13,10,Estaban Olvera,Gregory-Portland,61.23,156.49,81.65,158.76,396.89,Single-ply,SBD,M
Boys,67.13,11,Daniel Pena,Aransas Pass,66.22,154.22,72.57,167.83,394.63,Single-ply,SBD,M
Boys,67.13,12,Marshall Tetens,Gregory-Portland,67.13,154.22,70.31,165.56,390.09,Single-ply,SBD,M
Boys,67.13,13,Albert Lopez,Kingsville King,62.6,129.27,86.18,154.22,369.68,Single-ply,SBD,M
Boys,67.13,14,Chase Bowers,Bishop,65.32,129.27,81.65,154.22,365.14,Single-ply,SBD,M
Boys,67.13,15,Gabriel Guajardo,Skidmore-Tynan,67.13,142.88,74.84,145.15,362.87,Single-ply,SBD,M
Boys,67.13,16,Nathan Garza,Bishop,63.96,124.74,77.11,151.95,353.8,Single-ply,SBD,M
Boys,67.13,17,Jerry Edlin,George West,66.68,142.88,70.31,140.61,353.8,Single-ply,SBD,M
Boys,67.13,18,Damien Campos,Bishop,63.5,133.81,74.84,142.88,351.53,Single-ply,SBD,M
Boys,67.13,19,Anthony Lerma,Banquete,66.68,136.08,83.91,127.01,347,Single-ply,SBD,M
Boys,67.13,20,Aaron Saenz,Kingsville King,66.04,127.01,68.04,138.35,333.39,Single-ply,SBD,M
Boys,74.84,1,Joel Garza,Corpus Christi Calallen,70.49,199.58,115.67,190.51,505.76,Single-ply,SBD,M
Boys,74.84,2,Matthew Garza,Corpus Christi West Oso,73.3,136.08,79.38,163.29,378.75,Single-ply,SBD,M
Boys,74.84,3,Jacob Reyes,George West,67.59,140.61,83.91,142.88,367.41,Single-ply,SBD,M
Boys,74.84,4,Robert Lerma,Banquete,71.67,129.27,83.91,136.08,349.27,Single-ply,SBD,M
Boys,74.84,5,Jacob Gonzalez,Kingsville King,74.75,127.01,72.57,131.54,331.12,Single-ply,SBD,M
Boys,74.84,6,Phillip Sullivan,Corpus Christi Tuloso-Midway,71.67,124.74,70.31,113.4,308.44,Single-ply,SBD,M
Boys,74.84,DQ,Antonio Urrea,Aransas Pass,72.12,138.35,,,,Single-ply,SBD,M
Boys,82.1,1,Gabriel Cantu,Corpus Christi Calallen,79.56,249.48,151.95,278.96,680.39,Single-ply,SBD,M
Boys,82.1,2,Enrique Barron,Ingleside,82.1,240.4,127.01,254.01,621.42,Single-ply,SBD,M
Boys,82.1,3,Justin Rodriguez,Corpus Christi Tuloso-Midway,81.65,217.72,115.67,235.87,569.26,Single-ply,SBD,M
Boys,82.1,4,Alan Medrano,Bishop,81.65,197.31,136.08,217.72,551.11,Single-ply,SBD,M
Boys,82.1,5,Connor Bowers,Bishop,78.47,199.58,131.54,217.72,548.85,Single-ply,SBD,M
Boys,82.1,6,Brit Bowers,Bishop,80.29,183.7,129.27,206.38,519.36,Single-ply,SBD,M
Boys,82.1,7,Paul Martinez #4,Corpus Christi Tuloso-Midway,79.56,167.83,88.45,138.35,394.63,Single-ply,SBD,M
Boys,82.1,8,Marcos Salas,Bishop,79.83,142.88,83.91,151.95,378.75,Single-ply,SBD,M
Boys,82.1,9,Jordan Longoria,Bishop,77.56,133.81,79.38,156.49,369.68,Single-ply,SBD,M
Boys,82.1,10,Matthew Mireles,Gregory-Portland,75.3,140.61,74.84,145.15,360.61,Single-ply,SBD,M
Boys,82.1,11,Gus Rodriquez,Aransas Pass,81.19,127.01,72.57,142.88,342.46,Single-ply,SBD,M
Boys,89.81,1,Tristan Nino,Kingsville King,89.45,244.94,151.95,235.87,632.76,Single-ply,SBD,M
Boys,89.81,2,Barry Hernandez,Corpus Christi West Oso,88.18,258.55,145.15,226.8,630.49,Single-ply,SBD,M
Boys,89.81,3,Elijah Holifield,Skidmore-Tynan,85.28,222.26,142.88,249.48,614.62,Single-ply,SBD,M
Boys,89.81,4,Federico Ruiz Jr,Corpus Christi Calallen,88.72,242.67,124.74,242.67,610.08,Single-ply,SBD,M
Boys,89.81,5,Daniel González,Kingsville King,86.64,215.46,133.81,217.72,566.99,Single-ply,SBD,M
Boys,89.81,6,Gilbert Mendez,Bishop,82.55,208.65,127.01,217.72,553.38,Single-ply,SBD,M
Boys,89.81,7,Zuriel Adusei,Gregory-Portland,89.09,219.99,117.93,206.38,544.31,Single-ply,SBD,M
Boys,89.81,8,Dante Vasquez,Corpus Christi Tuloso-Midway,87.18,208.65,127.01,185.97,521.63,Single-ply,SBD,M
Boys,89.81,9,Andrew Flores,Gregory-Portland,83.01,176.9,122.47,215.46,514.83,Single-ply,SBD,M
Boys,89.81,10,Gilbert Arriaga,Kingsville King,86.64,192.78,113.4,206.38,512.56,Single-ply,SBD,M
Boys,89.81,11,Troy Eubanks,Gregory-Portland,89.09,167.83,108.86,181.44,458.13,Single-ply,SBD,M
Boys,89.81,12,Gabriel Hernandez,Bishop,84.82,154.22,97.52,170.1,421.84,Single-ply,SBD,M
Boys,99.79,1,Bailey Trevino,George West,95.25,276.69,149.69,231.33,657.71,Single-ply,SBD,M
Boys,99.79,2,Ray Saenz,Bishop,93.89,233.6,131.54,235.87,601.01,Single-ply,SBD,M
Boys,99.79,3,Thomas Puentes,Skidmore-Tynan,97.52,254.01,136.08,183.7,573.79,Single-ply,SBD,M
Boys,99.79,4,Saulo Ramos,Kingsville King,94.35,204.12,108.86,201.85,514.83,Single-ply,SBD,M
Boys,99.79,5,Dylan Hofstetter,Corpus Christi Calallen,98.43,210.92,115.67,176.9,503.49,Single-ply,SBD,M
Boys,99.79,6,Jeremy Trevino,Gregory-Portland,97.98,199.58,106.59,195.04,501.22,Single-ply,SBD,M
Boys,99.79,7,Ross Delgado,Gregory-Portland,95.25,217.72,104.33,170.1,492.15,Single-ply,SBD,M
Boys,99.79,8,David Colecio,Bishop,96.62,185.97,102.06,183.7,471.74,Single-ply,SBD,M
Boys,99.79,9,Luke Snodgrass,Ingleside,97.98,183.7,102.06,183.7,469.47,Single-ply,SBD,M
Boys,99.79,10,Marcus Hinojosa,Skidmore-Tynan,94.8,188.24,95.25,181.44,464.93,Single-ply,SBD,M
Boys,99.79,11,Daniel Ware,Gregory-Portland,94.35,149.69,83.91,172.37,405.97,Single-ply,SBD,M
Boys,99.79,12,Matthew Valdez,Ingleside,91.63,154.22,88.45,142.88,385.55,Single-ply,SBD,M
Boys,99.79,13,Trevor Zimmerman,Ingleside,98.43,142.88,92.99,136.08,371.95,Single-ply,SBD,M
Boys,99.79,DQ,Ethan Bernal,George West,94.8,183.7,,,,Single-ply,SBD,M
Boys,109.77,1,Joey Rodriguez,Corpus Christi West Oso,109.59,278.96,156.49,272.16,707.6,Single-ply,SBD,M
Boys,109.77,2,Adam Gonzalez,Kingsville King,107.95,217.72,138.35,226.8,582.87,Single-ply,SBD,M
Boys,109.77,3,Stevie Cardenas,Ingleside,107.95,226.8,131.54,215.46,573.79,Single-ply,SBD,M
Boys,109.77,4,Ismael Gonzalez,Kingsville King,101.6,229.06,138.35,195.04,562.45,Single-ply,SBD,M
Boys,109.77,5,Michael Morales,Aransas Pass,105.69,213.19,127.01,204.12,544.31,Single-ply,SBD,M
Boys,109.77,6,Victor Mendez,Gregory-Portland,102.97,217.72,115.67,199.58,532.97,Single-ply,SBD,M
Boys,109.77,7,Justice Escobar,Corpus Christi Calallen,105.23,201.85,142.88,188.24,532.97,Single-ply,SBD,M
Boys,109.77,8,Marcus Avitia,Ingleside,106.59,199.58,131.54,195.04,526.17,Single-ply,SBD,M
Boys,109.77,9,Shayne Shasta,Ingleside,102.06,183.7,115.67,183.7,483.08,Single-ply,SBD,M
Boys,124.74,1,Jacob Rodriguez #4,Corpus Christi Tuloso-Midway,124.28,362.87,197.31,281.23,841.41,Single-ply,SBD,M
Boys,124.74,2,Oscar Mayan,Corpus Christi West Oso,115.21,222.26,117.93,195.04,535.24,Single-ply,SBD,M
Boys,124.74,DQ,Nicholas Camp,Ingleside,114.31,,,,,Single-ply,SBD,M
Boys,124.74+,1,Jeremy Iglehart,Corpus Christi Calallen,146.06,233.6,149.69,188.24,571.53,Single-ply,SBD,M
Boys,124.74+,2,Sam Gentry,Corpus Christi Calallen,129.27,192.78,127.01,183.7,503.49,Single-ply,SBD,M
Boys,124.74+,3,Jason Galvan,Corpus Christi West Oso,136.35,142.88,65.77,151.95,360.61,Single-ply,SBD,M
Boys,124.74+,DQ,Christian Dickey,Aransas Pass,167.83,,,,,Single-ply,SBD,M
