Division,WeightClassKg,Place,Name,Team,BodyweightKg,Best3SquatKg,Best3BenchKg,Best3DeadliftKg,TotalKg,Equipment,Event,Sex
Boys,51.71,1,JT White,Cedar Hill,51.07,142.88,79.38,179.17,401.43,Single-ply,SBD,M
Boys,55.79,2,Pete Rios,Waxahachie,51.89,142.88,74.84,124.74,342.46,Single-ply,SBD,M
Boys,51.71,3,Rodney Barnes,Everman,45.09,102.06,52.16,113.4,267.62,Single-ply,SBD,M
Boys,51.71,4,Kyle Lovejoy,Burleson Centennial,51.17,102.06,47.63,106.59,256.28,Single-ply,SBD,M
Boys,51.71,5,Kourtland Daughtry,Venus,42.37,54.43,34.02,79.38,167.83,Single-ply,SBD,M
Boys,51.71,6,Jordan Bare,Kennedale,45,63.5,29.48,61.23,154.22,Single-ply,SBD,M
Boys,55.79,1,Dameon Bissant,Cedar Hill,55.7,147.42,74.84,158.76,381.02,Single-ply,SBD,M
Boys,55.79,2,Ashton Williams,Everman,55.43,124.74,74.84,154.22,353.8,Single-ply,SBD,M
Boys,59.87,3,Austin Blalock,Burleson Centennial,55.97,99.79,68.04,142.88,310.71,Single-ply,SBD,M
Boys,55.79,4,Grady Rhoden,Alvarado,55.52,113.4,54.43,136.08,303.91,Single-ply,SBD,M
Boys,55.79,5,Mason Mott,Midlothian,53.61,102.06,63.5,113.4,278.96,Single-ply,SBD,M
Boys,55.79,6,Garrett Mowles,Venus,55.52,77.11,54.43,95.25,226.8,Single-ply,SBD,M
Boys,55.79,DQ,Shafiq Asmaty,Kennedale,54.98,131.54,,,,Single-ply,SBD,M
Boys,55.79,DQ,Kevin Huynh,Kennedale,54.34,151.95,,,,Single-ply,SBD,M
Boys,59.87,1,Clarington Lightfoot,Everman,59.42,208.65,102.06,199.58,510.29,Single-ply,SBD,M
Boys,59.87,2,Alejandro Olmos,Everman,58.6,161.03,106.59,151.95,419.57,Single-ply,SBD,M
Boys,59.87,3,Joshi Brooker,Cedar Hill,56.34,131.54,74.84,140.61,347,Single-ply,SBD,M
Boys,59.87,4,Preston Stripling,Midlothian,56.79,90.72,79.38,113.4,283.5,Single-ply,SBD,M
Boys,59.87,5,Ethan Balthrop,Castleberry,59.24,106.59,54.43,122.47,283.5,Single-ply,SBD,M
Boys,67.13,1,Sean Guinyard,Kennedale,64.41,197.31,111.13,183.7,492.15,Single-ply,SBD,M
Boys,67.13,2,Coy Hart,Venus,65.68,172.37,102.06,174.63,449.06,Single-ply,SBD,M
Boys,67.13,3,Trey Williams #5,Kennedale,66.32,167.83,102.06,165.56,435.45,Single-ply,SBD,M
Boys,67.13,4,Kenneth Stafford,Everman,64.5,151.95,90.72,190.51,433.18,Single-ply,SBD,M
Boys,74.84,5,Ryley Paroulek,Kennedale,67.31,151.95,88.45,188.24,428.64,Single-ply,SBD,M
Boys,67.13,6,Dewayne Tony,Cedar Hill,62.6,154.22,95.25,172.37,421.84,Single-ply,SBD,M
Boys,74.84,7,Jeremy Fuentes,Cleburne,67.31,156.49,88.45,151.95,396.89,Single-ply,SBD,M
Boys,67.13,8,Micheal Seay,Burleson Centennial,65.95,136.08,97.52,149.69,383.29,Single-ply,SBD,M
Boys,67.13,9,Tyler Hunter,Kennedale,66.59,142.88,92.99,142.88,378.75,Single-ply,SBD,M
Boys,67.13,10,Kutter Schmidt,Venus,61.96,136.08,88.45,138.35,362.87,Single-ply,SBD,M
Boys,67.13,11,Tommy Martinez,Midlothian,62.87,136.08,81.65,140.61,358.34,Single-ply,SBD,M
Boys,67.13,12,Jacob Montes,Midlothian,66.04,124.74,83.91,142.88,351.53,Single-ply,SBD,M
Boys,67.13,13,Levi Mowles,Venus,64.77,124.74,74.84,136.08,335.66,Single-ply,SBD,M
Boys,67.13,14,Jose Alvarez,Lake Worth,67.13,124.74,79.38,122.47,326.59,Single-ply,SBD,M
Boys,67.13,15,Jack Zizzo,Lake Worth,65.41,133.81,72.57,115.67,322.05,Single-ply,SBD,M
Boys,67.13,16,Oscar Orozco,Castleberry,64.32,111.13,72.57,136.08,319.78,Single-ply,SBD,M
Boys,67.13,17,Bryan Ortiz,Castleberry,62.78,106.59,58.97,120.2,285.76,Single-ply,SBD,M
Boys,67.13,DQ,Brandon Johnson,Everman,65.95,,,,,Single-ply,SBD,M
Boys,67.13,DQ,Jerroye Nash,Cedar Hill,66.04,117.93,,,,Single-ply,SBD,M
Boys,67.13,DQ,Brandon Marsh,Burleson Centennial,67.04,158.76,,,,Single-ply,SBD,M
Boys,74.84,DQ,Bodie Fry,Midlothian,67.22,127.01,,,,Single-ply,SBD,M
Boys,74.84,1,Ben Adams,Cedar Hill,72.76,176.9,117.93,208.65,503.49,Single-ply,SBD,M
Boys,82.1,2,Alex Scallion,Everman,75.02,192.78,111.13,192.78,496.68,Single-ply,SBD,M
Boys,74.84,3,Brandon Fortune,Alvarado,73.12,149.69,99.79,204.12,453.59,Single-ply,SBD,M
Boys,74.84,4,Jalun Watkins,Kennedale,68.67,190.51,83.91,174.63,449.06,Single-ply,SBD,M
Boys,74.84,5,Tre Burns,Burleson Centennial,70.49,165.56,92.99,181.44,439.98,Single-ply,SBD,M
Boys,74.84,6,Joel Bennett,Lake Worth,71.94,142.88,97.52,197.31,437.72,Single-ply,SBD,M
Boys,74.84,7,Dylan Clary,Midlothian,69.13,122.47,90.72,151.95,365.14,Single-ply,SBD,M
Boys,74.84,8,Cody Kovar,Kennedale,70.31,147.42,61.23,131.54,340.19,Single-ply,SBD,M
Boys,74.84,9,Brandon Vineyard,Everman,73.3,131.54,54.43,142.88,328.85,Single-ply,SBD,M
Boys,74.84,10,Jerry Raburn,Alvarado,69.94,117.93,72.57,136.08,326.59,Single-ply,SBD,M
Boys,74.84,11,Charles Badger,Everman,71.3,117.93,63.5,113.4,294.84,Single-ply,SBD,M
Boys,74.84,DQ,Evan Bornes,Lake Worth,74.57,158.76,,,,Single-ply,SBD,M
Boys,82.1,1,Nathan Cornett,Alvarado,80.92,192.78,127.01,195.04,514.83,Single-ply,SBD,M
Boys,82.1,2,Jerry Burris,Cedar Hill,81.92,217.72,90.72,174.63,483.08,Single-ply,SBD,M
Boys,89.81,3,Najee Mustafaa,Midlothian,82.28,181.44,92.99,181.44,455.86,Single-ply,SBD,M
Boys,82.1,4,Vontrell Grant,Cleburne,79.47,183.7,88.45,167.83,439.98,Single-ply,SBD,M
Boys,82.1,5,Tyler Kilberg,Everman,75.66,158.76,74.84,183.7,417.3,Single-ply,SBD,M
Boys,82.1,6,Yama Asmati,Kennedale,81.28,151.95,97.52,167.83,417.3,Single-ply,SBD,M
Boys,82.1,7,Nathan Ferguson,Burleson Centennial,76.29,158.76,79.38,154.22,392.36,Single-ply,SBD,M
Boys,82.1,8,Aaron Schroeder,Midlothian,77.75,142.88,83.91,156.49,383.29,Single-ply,SBD,M
Boys,89.81,9,Eric Maldonado,Castleberry,82.28,142.88,95.25,145.15,383.29,Single-ply,SBD,M
Boys,89.81,10,Rowdy Goff,Alvarado,82.28,124.74,92.99,154.22,371.95,Single-ply,SBD,M
Boys,82.1,11,Cardae Cauley,Everman,77.29,127.01,77.11,156.49,360.61,Single-ply,SBD,M
Boys,82.1,12,Cody Samek,Midlothian,81.47,117.93,92.99,145.15,356.07,Single-ply,SBD,M
Boys,82.1,13,Chris Delk,Castleberry,80.56,136.08,90.72,120.2,347,Single-ply,SBD,M
Boys,82.1,14,Jimmy Fouse,Midlothian,79.11,113.4,68.04,142.88,324.32,Single-ply,SBD,M
Boys,82.1,DQ,Aguilar,Lake Worth,82.01,158.76,,,,Single-ply,SBD,M
Boys,89.81,1,Craig Renfro,Waxahachie,84.73,240.4,136.08,226.8,603.28,Single-ply,SBD,M
Boys,89.81,2,Doveon Dillard,Cedar Hill,83.64,204.12,129.27,210.92,544.31,Single-ply,SBD,M
Boys,89.81,3,Zach Haler,Cleburne,83.37,190.51,133.81,206.38,530.7,Single-ply,SBD,M
Boys,89.81,4,Laurence Cisneros,Burleson Centennial,89.63,185.97,117.93,226.8,530.7,Single-ply,SBD,M
Boys,89.81,5,Marcus Stafford,Everman,86.73,204.12,104.33,208.65,517.1,Single-ply,SBD,M
Boys,89.81,6,Isaidah Lewis,Cedar Hill,85.91,195.04,106.59,195.04,496.68,Single-ply,SBD,M
Boys,89.81,7,Avion Fletcher,Everman,87.72,174.63,113.4,206.38,494.42,Single-ply,SBD,M
Boys,99.79,8,Keavin Turner,Cedar Hill,89.99,197.31,102.06,158.76,458.13,Single-ply,SBD,M
Boys,89.81,8,Caleb Shaw,Midlothian,87.82,195.04,113.4,183.7,492.15,Single-ply,SBD,M
Boys,89.81,9,Robert Munoz,Lake Worth,85.46,201.85,115.67,170.1,487.61,Single-ply,SBD,M
Boys,89.81,10,Devin Jackson,Kennedale,87.54,190.51,102.06,188.24,480.81,Single-ply,SBD,M
Boys,89.81,11,Eric Martinez,Venus,89.36,172.37,108.86,190.51,471.74,Single-ply,SBD,M
Boys,89.81,12,Cameron Bundy,Kennedale,82.92,176.9,108.86,183.7,469.47,Single-ply,SBD,M
Boys,89.81,13,Levi Cuevas,Cleburne,84.82,174.63,113.4,170.1,458.13,Single-ply,SBD,M
Boys,89.81,14,Zachary Fuscilar,Everman,85,192.78,99.79,158.76,451.32,Single-ply,SBD,M
Boys,89.81,15,Michael Cliff,Venus,88.99,172.37,95.25,181.44,449.06,Single-ply,SBD,M
Boys,89.81,16,Collin Garcia,Midlothian,85.91,161.03,90.72,181.44,433.18,Single-ply,SBD,M
Boys,89.81,17,Chris Luna,Castleberry,87.63,170.1,92.99,167.83,430.91,Single-ply,SBD,M
Boys,89.81,18,Austin Adams,Midlothian,89.18,147.42,92.99,170.1,410.5,Single-ply,SBD,M
Boys,89.81,19,John Walser,Midlothian,85.82,136.08,113.4,158.76,408.23,Single-ply,SBD,M
Boys,89.81,20,Aaron Ewing,Lake Worth,88.18,149.69,90.72,151.95,392.36,Single-ply,SBD,M
Boys,89.81,21,Leonardo Zavala,Waxahachie,89.72,156.49,79.38,142.88,378.75,Single-ply,SBD,M
Boys,89.81,22,Zach Whisnand,Midlothian,89.54,136.08,88.45,142.88,367.41,Single-ply,SBD,M
Boys,89.81,23,Marshall Heatherby,Alvarado,88,113.4,88.45,142.88,344.73,Single-ply,SBD,M
Boys,89.81,24,Angus Pebworth,Midlothian,86.64,113.4,81.65,136.08,331.12,Single-ply,SBD,M
Boys,99.79,DQ,Tory Endtricht,Cleburne,89.99,,,,,Single-ply,SBD,M
Boys,99.79,1,Strat Washington,Cedar Hill,95.53,276.69,163.29,249.48,689.46,Single-ply,SBD,M
Boys,99.79,2,Bryan Randall,Waxahachie,99.61,249.48,158.76,235.87,644.1,Single-ply,SBD,M
Boys,99.79,3,Calan Johnson,Cedar Hill,95.25,249.48,156.49,217.72,623.69,Single-ply,SBD,M
Boys,99.79,4,Chris Roberts,Cedar Hill,96.34,226.8,156.49,217.72,601.01,Single-ply,SBD,M
Boys,99.79,5,Diego Mejia,Everman,94.71,240.4,111.13,238.14,589.67,Single-ply,SBD,M
Boys,99.79,6,Larry Hill,Cedar Hill,94.17,204.12,115.67,181.44,501.22,Single-ply,SBD,M
Boys,99.79,7,Aj Castillo,Alvarado,97.79,226.8,147.42,215.46,589.67,Single-ply,SBD,M
Boys,99.79,9,Devon Golden,Midlothian,96.89,170.1,104.33,181.44,455.86,Single-ply,SBD,M
Boys,99.79,10,Tc Quintana,Burleson Centennial,98.07,176.9,102.06,176.9,455.86,Single-ply,SBD,M
Boys,99.79,11,Andrew Sevener,Alvarado,97.16,181.44,104.33,167.83,453.59,Single-ply,SBD,M
Boys,99.79,12,Caleb Dobson,Midlothian,97.25,140.61,90.72,158.76,390.09,Single-ply,SBD,M
Boys,99.79,13,Lawton Anderson,Midlothian,96.25,158.76,83.91,136.08,378.75,Single-ply,SBD,M
Boys,99.79,14,Michael Pytel,Kennedale,97.52,147.42,81.65,136.08,365.14,Single-ply,SBD,M
Boys,99.79,15,Sean Hargrove,Venus,95.62,145.15,68.04,115.67,328.85,Single-ply,SBD,M
Boys,109.77,16,Brandon Goodsite,Alvarado,99.97,108.86,72.57,142.88,324.32,Single-ply,SBD,M
Boys,99.79,17,Ryan Laiton,Kennedale,98.34,104.33,65.77,122.47,292.57,Single-ply,SBD,M
Boys,99.79,DQ,Daniel Ambriz,Everman,96.52,165.56,,,,Single-ply,SBD,M
Boys,99.79,DQ,Jacob Kennedy #4,Everman,91.26,204.12,,,,Single-ply,SBD,M
Boys,109.77,1,Andrew Abamu,Cedar Hill,105.96,226.8,117.93,235.87,580.6,Single-ply,SBD,M
Boys,109.77,2,Koltyn Davis,Kennedale,105.51,226.8,133.81,215.46,576.06,Single-ply,SBD,M
Boys,109.77,3,Seth White,Alvarado,107.23,238.14,124.74,208.65,571.53,Single-ply,SBD,M
Boys,109.77,4,Felipe Aquiniga,Everman,108.23,213.19,117.93,195.04,526.17,Single-ply,SBD,M
Boys,109.77,5,Victor Mejia,Waxahachie,103.42,183.7,151.95,183.7,519.36,Single-ply,SBD,M
Boys,109.77,6,Ty Underwood,Burleson Centennial,108.23,199.58,122.47,172.37,494.42,Single-ply,SBD,M
Boys,109.77,7,Nathan Ward,Kennedale,107.5,204.12,113.4,174.63,492.15,Single-ply,SBD,M
Boys,109.77,8,Eleazar Diaz,Lake Worth,105.14,208.65,102.06,161.03,471.74,Single-ply,SBD,M
Boys,109.77,9,Brazos Fuller,Alvarado,106.96,181.44,104.33,149.69,435.45,Single-ply,SBD,M
Boys,109.77,10,Forrest Freeman,Lake Worth,106.96,127.01,113.4,136.08,376.48,Single-ply,SBD,M
Boys,124.74,11,Josh Saunders,Midlothian,109.95,142.88,95.25,120.2,358.34,Single-ply,SBD,M
Boys,124.74,1,Ivan Garciduenas,Burleson Centennial,122.38,229.06,136.08,222.26,587.4,Single-ply,SBD,M
Boys,124.74,2,J. Davis #28,Cedar Hill,121.83,210.92,151.95,206.38,569.26,Single-ply,SBD,M
Boys,124.74+,3,Reggie Williams,Burleson Centennial,124.83,224.53,111.13,222.26,557.92,Single-ply,SBD,M
Boys,124.74,4,Darius Thompson,Cedar Hill,120.2,249.48,111.13,192.78,553.38,Single-ply,SBD,M
Boys,124.74,5,Marvin Bookman,Cedar Hill,114.94,204.12,120.2,195.04,519.36,Single-ply,SBD,M
Boys,124.74,6,Sammie Overton,Waxahachie,113.49,190.51,108.86,213.19,512.56,Single-ply,SBD,M
Boys,124.74,7,Jimmy Thomas,Alvarado,120.2,181.44,104.33,183.7,469.47,Single-ply,SBD,M
Boys,124.74,8,Michael Sottilotto,Kennedale,122.47,179.17,104.33,167.83,451.32,Single-ply,SBD,M
Boys,124.74,9,Julio Martinez,Castleberry,119.11,170.1,90.72,172.37,433.18,Single-ply,SBD,M
Boys,124.74,10,Terik Rabb,Kennedale,119.66,158.76,95.25,161.03,415.04,Single-ply,SBD,M
Boys,124.74,11,Cyle Johnson #2,Alvarado,115.21,158.76,81.65,136.08,376.48,Single-ply,SBD,M
Boys,124.74,12,Dylan Lemons,Alvarado,117.66,136.08,95.25,142.88,374.21,Single-ply,SBD,M
Boys,124.74,13,Brandon North,Midlothian,116.57,117.93,92.99,142.88,353.8,Single-ply,SBD,M
Boys,124.74,14,Brandon Cross,Alvarado,124.74,127.01,92.99,124.74,344.73,Single-ply,SBD,M
Boys,124.74,15,Bryce Johnson #1,Alvarado,118.75,102.06,90.72,145.15,337.93,Single-ply,SBD,M
Boys,124.74+,1,Aderius Epps,Cedar Hill,145.15,272.16,165.56,249.48,687.19,Single-ply,SBD,M
Boys,124.74+,2,Nate Brown,Kennedale,135.35,267.62,142.88,247.21,657.71,Single-ply,SBD,M
Boys,124.74+,3,Eduardo Cassio,Cleburne,135.44,226.8,133.81,185.97,546.58,Single-ply,SBD,M
Boys,124.74+,4,Anthony Zapata,Everman,126.55,204.12,106.59,215.46,526.17,Single-ply,SBD,M
Boys,124.74+,5,Joey Stephens,Everman,133.36,165.56,77.11,138.35,381.02,Single-ply,SBD,M
Boys,,NS,Trey McGahan,Kennedale,,,,,,Single-ply,SBD,M
