Place,Name,BirthYear,Team,BodyweightKg,Bench1Kg,Bench2Kg,Bench3Kg,Best3BenchKg,Event,TotalKg,WeightClassKg,Equipment,Sex,BirthDate,Division
1,Molnár Bendegúz,2009,ÚjtitTGyul,52.9,70.0,-75.0,-75.0,70.0,B,70.0,53,Raw,M,,Juniors
2,Sárdi Márk,2009,SziliSztI,51.64,-65.0,65.0,-70.0,65.0,B,65.0,53,Raw,M,,Juniors
3,Tóth Vajk Nimród,2009,EötvJKat,49.7,55.0,57.5,62.5,62.5,B,62.5,53,Raw,M,,Juniors
4,Papp Csanád Kornél,2009,TújvSzéch,49.3,-55.0,-55.0,55.0,55.0,B,55.0,53,Raw,M,,Juniors
5,Kótai Krisztián Rikárdó,2009,EncsZrínyi,49.04,50.0,-52.5,52.5,52.5,B,52.5,53,Raw,M,,Juniors
6,Kovács Zsolt,2009,BalasDózsa,50.76,35.0,45.0,52.5,52.5,B,52.5,53,Raw,M,,Juniors
7,Cseri Ákos,2010,BalasDózsa,52.54,35.0,47.5,52.5,52.5,B,52.5,53,Raw,M,,Juniors
8,Kiss Milán,2010,GönczyPál,51.98,45.0,50.0,-52.5,50.0,B,50.0,53,Raw,M,,Juniors
9,Pallai Péter Dávid,2009,NémethLGim,51.98,47.5,50.0,-55.0,50.0,B,50.0,53,Raw,M,,Juniors
10,Simon József,2009,SzabóPVész,52.14,45.0,50.0,-55.0,50.0,B,50.0,53,Raw,M,,Juniors
11,Balog Dávid,2009,KerecsMagy,45.2,-45.0,-45.0,45.0,45.0,B,45.0,53,Raw,M,,Juniors
12,Szilágyi Máté,2010,IstvánKir,49.7,32.5,35.0,37.5,37.5,B,37.5,53,Raw,M,,Juniors
13,Mátyás Hunor,2010,GyulaiImpl,42.84,30.0,35.0,-40.0,35.0,B,35.0,53,Raw,M,,Juniors
14,Döge Ákos,2010,GyulaiImpl,40.22,30.0,32.5,-35.0,32.5,B,32.5,53,Raw,M,,Juniors
15,Nagy Maximilián,2010,IstvánKir,48.34,30.0,32.5,-35.0,32.5,B,32.5,53,Raw,M,,Juniors
16,Tóth Zsombor,2010,LakyIlonka,37.2,25.0,30.0,-35.0,30.0,B,30.0,53,Raw,M,,Juniors
1,Ferku Donát,2009,SomogyiRez,53.88,85.0,90.0,95.0,95.0,B,95.0,59,Raw,M,,Juniors
2,Mida Sándor Ferenc,2009,DeákTechn,57.32,-70.0,-70.0,70.0,70.0,B,70.0,59,Raw,M,,Juniors
3,Homoki Bence Dávid,2009,EötvJKat,56.04,62.5,67.5,-72.5,67.5,B,67.5,59,Raw,M,,Juniors
4,Fényes Krisztofer,2009,EncsZrínyi,58.26,-67.5,67.5,-72.5,67.5,B,67.5,59,Raw,M,,Juniors
5,Danó Gergő,2009,KerecsMagy,54.28,-65.0,65.0,-70.0,65.0,B,65.0,59,Raw,M,,Juniors
6,Lukács Rafael,2009,Olaszliszk,53.06,62.5,-65.0,-65.0,62.5,B,62.5,59,Raw,M,,Juniors
7,Ódor Barnabás,2009,BalasDózsa,53.92,50.0,62.5,-67.5,62.5,B,62.5,59,Raw,M,,Juniors
8,Komár Dominik Zsombor,2010,IstvánKir,55.0,-60.0,60.0,62.5,62.5,B,62.5,59,Raw,M,,Juniors
9,Gulyás László,2010,SulyokIstv,58.7,62.5,-67.5,-67.5,62.5,B,62.5,59,Raw,M,,Juniors
10,Fehér Milán Rajmond,2009,KerecsMagy,57.84,-55.0,55.0,-57.5,55.0,B,55.0,59,Raw,M,,Juniors
11,Gulyás Áron Mihály,2009,EncsZrínyi,56.86,-50.0,50.0,-52.5,50.0,B,50.0,59,Raw,M,,Juniors
12,Kozák Bálint,2010,GyulaiImpl,55.68,35.0,37.5,40.0,40.0,B,40.0,59,Raw,M,,Juniors
DQ,Szarka Gergő Roland,2009,Olaszliszk,54.26,-62.5,-62.5,-65.0,,B,,59,Raw,M,,Juniors
1,Krafcsik Kristóf,2009,Mechwart,62.7,60.0,80.0,-90.0,80.0,B,80.0,66,Raw,M,,Juniors
2,Müller Milán,2009,HermannOtt,63.2,70.0,75.0,80.0,80.0,B,80.0,66,Raw,M,,Juniors
3,Ádám Dávid,2009,Homoktövis,60.0,70.0,72.5,77.5,77.5,B,77.5,66,Raw,M,,Juniors
4,Vass Milán,2009,KesztAsb,64.4,60.0,65.0,70.0,70.0,B,70.0,66,Raw,M,,Juniors
5,Böröczki Olivér,2009,Jendrassik,62.5,62.5,65.0,67.5,67.5,B,67.5,66,Raw,M,,Juniors
6,Szitár László Bálint,2009,IstvánKir,64.5,65.0,67.5,-70.0,67.5,B,67.5,66,Raw,M,,Juniors
7,Szajkó Krisztofer Adrián,2009,EncsZrínyi,63.1,60.0,62.5,65.0,65.0,B,65.0,66,Raw,M,,Juniors
8,Árvai Péter,2009,BolyaiKecs,64.5,65.0,-67.5,-67.5,65.0,B,65.0,66,Raw,M,,Juniors
9,Hosek Botond,2009,ThökölyImr,63.8,57.5,60.0,62.5,62.5,B,62.5,66,Raw,M,,Juniors
10,Kenyeres Donát,2009,BalasDózsa,59.9,50.0,60.0,-65.0,60.0,B,60.0,66,Raw,M,,Juniors
11,Sütő Gábor Teó,2009,Nagyboldog,61.5,45.0,55.0,60.0,60.0,B,60.0,66,Raw,M,,Juniors
12,Tyukodi Balázs Béla,2010,KerecsMagy,60.5,57.5,-60.0,-60.0,57.5,B,57.5,66,Raw,M,,Juniors
13,Varga Norbert,2009,BesseKisv,64.1,30.0,50.0,57.5,57.5,B,57.5,66,Raw,M,,Juniors
14,Titusz Lombosi,2009,TürrIstván,63.4,47.5,52.5,55.0,55.0,B,55.0,66,Raw,M,,Juniors
15,Kurkó Balázs,2010,GyulaiImpl,64.1,40.0,45.0,50.0,50.0,B,50.0,66,Raw,M,,Juniors
16,Kovács László,2009,SzabóPVész,62.5,45.0,47.5,-50.0,47.5,B,47.5,66,Raw,M,,Juniors
17,Pehi Tamás,2010,IstvánKir,63.8,40.0,42.5,-45.0,42.5,B,42.5,66,Raw,M,,Juniors
18,Kazai Ádám,2009,SzabóPVész,62.2,32.5,35.0,40.0,40.0,B,40.0,66,Raw,M,,Juniors
19,Czifra Milán,2009,BesseKisv,59.7,30.0,32.5,35.0,35.0,B,35.0,66,Raw,M,,Juniors
1,Puporka István,2009,KerecsMagy,72.26,-82.5,82.5,85.0,85.0,B,85.0,74,Raw,M,,Juniors
2,Terjék Tomaj,2009,HermannOtt,67.58,-72.5,75.0,80.0,80.0,B,80.0,74,Raw,M,,Juniors
3,Török Barnabás,2009,MohácsTérs,72.7,75.0,80.0,-85.0,80.0,B,80.0,74,Raw,M,,Juniors
4,Ludman Lóránd,2009,KövySándor,71.3,-72.5,-72.5,72.5,72.5,B,72.5,74,Raw,M,,Juniors
5,Simon Péter Ivó,2009,SzabóPVész,69.86,65.0,70.0,-72.5,70.0,B,70.0,74,Raw,M,,Juniors
6,Balázs Levente,2009,BalasDózsa,67.36,55.0,62.5,65.0,65.0,B,65.0,74,Raw,M,,Juniors
7,Kocsis Kristóf Tamás,2009,ZegKölcsey,69.48,-60.0,60.0,-67.5,60.0,B,60.0,74,Raw,M,,Juniors
8,Gulyás Iván Gusztáv,2009,EncsZrínyi,66.18,55.0,57.5,-62.5,57.5,B,57.5,74,Raw,M,,Juniors
9,Milecz-Mitykó Dávid,2009,GyulaiImpl,66.78,45.0,50.0,52.5,52.5,B,52.5,74,Raw,M,,Juniors
10,Oszadszky Patrik,2009,EötvJKat,67.54,50.0,-55.0,-55.0,50.0,B,50.0,74,Raw,M,,Juniors
11,Simon Ádám Zalán,2009,BesseKisv,67.68,30.0,40.0,50.0,50.0,B,50.0,74,Raw,M,,Juniors
12,Balogh Szebásztián Dorián,2009,IstvánKir,68.88,37.5,40.0,42.5,42.5,B,42.5,74,Raw,M,,Juniors
13,Árgyelán Tamás Péter,2010,GyulaiImpl,72.8,-40.0,-40.0,40.0,40.0,B,40.0,74,Raw,M,,Juniors
1,Kardos Donát Bálint,2009,BattLajGim,77.3,110.0,-115.0,-115.0,110.0,B,110.0,83,Raw,M,,Juniors
2,Gnándt Armand,2009,TrefortBCS,80.6,92.5,97.5,100.0,100.0,B,100.0,83,Raw,M,,Juniors
3,Uram Kristóf,2009,BalasDózsa,76.9,70.0,82.5,90.0,90.0,B,90.0,83,Raw,M,,Juniors
4,Nagy Attila,2009,SulyokIstv,81.0,85.0,-90.0,90.0,90.0,B,90.0,83,Raw,M,,Juniors
5,Nagy Roland,2009,BáthoryZeg,82.8,80.0,85.0,90.0,90.0,B,90.0,83,Raw,M,,Juniors
6,László Bence,2009,NémethLGim,82.9,77.5,80.0,85.0,85.0,B,85.0,83,Raw,M,,Juniors
7,Hopp Csongor Huba,2009,NoszlKapos,76.0,65.0,70.0,75.0,75.0,B,75.0,83,Raw,M,,Juniors
8,Puporka Erik,2010,KerecsMagy,80.6,67.5,70.0,-72.5,70.0,B,70.0,83,Raw,M,,Juniors
9,Nagy Nándor József,2009,IstvánKir,81.5,65.0,67.5,70.0,70.0,B,70.0,83,Raw,M,,Juniors
10,Csóka Efraim Izsák,2009,EncsZrínyi,79.1,57.5,60.0,62.5,62.5,B,62.5,83,Raw,M,,Juniors
11,Mészáros Barnabás Noé,2010,EncsZrínyi,76.4,57.5,60.0,-62.5,60.0,B,60.0,83,Raw,M,,Juniors
12,Pardi Csombor,2009,SzabóPVész,82.1,50.0,55.0,60.0,60.0,B,60.0,83,Raw,M,,Juniors
13,Brandt Máté,2009,GyulaiImpl,77.5,50.0,55.0,57.5,57.5,B,57.5,83,Raw,M,,Juniors
14,Hajdu Tamás,2009,BesseKisv,78.5,30.0,50.0,57.5,57.5,B,57.5,83,Raw,M,,Juniors
15,Perei Szabolcs,2009,GyulaiImpl,81.0,52.5,57.5,-60.0,57.5,B,57.5,83,Raw,M,,Juniors
16,Lengyel Bálint,2010,BolykiTam,80.5,35.0,40.0,45.0,45.0,B,45.0,83,Raw,M,,Juniors
17,Szép Gergő Sámuel,2010,GyulaiImpl,82.2,30.0,-32.5,32.5,32.5,B,32.5,83,Raw,M,,Juniors
1,Szijj Gergő,2009,SziliSztI,83.4,-100.0,100.0,102.5,102.5,B,102.5,93,Raw,M,,Juniors
2,Király Noel,2009,KartaliKön,89.7,95.0,97.5,100.0,100.0,B,100.0,93,Raw,M,,Juniors
3,Tasi Timót,2010,BSztGyDobó,92.1,-60.0,90.0,-105.0,90.0,B,90.0,93,Raw,M,,Juniors
4,Balogh Flórián,2009,SziliSztI,88.5,75.0,-77.5,-77.5,75.0,B,75.0,93,Raw,M,,Juniors
5,Tóth Benedek,2009,Nagyboldog,84.8,70.0,-77.5,-77.5,70.0,B,70.0,93,Raw,M,,Juniors
6,Andrei János György,2010,Olaszliszk,85.4,62.5,65.0,67.5,67.5,B,67.5,93,Raw,M,,Juniors
7,Kiss Zsombor,2009,EncsZrínyi,89.0,-45.0,45.0,47.5,47.5,B,47.5,93,Raw,M,,Juniors
1,Mura Dávid,2009,TújvSzéch,96.68,-100.0,100.0,110.0,110.0,B,110.0,105,Raw,M,,Juniors
2,Szilágyi Botond,2009,TatabÁrpád,101.32,90.0,100.0,110.0,110.0,B,110.0,105,Raw,M,,Juniors
3,Somodi József Kevin,2009,BesseKisv,95.54,-90.0,90.0,100.0,100.0,B,100.0,105,Raw,M,,Juniors
4,Nagy Krisztofer Sámuel,2009,KerecsMagy,103.06,97.5,-100.0,100.0,100.0,B,100.0,105,Raw,M,,Juniors
5,Nagy Erik,2010,HajdBárdos,95.54,75.0,80.0,85.0,85.0,B,85.0,105,Raw,M,,Juniors
6,Szabady Ádám,2009,DeákTechn,95.58,50.0,52.5,-55.0,52.5,B,52.5,105,Raw,M,,Juniors
7,Dankó Endre,2010,GyulaiImpl,99.98,42.5,47.5,50.0,50.0,B,50.0,105,Raw,M,,Juniors
8,Kántor Koppány János,2009,BesseKisv,97.76,-30.0,40.0,45.0,45.0,B,45.0,105,Raw,M,,Juniors
9,Plébán Attila,2010,MakovCseng,102.54,40.0,42.5,45.0,45.0,B,45.0,105,Raw,M,,Juniors
1,Csőke Gábor,2009,Jendrassik,112.4,67.5,72.5,75.0,75.0,B,75.0,120,Raw,M,,Juniors
2,Sebők Péter,2009,Jendrassik,105.5,50.0,55.0,60.0,60.0,B,60.0,120,Raw,M,,Juniors
3,Jakocska Bence,2009,IstvánKir,107.5,55.0,57.5,60.0,60.0,B,60.0,120,Raw,M,,Juniors
1,Bokros Dominik,2009,EötvJKat,121.48,85.0,90.0,-100.0,90.0,B,90.0,120+,Raw,M,,Juniors
1,Csiki Krisztián,2007,KandóTechn,51.4,70.0,75.0,77.5,77.5,B,77.5,53,Raw,M,,Juniors
2,Szabó Szilveszter,2008,BedőErdész,52.7,57.5,60.0,-65.0,60.0,B,60.0,53,Raw,M,,Juniors
3,Pásztor Milán Ádám,2008,TáncsicsOh,50.3,-52.5,55.0,57.5,57.5,B,57.5,53,Raw,M,,Juniors
DQ,Kádas Dániel,2007,EötvösGimn,50.5,-55.0,-57.5,-57.5,,B,,53,Raw,M,,Juniors
DQ,Gyenes Máté,2007,FöldesGimn,52.7,-65.0,-65.0,-65.0,,B,,53,Raw,M,,Juniors
1,Homonnai Péter,2007,Lorántffy,57.3,80.0,82.5,85.0,85.0,B,85.0,59,Raw,M,,Juniors
2,Sánta Benjámin Áron,2008,BajaiIIIBé,56.1,70.0,75.0,80.0,80.0,B,80.0,59,Raw,M,,Juniors
3,Petróczki Botond,2007,TáncsicsOh,57.8,75.0,-80.0,80.0,80.0,B,80.0,59,Raw,M,,Juniors
4,Pózer Aurél,2008,NyírEvang,56.2,70.0,-75.0,75.0,75.0,B,75.0,59,Raw,M,,Juniors
5,Jónás Dániel,2007,CsihaGyőző,54.8,57.5,60.0,-65.0,60.0,B,60.0,59,Raw,M,,Juniors
6,Farkas Máté,2008,HonvMin,56.0,60.0,-62.5,-62.5,60.0,B,60.0,59,Raw,M,,Juniors
7,Komáromi Richárd,2008,NeumannTec,56.3,-50.0,60.0,-65.0,60.0,B,60.0,59,Raw,M,,Juniors
1,Oravecz Márton,2007,EgriFőegyh,63.4,87.5,95.0,97.5,97.5,B,97.5,66,Raw,M,,Juniors
2,Kertész Krisztián,2008,BesseKisv,59.2,85.0,90.0,95.0,95.0,B,95.0,66,Raw,M,,Juniors
3,Svajda Szabolcs,2007,GépipInfo,62.0,87.5,90.0,-95.0,90.0,B,90.0,66,Raw,M,,Juniors
4,Bernát Marcell,2007,BedőErdész,59.2,77.5,82.5,85.0,85.0,B,85.0,66,Raw,M,,Juniors
5,Virág Kázmér,2008,HonvMin,62.5,82.5,85.0,-87.5,85.0,B,85.0,66,Raw,M,,Juniors
7,Molnár Szabolcs,2008,NeumannTec,65.4,75.0,85.0,-87.5,85.0,B,85.0,66,Raw,M,,Juniors
6,Boldizsár Krisztián János,2008,TáncsicsOh,65.4,75.0,80.0,85.0,85.0,B,85.0,66,Raw,M,,Juniors
8,Farkas Milán Viktor,2007,BarossSzol,62.1,77.5,80.0,82.5,82.5,B,82.5,66,Raw,M,,Juniors
9,Schmidt Martin,2008,SztLászAMK,61.6,-70.0,70.0,80.0,80.0,B,80.0,66,Raw,M,,Juniors
11,Mayer Martin,2007,SztIstvBp,64.5,80.0,-85.0,-85.0,80.0,B,80.0,66,Raw,M,,Juniors
10,Fodor Zétény,2007,SzsztmBatt,64.5,75.0,80.0,-82.5,80.0,B,80.0,66,Raw,M,,Juniors
12,Barta Róbert Gergő,2008,NeumannTec,61.9,75.0,77.5,-87.5,77.5,B,77.5,66,Raw,M,,Juniors
13,Szabó Dániel,2007,PéterAndr,64.2,-77.5,77.5,-85.0,77.5,B,77.5,66,Raw,M,,Juniors
14,Kovács-Bíró Kristóf,2008,IstvánKir,65.6,75.0,77.5,-80.0,77.5,B,77.5,66,Raw,M,,Juniors
15,Somodi Zétény,2008,KecsKatona,65.7,72.5,77.5,-80.0,77.5,B,77.5,66,Raw,M,,Juniors
16,Szedleczki Szabolcs,2008,CsihaGyőző,62.2,70.0,-72.5,75.0,75.0,B,75.0,66,Raw,M,,Juniors
17,Berencsi Gábor,2008,CsihaGyőző,63.8,67.5,70.0,72.5,72.5,B,72.5,66,Raw,M,,Juniors
18,Kovács Mór,2008,BolyaiKecs,61.7,-55.0,55.0,60.0,60.0,B,60.0,66,Raw,M,,Juniors
19,Obert Ferenc Márk,2008,BedőErdész,61.7,50.0,55.0,60.0,60.0,B,60.0,66,Raw,M,,Juniors
20,Nagy Áron,2007,VerebélyLá,64.2,-60.0,-60.0,60.0,60.0,B,60.0,66,Raw,M,,Juniors
21,Dobai Milán,2007,SzentGyAjk,62.2,45.0,50.0,55.0,55.0,B,55.0,66,Raw,M,,Juniors
1,Lakatos Ágoston,2007,SztIIJánp,72.4,107.5,112.5,117.5,117.5,B,117.5,74,Raw,M,,Juniors
2,Tóth Imre,2007,PéterAndr,70.95,102.5,107.5,-110.0,107.5,B,107.5,74,Raw,M,,Juniors
3,Tóth Levente,2007,KatonaKecs,68.0,-100.0,105.0,-110.0,105.0,B,105.0,74,Raw,M,,Juniors
4,Ruzsa Máté György,2007,NicBalcesc,71.95,100.0,105.0,-110.0,105.0,B,105.0,74,Raw,M,,Juniors
5,Csajka János Ferenc,2007,IstvánKir,70.1,97.5,100.0,-102.5,100.0,B,100.0,74,Raw,M,,Juniors
6,Peresztegi Viktor Zsolt,2007,NoszlKapos,72.0,100.0,-110.0,-110.0,100.0,B,100.0,74,Raw,M,,Juniors
7,Dóczi András,2007,Nagyboldog,67.1,80.0,90.0,95.0,95.0,B,95.0,74,Raw,M,,Juniors
8,Pázmándi Vilmos,2007,BenkőRef,72.4,90.0,-95.0,95.0,95.0,B,95.0,74,Raw,M,,Juniors
9,Balabás Bence,2007,FöldesGimn,72.5,92.5,95.0,-100.0,95.0,B,95.0,74,Raw,M,,Juniors
10,Göndör Lajos András,2008,TatabÁrpád,72.6,95.0,-100.0,-100.0,95.0,B,95.0,74,Raw,M,,Juniors
11,Somogyi Dávid Balázs,2007,KeszthelyK,66.2,80.0,85.0,90.0,90.0,B,90.0,74,Raw,M,,Juniors
12,Füredi Richárd János,2007,AjkaiBródy,66.35,80.0,85.0,90.0,90.0,B,90.0,74,Raw,M,,Juniors
13,Dombai Dávid,2007,AvasiGimn,68.3,80.0,-85.0,87.5,87.5,B,87.5,74,Raw,M,,Juniors
14,Vizi Bence Róbert,2007,SztLászAMK,71.6,-85.0,-87.5,87.5,87.5,B,87.5,74,Raw,M,,Juniors
15,Csarni Gábor,2007,KósTechnik,70.55,80.0,85.0,-87.5,85.0,B,85.0,74,Raw,M,,Juniors
16,Forrás Balázs,2007,PéterAndr,73.4,82.5,85.0,-90.0,85.0,B,85.0,74,Raw,M,,Juniors
17,Savanyu János Bence,2007,SzentGyAjk,73.5,77.5,85.0,-87.5,85.0,B,85.0,74,Raw,M,,Juniors
18,Vas Ákos Imre,2008,HonvMin,71.5,82.5,-87.5,-87.5,82.5,B,82.5,74,Raw,M,,Juniors
19,Kis Dániel,2008,KatonaKecs,69.6,75.0,77.5,80.0,80.0,B,80.0,74,Raw,M,,Juniors
20,Bartal Zétény István,2007,VetésiGimn,69.7,80.0,-100.0,-100.0,80.0,B,80.0,74,Raw,M,,Juniors
21,Farkas Aser Krisztián,2007,CsengerAdy,73.9,80.0,-85.0,-85.0,80.0,B,80.0,74,Raw,M,,Juniors
22,Mező Dávid,2008,CsihaGyőző,67.9,72.5,75.0,77.5,77.5,B,77.5,74,Raw,M,,Juniors
23,Kárász Zalán,2007,HonvMin,72.7,77.5,-80.0,-80.0,77.5,B,77.5,74,Raw,M,,Juniors
24,Giener Meliton,2008,Nagyboldog,69.4,70.0,-72.5,75.0,75.0,B,75.0,74,Raw,M,,Juniors
25,Zsók Botond,2007,HonvMin,72.05,75.0,-77.5,-77.5,75.0,B,75.0,74,Raw,M,,Juniors
26,Józsa Zalán Ármin,2008,SzentGyAjk,67.3,55.0,60.0,65.0,65.0,B,65.0,74,Raw,M,,Juniors
27,Lakatos Márk,2008,GyulaiImpl,70.4,45.0,50.0,55.0,55.0,B,55.0,74,Raw,M,,Juniors
DQ,Csáki Szabolcs,2008,NémethLGim,66.2,-65.0,-65.0,-65.0,,B,,74,Raw,M,,Juniors
DQ,Kovács Zsolt,2008,CsihaGyőző,70.5,-70.0,-70.0,-77.5,,B,,74,Raw,M,,Juniors
DQ,Fraller Marcell,2008,KesztAsb,72.4,-60.0,-65.0,-65.0,,B,,74,Raw,M,,Juniors
DQ,Takó Boldizsár Felix,2007,GépipInfo,72.7,-90.0,-90.0,-90.0,,B,,74,Raw,M,,Juniors
DQ,Ravasz Tibor Bendegúz,2007,DunaújDuna,73.9,-120.0,-120.0,-120.0,,B,,74,Raw,M,,Juniors
1,Aleva Gergő,2007,KossuthZsT,76.6,135.0,142.5,147.5,147.5,B,147.5,83,Raw,M,,Juniors
2,Wanous Nabil,2008,Balassi8év,81.48,-127.5,132.5,137.5,137.5,B,137.5,83,Raw,M,,Juniors
3,Dudás Benedek,2008,SzsztmBatt,80.98,120.0,125.0,130.0,130.0,B,130.0,83,Raw,M,,Juniors
4,Nyilas Tamás,2007,DeákTechn,79.72,117.5,120.0,122.5,122.5,B,122.5,83,Raw,M,,Juniors
5,Molnár Zsolt,2008,TrefortBCS,81.4,115.0,122.5,-127.5,122.5,B,122.5,83,Raw,M,,Juniors
6,Sziládi Boldizsár,2007,SzegedRadn,78.44,105.0,110.0,115.0,115.0,B,115.0,83,Raw,M,,Juniors
7,Skobrák István,2007,Lorántffy,77.56,-107.5,-107.5,107.5,107.5,B,107.5,83,Raw,M,,Juniors
8,Gyurmánczi Milán,2007,TatabÁrpád,80.96,105.0,107.5,-110.0,107.5,B,107.5,83,Raw,M,,Juniors
9,Lunka Máté Attila,2008,NicBalcesc,76.2,95.0,100.0,105.0,105.0,B,105.0,83,Raw,M,,Juniors
10,Mukri Martin Róbert,2007,EgriFőegyh,78.02,-105.0,105.0,-115.0,105.0,B,105.0,83,Raw,M,,Juniors
11,Bodrogai Márton,2007,EötvösGimn,80.18,80.0,105.0,-112.5,105.0,B,105.0,83,Raw,M,,Juniors
12,Fenyvesi Benedek,2007,Jendrassik,78.2,-102.5,102.5,-105.0,102.5,B,102.5,83,Raw,M,,Juniors
13,Birincsik Tamás József,2008,NeumannTec,81.46,90.0,100.0,-102.5,100.0,B,100.0,83,Raw,M,,Juniors
14,Sándor Zsombor,2008,KatonaKecs,79.7,95.0,-100.0,-100.0,95.0,B,95.0,83,Raw,M,,Juniors
15,Kerekes Zsombor Márk,2008,MunkácsyKp,80.32,-90.0,95.0,-100.0,95.0,B,95.0,83,Raw,M,,Juniors
16,Ozsváth Péter,2007,BláthyMisk,80.6,90.0,95.0,-97.5,95.0,B,95.0,83,Raw,M,,Juniors
17,Mátyás Dávid,2007,CsíkFerenc,81.14,90.0,95.0,-100.0,95.0,B,95.0,83,Raw,M,,Juniors
18,Páll Dávid,2007,EszeTamásM,81.14,-95.0,95.0,-105.0,95.0,B,95.0,83,Raw,M,,Juniors
19,Aracsi Milán,2008,TáncsicsOh,78.6,-85.0,85.0,92.5,92.5,B,92.5,83,Raw,M,,Juniors
20,Till Máté,2008,BarossSzol,76.72,87.5,90.0,-92.5,90.0,B,90.0,83,Raw,M,,Juniors
21,Kastélyi Roland,2007,Gourmand,76.04,82.5,87.5,-92.5,87.5,B,87.5,83,Raw,M,,Juniors
22,Balogh Bence,2008,AndrássyMi,77.8,-80.0,85.0,-90.0,85.0,B,85.0,83,Raw,M,,Juniors
23,Varga Zoltán Bátor,2008,BolyaiKecs,82.86,-85.0,-85.0,85.0,85.0,B,85.0,83,Raw,M,,Juniors
24,Antalicz Botond,2008,SzentGyBgy,76.56,-80.0,80.0,-82.5,80.0,B,80.0,83,Raw,M,,Juniors
25,Afangide Uwem Jonah,2008,Nagyboldog,74.4,65.0,70.0,77.5,77.5,B,77.5,83,Raw,M,,Juniors
26,Szabó Dávid,2008,SzéchTechn,80.54,70.0,75.0,77.5,77.5,B,77.5,83,Raw,M,,Juniors
27,Soltész Zoltán,2008,KandóMisk,78.72,60.0,65.0,70.0,70.0,B,70.0,83,Raw,M,,Juniors
DQ,Hajdu Zsombor,2007,LévayRef,77.38,-95.0,-100.0,-100.0,,B,,83,Raw,M,,Juniors
1,Tornyos Marcell,2007,RáckeveAdy,90.2,140.0,145.0,150.0,150.0,B,150.0,93,Raw,M,,Juniors
2,Gál Dávid,2007,SzegDeák,91.4,125.0,132.5,142.5,142.5,B,142.5,93,Raw,M,,Juniors
3,Ivánfai Koppány Tamás,2007,TóthÁrpád,84.9,130.0,135.0,-140.0,135.0,B,135.0,93,Raw,M,,Juniors
4,Henczi Marcell,2007,BáthoryZeg,90.6,112.5,120.0,125.0,125.0,B,125.0,93,Raw,M,,Juniors
5,Tóth Milán,2007,EgriFőegyh,89.4,115.0,122.5,-130.0,122.5,B,122.5,93,Raw,M,,Juniors
6,Király Nándor,2007,TóthÁrpád,85.6,100.0,110.0,117.5,117.5,B,117.5,93,Raw,M,,Juniors
7,Maurer Bazsó Dávid,2008,PápaiRefko,86.8,-115.0,115.0,-117.5,115.0,B,115.0,93,Raw,M,,Juniors
8,Kohári Kartal László,2007,Jendrassik,89.9,110.0,-115.0,-115.0,110.0,B,110.0,93,Raw,M,,Juniors
9,Vendégh Mátyás László,2008,EötvösGimn,84.1,80.0,-105.0,107.5,107.5,B,107.5,93,Raw,M,,Juniors
10,Berecz Zsolt Róbert,2007,CorvinMáty,91.7,97.5,102.5,105.0,105.0,B,105.0,93,Raw,M,,Juniors
11,Igonda Zétény,2007,BolyaiKecs,83.6,90.0,100.0,-107.5,100.0,B,100.0,93,Raw,M,,Juniors
12,Pásztor Jonatán Áron,2008,HorváthMih,87.0,90.0,95.0,97.5,97.5,B,97.5,93,Raw,M,,Juniors
13,Pál Dániel,2008,CsihaGyőző,90.4,-92.5,95.0,97.5,97.5,B,97.5,93,Raw,M,,Juniors
14,Kaliba Bertalan,2008,BethlenIKö,91.4,90.0,97.5,-102.5,97.5,B,97.5,93,Raw,M,,Juniors
15,Brezsnyák Botond,2007,BláthyMisk,91.0,-90.0,90.0,95.0,95.0,B,95.0,93,Raw,M,,Juniors
16,Kovács Valter,2007,NoszlKapos,89.5,90.0,-95.0,-100.0,90.0,B,90.0,93,Raw,M,,Juniors
17,Gál Máté Levente,2008,KesztAsb,83.5,80.0,85.0,87.5,87.5,B,87.5,93,Raw,M,,Juniors
18,Egyed Botond,2008,SportKrea,83.3,80.0,-95.0,-95.0,80.0,B,80.0,93,Raw,M,,Juniors
19,Ludvig Lázár,2008,CisztSztIs,92.8,-75.0,75.0,-80.0,75.0,B,75.0,93,Raw,M,,Juniors
20,Holéczy Ödön,2008,VetésiGimn,87.7,60.0,65.0,70.0,70.0,B,70.0,93,Raw,M,,Juniors
21,Takács Botond Előd,2008,Nagyboldog,88.9,55.0,60.0,-62.5,60.0,B,60.0,93,Raw,M,,Juniors
DQ,Alföldi Kristóf Attila,2007,CisztSztIs,90.7,-95.0,-95.0,-95.0,,B,,93,Raw,M,,Juniors
1,Kállai Dániel Bendegúz,2007,Egyházmegy,102.0,120.0,130.0,137.5,137.5,B,137.5,105,Raw,M,,Juniors
2,Kovács Bence Róbert,2008,AndrássyMi,101.5,-125.0,125.0,130.0,130.0,B,130.0,105,Raw,M,,Juniors
3,Egyed Barnabás,2007,GépipInfo,100.9,100.0,110.0,-120.0,110.0,B,110.0,105,Raw,M,,Juniors
4,Holp Henrik Attila,2007,BarossSzol,93.1,97.5,100.0,-102.5,100.0,B,100.0,105,Raw,M,,Juniors
5,Rácz Ábel,2008,TáncsicsOh,94.6,-95.0,95.0,-105.0,95.0,B,95.0,105,Raw,M,,Juniors
6,Nagy Kornél,2007,NeumannTec,99.6,90.0,-92.5,-97.5,90.0,B,90.0,105,Raw,M,,Juniors
7,Kiss Tas,2007,SzentGyAjk,100.1,75.0,77.5,80.0,80.0,B,80.0,105,Raw,M,,Juniors
8,Nagy Márió Imre,2008,SzabóPVész,100.5,70.0,75.0,80.0,80.0,B,80.0,105,Raw,M,,Juniors
9,Kertész Dániel Gergő,2007,SzentGyAjk,93.6,70.0,-75.0,75.0,75.0,B,75.0,105,Raw,M,,Juniors
1,Mézner Péter Károly,2008,HajdBárdos,109.5,-115.0,115.0,-117.5,115.0,B,115.0,120,Raw,M,,Juniors
2,Bozsányi Rafael Pál,2008,TrefortBCS,105.4,-100.0,105.0,112.5,112.5,B,112.5,120,Raw,M,,Juniors
3,Csizmadia Bence Viktor,2007,Jendrassik,107.92,105.0,110.0,112.5,112.5,B,112.5,120,Raw,M,,Juniors
4,Héra Gergely,2008,MunkácsyKp,105.16,90.0,100.0,-105.0,100.0,B,100.0,120,Raw,M,,Juniors
5,Oláh Barnabás,2008,Jendrassik,115.58,90.0,95.0,100.0,100.0,B,100.0,120,Raw,M,,Juniors
6,Szalai Patrik Máté,2007,GépipInfo,113.02,-90.0,-90.0,92.5,92.5,B,92.5,120,Raw,M,,Juniors
7,Virga Bálint,2008,BesseKisv,108.68,85.0,-87.5,-95.0,85.0,B,85.0,120,Raw,M,,Juniors
8,Mihályi Márk János,2007,BarossSzol,108.54,-77.5,77.5,82.5,82.5,B,82.5,120,Raw,M,,Juniors
1,Kiss Gábor,2007,VásárhPTec,146.5,100.0,107.5,115.0,115.0,B,115.0,120+,Raw,M,,Juniors
2,Szilágyi Ármin István,2008,PetőTechn,128.5,90.0,95.0,-100.0,95.0,B,95.0,120+,Raw,M,,Juniors
3,Kőszegi Erik Gábor,2007,BarossSzol,128.35,87.5,90.0,-92.5,90.0,B,90.0,120+,Raw,M,,Juniors
4,Magyar Bence,2007,BerKözTech,130.75,80.0,85.0,-90.0,85.0,B,85.0,120+,Raw,M,,Juniors
5,Kátai Lajos Róbert,2008,BarossSzol,136.1,75.0,80.0,-82.5,80.0,B,80.0,120+,Raw,M,,Juniors
6,Péter Zsombor,2008,DeákTechn,120.6,-45.0,45.0,47.5,47.5,B,47.5,120+,Raw,M,,Juniors
DQ,Bodai Barna,2007,EötvösGimn,129.4,-110.0,-110.0,-110.0,,B,,120+,Raw,M,,Juniors
1,Zsiga Krisztián Péter,2006,HonvMin,48.8,60.0,67.5,-72.5,67.5,B,67.5,53,Raw,M,,Juniors
1,Sajben Dániel,2006,SzentGyBcs,58.96,95.0,97.5,100.0,100.0,B,100.0,59,Raw,M,,Juniors
2,Tóvizi Bence,2005,PálfyVízüg,56.78,87.5,90.0,92.5,92.5,B,92.5,59,Raw,M,,Juniors
3,Jármi Ádám,2006,KandóTechn,58.96,70.0,75.0,80.0,80.0,B,80.0,59,Raw,M,,Juniors
4,Tóvizi Kristóf,2005,Jendrassik,53.64,75.0,-77.5,-77.5,75.0,B,75.0,59,Raw,M,,Juniors
5,Kevevári Gyula Botond,2006,SztIstvBp,58.94,-75.0,75.0,-80.0,75.0,B,75.0,59,Raw,M,,Juniors
6,Tömböly Áron,2006,SzegedRadn,55.46,72.5,-80.0,-80.0,72.5,B,72.5,59,Raw,M,,Juniors
7,Erdélyi László,2006,FöldesGimn,57.24,72.5,-77.5,-80.0,72.5,B,72.5,59,Raw,M,,Juniors
8,Garai Zoltán Tibor,2005,NyírEvang,54.68,57.5,-60.0,60.0,60.0,B,60.0,59,Raw,M,,Juniors
9,Bálint Márton,2005,KarinthyFr,58.44,50.0,60.0,-70.0,60.0,B,60.0,59,Raw,M,,Juniors
1,Oláh Erik,2006,Ady-Bay,65.14,125.0,135.0,-142.5,135.0,B,135.0,66,Raw,M,,Juniors
2,Harmath Zalán,2006,TatabÁrpád,60.7,100.0,-105.0,105.0,105.0,B,105.0,66,Raw,M,,Juniors
3,Kardos Noel,2004,HonvMin,65.06,100.0,105.0,-107.5,105.0,B,105.0,66,Raw,M,,Juniors
4,Ács Bence,2005,BoronkaVác,63.38,-95.0,95.0,-100.0,95.0,B,95.0,66,Raw,M,,Juniors
5,Huszár Csaba,2006,AndrássyMi,64.6,-90.0,90.0,-95.0,90.0,B,90.0,66,Raw,M,,Juniors
6,Szirmai András Balázs,2006,PetőfiMezB,64.94,85.0,90.0,-95.0,90.0,B,90.0,66,Raw,M,,Juniors
7,Dávid Bence Péter,2006,AndrássyMi,66.0,80.0,90.0,-97.5,90.0,B,90.0,66,Raw,M,,Juniors
8,Vincze Bulcsú,2006,SzegedRadn,62.8,70.0,80.0,-82.5,80.0,B,80.0,66,Raw,M,,Juniors
9,Fizer Aurél László,2006,DeákTechn,64.02,80.0,-82.5,-82.5,80.0,B,80.0,66,Raw,M,,Juniors
10,Fazekas Dávid,2006,DeákTechn,64.46,-80.0,80.0,-82.5,80.0,B,80.0,66,Raw,M,,Juniors
1,Baráth Áron János,2006,JózsefATec,71.8,130.0,140.0,150.0,150.0,B,150.0,74,Raw,M,,Juniors
2,Kovács Nimród Márk,2006,FöldesGimn,71.8,115.0,122.5,130.0,130.0,B,130.0,74,Raw,M,,Juniors
3,Katona Márk,2005,SzegedRadn,73.7,115.0,122.5,127.5,127.5,B,127.5,74,Raw,M,,Juniors
4,Szögyényi Ádám,2005,NyíregVasv,73.1,-110.0,117.5,120.0,120.0,B,120.0,74,Raw,M,,Juniors
5,Rigó Dániel,2006,BenkőRef,72.0,105.0,110.0,117.5,117.5,B,117.5,74,Raw,M,,Juniors
6,Demeter Márkó,2005,KandóTechn,69.2,110.0,115.0,-122.5,115.0,B,115.0,74,Raw,M,,Juniors
7,Paksicza Ákos,2005,BarcsiSzéc,72.3,107.5,112.5,115.0,115.0,B,115.0,74,Raw,M,,Juniors
8,Komáromi Dominik,2006,ÁlmosVezér,72.8,100.0,105.0,110.0,110.0,B,110.0,74,Raw,M,,Juniors
9,Andai Márk,2005,EötvösGimn,72.9,100.0,110.0,-120.0,110.0,B,110.0,74,Raw,M,,Juniors
10,Kamuti Botond,2006,Jendrassik,73.3,102.5,107.5,110.0,110.0,B,110.0,74,Raw,M,,Juniors
11,Horányi Tamás,2005,BoronkaVác,72.2,100.0,105.0,107.5,107.5,B,107.5,74,Raw,M,,Juniors
12,Somoghy Bence Soma,2005,BoronkaVác,72.9,100.0,105.0,107.5,107.5,B,107.5,74,Raw,M,,Juniors
13,Tóth András Gábor,2006,EötvösGimn,72.9,-100.0,100.0,105.0,105.0,B,105.0,74,Raw,M,,Juniors
14,Hajdók Huba,2006,SztLászAMK,73.0,92.5,100.0,105.0,105.0,B,105.0,74,Raw,M,,Juniors
15,Neumann Tibor,2004,FriedSchil,70.8,102.5,-105.0,-105.0,102.5,B,102.5,74,Raw,M,,Juniors
16,Évinger Tamás Kornél,2005,KápnyVörös,70.3,100.0,-102.5,-105.0,100.0,B,100.0,74,Raw,M,,Juniors
17,Oláh Kristóf Csaba,2006,HonvMin,71.4,100.0,-105.0,-105.0,100.0,B,100.0,74,Raw,M,,Juniors
18,Szanyi Tamás,2006,SzázhSzéch,72.2,100.0,-102.5,-105.0,100.0,B,100.0,74,Raw,M,,Juniors
19,Vajda Levente Ákos,2005,ÓbodaWaldo,69.7,85.0,90.0,97.5,97.5,B,97.5,74,Raw,M,,Juniors
20,Kacsári Benedek,2006,BesseKisv,70.1,90.0,-95.0,95.0,95.0,B,95.0,74,Raw,M,,Juniors
21,Makkai Áron,2005,BornemP,71.0,-95.0,95.0,-100.0,95.0,B,95.0,74,Raw,M,,Juniors
22,Barcs Attila,2005,DunaújDuna,71.2,85.0,95.0,-105.0,95.0,B,95.0,74,Raw,M,,Juniors
23,Kosztolányi Bence Zoltán,2006,KeszthelyK,72.7,90.0,95.0,-100.0,95.0,B,95.0,74,Raw,M,,Juniors
24,Piri Barnabás,2006,BedőErdész,69.7,-90.0,90.0,-95.0,90.0,B,90.0,74,Raw,M,,Juniors
25,Hajdú Levente,2006,BolyaiKecs,72.8,90.0,-97.5,-97.5,90.0,B,90.0,74,Raw,M,,Juniors
26,Bistyák Dániel,2005,SzentpálMi,73.9,90.0,-100.0,-102.5,90.0,B,90.0,74,Raw,M,,Juniors
27,Horváth Botond,2006,DamjaKerék,66.6,-70.0,80.0,87.5,87.5,B,87.5,74,Raw,M,,Juniors
28,Galambos Viktor Krisztián,2004,CsíkFerenc,70.8,85.0,-97.5,-97.5,85.0,B,85.0,74,Raw,M,,Juniors
29,Afangide Samson Uwem,2006,Nagyboldog,70.6,80.0,82.5,-87.5,82.5,B,82.5,74,Raw,M,,Juniors
30,Horváth Benedek,2005,ZrínyiZalE,68.5,70.0,75.0,80.0,80.0,B,80.0,74,Raw,M,,Juniors
31,Kerkai Bence,2004,ZegKölcsey,72.6,80.0,-85.0,-85.0,80.0,B,80.0,74,Raw,M,,Juniors
32,Kovács Dávid,2005,SportKrea,70.7,-75.0,75.0,-85.0,75.0,B,75.0,74,Raw,M,,Juniors
33,Varga László Dániel,2006,SztIstvBp,71.6,-70.0,-70.0,75.0,75.0,B,75.0,74,Raw,M,,Juniors
34,Fricz Bence,2004,BMEáltalGi,71.3,-70.0,72.5,-80.0,72.5,B,72.5,74,Raw,M,,Juniors
35,Gál Roland,2006,KossuthEva,67.6,60.0,70.0,-75.0,70.0,B,70.0,74,Raw,M,,Juniors
1,Dóró Bence,2004,BeregszPál,78.4,140.0,145.0,152.5,152.5,B,152.5,83,Raw,M,,Juniors
2,Szabó Kristóf,2005,TatabÁrpád,80.1,127.5,135.0,142.5,142.5,B,142.5,83,Raw,M,,Juniors
3,Varga János,2005,TóthÁrpád,81.2,-130.0,140.0,142.5,142.5,B,142.5,83,Raw,M,,Juniors
4,Hamar Péter,2004,EgriFőegyh,81.1,132.5,-137.5,140.0,140.0,B,140.0,83,Raw,M,,Juniors
5,Gazdafi Richárd,2005,BláthyMisk,81.5,135.0,140.0,-142.5,140.0,B,140.0,83,Raw,M,,Juniors
6,Boldog Dominik,2005,BékésBelv,80.1,115.0,125.0,135.0,135.0,B,135.0,83,Raw,M,,Juniors
7,Pálfi Bálint,2005,SzinyeiBp,80.2,130.0,-135.0,135.0,135.0,B,135.0,83,Raw,M,,Juniors
8,Szűcs Kristóf Márk,2006,AranyRefor,81.1,125.0,130.0,135.0,135.0,B,135.0,83,Raw,M,,Juniors
9,Karakas Péter,2005,SzenteMóri,81.5,125.0,130.0,135.0,135.0,B,135.0,83,Raw,M,,Juniors
10,Baráth Konor Péter,2006,Március15,82.1,120.0,130.0,132.5,132.5,B,132.5,83,Raw,M,,Juniors
11,Vári Marcell,2004,ÉrdGárdony,80.6,120.0,130.0,-135.0,130.0,B,130.0,83,Raw,M,,Juniors
12,Szovinszki Levente,2005,NyírEvang,81.3,-120.0,122.5,-127.5,122.5,B,122.5,83,Raw,M,,Juniors
13,Gáspár Boldizsár,2005,ÉrdGárdony,81.4,110.0,120.0,122.5,122.5,B,122.5,83,Raw,M,,Juniors
14,Nagy-Szélesi Kenéz,2006,VerebélyLá,80.0,112.5,120.0,-127.5,120.0,B,120.0,83,Raw,M,,Juniors
15,Gombás Kornél,2006,ZegKölcsey,80.4,115.0,117.5,120.0,120.0,B,120.0,83,Raw,M,,Juniors
16,Berger Viktor,2006,SztLászAMK,81.8,107.5,115.0,120.0,120.0,B,120.0,83,Raw,M,,Juniors
17,Zsigó Norbert,2006,KandóTechn,76.0,110.0,-117.5,117.5,117.5,B,117.5,83,Raw,M,,Juniors
18,Oláh József Sándor,2006,SztGellért,77.4,110.0,117.5,-125.0,117.5,B,117.5,83,Raw,M,,Juniors
19,Szabó Lóránt,2005,ZegKölcsey,81.4,102.5,110.0,117.5,117.5,B,117.5,83,Raw,M,,Juniors
20,Naményi Filemon,2005,JelkyTechn,75.2,105.0,115.0,-120.0,115.0,B,115.0,83,Raw,M,,Juniors
21,Weisz Gellért Erik,2004,BoronkaVác,75.3,-105.0,110.0,115.0,115.0,B,115.0,83,Raw,M,,Juniors
22,Hack Barnabás,2005,Fáy2GazdTe,81.5,115.0,-122.5,-122.5,115.0,B,115.0,83,Raw,M,,Juniors
23,Boda Szilárd,2005,BoronkaVác,77.3,105.0,112.5,-120.0,112.5,B,112.5,83,Raw,M,,Juniors
24,Gál Ádám,2005,SzegedRadn,77.8,105.0,110.0,-115.0,110.0,B,110.0,83,Raw,M,,Juniors
25,Marosvári Mihály,2005,BláthyMisk,78.6,90.0,-110.0,110.0,110.0,B,110.0,83,Raw,M,,Juniors
26,Szász Levente István,2006,BoronkaVác,79.5,100.0,105.0,110.0,110.0,B,110.0,83,Raw,M,,Juniors
27,Kozma Dániel,2006,BesseKisv,79.9,105.0,110.0,-112.5,110.0,B,110.0,83,Raw,M,,Juniors
28,Nyitray Dominik,2005,CsengerAdy,82.9,100.0,110.0,-112.5,110.0,B,110.0,83,Raw,M,,Juniors
29,Orsós Bálint,2006,BarcsiSzéc,79.9,100.0,105.0,107.5,107.5,B,107.5,83,Raw,M,,Juniors
30,Kohut Gergő,2006,DeákTechn,76.66,95.0,100.0,105.0,105.0,B,105.0,83,Raw,M,,Juniors
31,Malinics Márton,2006,SzegDeák,78.9,95.0,100.0,105.0,105.0,B,105.0,83,Raw,M,,Juniors
32,Vér János,2005,DunaújDuna,79.3,-95.0,-105.0,105.0,105.0,B,105.0,83,Raw,M,,Juniors
33,Barta Zsolt,2005,NyírEvang,81.4,102.5,105.0,-110.0,105.0,B,105.0,83,Raw,M,,Juniors
34,Kiss Milán Gábor,2006,AndrássyMi,79.2,95.0,102.5,-107.5,102.5,B,102.5,83,Raw,M,,Juniors
35,Németh Balázs,2006,HonvMin,79.7,95.0,102.5,-107.5,102.5,B,102.5,83,Raw,M,,Juniors
36,Varga Bálint,2005,VásárhPTec,93.0,102.5,-107.5,-107.5,102.5,B,102.5,93,Raw,M,,Juniors
37,Rajnics Benedek Albert,2006,Nagyboldog,75.1,-100.0,100.0,-110.0,100.0,B,100.0,83,Raw,M,,Juniors
38,Kiss Dávid,2006,EötvösGimn,78.6,95.0,100.0,-102.5,100.0,B,100.0,83,Raw,M,,Juniors
39,Leszkovich Dávid,2006,SportKrea,78.3,85.0,95.0,-100.0,95.0,B,95.0,83,Raw,M,,Juniors
40,Schnaider Dominik,2006,TemesvPelb,79.7,95.0,-110.0,-110.0,95.0,B,95.0,83,Raw,M,,Juniors
41,Sztányi Zalán,2006,NyírEvang,79.7,90.0,-95.0,95.0,95.0,B,95.0,83,Raw,M,,Juniors
42,Sándor Attila,2005,EgriFőegyh,79.8,92.5,-97.5,-100.0,92.5,B,92.5,83,Raw,M,,Juniors
43,Horváth Krisztián,2006,VerebélyLá,75.3,-85.0,85.0,-90.0,85.0,B,85.0,83,Raw,M,,Juniors
44,Vasvári Gábor Pál,2006,AMKözMoAgr,80.3,-85.0,85.0,-87.5,85.0,B,85.0,83,Raw,M,,Juniors
45,Szabó Zoltán István,2005,SzentGyAjk,75.0,-75.0,75.0,-85.0,75.0,B,75.0,83,Raw,M,,Juniors
1,Varga Albert,2005,DombrMóra,90.78,145.0,150.0,155.0,155.0,B,155.0,93,Raw,M,,Juniors
2,Nagy Kristóf,2005,LévayRef,90.44,150.0,-152.5,152.5,152.5,B,152.5,93,Raw,M,,Juniors
3,Lakatos Árpád,2006,KandóTechn,87.26,140.0,-142.5,142.5,142.5,B,142.5,93,Raw,M,,Juniors
4,Nagy Boldizsár,2005,FazekasMGy,91.6,127.5,135.0,140.0,140.0,B,140.0,93,Raw,M,,Juniors
5,Németh Márk,2005,NoszlKapos,90.52,120.0,130.0,137.5,137.5,B,137.5,93,Raw,M,,Juniors
6,Hársing Bence,2006,HunfalvyJT,91.24,-135.0,-135.0,135.0,135.0,B,135.0,93,Raw,M,,Juniors
7,Lovas Dominik,2005,HonvMin,84.26,125.0,130.0,-135.0,130.0,B,130.0,93,Raw,M,,Juniors
8,Tóth Krisztián,2006,BedőErdész,88.36,125.0,130.0,-135.0,130.0,B,130.0,93,Raw,M,,Juniors
9,Széher Benedek,2006,ZrínyiZalE,87.86,115.0,120.0,127.5,127.5,B,127.5,93,Raw,M,,Juniors
10,Ács Marcell,2006,KossuthTec,91.78,127.5,-135.0,-135.0,127.5,B,127.5,93,Raw,M,,Juniors
11,Papp Martin Krisztián,2004,NyírEvang,92.2,112.5,122.5,127.5,127.5,B,127.5,93,Raw,M,,Juniors
12,Esperger Máté,2006,DobóEszter,87.3,115.0,125.0,-130.0,125.0,B,125.0,93,Raw,M,,Juniors
13,Antal Tamás Csaba,2006,VerebélyLá,80.1,110.0,-115.0,120.0,120.0,B,120.0,83,Raw,M,,Juniors
14,Péter Máté,2006,BedőErdész,86.12,-115.0,120.0,-125.0,120.0,B,120.0,93,Raw,M,,Juniors
15,Galszter Márk,2006,TrefortBCS,90.34,115.0,-130.0,-130.0,115.0,B,115.0,93,Raw,M,,Juniors
16,Várkonyi András,2005,DamjaKerék,83.72,110.0,112.5,,112.5,B,112.5,93,Raw,M,,Juniors
17,Pfluger Fábián,2004,DobóEszter,83.36,100.0,110.0,-120.0,110.0,B,110.0,93,Raw,M,,Juniors
18,Magyar Balázs,2006,DobóEszter,85.32,110.0,-112.5,-112.5,110.0,B,110.0,93,Raw,M,,Juniors
19,Korpai János,2005,NyírEvang,86.64,107.5,110.0,-115.0,110.0,B,110.0,93,Raw,M,,Juniors
20,Reményi Miklós,2005,HonvMin,88.76,110.0,-117.5,-117.5,110.0,B,110.0,93,Raw,M,,Juniors
21,Varga Olivér,2005,DobóEszter,87.54,100.0,105.0,-107.5,105.0,B,105.0,93,Raw,M,,Juniors
22,Fehér Ágoston,2006,VerebélyLá,89.64,95.0,100.0,105.0,105.0,B,105.0,93,Raw,M,,Juniors
23,Dányi Dávid,2006,KossuthEva,89.5,90.0,-97.5,102.5,102.5,B,102.5,93,Raw,M,,Juniors
24,Király Péter,2004,EötvösGimn,83.22,-100.0,100.0,-115.0,100.0,B,100.0,93,Raw,M,,Juniors
25,Bozsó Dávid,2006,SztIstvBp,85.08,90.0,100.0,-105.0,100.0,B,100.0,93,Raw,M,,Juniors
26,Tóth Dániel Zsolt,2005,EszeTamásM,85.94,100.0,-115.0,-115.0,100.0,B,100.0,93,Raw,M,,Juniors
27,Kocsis Levente Márk,2006,CsíkFerenc,87.86,85.0,90.0,95.0,95.0,B,95.0,93,Raw,M,,Juniors
28,Talabér Dávid,2006,SportKrea,84.54,80.0,90.0,-100.0,90.0,B,90.0,93,Raw,M,,Juniors
29,Sas Dávid,2006,EgriFőegyh,90.82,75.0,77.5,-80.0,77.5,B,77.5,93,Raw,M,,Juniors
DQ,Pászka Szabolcs János,2005,CsengerAdy,86.44,-105.0,-110.0,-120.0,,B,,93,Raw,M,,Juniors
DQ,Harmath Levente,2005,DobóEszter,89.4,-90.0,-90.0,-90.0,,B,,93,Raw,M,,Juniors
1,Porteleki Ádám,2006,FöldesGimn,99.1,130.0,137.5,140.0,140.0,B,140.0,105,Raw,M,,Juniors
2,Svégel László Vilmos,2006,DrávaVölgy,93.02,130.0,-135.0,135.0,135.0,B,135.0,105,Raw,M,,Juniors
3,Lakatos Adolf Kevin,2006,DombrMóra,101.7,-130.0,135.0,-140.0,135.0,B,135.0,105,Raw,M,,Juniors
4,Vollopich Marcell,2004,AndrássyMi,95.7,-125.0,130.0,132.5,132.5,B,132.5,105,Raw,M,,Juniors
5,Szegedi Brúnó,2006,ÓbodaWaldo,101.65,117.5,125.0,130.0,130.0,B,130.0,105,Raw,M,,Juniors
6,Földvári Máté,2005,BocskaiKat,98.05,117.5,120.0,125.0,125.0,B,125.0,105,Raw,M,,Juniors
7,Simon Bulcsú,2005,KeszthelyK,94.45,110.0,115.0,120.0,120.0,B,120.0,105,Raw,M,,Juniors
8,Ravadics Benjamin Bence,2006,ZegKölcsey,94.7,115.0,120.0,-122.5,120.0,B,120.0,105,Raw,M,,Juniors
9,Kállai Imre,2004,HonvMin,93.6,110.0,115.0,-120.0,115.0,B,115.0,105,Raw,M,,Juniors
10,Solymosi Bence,2005,NagyboldJB,95.3,110.0,115.0,-120.0,115.0,B,115.0,105,Raw,M,,Juniors
11,Hegyes Zsombor,2006,BocskaiKat,96.6,100.0,107.5,115.0,115.0,B,115.0,105,Raw,M,,Juniors
12,Csizmadia Kristóf,2006,BarossSzol,101.9,110.0,115.0,-120.0,115.0,B,115.0,105,Raw,M,,Juniors
13,Duka Szilárd Adolf,2006,EgriFőegyh,97.55,105.0,-107.5,107.5,107.5,B,107.5,105,Raw,M,,Juniors
14,Dezső János,2005,BocskaiKat,99.55,100.0,105.0,-110.0,105.0,B,105.0,105,Raw,M,,Juniors
15,Seprős Levente Patrik,2005,DamjGimTec,96.6,90.0,95.0,97.5,97.5,B,97.5,105,Raw,M,,Juniors
16,Szolnoki Ákos,2006,BocskaiKat,102.7,80.0,90.0,-100.0,90.0,B,90.0,105,Raw,M,,Juniors
1,Vastag Csanád,2005,XántusJán,113.95,140.0,150.0,157.5,157.5,B,157.5,120,Raw,M,,Juniors
2,Sólyom Krisztián,2005,TrefortBCS,113.25,150.0,155.0,-157.5,155.0,B,155.0,120,Raw,M,,Juniors
3,Fodor Bence Kristóf,2006,VerebélyLá,105.1,145.0,147.5,-150.0,147.5,B,147.5,120,Raw,M,,Juniors
4,Kürtösi Sándor József,2005,BoronkaVác,106.5,-130.0,140.0,-150.0,140.0,B,140.0,120,Raw,M,,Juniors
5,Holéczy Péter,2006,MagyarAngo,116.1,137.5,-145.0,-150.0,137.5,B,137.5,120,Raw,M,,Juniors
6,Magyar Krisztián,2004,KreatívTec,105.1,130.0,135.0,-140.0,135.0,B,135.0,120,Raw,M,,Juniors
7,Zsombok Ádám,2005,Fáy2GazdTe,108.35,125.0,130.0,135.0,135.0,B,135.0,120,Raw,M,,Juniors
8,Veres Ádám,2006,BarossSzol,109.35,130.0,135.0,-137.5,135.0,B,135.0,120,Raw,M,,Juniors
9,Balázs Sándor,2005,KandóTechn,115.45,125.0,130.0,135.0,135.0,B,135.0,120,Raw,M,,Juniors
10,Kárpáti Balázs,2005,ZegKölcsey,116.2,120.0,127.5,135.0,135.0,B,135.0,120,Raw,M,,Juniors
11,Mitchell Mark William,2006,SzegDeák,106.75,107.5,112.5,120.0,120.0,B,120.0,120,Raw,M,,Juniors
12,Gaál Ámon,2005,VerebélyLá,111.15,110.0,-120.0,-140.0,110.0,B,110.0,120,Raw,M,,Juniors
1,Szalai Kristóf Lajos,2006,RákóczDere,139.34,150.0,160.0,170.0,170.0,B,170.0,120+,Raw,M,,Juniors
2,Csikos Patrik Ernő,2004,BánkiMűsz,130.0,-125.0,135.0,147.5,147.5,B,147.5,120+,Raw,M,,Juniors
3,Fekete János Erik,2006,BarossSzol,121.52,100.0,107.5,-110.0,107.5,B,107.5,120+,Raw,M,,Juniors
4,Gazsik Marcell,2006,BláthyMisk,126.52,100.0,107.5,-110.0,107.5,B,107.5,120+,Raw,M,,Juniors
5,Timár Kevin,2004,VásárhPTec,122.86,105.0,-110.0,-110.0,105.0,B,105.0,120+,Raw,M,,Juniors
6,Selmeci Ádám,2006,DunaújDuna,123.36,95.0,105.0,-115.0,105.0,B,105.0,120+,Raw,M,,Juniors
7,Simon Sándor,2005,BedőErdész,141.05,97.5,-105.0,-110.0,97.5,B,97.5,120+,Raw,M,,Juniors
1,Klima Lea,2009,EncsZrínyi,40.32,30.0,32.5,-35.0,32.5,B,32.5,43,Raw,F,,Juniors
2,Csipkés Dorina,2009,BesseKisv,36.44,25.0,27.5,-30.0,27.5,B,27.5,43,Raw,F,,Juniors
3,Godó-Barna Dorka,2010,GyulaiImpl,38.76,25.0,-27.5,27.5,27.5,B,27.5,43,Raw,F,,Juniors
4,Bauer Brigitta,2010,EncsZrínyi,40.54,25.0,27.5,-30.0,27.5,B,27.5,43,Raw,F,,Juniors
5,Idul Boglárka,2010,GyulaiImpl,42.24,20.0,-25.0,-25.0,20.0,B,20.0,43,Raw,F,,Juniors
1,Nagy Fruzsina,2009,TáncsicsOh,45.78,40.0,-42.5,-42.5,40.0,B,40.0,47,Raw,F,,Juniors
2,Szabó Janka,2010,GyulaiImpl,45.38,27.5,30.0,-32.5,30.0,B,30.0,47,Raw,F,,Juniors
3,Tóth Nóra Noémi,2010,GyulaiImpl,45.98,25.0,27.5,30.0,30.0,B,30.0,47,Raw,F,,Juniors
4,Gecse Melissza,2010,EncsZrínyi,46.46,27.5,30.0,-32.5,30.0,B,30.0,47,Raw,F,,Juniors
1,Babák Dominika,2009,CsobajiÁI,49.58,32.5,35.0,37.5,37.5,B,37.5,52,Raw,F,,Juniors
2,Huszka Afrodité Ramóna,2009,EötvJKat,51.0,35.0,-37.5,37.5,37.5,B,37.5,52,Raw,F,,Juniors
3,Sukta Petra,2009,BesseKisv,47.88,25.0,30.0,32.5,32.5,B,32.5,52,Raw,F,,Juniors
4,Jónás Vanda Vanessza,2010,EncsZrínyi,48.48,30.0,32.5,-35.0,32.5,B,32.5,52,Raw,F,,Juniors
5,Nagy Léna,2009,BoronkaVác,48.74,-25.0,25.0,27.5,27.5,B,27.5,52,Raw,F,,Juniors
6,Oláh Zoé,2010,GyulaiImpl,48.98,-25.0,27.5,-30.0,27.5,B,27.5,52,Raw,F,,Juniors
7,Kozma Zsófia,2009,BesseKisv,47.44,25.0,-27.5,-27.5,25.0,B,25.0,52,Raw,F,,Juniors
8,Balogh Ramóna Ágota,2009,GyulaiImpl,49.96,25.0,-27.5,-27.5,25.0,B,25.0,52,Raw,F,,Juniors
9,Lakatos Arabella Georgina,2009,CsobajiÁI,50.24,25.0,-27.5,-27.5,25.0,B,25.0,52,Raw,F,,Juniors
DQ,Dósa Fruzsina,2009,TújvSzéch,47.58,-25.0,-25.0,-25.0,,B,,52,Raw,F,,Juniors
1,Palánkai Vásti Hanna,2010,GyarmSport,54.92,42.5,45.0,-50.0,45.0,B,45.0,57,Raw,F,,Juniors
2,Fábián Petra,2009,HajdBárdos,54.8,37.5,40.0,42.5,42.5,B,42.5,57,Raw,F,,Juniors
3,Kotogány Jana Amira,2009,HonvMin,56.94,42.5,-45.0,-45.0,42.5,B,42.5,57,Raw,F,,Juniors
4,Bajzik Anna,2009,Nagyboldog,55.36,40.0,-45.0,-45.0,40.0,B,40.0,57,Raw,F,,Juniors
5,Vadászi Hanna,2010,CsobajiÁI,54.36,32.5,35.0,37.5,37.5,B,37.5,57,Raw,F,,Juniors
6,Kis Alexandra,2010,MakovCseng,53.68,27.5,30.0,32.5,32.5,B,32.5,57,Raw,F,,Juniors
7,Kalapáti Lúcia,2009,BedőErdész,55.66,27.5,32.5,-37.5,32.5,B,32.5,57,Raw,F,,Juniors
8,Raskoványi Száva,2010,Nagyboldog,56.44,27.5,30.0,-32.5,30.0,B,30.0,57,Raw,F,,Juniors
9,Széll Jázmin Boglárka,2009,BesseKisv,55.0,25.0,-27.5,27.5,27.5,B,27.5,57,Raw,F,,Juniors
10,Molnár Kamilla Edit,2009,GyulaiImpl,53.16,25.0,-27.5,-27.5,25.0,B,25.0,57,Raw,F,,Juniors
11,Révész Dóra,2009,BesseKisv,55.1,25.0,-27.5,-27.5,25.0,B,25.0,57,Raw,F,,Juniors
1,Kardos Orsolya Mária,2009,BoronkaVác,57.38,-52.5,52.5,57.5,57.5,B,57.5,63,Raw,F,,Juniors
2,Grósz Erika,2010,GyulaiImpl,61.55,40.0,42.5,45.0,45.0,B,45.0,63,Raw,F,,Juniors
3,Kóczé Jázmin,2010,MakovCseng,57.14,35.0,-37.5,37.5,37.5,B,37.5,63,Raw,F,,Juniors
4,Dub Karina,2009,Nagyboldog,61.05,-30.0,-30.0,35.0,35.0,B,35.0,63,Raw,F,,Juniors
5,Vaskó Jázmin Ramóna,2010,CsobajiÁI,60.3,27.5,30.0,32.5,32.5,B,32.5,63,Raw,F,,Juniors
6,Jánovszki Enikő,2010,GyulaiImpl,61.2,27.5,30.0,-32.5,30.0,B,30.0,63,Raw,F,,Juniors
7,Schmidt Nóra,2010,Nagyboldog,59.04,-27.5,27.5,-32.5,27.5,B,27.5,63,Raw,F,,Juniors
1,Fábián Izabel Ágnes,2009,BoronkaVác,64.45,52.5,-57.5,-57.5,52.5,B,52.5,69,Raw,F,,Juniors
2,Regényi Júlia,2010,Nagyboldog,64.85,45.0,50.0,52.5,52.5,B,52.5,69,Raw,F,,Juniors
3,Fodor Diana Julianna,2009,BedőErdész,65.85,45.0,50.0,52.5,52.5,B,52.5,69,Raw,F,,Juniors
4,Dani Lilla Petra,2009,EötvJKat,67.9,42.5,-45.0,-45.0,42.5,B,42.5,69,Raw,F,,Juniors
5,Tóth Tímea,2010,MakovCseng,66.2,32.5,35.0,37.5,37.5,B,37.5,69,Raw,F,,Juniors
6,Vadászi Rebeka Larissza,2009,CsobajiÁI,63.55,27.5,30.0,32.5,32.5,B,32.5,69,Raw,F,,Juniors
7,Petruzsán Panna,2009,GyulaiImpl,68.25,25.0,-27.5,-27.5,25.0,B,25.0,69,Raw,F,,Juniors
1,Savanyu Vanda,2009,NyirádiErz,73.05,57.5,62.5,65.0,65.0,B,65.0,76,Raw,F,,Juniors
2,Piák Anna Petra,2009,EncsZrínyi,71.8,40.0,42.5,-45.0,42.5,B,42.5,76,Raw,F,,Juniors
3,Korányi-Gebura Adél,2009,EötvJKat,73.35,42.5,-45.0,-45.0,42.5,B,42.5,76,Raw,F,,Juniors
4,Vadászi Gizella,2009,CsobajiÁI,69.95,32.5,35.0,37.5,37.5,B,37.5,76,Raw,F,,Juniors
5,Kósa Dorina Éva,2009,EncsZrínyi,72.25,35.0,37.5,-40.0,37.5,B,37.5,76,Raw,F,,Juniors
6,Váczi Zsanett,2009,GyulaiImpl,71.4,30.0,35.0,-37.5,35.0,B,35.0,76,Raw,F,,Juniors
1,Reszoly Lilla,2010,MakovCseng,82.1,32.5,35.0,40.0,40.0,B,40.0,84,Raw,F,,Juniors
1,Cseh Liliána,2009,NoszlKapos,93.25,52.5,57.5,62.5,62.5,B,62.5,84+,Raw,F,,Juniors
2,Füzi Alexandra,2009,EncsZrínyi,95.0,45.0,-47.5,-47.5,45.0,B,45.0,84+,Raw,F,,Juniors
3,Megyesi Tünde,2010,CsobajiÁI,92.65,-35.0,35.0,40.0,40.0,B,40.0,84+,Raw,F,,Juniors
4,Dolányi Amanda Natasa,2010,CsobajiÁI,93.95,37.5,40.0,-42.5,40.0,B,40.0,84+,Raw,F,,Juniors
1,Peterman Petra,2007,CsengerAdy,44.66,37.5,40.0,42.5,42.5,B,42.5,47,Raw,F,,Juniors
2,Jucha Ada Imola,2007,EötvösTech,46.9,40.0,42.5,-45.0,42.5,B,42.5,47,Raw,F,,Juniors
3,Czagány Laura,2008,BocskaiKat,45.9,35.0,-40.0,40.0,40.0,B,40.0,47,Raw,F,,Juniors
4,Bartha Natasa Tímea,2007,CsihaGyőző,44.94,30.0,32.5,35.0,35.0,B,35.0,47,Raw,F,,Juniors
1,Dudás Flóra,2007,EncsVáciM,51.1,60.0,-62.5,-62.5,60.0,B,60.0,52,Raw,F,,Juniors
2,Danics Boglárka Alexandra,2007,GyulaRómKa,49.6,37.5,40.0,42.5,42.5,B,42.5,52,Raw,F,,Juniors
3,Juhász Adél,2007,TáncsicsOh,50.34,-42.5,-42.5,42.5,42.5,B,42.5,52,Raw,F,,Juniors
4,Kóczé Zsófia,2008,CsengerAdy,48.48,35.0,37.5,-40.0,37.5,B,37.5,52,Raw,F,,Juniors
5,Farkas Janka Regina,2007,SzentGyAjk,50.46,35.0,37.5,-42.5,37.5,B,37.5,52,Raw,F,,Juniors
6,Varga Léna,2007,CsihaGyőző,50.0,30.0,32.5,35.0,35.0,B,35.0,52,Raw,F,,Juniors
1,Gaszner Eszter,2008,BoronkaVác,54.64,55.0,57.5,60.0,60.0,B,60.0,57,Raw,F,,Juniors
2,Szelik Loretta,2007,NyírEvang,56.68,50.0,-52.5,-52.5,50.0,B,50.0,57,Raw,F,,Juniors
3,Szabó Lilla Napsugár,2007,HonvMin,56.46,-47.5,47.5,-50.0,47.5,B,47.5,57,Raw,F,,Juniors
4,Sódar Kitti Nóra,2008,TáncsicsOh,52.04,37.5,40.0,-42.5,40.0,B,40.0,57,Raw,F,,Juniors
5,Tankó Panna,2007,HermannOtt,56.2,-40.0,40.0,-42.5,40.0,B,40.0,57,Raw,F,,Juniors
6,Székely Dorina Ibolya,2008,GyulaRómKa,54.44,32.5,37.5,-40.0,37.5,B,37.5,57,Raw,F,,Juniors
7,Körtvélyessy Kata Renáta,2007,NémethLGim,55.24,37.5,-40.0,-40.0,37.5,B,37.5,57,Raw,F,,Juniors
8,Enyedi Kincső Kata,2008,BoronkaVác,55.32,-37.5,37.5,-42.5,37.5,B,37.5,57,Raw,F,,Juniors
9,Vácy Sára Veronika,2007,BoronkaVác,55.14,32.5,-35.0,35.0,35.0,B,35.0,57,Raw,F,,Juniors
10,Szűcs Kitti,2008,KecsKatona,56.26,35.0,-40.0,-40.0,35.0,B,35.0,57,Raw,F,,Juniors
11,Eger Anna,2007,BedőErdész,55.08,25.0,27.5,-30.0,27.5,B,27.5,57,Raw,F,,Juniors
12,Ari Júlia,2008,BesseKisv,54.42,-25.0,25.0,-35.0,25.0,B,25.0,57,Raw,F,,Juniors
1,Ritli Csenge,2007,HermannOtt,60.6,60.0,65.0,67.5,67.5,B,67.5,63,Raw,F,,Juniors
2,Kőhalmi Borsika,2008,MiskolciEg,60.94,62.5,65.0,-70.0,65.0,B,65.0,63,Raw,F,,Juniors
3,Jelenek Dorina,2007,BethlenIKö,61.4,60.0,62.5,65.0,65.0,B,65.0,63,Raw,F,,Juniors
4,Knolmayer Viola Kata,2007,VetésiGimn,57.34,37.5,-42.5,45.0,45.0,B,45.0,63,Raw,F,,Juniors
5,Péterfai Johanna,2008,DrávaVölgy,60.18,40.0,42.5,45.0,45.0,B,45.0,63,Raw,F,,Juniors
6,Árgyelán Réka,2008,GyulaRómKa,60.84,40.0,45.0,-47.5,45.0,B,45.0,63,Raw,F,,Juniors
7,Otárcsics Enikő,2008,BarcsiSzéc,60.12,37.5,40.0,-42.5,40.0,B,40.0,63,Raw,F,,Juniors
8,Czifra Nikolett,2007,CsihaGyőző,61.86,32.5,35.0,37.5,37.5,B,37.5,63,Raw,F,,Juniors
9,Pule Brigitta,2008,GöndöcsGyu,57.8,25.0,27.5,-32.5,27.5,B,27.5,63,Raw,F,,Juniors
10,Beri Panna,2007,BesseKisv,59.66,25.0,-35.0,-35.0,25.0,B,25.0,63,Raw,F,,Juniors
1,Oudejans Sophia,2007,JelkyTechn,64.2,-50.0,50.0,-57.5,50.0,B,50.0,69,Raw,F,,Juniors
2,Kun Kata,2007,EötvösGimn,66.3,-50.0,50.0,-52.5,50.0,B,50.0,69,Raw,F,,Juniors
3,Turóczi Csenge Zsuzsanna,2007,BerzTechn,66.8,45.0,47.5,-50.0,47.5,B,47.5,69,Raw,F,,Juniors
4,Bodnár Jázmin,2007,HonvMin,64.15,-45.0,45.0,-47.5,45.0,B,45.0,69,Raw,F,,Juniors
5,Nagy-Magyari Csenge,2008,HonvMin,68.45,-42.5,-42.5,42.5,42.5,B,42.5,69,Raw,F,,Juniors
6,Fekete Zsófia,2008,SzegDeák,68.45,35.0,40.0,-42.5,40.0,B,40.0,69,Raw,F,,Juniors
DQ,Orosz Tünde,2007,Comenius,68.25,-62.5,-62.5,-62.5,,B,,69,Raw,F,,Juniors
DQ,Nováky Janka Luca,2007,ZalaegAdy,68.4,-40.0,,,,B,,69,Raw,F,,Juniors
1,Kovács Dalma,2008,GyulaiErke,72.1,55.0,60.0,62.5,62.5,B,62.5,76,Raw,F,,Juniors
2,Pál Dorka,2007,SztLászló,75.25,55.0,60.0,-67.5,60.0,B,60.0,76,Raw,F,,Juniors
3,Karácsony Sára,2008,BesseKisv,75.4,35.0,47.5,52.5,52.5,B,52.5,76,Raw,F,,Juniors
4,Becse Imola,2007,BerzTechn,70.9,-50.0,50.0,-52.5,50.0,B,50.0,76,Raw,F,,Juniors
5,Vitályos Orsolya,2007,HonvMin,74.85,47.5,-50.0,-50.0,47.5,B,47.5,76,Raw,F,,Juniors
6,Erdős Kata Édua,2007,DeáktEvang,73.6,42.5,-45.0,-45.0,42.5,B,42.5,76,Raw,F,,Juniors
7,Poncsák Réka,2007,BesseKisv,69.05,-25.0,27.5,-35.0,27.5,B,27.5,76,Raw,F,,Juniors
1,Benedek Tamara,2007,SzegedRadn,76.4,55.0,60.0,62.5,62.5,B,62.5,84,Raw,F,,Juniors
2,Trencsényi Boglárka,2007,EgriSzilE,77.52,57.5,62.5,-67.5,62.5,B,62.5,84,Raw,F,,Juniors
3,Pete Fanni,2008,NoszlKapos,79.36,50.0,55.0,-62.5,55.0,B,55.0,84,Raw,F,,Juniors
4,Rékasi Veronika,2008,CsihaGyőző,80.38,40.0,42.5,-45.0,42.5,B,42.5,84,Raw,F,,Juniors
DQ,Balogh Luca Nóra,2007,VáciMadách,79.38,-50.0,-50.0,-50.0,,B,,84,Raw,F,,Juniors
1,Mucsi Noémi Anna,2008,GálFBcs,111.45,62.5,67.5,70.0,70.0,B,70.0,84+,Raw,F,,Juniors
2,Babinszki Barbara,2008,SzentGyBcs,108.55,60.0,65.0,67.5,67.5,B,67.5,84+,Raw,F,,Juniors
3,Kecskés Kata Nóra,2007,Jendrassik,117.15,55.0,-60.0,-60.0,55.0,B,55.0,84+,Raw,F,,Juniors
4,Siroki Molli Hanna,2007,BerzTechn,103.65,42.5,45.0,47.5,47.5,B,47.5,84+,Raw,F,,Juniors
5,Vass Gvendolin Amarillisz,2008,KandóTechn,108.0,-40.0,45.0,47.5,47.5,B,47.5,84+,Raw,F,,Juniors
1,Pálóczi Csenge,2005,KandóZáhon,39.06,27.5,30.0,-32.5,30.0,B,30.0,43,Raw,F,,Juniors
DQ,Palcsik Flóra Ivett,2005,BesseKisv,40.3,-25.0,-25.0,-25.0,,B,,43,Raw,F,,Juniors
1,Havasi Anna Viola,2006,DeákTechn,46.62,40.0,42.5,-45.0,42.5,B,42.5,47,Raw,F,,Juniors
2,Knapp Virág,2004,HunyTechn,44.08,30.0,35.0,37.5,37.5,B,37.5,47,Raw,F,,Juniors
1,Szücs Anita,2006,VerebélyLá,47.6,55.0,-57.5,60.0,60.0,B,60.0,52,Raw,F,,Juniors
2,Rékási Brigitta,2006,GárdonyiGC,51.8,50.0,52.5,-55.0,52.5,B,52.5,52,Raw,F,,Juniors
3,Tara Zsanett,2004,KandóTechn,48.32,35.0,40.0,42.5,42.5,B,42.5,52,Raw,F,,Juniors
4,Frankó Petra,2006,BcsAndráss,51.22,40.0,42.5,-45.0,42.5,B,42.5,52,Raw,F,,Juniors
5,Kurcsics Kinga,2005,HunyTechn,50.28,32.5,37.5,-40.0,37.5,B,37.5,52,Raw,F,,Juniors
6,Rácz Zsófia Eszter,2006,AjkaiBródy,49.8,30.0,35.0,-37.5,35.0,B,35.0,52,Raw,F,,Juniors
7,El Tanbouli Jasmine,2006,HonvMin,51.1,27.5,-30.0,-30.0,27.5,B,27.5,52,Raw,F,,Juniors
8,Kállai Szonja Borbála,2005,SztIstvBp,49.32,25.0,-27.5,-27.5,25.0,B,25.0,52,Raw,F,,Juniors
DQ,Béres Eszter,2005,MiskZrínyi,50.76,-45.0,-47.5,-47.5,,B,,52,Raw,F,,Juniors
1,Savanyu Klaudia,2005,AjkaiBródy,56.0,50.0,55.0,57.5,57.5,B,57.5,57,Raw,F,,Juniors
2,Dékány Lili,2005,KossuthGim,55.06,45.0,50.0,52.5,52.5,B,52.5,57,Raw,F,,Juniors
3,Bata Edina,2006,BedőErdész,55.1,47.5,50.0,-52.5,50.0,B,50.0,57,Raw,F,,Juniors
4,Szalai Vanda,2005,NoszlGimn,55.32,47.5,50.0,-55.0,50.0,B,50.0,57,Raw,F,,Juniors
5,Farkas Felícia,2006,KandóTechn,56.18,40.0,45.0,-47.5,45.0,B,45.0,57,Raw,F,,Juniors
6,Csinos Réka,2005,KarinthyFr,55.2,37.5,-40.0,40.0,40.0,B,40.0,57,Raw,F,,Juniors
7,Kele Vivien,2006,HonvMin,53.8,35.0,37.5,-40.0,37.5,B,37.5,57,Raw,F,,Juniors
8,Szabó Dorottya Ágnes,2005,SztIstvBp,56.16,35.0,37.5,-40.0,37.5,B,37.5,57,Raw,F,,Juniors
9,Kolossváry Csenge,2006,SztIstvBp,54.2,32.5,35.0,-37.5,35.0,B,35.0,57,Raw,F,,Juniors
DQ,Szónok Sára,2005,VárdayKata,55.86,-25.0,-25.0,,,B,,57,Raw,F,,Juniors
1,Tomacsek Eszter,2006,BárdosGimn,63.0,65.0,70.0,75.0,75.0,B,75.0,63,Raw,F,,Juniors
2,Zachariás Szandra,2004,SzentGyAjk,57.96,67.5,72.5,-75.0,72.5,B,72.5,63,Raw,F,,Juniors
3,Hegedűs Petra,2006,XántusJán,59.74,52.5,-55.0,55.0,55.0,B,55.0,63,Raw,F,,Juniors
4,Jászai Emese,2005,MiskZrínyi,62.95,-55.0,-55.0,55.0,55.0,B,55.0,63,Raw,F,,Juniors
5,Pónuzs Nelli,2006,RáckeveAdy,62.2,52.5,-55.0,-55.0,52.5,B,52.5,63,Raw,F,,Juniors
6,Demeter Lilien,2006,MiskolciEg,60.8,45.0,50.0,-52.5,50.0,B,50.0,63,Raw,F,,Juniors
7,Újvári Dorina Linett,2004,AjkaiBródy,61.25,40.0,45.0,-50.0,45.0,B,45.0,63,Raw,F,,Juniors
8,Lisztóczki Sára,2005,SztIstvBp,61.3,42.5,45.0,-47.5,45.0,B,45.0,63,Raw,F,,Juniors
9,Erdődi Ramóna,2005,GyulaRómKa,62.45,40.0,42.5,45.0,45.0,B,45.0,63,Raw,F,,Juniors
10,Gulyás Szilvia,2005,HunyTechn,59.54,40.0,-42.5,-42.5,40.0,B,40.0,63,Raw,F,,Juniors
11,Ilyés Luca,2006,Széch2tan,60.25,-40.0,40.0,-45.0,40.0,B,40.0,63,Raw,F,,Juniors
12,Pethő Laura Ágnes,2006,KeszthelyK,61.4,40.0,-45.0,-45.0,40.0,B,40.0,63,Raw,F,,Juniors
DQ,Bazsányi Dorka,2006,BerzTechn,60.7,-50.0,-50.0,-55.0,,B,,63,Raw,F,,Juniors
1,Bagossi Lilla,2006,TóthÁrpád,66.2,70.0,75.0,-77.5,75.0,B,75.0,69,Raw,F,,Juniors
2,Borbély Ninetta,2005,XántusJán,65.05,60.0,65.0,67.5,67.5,B,67.5,69,Raw,F,,Juniors
3,Kiss Nóra Ágota,2005,DújvSzéch,68.25,-60.0,60.0,-67.5,60.0,B,60.0,69,Raw,F,,Juniors
4,James Lilianna Emese,2006,BenkőRef,66.5,55.0,-60.0,-60.0,55.0,B,55.0,69,Raw,F,,Juniors
5,Molnár Loretta,2004,ZegKölcsey,67.65,47.5,50.0,52.5,52.5,B,52.5,69,Raw,F,,Juniors
6,Gál Tímea,2004,BoronkaVác,66.25,45.0,50.0,-55.0,50.0,B,50.0,69,Raw,F,,Juniors
7,Szunyog Johanna,2005,BoronkaVác,63.75,42.5,45.0,47.5,47.5,B,47.5,69,Raw,F,,Juniors
8,Jankó Zselyke Luna,2006,HonvMin,65.45,40.0,42.5,45.0,45.0,B,45.0,69,Raw,F,,Juniors
9,Erőss Katalin,2005,BesseKisv,65.2,35.0,40.0,-42.5,40.0,B,40.0,69,Raw,F,,Juniors
10,Bózsár Petra,2006,CsihaGyőző,66.55,37.5,40.0,-42.5,40.0,B,40.0,69,Raw,F,,Juniors
11,Tusa Hajnalka,2006,HunyTechn,64.85,32.5,35.0,37.5,37.5,B,37.5,69,Raw,F,,Juniors
12,Vezendi Gréta,2006,CsihaGyőző,67.05,30.0,32.5,-37.5,32.5,B,32.5,69,Raw,F,,Juniors
13,Kertész Viktória,2006,HonvMin,64.6,27.5,-30.0,30.0,30.0,B,30.0,69,Raw,F,,Juniors
DQ,Berecz Lili Emese,2005,SztIstvBp,67.0,-60.0,-60.0,-60.0,,B,,69,Raw,F,,Juniors
1,Balla Eszter,2005,FöldesGimn,75.4,77.5,-82.5,-85.0,77.5,B,77.5,76,Raw,F,,Juniors
2,Gál-Molnár Blanka,2005,SzinyeiBp,74.76,65.0,70.0,75.0,75.0,B,75.0,76,Raw,F,,Juniors
3,Dús Kinga Orsolya,2004,KapMunkács,70.38,60.0,67.5,-72.5,67.5,B,67.5,76,Raw,F,,Juniors
4,Guth Daniella Julianna,2005,Baár-Madas,74.96,55.0,-60.0,60.0,60.0,B,60.0,76,Raw,F,,Juniors
5,Honti Ágnes,2005,SzolnSzéch,75.1,-60.0,60.0,-65.0,60.0,B,60.0,76,Raw,F,,Juniors
6,Czerovszki Anita,2006,BoronkaVác,69.16,-50.0,50.0,55.0,55.0,B,55.0,76,Raw,F,,Juniors
7,Váradi Olga,2006,DeákTechn,69.48,52.5,-55.0,-55.0,52.5,B,52.5,76,Raw,F,,Juniors
8,Papp Bettina,2005,KossuthGim,69.78,45.0,50.0,-57.5,50.0,B,50.0,76,Raw,F,,Juniors
9,Pap Kincső,2006,BolyaiKecs,72.64,45.0,50.0,-52.5,50.0,B,50.0,76,Raw,F,,Juniors
10,Bugyik Adél Petra,2005,ZegKölcsey,74.14,50.0,-52.5,-52.5,50.0,B,50.0,76,Raw,F,,Juniors
11,Serdült Kíra Krisztina,2006,HőgyesEndr,74.54,50.0,-52.5,-52.5,50.0,B,50.0,76,Raw,F,,Juniors
12,Andrékó Bori,2004,ZegKölcsey,70.18,45.0,47.5,-50.0,47.5,B,47.5,76,Raw,F,,Juniors
13,Szabó Tamara Ildikó,2005,SzentGyAjk,70.36,-40.0,45.0,-47.5,45.0,B,45.0,76,Raw,F,,Juniors
14,Botzheim Éva Luca,2006,FriedSchil,73.86,-35.0,45.0,-57.5,45.0,B,45.0,76,Raw,F,,Juniors
15,Horváth Dalma,2006,HunyTechn,71.08,40.0,-42.5,-42.5,40.0,B,40.0,76,Raw,F,,Juniors
16,Zsoldos Jázmin,2006,BesseKisv,72.54,27.5,30.0,-35.0,30.0,B,30.0,76,Raw,F,,Juniors
1,Petri Regina,2005,SzentGyBcs,80.76,60.0,-65.0,-65.0,60.0,B,60.0,84,Raw,F,,Juniors
2,Sándor Andrea,2005,BarossSzol,76.54,50.0,55.0,-60.0,55.0,B,55.0,84,Raw,F,,Juniors
3,Schlemmer Jázmin,2005,HunyTechn,80.92,50.0,-55.0,-55.0,50.0,B,50.0,84,Raw,F,,Juniors
DQ,Németh Bianka,2006,KőbSztLá,78.52,-60.0,-60.0,-60.0,,B,,84,Raw,F,,Juniors
1,Dömötör Dóra,2004,ZegKölcsey,97.08,60.0,65.0,-67.5,65.0,B,65.0,84+,Raw,F,,Juniors
2,Ereth Liza,2005,NoszlKapos,97.38,50.0,55.0,57.5,57.5,B,57.5,84+,Raw,F,,Juniors
3,Korcsik Zoé Niobé,2004,EötvösJTec,99.46,55.0,-57.5,-57.5,55.0,B,55.0,84+,Raw,F,,Juniors
4,Szaniszló Fanni,2006,BesseKisv,111.74,50.0,55.0,-57.5,55.0,B,55.0,84+,Raw,F,,Juniors
5,Kovács Vivien,2005,KossuthGim,87.6,40.0,-45.0,45.0,45.0,B,45.0,84+,Raw,F,,Juniors
6,Tóth Zsófia Klára,2006,HonvMin,88.36,37.5,40.0,42.5,42.5,B,42.5,84+,Raw,F,,Juniors
7,Orphanides Lukrécia Olimpia,2006,HermannOtt,111.68,-40.0,40.0,-42.5,40.0,B,40.0,84+,Raw,F,,Juniors
8,Csomai Letícia,2006,SzentGyAjk,85.82,32.5,37.5,-40.0,37.5,B,37.5,84+,Raw,F,,Juniors
DQ,Antal Laura,2004,GöndöcsGyu,114.8,-60.0,-60.0,-62.5,,B,,84+,Raw,F,,Juniors
