Division,WeightClassKg,Place,Name,Team,BodyweightKg,Best3SquatKg,Best3BenchKg,Best3DeadliftKg,TotalKg,Equipment,Event,Sex,BirthDate
Boys,51.71,1,Xavier Marroquin,Strawn,50.94,149.69,79.38,154.22,383.29,Unlimited,SBD,M,
Boys,51.71,2,Nathan DeLeon,Electra,51.17,149.69,88.45,142.88,381.02,Unlimited,SBD,M,
Boys,51.71,3,Dylan Kelly,Willow Park Trinity Christian Academy,51.3,106.59,56.7,172.37,335.66,Unlimited,SBD,M,
Boys,51.71,4,Carlos Hernandez,Alvord,47.36,129.27,61.23,127.01,317.51,Unlimited,SBD,M,
Boys,51.71,5,Kaeden Wallace,Nocona,45.54,92.99,52.16,108.86,254.01,Unlimited,SBD,M,
Boys,51.71,6,Jack Lashley,Muenster,51.35,97.52,49.9,104.33,251.74,Unlimited,SBD,M,
Boys,51.71,NS,Douglas Doerschuk,Hawley,,,,,,Unlimited,SBD,M,
Boys,55.79,1,Ryan Dearmond,Tom Bean,54.11,170.1,83.91,172.37,426.38,Unlimited,SBD,M,
Boys,55.79,2,Joel Jones,Perrin-Whitt,53.93,154.22,81.65,167.83,403.7,Unlimited,SBD,M,
Boys,55.79,3,Riggen Thaggard,Electra,54.52,145.15,90.72,158.76,394.63,Unlimited,SBD,M,
Boys,55.79,4,Rylan Ross,Whitewright,55.52,142.88,79.38,147.42,369.68,Unlimited,SBD,M,
Boys,55.79,5,Calib Hobbs,Hawley,55.34,136.08,83.91,147.42,367.41,Unlimited,SBD,M,
Boys,55.79,6,Austin Caldwell,Collinsville,55.79,127.01,83.91,151.95,362.87,Unlimited,SBD,M,
Boys,55.79,7,Brazos Brendle,Haskell,54.43,129.27,92.99,136.08,358.34,Unlimited,SBD,M,
Boys,55.79,8,Mitchell Gaston,Nocona,54.2,111.13,54.43,106.59,272.16,Unlimited,SBD,M,
Boys,55.79,NS,Will Saadeh,Willow Park Trinity Christian Academy,,,,,,Unlimited,SBD,M,
Boys,55.79,DQ,Mayson Taylor,Slidell,55.79,,,,,Unlimited,SBD,M,
Boys,59.87,1,Daniel Ruiz,Tom Bean,59.6,170.1,88.45,204.12,462.66,Unlimited,SBD,M,
Boys,59.87,2,Carter Sicking,Muenster,59.19,172.37,124.74,163.29,460.4,Unlimited,SBD,M,
Boys,59.87,3,Leander Lovelace,Alvord,59.87,179.17,104.33,172.37,455.86,Unlimited,SBD,M,
Boys,59.87,4,Nathaniel Danaghey,Electra,58.97,174.63,95.25,154.22,424.11,Unlimited,SBD,M,
Boys,59.87,5,Jaxon Brown,Alvord,58.15,161.03,95.25,154.22,410.5,Unlimited,SBD,M,
Boys,59.87,6,Braden Burleson,Hawley,58.33,158.76,113.4,129.27,401.43,Unlimited,SBD,M,
Boys,59.87,7,Lukas Whitmire,Quanah,57.29,149.69,79.38,149.69,378.75,Unlimited,SBD,M,
Boys,59.87,8,Tyler Slimp,Alvord,58.2,136.08,77.11,165.56,378.75,Unlimited,SBD,M,
Boys,59.87,9,Joaquin Ordonez #2,Whitewright,59.42,145.15,83.91,149.69,378.75,Unlimited,SBD,M,
Boys,59.87,10,Lexicon Acosta,Perrin-Whitt,59.87,154.22,70.31,151.95,376.48,Unlimited,SBD,M,
Boys,59.87,11,Cj Alexander,Haskell,59.19,129.27,86.18,145.15,360.61,Unlimited,SBD,M,
Boys,59.87,12,James Covington,Roby,58.92,111.13,63.5,142.88,317.51,Unlimited,SBD,M,
Boys,67.13,1,Wyatt Steinberger,Windthorst,66.59,244.94,183.7,244.94,673.58,Unlimited,SBD,M,
Boys,67.13,2,Xander Jackson,Quanah,66.5,226.8,106.59,197.31,530.7,Unlimited,SBD,M,
Boys,67.13,3,Austin Sampley,Keller Harvest Christian Academy,62.19,195.04,138.35,185.97,519.36,Unlimited,SBD,M,
Boys,67.13,4,Nic Lynn,Strawn,64.36,195.04,115.67,204.12,514.83,Unlimited,SBD,M,
Boys,67.13,5,Ethan Stalling,Hawley,65.68,213.19,117.93,172.37,503.49,Unlimited,SBD,M,
Boys,67.13,6,Riley Rodriguez,Anson,66,181.44,113.4,192.78,487.61,Unlimited,SBD,M,
Boys,67.13,7,Tyler Thomas,Electra,66.22,185.97,108.86,188.24,483.08,Unlimited,SBD,M,
Boys,67.13,8,Seth Udell,Whitewright,65.54,183.7,104.33,185.97,474,Unlimited,SBD,M,
Boys,67.13,9,Shane Ahearn,Strawn,66.45,181.44,113.4,147.42,442.25,Unlimited,SBD,M,
Boys,67.13,10,Will Brown,Quanah,65,195.04,95.25,138.35,428.64,Unlimited,SBD,M,
Boys,67.13,11,Joaquin Martinez,Petrolia,66.63,145.15,102.06,154.22,401.43,Unlimited,SBD,M,
Boys,67.13,DQ,Cason Choat,Quanah,66.54,188.24,86.18,,,Unlimited,SBD,M,
Boys,74.84,1,Angel Alvarado,Olney,71.35,233.6,151.95,204.12,589.67,Unlimited,SBD,M,
Boys,74.84,2,Cole Mormon,Lindsay,72.71,204.12,145.15,240.4,589.67,Unlimited,SBD,M,
Boys,74.84,3,Michael Barcenas,Strawn,73.84,238.14,131.54,208.65,578.33,Unlimited,SBD,M,
Boys,74.84,4,Johnny Fraga,Strawn,72.67,190.51,136.08,181.44,508.02,Unlimited,SBD,M,
Boys,74.84,5,Micah Booth,Electra,74.21,192.78,120.2,195.04,508.02,Unlimited,SBD,M,
Boys,74.84,6,George Light,Collinsville,,176.9,131.54,183.7,492.15,Unlimited,SBD,M,
Boys,74.84,7,Nathan Hellman,Lindsay,69.99,154.22,122.47,163.29,439.98,Unlimited,SBD,M,
Boys,74.84,NS,Stetson Campbell,Stamford,,,,,,Unlimited,SBD,M,
Boys,74.84,DQ,Nick Gonzales,Quanah,72.53,,,,,Unlimited,SBD,M,
Boys,74.84,DQ,Corey Layne,Anson,70.9,,,,,Unlimited,SBD,M,
Boys,74.84,DQ,Adrian Rubio,Archer City,71.89,136.08,102.06,,,Unlimited,SBD,M,
Boys,74.84,DQ,Zade Schilling,Muenster,74.39,,,,,Unlimited,SBD,M,
Boys,82.1,1,Elias Ramos,Anson,79.97,233.6,149.69,247.21,630.49,Unlimited,SBD,M,
Boys,82.1,2,Rhett Walterscheid,Muenster,80.38,222.26,151.95,215.46,589.67,Unlimited,SBD,M,
Boys,82.1,3,Rodolfo Arce,Olney,79.97,217.72,129.27,199.58,546.58,Unlimited,SBD,M,
Boys,82.1,4,Jackson Uloth,Alvord,78.74,190.51,133.81,183.7,508.02,Unlimited,SBD,M,
Boys,82.1,5,Collin Mann,Alvord,77.38,181.44,124.74,179.17,485.34,Unlimited,SBD,M,
Boys,82.1,6,Jackson Becker,Muenster,79.2,170.1,131.54,183.7,485.34,Unlimited,SBD,M,
Boys,82.1,7,David Yanez,Strawn,77.84,172.37,106.59,181.44,460.4,Unlimited,SBD,M,
Boys,82.1,8,James Grubbs,Whitewright,81.28,174.63,102.06,179.17,455.86,Unlimited,SBD,M,
Boys,82.1,9,Kayden Pinneke,Chico,78.43,165.56,102.06,154.22,421.84,Unlimited,SBD,M,
Boys,82.1,10,Ricco Sandoval,Olney,77.43,167.83,97.52,154.22,419.57,Unlimited,SBD,M,
Boys,82.1,11,Luke Deerwater,Archer City,79.11,124.74,113.4,176.9,415.04,Unlimited,SBD,M,
Boys,82.1,NS,Teagan Pimpton,Stamford,,,,,,Unlimited,SBD,M,
Boys,82.1,DQ,Aj Eggleston,Hawley,75.93,174.63,115.67,,,Unlimited,SBD,M,
Boys,89.81,1,Ángel Cruz,Whitewright,89.54,272.16,174.63,251.74,698.53,Unlimited,SBD,M,
Boys,89.81,2,Simon Thurman,Lindsay,89.09,244.94,136.08,249.48,630.49,Unlimited,SBD,M,
Boys,89.81,3,Evan Enriquez,Haskell,89.49,222.26,149.69,226.8,598.74,Unlimited,SBD,M,
Boys,89.81,4,William Berry,Chillicothe,88.13,215.46,127.01,231.33,573.79,Unlimited,SBD,M,
Boys,89.81,5,Zayne Foster,Archer City,88.68,204.12,161.03,201.85,566.99,Unlimited,SBD,M,
Boys,89.81,6,Alijah Lozano,Anson,88.63,206.38,138.35,217.72,562.45,Unlimited,SBD,M,
Boys,89.81,7,Zach Smith,Muenster,88.77,222.26,138.35,199.58,560.19,Unlimited,SBD,M,
Boys,89.81,8,Chris Hernandez,Strawn,89.09,195.04,136.08,213.19,544.31,Unlimited,SBD,M,
Boys,89.81,9,Kalder Halbrook,Santo,83.6,210.92,124.74,201.85,537.51,Unlimited,SBD,M,
Boys,89.81,10,Tate Sampson,Muenster,86.86,204.12,145.15,176.9,526.17,Unlimited,SBD,M,
Boys,89.81,DQ,Coeyn Warkala,Hawley,88.59,244.94,,,,Unlimited,SBD,M,
Boys,89.81,DQ,Owen Cardiel,Perrin-Whitt,89.54,197.31,,,,Unlimited,SBD,M,
Boys,99.79,1,Kanyon Willeford,Hawley,93.44,226.8,188.24,240.4,655.44,Unlimited,SBD,M,
Boys,99.79,2,Zane Smith,Alvord,95.89,210.92,140.61,260.82,612.35,Unlimited,SBD,M,
Boys,99.79,3,Karrington Ransom,Chico,97.98,240.4,165.56,206.38,612.35,Unlimited,SBD,M,
Boys,99.79,4,Case Beeson,Stamford,98.7,210.92,136.08,242.67,589.67,Unlimited,SBD,M,
Boys,99.79,5,Reese Futch,Whitewright,99.06,244.94,120.2,222.26,587.4,Unlimited,SBD,M,
Boys,99.79,6,Michael Lockwood,Santo,95.53,219.99,127.01,231.33,578.33,Unlimited,SBD,M,
Boys,99.79,7,Luke Sides,Santo,90.72,222.26,136.08,213.19,571.53,Unlimited,SBD,M,
Boys,99.79,8,Danny Sifuentes,Strawn,93.53,215.46,145.15,201.85,562.45,Unlimited,SBD,M,
Boys,99.79,9,Wyatt Tackett,Lindsay,94.98,213.19,124.74,208.65,546.58,Unlimited,SBD,M,
Boys,99.79,10,Caden Cardeas,Haskell,97.66,204.12,145.15,197.31,546.58,Unlimited,SBD,M,
Boys,99.79,DQ,Aron McMahen,Electra,89.99,,,,,Unlimited,SBD,M,
Boys,99.79,DQ,Landon Cash,Quanah,98.7,,,,,Unlimited,SBD,M,
Boys,109.77,1,Kyle Leidel,Muenster,102.06,247.21,174.63,183.7,605.55,Unlimited,SBD,M,
Boys,109.77,2,Justin Schumacher,Lindsay,100.79,226.8,158.76,215.46,601.01,Unlimited,SBD,M,
Boys,109.77,3,Tomas DeLeon,Electra,107.27,219.99,133.81,183.7,537.51,Unlimited,SBD,M,
Boys,109.77,4,Rocky Sheffield,Electra,102.42,204.12,120.2,204.12,528.44,Unlimited,SBD,M,
Boys,109.77,5,Matthew Gonzalez,Alvord,104.51,210.92,122.47,179.17,512.56,Unlimited,SBD,M,
Boys,109.77,6,Jayden Rains,Quanah,104.51,170.1,133.81,174.63,478.54,Unlimited,SBD,M,
Boys,109.77,7,Christopher Flores,Whitewright,105.96,197.31,113.4,163.29,474,Unlimited,SBD,M,
Boys,109.77,8,David Adkisson,Roby,107.05,181.44,104.33,188.24,474,Unlimited,SBD,M,
Boys,109.77,9,Hayden Mathews,Nocona,107.41,204.12,102.06,167.83,474,Unlimited,SBD,M,
Boys,109.77,10,Wade Schad,Muenster,100.65,176.9,81.65,172.37,430.91,Unlimited,SBD,M,
Boys,109.77,NS,Cash Hopewell,Whitewright,,,,,,Unlimited,SBD,M,
Boys,109.77,NS,Aidan Gill,Perrin-Whitt,,,,,,Unlimited,SBD,M,
Boys,109.77,DQ,Brian Horton,Whitewright,107.05,231.33,136.08,,,Unlimited,SBD,M,
Boys,109.77,DQ,Geovanni Cedillo,Electra,108.45,256.28,,,,Unlimited,SBD,M,
Boys,124.74,1,Grant McPherson,Muenster,111.18,260.82,181.44,238.14,680.39,Unlimited,SBD,M,
Boys,124.74,2,Cj Call,Quanah,123.47,244.94,154.22,233.6,632.76,Unlimited,SBD,M,
Boys,124.74,3,Caden West,Haskell,114.99,240.4,149.69,238.14,628.23,Unlimited,SBD,M,
Boys,124.74,4,McKay Young,Tom Bean,111.9,210.92,165.56,233.6,610.08,Unlimited,SBD,M,
Boys,124.74,5,Kooper McWilliams,Roby,113.35,222.26,145.15,213.19,580.6,Unlimited,SBD,M,
Boys,124.74,6,Alez Cruz,Perrin-Whitt,111.22,181.44,99.79,199.58,480.81,Unlimited,SBD,M,
Boys,124.74,7,Brody Chapman,Santo,117.62,185.97,115.67,179.17,480.81,Unlimited,SBD,M,
Boys,124.74,8,Evan Cisneros,Stamford,119.39,190.51,113.4,174.63,478.54,Unlimited,SBD,M,
Boys,124.74,9,Shooter Canada,Archer City,114.99,158.76,122.47,181.44,462.66,Unlimited,SBD,M,
Boys,124.74,10,Austin Zuniga,Slidell,115.58,183.7,92.99,181.44,458.13,Unlimited,SBD,M,
Boys,124.74,NS,Caden Lloyd,Lindsay,,,,,,Unlimited,SBD,M,
Boys,124.74,DQ,Tyson Monk,Tioga,121.74,229.06,,,,Unlimited,SBD,M,
Boys,124.74,DQ,Micah Moreno,Anson,113.76,233.6,131.54,,,Unlimited,SBD,M,
Boys,139.71,1,Ethan Holley,Petrolia,127.87,222.26,185.97,217.72,625.96,Unlimited,SBD,M,
Boys,139.71,2,Jared Gumpert,Petrolia,139.25,231.33,136.08,181.44,548.85,Unlimited,SBD,M,
Boys,139.71,3,Luke Sims,Willow Park Trinity Christian Academy,125.37,204.12,97.52,190.51,492.15,Unlimited,SBD,M,
Boys,139.71,4,Sam Bell,Lindsay,,188.24,104.33,158.76,451.32,Unlimited,SBD,M,
Boys,139.71,DQ,Christian Ortega,Hawley,132.4,,,,,Unlimited,SBD,M,
Boys,139.71,DQ,Jace Thompson,Anson,126.82,,,,,Unlimited,SBD,M,
Boys,139.71+,1,Justin Blackman,Perrin-Whitt,157.4,213.19,115.67,204.12,532.97,Unlimited,SBD,M,
