Division,WeightClassKg,Place,Name,Team,BodyweightKg,Best3SquatKg,Best3BenchKg,Best3DeadliftKg,TotalKg,Equipment,Event,Sex,BirthDate
Boys,55.79,1,A Phi Le,Pflugerville,54.61,195.04,120.2,185.97,501.22,Unlimited,SBD,M,
Boys,55.79,2,Jayden Malone,Liberty Hill,55.61,183.7,102.06,183.7,469.47,Unlimited,SBD,M,
Boys,55.79,3,Sean Salinas,Seguin,54.98,90.72,58.97,111.13,260.82,Unlimited,SBD,M,
Boys,59.87,1,Eric Ontiveros,Liberty Hill,59.69,142.88,102.06,179.17,424.11,Unlimited,SBD,M,
Boys,59.87,2,Cooper Arnold,Lake Belton,58.97,142.88,92.99,170.1,405.97,Unlimited,SBD,M,
Boys,59.87,3,Rowan Oktela,Hutto,58.42,102.06,68.04,133.81,303.91,Unlimited,SBD,M,
Boys,59.87,4,Flavio Gabriel,Killeen Shoemaker,59.69,111.13,56.7,131.54,299.37,Unlimited,SBD,M,
Boys,67.13,1,Braxton Smith,Pflugerville,65.32,127.01,86.18,156.49,369.68,Unlimited,SBD,M,
Boys,67.13,2,Caleb Studebaker,Hutto,65.41,138.35,81.65,142.88,362.87,Unlimited,SBD,M,
Boys,67.13,3,Cayden Harrison,Lake Belton,63.96,124.74,72.57,136.08,333.39,Unlimited,SBD,M,
Boys,67.13,4,Nate Grier,Manor New Tech,63.59,102.06,70.31,151.95,324.32,Unlimited,SBD,M,
Boys,67.13,5,Magnus Stahl,Manor New Tech,66.32,102.06,70.31,145.15,317.51,Unlimited,SBD,M,
Boys,67.13,6,Angel Lemus,Killeen Shoemaker,60.96,106.59,61.23,147.42,315.25,Unlimited,SBD,M,
Boys,67.13,7,Daniel Gallegos,Austin Navarro Early College,62.87,92.99,65.77,124.74,283.5,Unlimited,SBD,M,
Boys,67.13,DQ,Zayden Jones,Manor New Tech,62.41,,,,,Unlimited,SBD,M,
Boys,74.84,1,Jeremiah Dodson,Seguin,72.48,192.78,108.86,188.24,489.88,Unlimited,SBD,M,
Boys,74.84,2,Zachary Nolan,Liberty Hill,74.3,176.9,97.52,183.7,458.13,Unlimited,SBD,M,
Boys,74.84,3,Sebastian Rivera,Killeen Shoemaker,74.57,181.44,95.25,163.29,439.98,Unlimited,SBD,M,
Boys,74.84,4,Damian Zapata,Liberty Hill,72.85,183.7,86.18,165.56,435.45,Unlimited,SBD,M,
Boys,74.84,5,Jax Holliman,Lake Belton,72.48,158.76,113.4,158.76,430.91,Unlimited,SBD,M,
Boys,74.84,6,William James #2,Liberty Hill,72.76,163.29,106.59,154.22,424.11,Unlimited,SBD,M,
Boys,74.84,7,Jasiah Herrera,Seguin,68.13,147.42,102.06,167.83,417.3,Unlimited,SBD,M,
Boys,74.84,8,Blake Baty,Lake Belton,72.57,163.29,90.72,142.88,396.89,Unlimited,SBD,M,
Boys,74.84,9,Ramiro Aguirre,Seguin,72.48,124.74,92.99,147.42,365.14,Unlimited,SBD,M,
Boys,74.84,10,Diego King,Killeen Shoemaker,73.94,133.81,74.84,133.81,342.46,Unlimited,SBD,M,
Boys,74.84,11,Ryan Moncada,Austin Navarro Early College,68.13,111.13,79.38,136.08,326.59,Unlimited,SBD,M,
Boys,74.84,DQ,Matthew Birdwell,Killeen Shoemaker,73.94,129.27,,,,Unlimited,SBD,M,
Boys,74.84,DQ,William Dickerson,Hutto,70.31,,,,,Unlimited,SBD,M,
Boys,82.1,1,Evan Neilson,Liberty Hill,79.2,226.8,127.01,219.99,573.79,Unlimited,SBD,M,
Boys,82.1,2,D'Marion Speller,Pflugerville,81.92,210.92,142.88,210.92,564.72,Unlimited,SBD,M,
Boys,82.1,3,Steve Nguyen,Manor New Tech,80.83,161.03,120.2,238.14,519.36,Unlimited,SBD,M,
Boys,82.1,4,Austin McGill,Liberty Hill,80.01,183.7,124.74,183.7,492.15,Unlimited,SBD,M,
Boys,82.1,5,Braylon Beckworth,Hutto,75.75,170.1,111.13,181.44,462.66,Unlimited,SBD,M,
Boys,82.1,6,Cole Smith,Liberty Hill,75.3,183.7,92.99,179.17,455.86,Unlimited,SBD,M,
Boys,82.1,7,Nathaniel Oziran,Liberty Hill,81.74,149.69,111.13,163.29,424.11,Unlimited,SBD,M,
Boys,82.1,8,Brylie Agpaoa,Killeen Shoemaker,77.11,154.22,81.65,183.7,419.57,Unlimited,SBD,M,
Boys,82.1,9,Rylan Rubio,Seguin,77.66,140.61,97.52,156.49,394.63,Unlimited,SBD,M,
Boys,82.1,10,Allen Covarrubias,Manor New Tech,82.1,140.61,83.91,147.42,371.95,Unlimited,SBD,M,
Boys,82.1,11,Damien Garcia,Seguin,77.93,131.54,81.65,154.22,367.41,Unlimited,SBD,M,
Boys,82.1,12,Patricio Gandara,Lake Belton,80.01,129.27,83.91,142.88,356.07,Unlimited,SBD,M,
Boys,82.1,13,Justin Yi,Hutto,75.75,113.4,79.38,142.88,335.66,Unlimited,SBD,M,
Boys,82.1,14,Luis Casas,Austin Navarro Early College,75.11,113.4,72.57,140.61,326.59,Unlimited,SBD,M,
Boys,89.81,1,Edoyemwen Edomarhoirho,Pflugerville,84.55,222.26,117.93,226.8,566.99,Unlimited,SBD,M,
Boys,89.81,2,Parker Langwell,Liberty Hill,88.63,217.72,129.27,215.46,562.45,Unlimited,SBD,M,
Boys,89.81,3,Jaxson Hines,Liberty Hill,86.55,206.38,156.49,185.97,548.85,Unlimited,SBD,M,
Boys,89.81,4,Jasiyah Riley,Killeen Shoemaker,82.37,181.44,111.13,199.58,492.15,Unlimited,SBD,M,
Boys,89.81,5,Travellis E Harrison,Lake Belton,84.01,151.95,97.52,204.12,453.59,Unlimited,SBD,M,
Boys,89.81,6,Kyle Medrano,Seguin,88.09,138.35,97.52,158.76,394.63,Unlimited,SBD,M,
Boys,89.81,7,Avion Lucas,Killeen Shoemaker,86.82,129.27,83.91,161.03,374.21,Unlimited,SBD,M,
Boys,89.81,8,Christian Benner,Lake Belton,86.27,140.61,79.38,142.88,362.87,Unlimited,SBD,M,
Boys,89.81,9,Diego Hernandez,Manor New Tech,89.09,106.59,70.31,133.81,310.71,Unlimited,SBD,M,
Boys,99.79,1,Donovan Wright,Pflugerville,94.53,229.06,117.93,204.12,551.11,Unlimited,SBD,M,
Boys,99.79,2,Angel Samaripa,Austin Navarro Early College,94.89,190.51,117.93,215.46,523.9,Unlimited,SBD,M,
Boys,99.79,3,Cedric Gould,Liberty Hill,98.34,192.78,124.74,195.04,512.56,Unlimited,SBD,M,
Boys,99.79,4,Isaiah Reed,Lake Belton,97.25,181.44,122.47,170.1,474,Unlimited,SBD,M,
Boys,99.79,5,John Mireles,Seguin,91.08,185.97,122.47,154.22,462.66,Unlimited,SBD,M,
Boys,99.79,6,Alex Johnson,Manor New Tech,96.89,183.7,92.99,176.9,453.59,Unlimited,SBD,M,
Boys,99.79,7,Eli Herrera,Manor New Tech,91.44,156.49,88.45,195.04,439.98,Unlimited,SBD,M,
Boys,99.79,8,Nikalias Cantu,Austin Navarro Early College,94.44,147.42,92.99,149.69,390.09,Unlimited,SBD,M,
Boys,99.79,DQ,Francklin Gonzalez,Austin Navarro Early College,99.43,235.87,142.88,,,Unlimited,SBD,M,
Boys,109.77,1,Jett Harrison,Liberty Hill,108.95,219.99,147.42,201.85,569.26,Unlimited,SBD,M,
Boys,109.77,2,Davion Haywood,Pflugerville,100.61,188.24,124.74,204.12,517.1,Unlimited,SBD,M,
Boys,109.77,3,Ethan Love,Lake Belton,102.06,199.58,120.2,188.24,508.02,Unlimited,SBD,M,
Boys,109.77,4,Mark Aleman,Hutto,103.06,165.56,92.99,183.7,442.25,Unlimited,SBD,M,
Boys,109.77,5,Douglas Howser,Hutto,103.69,140.61,79.38,147.42,367.41,Unlimited,SBD,M,
Boys,124.74,1,Darwin Portillo,Austin Navarro Early College,112.94,274.42,145.15,224.53,644.1,Unlimited,SBD,M,
Boys,124.74,2,Jacobi Simmons,Austin Navarro Early College,111.22,242.67,163.29,235.87,641.83,Unlimited,SBD,M,
Boys,124.74,3,Najm Aldoori,Pflugerville,124.38,233.6,124.74,204.12,562.45,Unlimited,SBD,M,
Boys,124.74,4,Rolando Tapia,Lake Belton,123.47,197.31,104.33,192.78,494.42,Unlimited,SBD,M,
Boys,124.74,5,Xavier Watkins,Killeen Shoemaker,116.85,183.7,104.33,192.78,480.81,Unlimited,SBD,M,
Boys,124.74,6,Daniel Simpson,Liberty Hill,110.59,161.03,111.13,183.7,455.86,Unlimited,SBD,M,
Boys,124.74,7,Christopher Gomez,Austin Navarro Early College,112.13,163.29,86.18,185.97,435.45,Unlimited,SBD,M,
Boys,124.74,8,Nicholas Ray,Austin Navarro Early College,110.13,111.13,74.84,131.54,317.51,Unlimited,SBD,M,
Boys,139.71,1,Kareem Edmon,Killeen Shoemaker,133.99,229.06,147.42,249.48,625.96,Unlimited,SBD,M,
Boys,139.71,2,Harrison Dean,Seguin,129.09,111.13,95.25,154.22,360.61,Unlimited,SBD,M,
Boys,139.71,3,Eithen Storminger,Lake Belton,135.99,124.74,61.23,151.95,337.93,Unlimited,SBD,M,
Boys,139.71+,DQ,Caleb Ighomon,Lake Belton,149.14,,,,,Unlimited,SBD,M,
