Division,WeightClassKg,Place,Name,Team,BodyweightKg,Best3SquatKg,Best3BenchKg,Best3DeadliftKg,TotalKg,Equipment,Event,Sex
Boys,51.71,1,Cole Terry,Skidmore-Tynan,51.71,158.76,95.25,167.83,421.84,Single-ply,SBD,M
Boys,51.71,2,Justin Bronaugh,Skidmore-Tynan,44,56.7,31.75,83.91,172.37,Single-ply,SBD,M
Boys,51.71,DQ,Gabriel Bejeran,Sinton,48.26,97.52,,,,Single-ply,SBD,M
Boys,59.87,1,Noe Herrera,Kingsville King,59.6,158.76,97.52,181.44,437.72,Single-ply,SBD,M
Boys,59.87,2,Jordan Pendergraph,Skidmore-Tynan,59.87,140.61,83.91,156.49,381.02,Single-ply,SBD,M
Boys,59.87,3,Tony De La Rosa,Santa Gertrudis Academy,58.42,113.4,77.11,136.08,326.59,Single-ply,SBD,M
Boys,59.87,4,Jose Garza,Kingsville King,59.87,115.67,79.38,124.74,319.78,Single-ply,SBD,M
Boys,59.87,DQ,Abel Cervantez,Sinton,59.87,117.93,,,,Single-ply,SBD,M
Boys,67.13,1,Aaron Saenz,Kingsville King,67.13,142.88,86.18,158.76,387.82,Single-ply,SBD,M
Boys,67.13,2,Isaick Estrada,Skidmore-Tynan,67.13,142.88,68.04,165.56,376.48,Single-ply,SBD,M
Boys,67.13,3,Izaiah Garcia,Skidmore-Tynan,67.13,136.08,74.84,158.76,369.68,Single-ply,SBD,M
Boys,67.13,4,Randy Seidel,Sinton,61.51,136.08,88.45,124.74,349.27,Single-ply,SBD,M
Boys,67.13,5,Ricky Torres,Sinton,64.41,104.33,70.31,120.2,294.84,Single-ply,SBD,M
Boys,74.84,1,Storm Toelken,Skidmore-Tynan,72.57,181.44,129.27,204.12,514.83,Single-ply,SBD,M
Boys,74.84,2,Gustavo Gallardo,Sinton,74.75,195.04,106.59,204.12,505.76,Single-ply,SBD,M
Boys,74.84,3,Seth Meza,Santa Gertrudis Academy,71.58,183.7,129.27,183.7,496.68,Single-ply,SBD,M
Boys,74.84,4,Logan Shannen,Skidmore-Tynan,73.03,165.56,90.72,199.58,455.86,Single-ply,SBD,M
Boys,74.84,5,Stephen Moreno,Skidmore-Tynan,74.84,158.76,104.33,183.7,446.79,Single-ply,SBD,M
Boys,74.84,6,Michael Martinez #12,Sinton,69.04,131.54,70.31,136.08,337.93,Single-ply,SBD,M
Boys,82.1,1,Jacob Gonzales,Kingsville King,82.1,172.37,90.72,181.44,444.52,Single-ply,SBD,M
Boys,82.1,2,Trae Trevino,Sinton,78.56,131.54,90.72,142.88,365.14,Single-ply,SBD,M
Boys,82.1,3,Ilan Escobedo,Santa Gertrudis Academy,79.47,131.54,90.72,142.88,365.14,Single-ply,SBD,M
Boys,89.81,1,Daniel González,Kingsville King,87.27,251.74,145.15,247.21,644.1,Single-ply,SBD,M
Boys,89.81,2,Grayson May,Santa Gertrudis Academy,84.19,138.35,102.06,142.88,383.29,Single-ply,SBD,M
Boys,89.81,3,Christian Moreno,Kingsville King,85.37,131.54,74.84,115.67,322.05,Single-ply,SBD,M
Boys,99.79,1,Gilbert Arriaga,Kingsville King,99.25,238.14,136.08,233.6,607.81,Single-ply,SBD,M
Boys,99.79,2,Saulo Ramos,Kingsville King,97.79,217.72,113.4,195.04,526.17,Single-ply,SBD,M
Boys,99.79,3,Vicente Zavala,Santa Gertrudis Academy,95.62,117.93,86.18,138.35,342.46,Single-ply,SBD,M
Boys,99.79,DQ,Marcis Espinoza,Kingsville King,93.89,129.27,,,,Single-ply,SBD,M
Boys,109.77,1,Ismael Gonzalez,Kingsville King,107.68,254.01,149.69,219.99,623.69,Single-ply,SBD,M
Boys,109.77,2,Marcus Hinojosa,Skidmore-Tynan,102.97,226.8,108.86,208.65,544.31,Single-ply,SBD,M
Boys,109.77,3,Victor Vera,Sinton,104.24,181.44,149.69,183.7,514.83,Single-ply,SBD,M
Boys,109.77,4,Francisco Gonzales,Sinton,108.23,183.7,131.54,192.78,508.02,Single-ply,SBD,M
Boys,109.77,5,Aidyn Cadena,Santa Gertrudis Academy,106.59,163.29,106.59,174.63,444.52,Single-ply,SBD,M
Boys,109.77,6,Tjaden Handson,Sinton,105.87,147.42,99.79,170.1,417.3,Single-ply,SBD,M
Boys,109.77,DQ,Jessiah Castellanos,Kingsville King,103.96,,,,,Single-ply,SBD,M
Boys,124.74,1,Matthew Torres,Santa Gertrudis Academy,113.76,86.18,61.23,92.99,240.4,Single-ply,SBD,M
Boys,124.74,DQ,Sam Salinas,Santa Gertrudis Academy,116.39,,,,,Single-ply,SBD,M
Boys,124.74,DQ,Jakob Encinia,Sinton,111.13,174.63,140.61,,,Single-ply,SBD,M
Boys,124.74+,1,Aaron Flores #2,Santa Gertrudis Academy,144.88,199.58,77.11,188.24,464.93,Single-ply,SBD,M
