Place,Name,Sex,BirthDate,Age,Country,Equipment,Division,BodyweightKg,WeightClassKg,Squat1Kg,Squat2Kg,Squat3Kg,Best3SquatKg,Bench1Kg,Bench2Kg,Bench3Kg,Best3BenchKg,Deadlift1Kg,Deadlift2Kg,Deadlift3Kg,Best3DeadliftKg,TotalKg,Event,Team
3,Raquel Peireira da Costa,F,2003-05-05,21,Switzerland,Sleeves,Open,58.8,,85,95,105,105,45,52.5,-57.5,52.5,110,125,142.5,142.5,300,SBD,Geneva Powerlifting
7,Aurea Meier,F,2003-04-23,21,Switzerland,Sleeves,Open,62.7,,75,85,-95,85,52.5,60,-67.5,60,105,125,135,135,280,SBD,
1,Ceyda Raza,F,1996-08-15,27,Switzerland,Sleeves,Open,68,,137.5,142.5,147.5,147.5,77.5,82.5,85,85,137.5,145,150,150,382.5,SBD,Outcast Strength System
4,Simona Coppola,F,2001-05-09,23,Switzerland,Sleeves,Open,69.7,,100,107.5,115,115,-65,-67.5,67.5,67.5,120,130,137.5,137.5,320,SBD,Outcast Strength System
5,Saskia Senn,F,1997-11-27,26,Switzerland,Sleeves,Open,71.1,,105,110,-115,110,57.5,62.5,-65,62.5,132.5,142.5,147.5,147.5,320,SBD,One Rep Strength
6,Nadine Schaufelberger,F,1988-10-07,35,Switzerland,Sleeves,Open,72.6,,110,120,-127.5,120,55,60,65,65,115,125,135,135,320,SBD,Powerlifting Winti
8,Dana Geissbühler,F,2000-08-27,23,Switzerland,Sleeves,Open,71.9,,70,77.5,85,85,65,70,72.5,72.5,92.5,102.5,107.5,107.5,265,SBD,Outcast Strength System
2,Stefanie Glanzmann,F,1981-12-15,42,Switzerland,Sleeves,Open,86.5,,-130,-135,135,135,-65,67.5,70,70,160,165,172.5,172.5,377.5,SBD,Outcast Strength System
2,Duarte Da Silva,M,2002-09-09,21,Switzerland,Sleeves,Open,63.1,,185,195,205,205,115,120,125,125,180,-190,-190,180,510,SBD,Geneva Powerlifting
5,Gary Kunzi,M,2006-06-21,17,Switzerland,Sleeves,Open,63.9,,140,147.5,152.5,152.5,75,80,-82.5,80,157.5,167.5,172.5,172.5,405,SBD,Neuchatel Force
3,Samson Yemane,M,1993-12-14,30,Switzerland,Sleeves,Open,73.2,,175,185,-190,185,110,117.5,122.5,122.5,205,215,220,220,527.5,SBD,CLHM
4,Juan Mateo Suarez Gomez,M,2004-07-09,19,Switzerland,Sleeves,Open,71.4,,150,160,-162.5,160,90,-97.5,-97.5,90,210,-225,225,225,475,SBD,Geneva Powerlifting
1,Vasco Artino,M,1986-03-25,38,Switzerland,Sleeves,Open,80.7,83,200,220,232.5,232.5,120,127.5,135,135,250,275,-300,275,642.5,SBD,Barbell Club Landquart
2,Anthony Fornachon,M,2000-03-14,24,Switzerland,Sleeves,Open,82.2,83,210,220,-225,220,135,-140,-140,135,240,252.5,262.5,262.5,617.5,SBD,Nordic Barbell Club
3,Leo Toffel,M,2003-10-25,20,Switzerland,Sleeves,Open,82.3,83,-180,180,187.5,187.5,122.5,130,135,135,202.5,212.5,222.5,222.5,545,SBD,Nordic Barbell Club
4,Matthias Balla,M,1999-02-13,25,Switzerland,Sleeves,Open,82.4,83,175,185,-192.5,185,105,112.5,117.5,117.5,220,232.5,242.5,242.5,545,SBD,Outcast Strength System
5,Bryan Moos,M,2004-02-20,20,Switzerland,Sleeves,Open,79.7,83,175,-182.5,185,185,117.5,122.5,-125,122.5,210,220,230,230,537.5,SBD,Geneva Powerlifting
6,Lars Willi,M,2000-11-22,23,Switzerland,Sleeves,Open,81.3,83,200,210,-225,210,122.5,130,-137.5,130,195,-205,-205,195,535,SBD,Barbell Club Landquart
7,Adrian Mischler,M,1996-09-19,27,Switzerland,Sleeves,Open,81.9,83,140,150,160,160,112.5,117.5,-120,117.5,205,217.5,230,230,507.5,SBD,Outcast Strength System
8,Daniel Silva,M,2004-09-16,19,Switzerland,Sleeves,Open,80.1,83,-172.5,172.5,-182.5,172.5,112.5,-115,115,115,195,202.5,210,210,497.5,SBD,Powerlifting Lausanne
9,Mohamed El Saidi,M,2006-08-07,17,Switzerland,Sleeves,Open,76.2,83,170,-180,180,180,80,85,90,90,165,175,185,185,455,SBD,Powerlifting Wil
10,Gaétan Guitard,M,1998-11-30,25,Switzerland,Sleeves,Open,80.1,83,150,160,170,170,110,122.5,-130,122.5,160,-180,-200,160,452.5,SBD,Perfgym
1,Hugo Décotterd,M,1999-02-09,25,Switzerland,Sleeves,Open,91.9,93,210,215,230,230,165,175,-182.5,175,235,245,255,255,660,SBD,Nordic Barbell Club
2,Liam Martin,M,2000-05-07,24,Switzerland,Sleeves,Open,91.1,93,217.5,230,240,240,157.5,-167.5,-170,157.5,235,250,-262.5,250,647.5,SBD,Geneva Powerlifting
3,Gioele Ronchetti,M,2003-07-18,20,Switzerland,Sleeves,Open,92.3,93,210,225,232.5,232.5,150,157.5,-162.5,157.5,240,255,-270,255,645,SBD,Kraftdreikampf Klub der Sportfreunde
4,Mateusz Fido,M,1999-01-14,25,Switzerland,Sleeves,Open,90.4,93,190,205,215,215,145,152.5,-160,152.5,230,245,-255,245,612.5,SBD,One Rep Strength
5,Damien Erriquez,M,1998-09-25,25,Switzerland,Sleeves,Open,91.7,93,205,-215,-225,205,130,135,137.5,137.5,227.5,240,247.5,247.5,590,SBD,Geneva Powerlifting
6,Benjamin Hostettler,M,2004-02-28,20,Switzerland,Sleeves,Open,92.9,93,210,222.5,230,230,117.5,122.5,127.5,127.5,220,232.5,-242.5,232.5,590,SBD,Outcast Strength System
7,Matthieu Perret,M,1998-05-09,26,Switzerland,Sleeves,Open,91.4,93,202.5,-210,210,210,140,142.5,-145,142.5,210,-220,227.5,227.5,580,SBD,Nordic Barbell Club
8,Dominik Barenthien,M,1993-08-17,30,Switzerland,Sleeves,Open,89.9,93,180,195,202.5,202.5,125,132.5,140,140,215,230,-250,230,572.5,SBD,Kraftdreikampf Klub der Sportfreunde
9,Samir Lambert,M,2000-06-19,23,Switzerland,Sleeves,Open,90.7,93,165,175,182.5,182.5,140,145,150,150,190,205,-212.5,205,537.5,SBD,CLHM
10,Christoph Ciuca,M,2004-06-30,19,Switzerland,Sleeves,Open,91.7,93,187.5,192.5,-197.5,192.5,112.5,117.5,-122.5,117.5,210,217.5,-227.5,217.5,527.5,SBD,Powerlifting Lausanne
11,Luigi De Rosa #2,M,1977-10-11,46,Switzerland,Sleeves,Open,89.2,93,185,195,205,205,-107.5,107.5,-115,107.5,185,195,-200,195,507.5,SBD,Elemental Athletes
12,Jacques Morel,M,1984-05-21,39,Switzerland,Sleeves,Open,91.2,93,-160,160,170,170,112.5,120,-125,120,180,190,200,200,490,SBD,Nordic Barbell Club
DQ,Axel Thorens,M,1996-01-10,28,Switzerland,Sleeves,Open,90.8,93,195,212.5,220,220,117.5,122.5,-125,122.5,-230,-237.5,-237.5,,,SBD,Perfgym
1,Thomas Fujise,M,2002-04-13,22,Switzerland,Sleeves,Open,93.3,105,225,235,245,245,-155,160,175,175,230,245,265,265,685,SBD,Geneva Powerlifting
2,Max Becker,M,1993-01-12,31,Switzerland,Sleeves,Open,95.5,105,240,252.5,260,260,152.5,160,165,165,250,260,-270,260,685,SBD,Elemental Athletes
3,Karim Genevay,M,2001-05-01,23,Switzerland,Sleeves,Open,99.9,105,210,220,225,225,150,-157.5,-160,150,250,280,-290,280,655,SBD,Perfgym
4,Marc Grepper,M,1989-03-20,35,Switzerland,Sleeves,Open,102.9,105,200,215,230,230,135,145,-152.5,145,220,245,-255,245,620,SBD,Barbell Club Landquart
5,Nathan Tompsett,M,1999-08-30,24,Switzerland,Sleeves,Open,102.1,105,190,205,215,215,130,142.5,150,150,200,220,235,235,600,SBD,
6,Nicholas Larson #1,M,1995-07-20,28,Switzerland,Sleeves,Open,95.9,105,195,207.5,-215,207.5,110,115,120,120,220,237.5,245,245,572.5,SBD,Outcast Strength System
7,Fridolin Hauser,M,1996-10-25,27,Switzerland,Sleeves,Open,93.4,105,180,187.5,197.5,197.5,112.5,120,125,125,190,205,220,220,542.5,SBD,Schwerathletik Nordwest
8,Yousef Assaf,M,1999-12-27,24,Switzerland,Sleeves,Open,102.4,105,195,205,215,215,100,110,-117.5,110,195,215,-230,215,540,SBD,Perfgym
9,Tobias Nager,M,1982-12-27,41,Switzerland,Sleeves,Open,103.5,105,-145,-145,145,145,97.5,-105,-105,97.5,165,177.5,185,185,427.5,SBD,Powerlifting Winti
1,Daniele Pola,M,1997-10-10,26,Switzerland,Sleeves,Open,114.6,120,280,295,305,305,190,200,210,210,260,285,305,305,820,SBD,Barbell Club Landquart
2,Tom Thoma,M,1988-02-25,36,Switzerland,Sleeves,Open,114.4,120,247.5,262.5,-275,262.5,175,182.5,-187.5,182.5,275,-305,-305,275,720,SBD,Elemental Athletes
3,Mathias Emberger,M,1999-08-23,24,Switzerland,Sleeves,Open,107.8,120,245,262.5,275,275,147.5,155,157.5,157.5,242.5,257.5,270,270,702.5,SBD,Elemental Athletes
4,Alexandre Simik,M,1995-11-24,28,Switzerland,Sleeves,Open,117.5,120,220,237.5,242.5,242.5,150,160,-165,160,270,290,300,300,702.5,SBD,Perfgym
5,Patryk Matys,M,1998-04-04,26,Switzerland,Sleeves,Open,112.8,120,190,-202.5,210,210,120,127.5,135,135,240,252.5,-265,252.5,597.5,SBD,Outcast Strength System
6,Lorik Bajrami,M,2005-01-16,19,Switzerland,Sleeves,Open,111.8,120,170,185,-200,185,105,-112.5,112.5,112.5,190,215,225,225,522.5,SBD,424 barbell
1,Yao Han Ang,M,1987-01-15,37,Switzerland,Sleeves,Open,130.9,,275,285,290,290,175,182.5,-187.5,182.5,275,285,-292.5,285,757.5,SBD,One Rep Strength
