Name,State,Division,BodyweightKg,WeightClassKg,BirthDate,Best3SquatKg,Squat4Kg,Best3BenchKg,Best3DeadliftKg,Deadlift4Kg,TotalKg,Place,Event,Sex,Equipment
Molly Mahaffey,,Amateur Open,59.6,60,,122.5,,77.1,142.9,,342.5,1,SBD,F,Wraps
Jennifer Kreider,,Pro Masters 40-44,59.9,60,,120.2,,68,148.8,152,336.8,1,SBD,F,Raw
Melissa Welch,,Amateur Teen 18-19,74,75,,142.9,,83.9,165.6,,392.4,1,SBD,F,Raw
Bethany Bonner,PA,Amateur Open,66.2,67.5,,142.9,,63.5,145.1,,351.5,1,SBD,F,Raw
Catarina Aldi,,Amateur Masters 45-49,54.8,56,,102.1,,61.2,129.3,,292.6,1,SBD,F,Raw
Lori Turofski,,Amateur Masters 45-49,54.2,56,1974-07-09,97.5,,77.1,113.4,,288,1,SBD,F,Wraps
Stephanie Scott,,Amateur Submasters 33-39,61.5,67.5,,113.4,,56.7,149.7,154.2,319.8,1,SBD,F,Wraps
Michaela Philson,,Amateur Open,88.7,90,,186,,83.9,152,,421.8,1,SBD,F,Wraps
Ashley Stacharowski,,Amateur Open,74,75,,127,,63.5,149.7,,340.2,1,SBD,F,Raw
Ashley Stacharowski,,Amateur Submasters 33-39,74,75,,127,,63.5,149.7,,340.2,1,SBD,F,Raw
Briana Witt,,Amateur Teen 14-15,59.5,60,,104.3,,65.8,113.4,,283.5,1,SBD,F,Wraps
Jessi Wolf,,Amateur Teen 18-19,66.3,67.5,,106.6,,65.8,133.8,,306.2,1,SBD,F,Raw
Mayson Smith,,Amateur Open,74.8,75,,120.2,,70.3,138.3,,328.9,1,SBD,F,Wraps
Reagan Winter,,Amateur Juniors 20-23,87.5,90,,129.3,,81.6,149.7,,360.6,1,SBD,F,Raw
Emma Repsher,,Amateur Teen 18-19,101.7,110,,147.4,,74.8,147.4,,369.7,1,SBD,F,Raw
Stephanie Heslep,,Amateur Juniors 20-23,66,67.5,,97.5,,56.7,117.9,,272.2,1,SBD,F,Raw
Kendall Lujan,,Amateur Teen 14-15,52.6,56,,74.8,,47.6,93,,215.5,1,SBD,F,Wraps
Marie Olmand,,Military Amateur Open,80.3,82.5,,113.4,,56.7,129.3,,299.4,1,SBD,F,Raw
Sarah Pagenkopf,,Amateur Open,108.2,110,,115.7,,68,147.4,,331.1,1,SBD,F,Wraps
Kelly Murphy,,Amateur Masters 55-59,66.4,67.5,,81.6,,43.1,106.6,,231.3,1,SBD,F,Raw
Sally A. Winchell,,Amateur Masters 65-69,50.3,52,,65.8,,47.6,68,,181.4,1,SBD,F,Raw
Lila Armbrester,,Amateur Submasters 33-39,73.8,75,,86.2,,38.6,104.3,,229.1,2,SBD,F,Raw
Meredith Greer,,Amateur Open,91,100,,93,,54.4,117.9,,265.4,1,SBD,F,Raw
Chelsea Witt,,Amateur Masters 40-44,73,75,,47.6,,47.6,81.6,,176.9,1,SBD,F,Wraps
Mara Messick,,Amateur Youth,33.5,44,,27.2,,,43.1,,,DQ,SD,F,Raw
Kathryn Welcheck,,Amateur Masters 50-54,105.5,110,,60.1,,,,,60.1,1,S,F,Raw
Devin Macgeorge,,Amateur Open,67.5,67.5,,90.7,,56.7,111.1,,258.5,2,SBD,M,Raw
Sebi John,,Amateur Open,60.9,67.5,,93,,79.4,152,,324.3,1,SBD,M,Raw
Sebi John,,Amateur Submasters 33-39,60.9,67.5,,93,,79.4,152,,324.3,1,SBD,M,Raw
Noah Prate,,Amateur Teen 16-17,64,67.5,,86.2,,63.5,97.5,,247.2,1,SBD,M,Raw
Nathaniel James Honberger,,Amateur Juniors 20-23,66.7,67.5,,170.1,,106.6,210.9,,487.6,1,SBD,M,Raw
Sebi John,,Police Amateur Open,60.9,67.5,,93,,79.4,152,,324.3,1,SBD,M,Raw
Anthony J Gochenaur,,Amateur Juniors 20-23,71.3,75,,142.9,,102.1,156.5,,401.4,1,SBD,M,Raw
Raymond Smith,,Amateur Open,74.1,75,,170.1,,115.7,192.8,,478.5,1,SBD,M,Raw
Paul Link,,Amateur Open,74.3,75,,192.8,,120.2,190.5,,503.5,1,SBD,M,Wraps
Paul Link,,Amateur Submasters 33-39,74.3,75,,192.8,,120.2,190.5,,503.5,1,SBD,M,Wraps
Alex Schmid,,Amateur Teen 16-17,74.8,75,,122.5,,56.7,170.1,,349.3,2,SBD,M,Wraps
Owen Gipe,,Amateur Teen 16-17,72.8,75,,154.2,,122.5,217.7,,494.4,1,SBD,M,Wraps
Gage Plank,,Amateur Teen 18-19,71,75,,149.7,,104.3,197.3,,451.3,2,SBD,M,Wraps
Connor Jones,,Amateur Teen 18-19,73.6,75,,256.3,,111.1,258.5,,626,1,SBD,M,Wraps
Anthony Salcedo,,Military Amateur Open,74,75,,201.8,,111.1,238.1,,551.1,1,SBD,M,Wraps
Joseph Caudill,,Police Amateur Juniors 20-23,73.3,75,,249.5,258.5,154.2,249.5,,653.2,1,SBD,M,Wraps
Clark Whitefield,,Police Amateur Open,73.7,75,,231.3,,163.3,240.4,,635,1,SBD,M,Wraps
Joshua Rehn,,Amateur Teen 16-17,77.8,82.5,,183.7,,111.1,195,,489.9,1,SBD,M,Raw
Alex Stran,,Amateur Teen 18-19,82.1,82.5,,172.4,,113.4,204.1,,489.9,2,SBD,M,Raw
Jonathin Leicy,,Amateur Teen 18-19,79.8,82.5,,222.3,,172.4,257.6,,652,1,SBD,M,Raw
Mason Risner,,Amateur Open,80.5,82.5,,163.3,,124.7,170.1,,458.1,1,SBD,M,Raw
Javier Hurtado,,Amateur Open,82.2,82.5,,204.1,,129.3,222.3,,555.7,1,SBD,M,Wraps
Frank John D'Agostino III,,Pro Masters 40-44,81.3,82.5,,188.2,,154.2,190.5,,533,1,SBD,M,Wraps
Dean Moore,,Pro Masters 55-59,89.9,90,,265.4,,186,195,,646.4,1,SBD,M,Multi-ply
Harrison I Andrus,,Amateur Juniors 20-23,89.1,90,,215.5,,129.3,249.5,,594.2,1,SBD,M,Raw
Grant Olinger,,Amateur Open,89,90,,156.5,,145.1,217.7,,519.4,2,SBD,M,Raw
Nicholas Yanchik,,Amateur Open,89,90,,226.8,,145.1,244.9,,616.9,1,SBD,M,Raw
Connor Putz,,Amateur Open,89.4,90,,226.8,,172.4,242.7,,641.8,1,SBD,M,Wraps
Cory French,,Amateur Teen 16-17,84.1,90,,224.5,,129.3,256.3,,610.1,1,SBD,M,Wraps
Michael Fragale Jr,,Amateur Teen 18-19,87.1,90,,208.7,,138.3,247.2,,594.2,1,SBD,M,Wraps
Jonathan Gavin,,Pro Open,88.5,90,,238.1,,165.6,294.8,,698.5,2,SBD,M,Wraps
Tyler Shedler,,Pro Open,90,90,,288,,181.4,317.5,,787,1,SBD,M,Wraps
Tj Forhez,,Pro Submasters 33-39,88.1,90,,192.8,,149.7,226.8,,569.3,1,SBD,M,Wraps
Cohen Glassmire,,Amateur Teen 18-19,99.2,100,,226.8,,138.3,229.1,,594.2,1,SBD,M,Wraps
Chase Millikin,,Amateur Teen 16-17,115.5,125,,204.1,,131.5,206.4,,542,1,SBD,M,Wraps
Joseph Pennella,,Pro Open,118.8,125,,210.9,,158.8,238.1,,607.8,4,SBD,M,Wraps
Connor Gilbertson,,Amateur Teen 14-15,146,140+,,188.2,,95.3,215.5,,499,1,SBD,M,Raw
Espyn Schley,,Amateur Teen 16-17,96.6,100,,,,63.5,124.7,,188.2,1,BD,F,Raw
Gavin Gery,,Amateur Teen 14-15,73.7,75,,,,124.7,238.1,,362.9,1,BD,M,Raw
Cody Hafford,,Amateur Open,85.9,90,,,,145.1,,,145.1,1,B,M,Raw
Connor Daubert,,Amateur Teen 14-15,102.4,110,,,,99.8,,,99.8,1,B,M,Raw
Nick Ator,,Amateur Open,98.5,100,,183.7,,120.2,244.9,,548.8,2,SBD,M,Raw
Logan Aikey,,Amateur Open,98,100,,244.9,,163.3,258.5,,666.8,1,SBD,M,Raw
Chris Miller,PA,Amateur Masters 45-49,98.7,100,,124.7,,124.7,190.5,,440,1,SBD,M,Raw
Randy Olinger,,Amateur Masters 60-64,96.8,100,,165.6,,113.4,208.7,,487.6,1,SBD,M,Wraps
Tyrique Springer,,Amateur Open,97.3,100,,215.5,,133.8,265.4,,614.6,1,SBD,M,Wraps
Alec Pevornik,,Elite Open,91.9,100,,272.2,,165.6,285.8,,723.5,1,SBD,M,Wraps
Grey Reese,,Pro Open,97.6,100,,288,,172.4,292.6,,753,1,SBD,M,Wraps
Aaron Chapple,PA,Pro Open,99.5,100,1984-01-29,317.5,,215.5,328.9,,861.8,1,SBD,M,Raw
Aaron Chapple,PA,Pro Submasters 33-39,99.5,100,1984-01-29,317.5,,215.5,328.9,,861.8,1,SBD,M,Raw
Darren Guffey,,Pro Open,108.3,110,,272.2,,167.8,272.2,,712.1,1,SBD,M,Raw
Damon Maas,,Amateur Juniors 20-23,107.6,110,,242.7,,142.9,226.8,,612.3,1,SBD,M,Wraps
Dean DeTurk,,Pro Masters 50-54,108.3,110,,102.1,,204.1,,,,DQ,SBD,M,Wraps
Jacob Renaud,,Amateur Open,102.4,110,,217.7,,122.5,199.6,,539.8,4,SBD,M,Wraps
James Becker,,Amateur Open,104.1,110,,226.8,,145.1,260.8,,632.8,3,SBD,M,Wraps
Tyler Gray #1,,Amateur Open,107,110,,247.2,,154.2,279,,680.4,2,SBD,M,Wraps
Ryan Sliwoski,,Amateur Open,107.9,110,,238.1,,186,260.8,,684.9,1,SBD,M,Wraps
Lonnie Hornberger,,Military Pro Open,106.9,110,,181.4,,165.6,210.9,,557.9,1,SBD,M,Wraps
Jared Rose,,Pro Open,110,110,,229.1,,163.3,249.5,,641.8,3,SBD,M,Wraps
Thomas Smith,,Pro Open,108.1,110,,272.2,,170.1,306.2,,748.4,2,SBD,M,Wraps
Anthony Jackson,,Pro Open,109.8,110,,290.3,,199.6,288,,777.9,1,SBD,M,Wraps
Thomas Smith,,Pro Submasters 33-39,108.1,110,,272.2,,170.1,306.2,,748.4,1,SBD,M,Wraps
Palmer Simpson,,Amateur Masters 65-69,115.5,125,,195,,181.4,181.4,,557.9,1,SBD,M,Multi-ply
Kole Kalinauskas,,Amateur Juniors 20-23,120.8,125,,206.4,,174.6,226.8,,607.8,1,SBD,M,Raw
Alexis Scarborough,,Amateur Masters 40-44,123.2,125,,229.1,,201.8,276.7,,707.6,1,SBD,M,Wraps
Chad Lonergan,,Amateur Masters 45-49,122.2,125,,181.4,,163.3,192.8,,537.5,1,SBD,M,Wraps
Randy Smith,,Amateur Masters 50-54,122.2,125,,235.9,,127,272.2,,635,1,SBD,M,Wraps
Austin Forte,,Military Pro Open,120.2,125,,385.6,,231.3,306.2,,923.1,1,SBD,M,Wraps
Chris Ragos,,Pro Open,124.3,125,,285.8,,181.4,317.5,,784.7,3,SBD,M,Wraps
Neil Graham,,Pro Open,111.6,125,,294.8,,181.4,308.4,,784.7,2,SBD,M,Raw
Austin Forte,,Pro Open,120.2,125,,385.6,,231.3,306.2,,923.1,1,SBD,M,Wraps
Caleb Michael Collins,,Amateur Open,137.2,140,,233.6,,133.8,267.6,,635,2,SBD,M,Wraps
Caleb Getty,,Amateur Open,139.8,140,,188.2,,190.5,258.5,,637.3,1,SBD,M,Wraps
Francis Ziarkoski,,Pro Open,132.9,140,,319.8,,186,351.5,,857.3,1,SBD,M,Wraps
Nathan Rupert,,Amateur Open,153.2,140+,,188.2,,136.1,142.9,,467.2,1,SBD,M,Raw
Tiny Richardson,,Pro Open,195.3,140+,,226.8,,183.7,272.2,,682.7,1,SBD,M,Raw
Joshua D Boyd,,Amateur Masters 40-44,190.2,140+,,161,,102.1,210.9,,474,1,SBD,M,Wraps
Nicholas Lebreton,,Pro Open,143.8,140+,,310.7,,176.9,267.6,,755.2,1,SBD,M,Wraps
Judd Long,,Amateur Masters 50-54,98.2,100,,,,161,181.4,,342.5,1,BD,M,Raw
Dan Predmore,,Pro Open,100.8,110,,,,204.1,,,204.1,1,B,M,Raw
Dean DeTurk,,Pro Masters 50-54,108.3,110,,,,204.1,,,204.1,1,B,M,Raw
Joseph Haywood,,Amateur Masters 55-59,108.4,110,,,,,226.8,,226.8,1,D,M,Raw
