Division,WeightClassKg,Place,Name,Team,BodyweightKg,Best3SquatKg,Best3BenchKg,Best3DeadliftKg,TotalKg,Equipment,Event,Sex
Boys,51.71,1,Arnold Pena,Benavides,51.71,149.69,88.45,158.76,396.89,Single-ply,SBD,M
Boys,51.71,2,Christian Pena,Benavides,50.35,111.13,79.38,124.74,315.25,Single-ply,SBD,M
Boys,51.71,3,Miguel Gonzalez #2,Alice,44.45,122.47,52.16,122.47,297.1,Single-ply,SBD,M
Boys,55.79,1,Brandon Canales,Benavides,55.43,158.76,86.18,199.58,444.52,Single-ply,SBD,M
Boys,55.79,2,Adrian Campos,Freer,53.52,161.03,104.33,170.1,435.45,Single-ply,SBD,M
Boys,55.79,3,Arnold Perez,Ben Bolt-Palito Blanco,53.71,163.29,97.52,158.76,419.57,Single-ply,SBD,M
Boys,55.79,4,Gavin Chapa,Corpus Christi London,55.43,161.03,77.11,174.63,412.77,Single-ply,SBD,M
Boys,55.79,5,Tristan Perez #2,Benavides,53.98,158.76,72.57,161.03,392.36,Single-ply,SBD,M
Boys,55.79,6,Damien Diaz,Hebbronville,55.43,136.08,68.04,170.1,374.21,Single-ply,SBD,M
Boys,55.79,7,Austin Lopez,Hebbronville,55.79,142.88,79.38,142.88,365.14,Single-ply,SBD,M
Boys,55.79,8,Tony Cantu,Benavides,54.79,108.86,58.97,142.88,310.71,Single-ply,SBD,M
Boys,55.79,9,Justin Salinas,Alice,54.16,65.77,65.77,120.2,251.74,Single-ply,SBD,M
Boys,55.79,10,Lupe Garcia,Agua Dulce,52.44,92.99,49.9,92.99,235.87,Single-ply,SBD,M
Boys,59.87,1,Marc Garcia,Alice,59.1,192.78,111.13,226.8,530.7,Single-ply,SBD,M
Boys,59.87,2,Niko Munoz,Falfurrias,56.06,176.9,97.52,179.17,453.59,Single-ply,SBD,M
Boys,59.87,3,Miguel Ramirez,Agua Dulce,58.69,174.63,79.38,158.76,412.77,Single-ply,SBD,M
Boys,59.87,4,Bryan Lucio,Beeville Jones,59.87,147.42,83.91,167.83,399.16,Single-ply,SBD,M
Boys,59.87,5,Jose Hernandez #13,Corpus Christi West Oso,58.51,149.69,77.11,161.03,387.82,Single-ply,SBD,M
Boys,59.87,6,Austin Gonzalez,Robstown,58.15,145.15,86.18,140.61,371.95,Single-ply,SBD,M
Boys,59.87,7,Zechariah Segovia,Beeville Jones,59.15,138.35,81.65,145.15,365.14,Single-ply,SBD,M
Boys,59.87,8,Drake Moya,Beeville Jones,59.51,136.08,74.84,154.22,365.14,Single-ply,SBD,M
Boys,59.87,9,Marcus Schuessler,Freer,58.51,127.01,63.5,158.76,349.27,Single-ply,SBD,M
Boys,59.87,DQ,Ryan Saenz,Hebbronville,59.87,,,,,Single-ply,SBD,M
Boys,67.13,1,Brandon Carballo,Hebbronville,65.23,190.51,108.86,197.31,496.68,Single-ply,SBD,M
Boys,67.13,2,Richard Rea,Freer,64.05,161.03,97.52,174.63,433.18,Single-ply,SBD,M
Boys,67.13,3,Felix Del Rio,Robstown,66.04,154.22,104.33,167.83,426.38,Single-ply,SBD,M
Boys,67.13,4,Byron Perez,Ben Bolt-Palito Blanco,64.95,165.56,92.99,163.29,421.84,Single-ply,SBD,M
Boys,67.13,5,Jonathan Pena,Banquete,66.32,151.95,104.33,158.76,415.04,Single-ply,SBD,M
Boys,67.13,6,Jacob Salinas,Agua Dulce,66.86,149.69,79.38,174.63,403.7,Single-ply,SBD,M
Boys,67.13,7,John Robalic,Robstown,67.13,145.15,92.99,158.76,396.89,Single-ply,SBD,M
Boys,67.13,8,Joshua Dutiel,Beeville Jones,66.04,117.93,92.99,154.22,365.14,Single-ply,SBD,M
Boys,67.13,9,Ian Johnston #3,Corpus Christi London,63.14,129.27,74.84,147.42,351.53,Single-ply,SBD,M
Boys,67.13,10,Austin Serna,Alice,65.45,61.23,56.7,102.06,219.99,Single-ply,SBD,M
Boys,67.13,DQ,Dominick Garcia,Ben Bolt-Palito Blanco,63.32,,,,,Single-ply,SBD,M
Boys,74.84,1,Ramiro Gonzalez,Falfurrias,72.48,231.33,131.54,247.21,610.08,Single-ply,SBD,M
Boys,74.84,2,Patrick Prieto,Beeville Jones,74.84,235.87,127.01,244.94,607.81,Single-ply,SBD,M
Boys,74.84,3,Dennis Guajardo,Benavides,73.57,208.65,113.4,192.78,514.83,Single-ply,SBD,M
Boys,74.84,4,Aj Moreno,Alice,74.48,199.58,106.59,183.7,489.88,Single-ply,SBD,M
Boys,74.84,5,Jose N Perez,Benavides,70.76,183.7,99.79,185.97,469.47,Single-ply,SBD,M
Boys,74.84,6,Eric Lara,Beeville Jones,73.75,181.44,102.06,185.97,469.47,Single-ply,SBD,M
Boys,74.84,7,Trey Hernandez,Beeville Jones,73.21,181.44,97.52,176.9,455.86,Single-ply,SBD,M
Boys,74.84,8,Jonavenn Gonzalez,Hebbronville,72.94,183.7,104.33,163.29,451.32,Single-ply,SBD,M
Boys,74.84,9,Zachary Rodriguez,Three Rivers,70.58,170.1,104.33,174.63,449.06,Single-ply,SBD,M
Boys,74.84,10,Konner Kuypers,Corpus Christi London,72.94,158.76,83.91,165.56,408.23,Single-ply,SBD,M
Boys,74.84,11,Anthony Lerma,Banquete,71.76,151.95,88.45,161.03,401.43,Single-ply,SBD,M
Boys,74.84,12,Robert Lerma,Banquete,74.03,142.88,90.72,149.69,383.29,Single-ply,SBD,M
Boys,74.84,13,Tristian Lopez,Three Rivers,71.67,127.01,74.84,124.74,326.59,Single-ply,SBD,M
Boys,82.1,1,Oscar Perez #5,Ben Bolt-Palito Blanco,78.2,204.12,138.35,210.92,553.38,Single-ply,SBD,M
Boys,82.1,2,Jacob Munoz,Falfurrias,76.02,197.31,111.13,199.58,508.02,Single-ply,SBD,M
Boys,82.1,3,Dale Baez,Hebbronville,75.11,190.51,104.33,176.9,471.74,Single-ply,SBD,M
Boys,82.1,4,Demetri Sanchez,Corpus Christi London,82.1,174.63,88.45,195.04,458.13,Single-ply,SBD,M
Boys,82.1,5,Matt Garza,Corpus Christi West Oso,75.84,161.03,99.79,179.17,439.98,Single-ply,SBD,M
Boys,82.1,6,Josh Hernandez,Banquete,75.57,133.81,95.25,149.69,378.75,Single-ply,SBD,M
Boys,82.1,7,Adrian Castellano,Benavides,77.34,136.08,74.84,158.76,369.68,Single-ply,SBD,M
Boys,82.1,DQ,Tristian Perez,Ben Bolt-Palito Blanco,81.92,210.92,122.47,,,Single-ply,SBD,M
Boys,82.1,DQ,Moses Villarreal,Alice,80.78,,,,,Single-ply,SBD,M
Boys,89.81,1,Noah Yates,Ben Bolt-Palito Blanco,89.81,174.63,74.84,176.9,426.38,Single-ply,SBD,M
Boys,89.81,2,Daniel Narvaez,Falfurrias,85.28,92.99,77.11,138.35,308.44,Single-ply,SBD,M
Boys,99.79,1,Joe Montoya,Beeville Jones,92.99,147.42,99.79,167.83,415.04,Single-ply,SBD,M
Boys,99.79,2,Alfonso Montiel,Alice,99.74,151.95,88.45,149.69,390.09,Single-ply,SBD,M
Boys,99.79,3,Marcos Gonzalez,Ben Bolt-Palito Blanco,95.71,142.88,70.31,151.95,365.14,Single-ply,SBD,M
Boys,99.79,4,Santos Castillo,Agua Dulce,95.35,149.69,68.04,142.88,360.61,Single-ply,SBD,M
Boys,99.79,5,Josh Quintania,Banquete,92.53,120.2,79.38,145.15,344.73,Single-ply,SBD,M
Boys,109.77,1,Austin Kennemer,Agua Dulce,102.87,244.94,145.15,226.8,616.89,Single-ply,SBD,M
Boys,109.77,2,Joey Garza,Falfurrias,107.41,238.14,113.4,226.8,578.33,Single-ply,SBD,M
Boys,109.77,3,Brandon Rodriguez #2,Robstown,108.32,192.78,120.2,188.24,501.22,Single-ply,SBD,M
Boys,109.77,4,Justin Chavera,Banquete,104.96,197.31,104.33,183.7,485.34,Single-ply,SBD,M
Boys,109.77,5,Juan Cortez,Alice,109.5,142.88,99.79,165.56,408.23,Single-ply,SBD,M
Boys,109.77,6,Javier Jasso,Corpus Christi London,101.15,142.88,106.59,147.42,396.89,Single-ply,SBD,M
Boys,109.77,7,James Gomez,Banquete,103.06,142.88,83.91,136.08,362.87,Single-ply,SBD,M
Boys,109.77,8,Michael Perez #3,Ben Bolt-Palito Blanco,104.42,142.88,77.11,133.81,353.8,Single-ply,SBD,M
Boys,124.74,1,Louie Sanchez,Three Rivers,124.74,251.74,151.95,217.72,621.42,Single-ply,SBD,M
Boys,124.74,2,Mario Cano,Beeville Jones,121.02,229.06,127.01,208.65,564.72,Single-ply,SBD,M
Boys,124.74,3,Zak Trevino,Alice,121.38,68.04,52.16,142.88,263.08,Single-ply,SBD,M
Boys,124.74,4,Jermiah Perez,Alice,112.04,61.23,61.23,65.77,188.24,Single-ply,SBD,M
Boys,124.74+,1,Daniel Martinez #9,Beeville Jones,142.97,249.48,158.76,240.4,648.64,Single-ply,SBD,M
Boys,124.74+,2,Jon Rodriguez,Agua Dulce,131.72,238.14,142.88,158.76,539.77,Single-ply,SBD,M
Boys,124.74+,DQ,Jesus Martinez,Robstown,149.69,,,,,Single-ply,SBD,M
Boys,,NS,Jermayne Miller,Beeville Jones,,,,,,Single-ply,SBD,M
Boys,,NS,Fabian Castilleja,Banquete,,,,,,Single-ply,SBD,M
Boys,,NS,Eddie Salinas,Banquete,,,,,,Single-ply,SBD,M
Boys,,NS,Oscar Lopez,Agua Dulce,,,,,,Single-ply,SBD,M
Boys,,NS,Jacob Aleman,Agua Dulce,,,,,,Single-ply,SBD,M
Boys,,NS,Jesse Perez,Agua Dulce,,,,,,Single-ply,SBD,M
Boys,,NS,Roland Guerra,Agua Dulce,,,,,,Single-ply,SBD,M
Boys,,NS,Paul Medina,Agua Dulce,,,,,,Single-ply,SBD,M
Boys,,NS,Daniel Godinez,Ben Bolt-Palito Blanco,,,,,,Single-ply,SBD,M
Boys,,NS,Pete Longoria,Ben Bolt-Palito Blanco,,,,,,Single-ply,SBD,M
Boys,,NS,Cody Prather #1,Ben Bolt-Palito Blanco,,,,,,Single-ply,SBD,M
Boys,,NS,Robert de la Cruz,Corpus Christi London,,,,,,Single-ply,SBD,M
Boys,,NS,Dylan Gil,Corpus Christi London,,,,,,Single-ply,SBD,M
Boys,,NS,Juan Casas,Robstown,,,,,,Single-ply,SBD,M
Boys,,NS,Gabriel Riviera,Robstown,,,,,,Single-ply,SBD,M
Boys,,NS,Aaron Casarez,Three Rivers,,,,,,Single-ply,SBD,M
Boys,,NS,Adrian Salinas,Three Rivers,,,,,,Single-ply,SBD,M
Boys,,NS,Alex Diaz #3,Three Rivers,,,,,,Single-ply,SBD,M
Boys,,NS,Steve Peña #2,Robstown,,,,,,Single-ply,SBD,M
Boys,,NS,Ivan Naranjo,Robstown,,,,,,Single-ply,SBD,M
Boys,,NS,Jessie Hernandez,Robstown,,,,,,Single-ply,SBD,M
Boys,,NS,Eric Silvia,Robstown,,,,,,Single-ply,SBD,M
