Division,WeightClassKg,Place,Name,Team,BodyweightKg,Best3SquatKg,Best3BenchKg,Best3DeadliftKg,TotalKg,Equipment,Event,Sex
Boys,51.71,1,Matthew Negrete,Seagraves,50.89,86.18,65.77,127.01,278.96,Single-ply,SBD,M
Boys,51.71,2,Mark Celaya,Fort Stockton,50.8,106.59,54.43,115.67,276.69,Single-ply,SBD,M
Boys,51.71,3,Jonathan Hernandez,Lamesa,50.35,79.38,52.16,99.79,231.33,Single-ply,SBD,M
Boys,51.71,4,Kobe Ratliff,Lubbock Christian,46.63,61.23,47.63,90.72,199.58,Single-ply,SBD,M
Boys,55.79,1,Jordan Ruiz,Seagraves,55.11,188.24,108.86,208.65,505.76,Single-ply,SBD,M
Boys,55.79,2,Tomas Vega,Alpine,54.98,149.69,88.45,172.37,410.5,Single-ply,SBD,M
Boys,55.79,3,Van Phan,Lamesa,55.25,151.95,88.45,163.29,403.7,Single-ply,SBD,M
Boys,55.79,4,Jacob Galindo,Odessa,55.79,120.2,74.84,145.15,340.19,Single-ply,SBD,M
Boys,55.79,5,Noel Ybarra,Pecos,54.25,97.52,54.43,113.4,265.35,Single-ply,SBD,M
Boys,55.79,6,Michael Allen,Odessa Permian,52.16,81.65,47.63,102.06,231.33,Single-ply,SBD,M
Boys,55.79,DQ,Salvador Antillion,Seminole,55.79,138.35,,,,Single-ply,SBD,M
Boys,59.87,1,Justin Workman,Pecos,59.87,156.49,92.99,174.63,424.11,Single-ply,SBD,M
Boys,59.87,2,Eli Rodriguez,Seagraves,58.97,161.03,86.18,167.83,415.04,Single-ply,SBD,M
Boys,59.87,3,Cole Hunt,Alpine,59.06,140.61,79.38,181.44,401.43,Single-ply,SBD,M
Boys,59.87,4,Esdras Rodriguez,Friona,59.51,163.29,77.11,151.95,392.36,Single-ply,SBD,M
Boys,59.87,5,Josh Binder,Midland,59.65,142.88,83.91,158.76,385.55,Single-ply,SBD,M
Boys,59.87,6,Daniel Valenzuela,Pecos,58.15,136.08,68.04,158.76,362.87,Single-ply,SBD,M
Boys,59.87,7,Israel Celaya,Fort Stockton,57.83,136.08,79.38,145.15,360.61,Single-ply,SBD,M
Boys,59.87,8,Michael Nagy,Seminole,59.51,111.13,88.45,138.35,337.93,Single-ply,SBD,M
Boys,59.87,9,Michael Condarco,Seminole,58.74,113.4,72.57,136.08,322.05,Single-ply,SBD,M
Boys,59.87,10,Oscar Jinenez,Alpine,57.7,108.86,68.04,138.35,315.25,Single-ply,SBD,M
Boys,59.87,11,Patrick Fleming,Anton,59.15,102.06,56.7,145.15,303.91,Single-ply,SBD,M
Boys,59.87,12,Kevin Flores,Seminole,58.15,113.4,56.7,127.01,297.1,Single-ply,SBD,M
Boys,59.87,DQ,Brent Butler,Whiteface,59.87,,,,,Single-ply,SBD,M
Boys,59.87,DQ,Jeremy Reyes,Odessa,59.87,,,,,Single-ply,SBD,M
Boys,59.87,DQ,Oscar Salgado,Alpine,57.38,117.93,81.65,,,Single-ply,SBD,M
Boys,59.87,DQ,Jake Baker,Lubbock Christian,59.65,92.99,,124.74,,Single-ply,SBD,M
Boys,59.87,DQ,James Vasquez,Wolfforth Frenship,57.97,113.4,,,,Single-ply,SBD,M
Boys,59.87,DQ,Tristan Bollinger,Midland,59.06,,97.52,,,Single-ply,SBD,M
Boys,67.13,1,Thomas Garcia,Midland,66.41,192.78,131.54,215.46,539.77,Single-ply,SBD,M
Boys,67.13,2,Andrew Alvidrez,Seminole,64.64,199.58,127.01,201.85,528.44,Single-ply,SBD,M
Boys,74.84,3,Adan Ramirez,Friona,67.22,213.19,99.79,195.04,508.02,Single-ply,SBD,M
Boys,67.13,4,Pablo Hinojosa,Lamesa,64.59,188.24,102.06,195.04,485.34,Single-ply,SBD,M
Boys,67.13,5,Abel Silvas,Alpine,67.13,142.88,92.99,172.37,408.23,Single-ply,SBD,M
Boys,67.13,6,Mario Ramirez,Odessa,67.13,147.42,86.18,167.83,401.43,Single-ply,SBD,M
Boys,67.13,7,John Stein,Odessa,66.45,154.22,81.65,154.22,390.09,Single-ply,SBD,M
Boys,67.13,8,Cameron Hurd,Midland,66,142.88,72.57,167.83,383.29,Single-ply,SBD,M
Boys,67.13,9,Carlos Hinojosa,Lamesa,64.86,133.81,72.57,161.03,367.41,Single-ply,SBD,M
Boys,67.13,10,Nick Aguayo,Lamesa,67.13,127.01,63.5,165.56,356.07,Single-ply,SBD,M
Boys,67.13,11,Elias Zuniga,Odessa Permian,65.95,129.27,79.38,138.35,347,Single-ply,SBD,M
Boys,67.13,12,Juan Gonzalez,Fort Stockton,66.04,136.08,74.84,136.08,347,Single-ply,SBD,M
Boys,67.13,13,Brandon Gilmore,Alpine,67.13,133.81,63.5,133.81,331.12,Single-ply,SBD,M
Boys,67.13,14,Cole Royce,Monahans,62.6,120.2,70.31,108.86,299.37,Single-ply,SBD,M
Boys,67.13,15,Isaac Summerlin,Friona,65.77,108.86,52.16,138.35,299.37,Single-ply,SBD,M
Boys,67.13,16,Colton Kissick,Seminole,61.46,113.4,65.77,95.25,274.42,Single-ply,SBD,M
Boys,67.13,17,Karl Pabst,Odessa Permian,63.14,102.06,52.16,97.52,251.74,Single-ply,SBD,M
Boys,67.13,18,Brady Baker,Lubbock Christian,63.23,74.84,47.63,102.06,224.53,Single-ply,SBD,M
Boys,67.13,DQ,Richard Tenorio,Midland,62.96,147.42,,,,Single-ply,SBD,M
Boys,67.13,DQ,Ivan Arroyo,Odessa,67.13,,,,,Single-ply,SBD,M
Boys,74.84,1,Xzavier Martinez,Midland,69.13,192.78,124.74,195.04,512.56,Single-ply,SBD,M
Boys,74.84,2,Marcus Ruff,Whiteface,70.4,181.44,104.33,215.46,501.22,Single-ply,SBD,M
Boys,74.84,3,Carlos Arreola,Kermit,74.21,181.44,113.4,195.04,489.88,Single-ply,SBD,M
Boys,74.84,4,Josh Wilson,Lubbock Christian,73.57,174.63,111.13,195.04,480.81,Single-ply,SBD,M
Boys,82.1,5,Cole Gatzki,Plains,74.93,185.97,106.59,183.7,476.27,Single-ply,SBD,M
Boys,74.84,6,Dillon Stevens,Wolfforth Frenship,72.94,172.37,104.33,192.78,469.47,Single-ply,SBD,M
Boys,82.1,7,Omar Ramos,Friona,75.02,172.37,99.79,192.78,464.93,Single-ply,SBD,M
Boys,74.84,8,Nicky Hoang,Midland,73.21,181.44,88.45,174.63,444.52,Single-ply,SBD,M
Boys,74.84,9,Holt Eads,Midland,73.71,142.88,106.59,195.04,444.52,Single-ply,SBD,M
Boys,74.84,10,Oscar Sanchez,Fort Stockton,71.3,181.44,102.06,158.76,442.25,Single-ply,SBD,M
Boys,74.84,11,Wyatt Chopelas,Alpine,73.71,165.56,102.06,167.83,435.45,Single-ply,SBD,M
Boys,74.84,12,Cesar Saldana,Odessa,72.67,154.22,90.72,188.24,433.18,Single-ply,SBD,M
Boys,74.84,13,Marcos Rodriguez,Fort Stockton,73.03,158.76,88.45,158.76,405.97,Single-ply,SBD,M
Boys,74.84,14,Justice Andrews,Monahans,74.62,154.22,99.79,151.95,405.97,Single-ply,SBD,M
Boys,74.84,15,Fabian Honesto,Whiteface,70.31,151.95,72.57,172.37,396.89,Single-ply,SBD,M
Boys,74.84,16,Evan Gomez,Whiteface,72.3,142.88,72.57,136.08,351.53,Single-ply,SBD,M
Boys,74.84,17,Rusty Theisen,Seminole,68.67,127.01,86.18,136.08,349.27,Single-ply,SBD,M
Boys,74.84,DQ,Josue Salcido,Odessa,74.84,,,,,Single-ply,SBD,M
Boys,74.84,DQ,Daniel Lockhart #1,Midland,71.44,154.22,,174.63,,Single-ply,SBD,M
Boys,74.84,DQ,Joaquin Ramirez,Seminole,71.58,99.79,,142.88,,Single-ply,SBD,M
Boys,82.1,1,Dayton Dennard,Odessa,77.56,192.78,115.67,201.85,510.29,Single-ply,SBD,M
Boys,82.1,2,Hector Ontiveros,Fort Stockton,78.24,181.44,102.06,215.46,498.95,Single-ply,SBD,M
Boys,82.1,3,Michael Garcia #9,Friona,76.43,185.97,117.93,188.24,492.15,Single-ply,SBD,M
Boys,82.1,4,Staley Arredondo,Lamesa,79.38,192.78,92.99,197.31,483.08,Single-ply,SBD,M
Boys,82.1,5,Jose Escamila,Odessa,77.75,161.03,124.74,185.97,471.74,Single-ply,SBD,M
Boys,82.1,6,Cody Huelsberg,Alpine,78.24,181.44,106.59,174.63,462.66,Single-ply,SBD,M
Boys,82.1,7,Johnny Tarango,Odessa,77.66,174.63,97.52,181.44,453.59,Single-ply,SBD,M
Boys,82.1,8,Jake Strickland,Monahans,77.11,167.83,95.25,163.29,426.38,Single-ply,SBD,M
Boys,82.1,9,Ignacio Rodriguez #3,Pecos,75.84,147.42,99.79,172.37,419.57,Single-ply,SBD,M
Boys,82.1,10,Montana Coffman,Whiteface,80.2,129.27,65.77,158.76,353.8,Single-ply,SBD,M
Boys,82.1,11,Casey Huertas,Monahans,80.1,136.08,79.38,111.13,326.59,Single-ply,SBD,M
Boys,82.1,12,Caleb McDaniel,Wolfforth Frenship,80.38,106.59,77.11,120.2,303.91,Single-ply,SBD,M
Boys,82.1,13,Tano Castillo,Whiteface,75.48,95.25,58.97,104.33,258.55,Single-ply,SBD,M
Boys,82.1,DQ,Cody Fuentes,Monahans,76.2,122.47,,,,Single-ply,SBD,M
Boys,82.1,DQ,Cris Stallings,Kermit,76.75,,,,,Single-ply,SBD,M
Boys,82.1,DQ,Ruben Garcia,Seminole,80.47,97.52,,,,Single-ply,SBD,M
Boys,82.1,DQ,Micheal Wise,Odessa Permian,82.1,,,,,Single-ply,SBD,M
Boys,82.1,DQ,Justin Cabesuela,Odessa,78.47,,,,,Single-ply,SBD,M
Boys,89.81,1,Clayton Clair,Odessa,88.54,226.8,124.74,215.46,566.99,Single-ply,SBD,M
Boys,89.81,2,Christian Gonzales,Monahans,89.81,226.8,136.08,195.04,557.92,Single-ply,SBD,M
Boys,89.81,3,Dalton Driver,Seminole,85.91,195.04,113.4,204.12,512.56,Single-ply,SBD,M
Boys,89.81,4,Mason Montgomery,Midland,84.73,197.31,106.59,206.38,510.29,Single-ply,SBD,M
Boys,89.81,5,Daniel Soltero,Friona,88.36,183.7,113.4,204.12,501.22,Single-ply,SBD,M
Boys,89.81,6,Nick Anna,Plains,86.27,190.51,111.13,197.31,498.95,Single-ply,SBD,M
Boys,89.81,7,Daniel Cooper,Kermit,88.81,181.44,102.06,183.7,467.2,Single-ply,SBD,M
Boys,89.81,8,Chance Arriaga,Fort Stockton,88.9,172.37,108.86,181.44,462.66,Single-ply,SBD,M
Boys,89.81,9,Nathan Tone,Monahans,83.19,172.37,97.52,190.51,460.4,Single-ply,SBD,M
Boys,89.81,10,Ivan Delgado,Whiteface,87.63,163.29,108.86,188.24,460.4,Single-ply,SBD,M
Boys,89.81,11,Dalton Gray,Anton,86.73,172.37,88.45,197.31,458.13,Single-ply,SBD,M
Boys,89.81,12,Israel Rosalez,Seagraves,87.54,165.56,108.86,149.69,424.11,Single-ply,SBD,M
Boys,89.81,13,Jesus Davila,Whiteface,83.69,140.61,90.72,179.17,410.5,Single-ply,SBD,M
Boys,89.81,14,Xavier Quiroz,Odessa,85.46,154.22,99.79,145.15,399.16,Single-ply,SBD,M
Boys,89.81,15,Robert Oliphant,Alpine,86.86,140.61,81.65,163.29,385.55,Single-ply,SBD,M
Boys,89.81,16,Josh Caldwell,Monahans,84.55,154.22,68.04,142.88,365.14,Single-ply,SBD,M
Boys,89.81,17,Sammy Villarreal,Alpine,88.68,104.33,83.91,133.81,322.05,Single-ply,SBD,M
Boys,89.81,18,Dustin Wilson,Plains,87,65.77,43.09,111.13,219.99,Single-ply,SBD,M
Boys,89.81,DQ,Dominique Rubio,Alpine,88.68,145.15,,,,Single-ply,SBD,M
Boys,89.81,DQ,Colton Whitlock,Midland,86.64,208.65,,,,Single-ply,SBD,M
Boys,89.81,DQ,Kenny Gandy,Alpine,89.81,,,,,Single-ply,SBD,M
Boys,89.81,DQ,Evan Moore,Alpine,89.81,,,,,Single-ply,SBD,M
Boys,89.81,DQ,Noah Hernandez,Odessa,89.81,,,,,Single-ply,SBD,M
Boys,89.81,DQ,Alberto Castillo,Whiteface,89.81,,,,,Single-ply,SBD,M
Boys,99.79,1,Eddie Sanchez,Lamesa,96.16,210.92,117.93,195.04,523.9,Single-ply,SBD,M
Boys,99.79,2,Matthew Cardenas,Wolfforth Frenship,99.79,206.38,129.27,183.7,519.36,Single-ply,SBD,M
Boys,99.79,3,Zach Lerma,Odessa,98.34,199.58,124.74,192.78,517.1,Single-ply,SBD,M
Boys,99.79,4,Danyk Ramos,Midland,94.8,197.31,102.06,188.24,487.61,Single-ply,SBD,M
Boys,99.79,5,Manny Rodriguez,Fort Stockton,97.52,181.44,106.59,174.63,462.66,Single-ply,SBD,M
Boys,99.79,6,Cesar Gallegos,Alpine,91.22,174.63,92.99,185.97,453.59,Single-ply,SBD,M
Boys,99.79,7,Juan Sosa,Odessa,97.52,172.37,108.86,172.37,453.59,Single-ply,SBD,M
Boys,99.79,8,Michael Coy,Odessa Permian,95.89,174.63,106.59,170.1,451.32,Single-ply,SBD,M
Boys,99.79,9,Daniel Self,Monahans,90.81,163.29,115.67,170.1,449.06,Single-ply,SBD,M
Boys,99.79,10,Jalen Falcon,Fort Stockton,95.48,172.37,92.99,176.9,442.25,Single-ply,SBD,M
Boys,99.79,11,Stephan Self,Monahans,94.53,154.22,102.06,181.44,437.72,Single-ply,SBD,M
Boys,99.79,12,Corbin Berrones,Midland,95.48,151.95,106.59,174.63,433.18,Single-ply,SBD,M
Boys,99.79,13,Alex Holguin,Monahans,98.61,165.56,88.45,158.76,412.77,Single-ply,SBD,M
Boys,99.79,14,Ben Madrid,Pecos,99.11,154.22,102.06,149.69,405.97,Single-ply,SBD,M
Boys,99.79,15,Bryson Calixto,Monahans,96.62,142.88,74.84,136.08,353.8,Single-ply,SBD,M
Boys,99.79,16,Richard Ortiz,Monahans,93.67,122.47,68.04,127.01,317.51,Single-ply,SBD,M
Boys,99.79,DQ,Robert Lopez,Odessa,99.79,,,,,Single-ply,SBD,M
Boys,99.79,DQ,Abraham Flores,Pecos,99.79,,,,,Single-ply,SBD,M
Boys,99.79,DQ,Byron Hutson,Odessa,99.79,,,,,Single-ply,SBD,M
Boys,99.79,DQ,Trace Notley,Odessa Permian,99.79,,,,,Single-ply,SBD,M
Boys,99.79,DQ,Marc Martinez,Seminole,99.79,,,,,Single-ply,SBD,M
Boys,99.79,DQ,Devon Miller,Midland,99.16,192.78,115.67,,,Single-ply,SBD,M
Boys,99.79,DQ,Duncan Clark,Midland,95.03,165.56,,,,Single-ply,SBD,M
Boys,109.77,1,Garrett Ford,Monahans,109.77,217.72,136.08,217.72,571.53,Single-ply,SBD,M
Boys,109.77,2,Cruz Moralez,Odessa,100.7,183.7,95.25,210.92,489.88,Single-ply,SBD,M
Boys,109.77,3,Jesus Adame,Odessa,108.64,176.9,92.99,176.9,446.79,Single-ply,SBD,M
Boys,109.77,4,Juan Valenzuela,Kermit,103.51,165.56,106.59,170.1,442.25,Single-ply,SBD,M
Boys,109.77,5,Kyle Rickman,Seminole,109.77,163.29,108.86,156.49,428.64,Single-ply,SBD,M
Boys,109.77,6,Justin Johnson,Pecos,101.7,170.1,108.86,142.88,421.84,Single-ply,SBD,M
Boys,109.77,7,Jonathan Prieto,Odessa Permian,108.59,176.9,83.91,149.69,410.5,Single-ply,SBD,M
Boys,109.77,8,Mc Lawson,Odessa Permian,109.41,165.56,77.11,154.22,396.89,Single-ply,SBD,M
Boys,109.77,9,David Ramirez,Plains,104.42,133.81,90.72,140.61,365.14,Single-ply,SBD,M
Boys,109.77,DQ,Jeremiah Bernal,Odessa,106.78,179.17,,,,Single-ply,SBD,M
Boys,109.77,DQ,Javier Valdes,Midland,100.33,,120.2,,,Single-ply,SBD,M
Boys,109.77,DQ,Yahvel Urias,Midland,106.96,179.17,115.67,,,Single-ply,SBD,M
Boys,109.77,DQ,Ben Villa,Alpine,109.77,,,,,Single-ply,SBD,M
Boys,109.77,DQ,Juan Samarron,Friona,109.77,,,,,Single-ply,SBD,M
Boys,124.74,1,Cameron Wesley,Midland,115.94,249.48,149.69,231.33,630.49,Single-ply,SBD,M
Boys,124.74,2,Charles Hunt,Midland,123.74,233.6,161.03,219.99,614.62,Single-ply,SBD,M
Boys,124.74,3,Abayomi Salinas,Friona,117.84,251.74,131.54,226.8,610.08,Single-ply,SBD,M
Boys,124.74,4,Matt Williams,Midland,118.84,235.87,120.2,231.33,587.4,Single-ply,SBD,M
Boys,124.74,5,Michael Powers,Fort Stockton,110.68,204.12,127.01,215.46,546.58,Single-ply,SBD,M
Boys,124.74,6,Pablo Gutierrez #2,Odessa,124.38,233.6,111.13,165.56,510.29,Single-ply,SBD,M
Boys,124.74,7,Jesus Olivares,Odessa Permian,114.94,188.24,113.4,174.63,476.27,Single-ply,SBD,M
Boys,124.74,8,Jacob Granado,Midland,117.12,192.78,92.99,183.7,469.47,Single-ply,SBD,M
Boys,124.74,9,Cristian Aguirre,Fort Stockton,111.95,172.37,108.86,185.97,467.2,Single-ply,SBD,M
Boys,124.74,10,Caydn White,Odessa Permian,118.02,170.1,102.06,188.24,460.4,Single-ply,SBD,M
Boys,124.74,11,O'Shae Grant,Wolfforth Frenship,120.11,176.9,95.25,181.44,453.59,Single-ply,SBD,M
Boys,124.74,12,Reid McIlwain,Lamesa,120.38,158.76,115.67,163.29,437.72,Single-ply,SBD,M
Boys,124.74,13,Zachary Hensley,Wolfforth Frenship,119.39,174.63,74.84,133.81,383.29,Single-ply,SBD,M
Boys,124.74,14,Armando Galindo,Midland,122.92,,92.99,188.24,281.23,Single-ply,BD,M
Boys,124.74,DQ,Felix Garcia,Seminole,112.94,226.8,120.2,,,Single-ply,SBD,M
Boys,124.74+,1,Edgar Guerrero,Friona,135.35,299.37,176.9,260.82,737.09,Single-ply,SBD,M
Boys,124.74+,2,Jordan Copeland,Midland,144.7,240.4,163.29,235.87,639.57,Single-ply,SBD,M
Boys,124.74+,3,Brandon Cox,Whiteface,133.36,272.16,113.4,244.94,630.49,Single-ply,SBD,M
Boys,124.74+,4,Nicolas Franco,Pecos,153.13,254.01,161.03,215.46,630.49,Single-ply,SBD,M
Boys,124.74+,5,Taylor York,Wolfforth Frenship,130.82,229.06,142.88,238.14,610.08,Single-ply,SBD,M
Boys,124.74+,6,Dimitri Pena,Monahans,154.22,235.87,129.27,197.31,562.45,Single-ply,SBD,M
Boys,124.74+,7,Tommy Sotelo,Odessa,128.37,208.65,120.2,199.58,528.44,Single-ply,SBD,M
Boys,124.74+,8,Jordan Medrano,Odessa Permian,126.55,201.85,133.81,188.24,523.9,Single-ply,SBD,M
Boys,124.74+,9,Easton Elrod,Seminole,145.33,204.12,111.13,204.12,519.36,Single-ply,SBD,M
Boys,124.74+,10,Garrett Brandenburg,Monahans,134.94,208.65,145.15,161.03,514.83,Single-ply,SBD,M
Boys,124.74+,11,Fabian Botello,Odessa,128.73,204.12,122.47,181.44,508.02,Single-ply,SBD,M
Boys,124.74+,12,CJ Carrillo,Midland,127.64,183.7,127.01,179.17,489.88,Single-ply,SBD,M
Boys,124.74+,13,Alexander Dimba,Wolfforth Frenship,158.76,170.1,90.72,138.35,399.16,Single-ply,SBD,M
Boys,124.74+,14,Brady Gandy,Whiteface,125.37,140.61,81.65,149.69,371.95,Single-ply,SBD,M
Boys,124.74+,DQ,Todd Garner,Wolfforth Frenship,149.01,258.55,,204.12,,Single-ply,SBD,M
