Place,Name,BirthDate,BirthYear,Team,WeightClassKg,BodyweightKg,Bench1Kg,Bench2Kg,Bench3Kg,Best3BenchKg,TotalKg,Sex,Division,Event,Equipment
1,Radha Kumari,1987-02-05,,J & K,47,46.5,50,57.5,-62.5,57.5,57.5,F,Open,B,Single-ply
2,Chhaya,,,DEL,47,45.6,50,55,-60,55,55,F,Open,B,Single-ply
3,Manisha Sharma,1994-08-01,,UP,47,45.1,40,45,-55,45,45,F,Open,B,Single-ply
1,Jyoti Kandhare,1980-10-19,,MAH,52,51.4,-72.5,77.5,82.5,82.5,82.5,F,Open,B,Single-ply
2,Akshatha Poojarthy,1986-06-01,,KTK,52,52,72.5,77.5,80,80,80,F,Open,B,Single-ply
3,Mohini,1987-07-20,,UP,52,51.3,60,67.5,72.5,72.5,72.5,F,Open,B,Single-ply
4,Minati Dehingia,1990-10-20,,ASM,52,51.6,65,-70,70,70,70,F,Open,B,Single-ply
5,Sakshi Koul,1998-02-28,,J & K,52,51.3,60,-62.5,-65,60,60,F,Open,B,Single-ply
6,Neha Mahale,1992-11-24,,MAH,52,52,50,-57.5,-57.5,50,50,F,Open,B,Single-ply
1,Sudha Kumari,1979-01-06,,BIH,57,55.5,85,97.5,102.5,102.5,102.5,F,Open,B,Single-ply
2,Sonal Sawant,1998-10-01,,MAH,57,54.9,-95,95,-102.5,95,95,F,Open,B,Single-ply
3,Nidhi Singh Patel,1990-07-07,,UP,57,56.3,80,85,-92.5,85,85,F,Open,B,Single-ply
4,Rajani Upadhayay,1979-08-11,,RAJ,57,55.3,62.5,67.5,-70,67.5,67.5,F,Open,B,Single-ply
5,Apoorvi Sharma,1994-06-07,,J & K,57,55.7,50,55,60,60,60,F,Open,B,Single-ply
6,Moirangthem Anupama Devi,1994-05-01,,MNP,57,53.5,30,35,-37.5,35,35,F,Open,B,Single-ply
DQ,Bhawna Bisht,1985-03-03,,UP,57,56.5,-85,-90,-92.5,,,F,Open,B,Single-ply
1,Anjali Sharma #1,1999-05-25,,RAJ,63,62.1,97.5,105,110,110,110,F,Open,B,Single-ply
2,Ashma Khan Alvi,1991-07-01,,UP,63,62.5,75,82.5,90,90,90,F,Open,B,Single-ply
3,Priya Kandalkar,1984-12-16,,MAH,63,62.1,80,85,-90,85,85,F,Open,B,Single-ply
4,Kirti Brid,1994-09-01,,MAH,63,61.7,70,-77.5,-82.5,70,70,F,Open,B,Single-ply
5,Monika Sharma,1986-02-02,,J & K,63,61.5,40,,,40,40,F,Open,B,Single-ply
1,Sana Malagi,1994-03-04,,KTK,72,70.4,85,90,-92.5,90,90,F,Open,B,Single-ply
2,Bithika Mondal,1992-09-12,,WB,72,67.6,80,85,-87.5,85,85,F,Open,B,Single-ply
3,Pooja Tiwari,1985-02-22,,MP,72,66.2,-70,70,77.5,77.5,77.5,F,Open,B,Single-ply
4,Iti Sehgal,1983-09-02,,DEL,72,70,70,75,-77.5,75,75,F,Open,B,Single-ply
5,Malvi Gupta,1990-02-28,,J & K,72,67.8,47.5,52.5,-55,52.5,52.5,F,Open,B,Single-ply
1,Bhakti Ambre,1982-03-19,,MAH,84,79.9,110,117.5,125,125,125,F,Open,B,Single-ply
2,Kiran,1992-06-15,,UP,84,76.9,-87.5,92.5,97.5,97.5,97.5,F,Open,B,Single-ply
3,Raj Kumari Yadav,1981-08-15,,RAJ,84,78.6,-75,-75,75,75,75,F,Open,B,Single-ply
4,Manisha Vyas,1994-06-15,,RAJ,84,83.1,45,52.5,55,55,55,F,Open,B,Single-ply
5,Sathi Bharathi,1980-08-29,,KTK,84,79.4,47.5,52.5,-57.5,52.5,52.5,F,Open,B,Single-ply
6,Manisha Grover,1984-08-04,,DEL,84,75.2,40,42.5,-45,42.5,42.5,F,Open,B,Single-ply
7,Simran Bumrah,1998-12-04,,J & K,84,73.3,35,-40,-40,35,35,F,Open,B,Single-ply
1,Konsam Rosida Devi,1991-09-23,,MNP,84+,88.4,70,77.5,-85,77.5,77.5,F,Open,B,Single-ply
2,Saswati Behera,1985-03-03,,DEL,84+,87.5,50,-55,-55,50,50,F,Open,B,Single-ply
3,Upasana Mahajan,1989-08-15,,J & K,84+,119,50,-55,-55,50,50,F,Open,B,Single-ply
4,Hemlata Jangir,1984-06-04,,DEL,84+,87.1,40,-42.5,,40,40,F,Open,B,Single-ply
1,Humanshi Gurjar,2003-09-26,,RAJ,43,42.4,50,52.5,,52.5,52.5,F,Sub-Juniors,B,Single-ply
2,Monika Shelar,2001-05-17,,MAH,43,41.5,45,-47.5,-47.5,45,45,F,Sub-Juniors,B,Single-ply
3,Vipasha Dadhich,2004-01-14,,RAJ,43,39.7,27.5,-40,-40,27.5,27.5,F,Sub-Juniors,B,Single-ply
1,Sayma,2001-04-23,,DEL,47,44.8,-40,40,-45,40,40,F,Sub-Juniors,B,Single-ply
2,Mahi Chouhan,2004-04-30,,RAJ,47,46,40,-45,-45,40,40,F,Sub-Juniors,B,Single-ply
3,Santosh Godara,2001-07-22,,RAJ,47,46.8,35,-42.5,-47.5,35,35,F,Sub-Juniors,B,Single-ply
1,Mamta Choudhary,2002-10-06,,RAJ,52,49.8,60,-65,-65,60,60,F,Sub-Juniors,B,Single-ply
2,Chanchal Bhojak,2002-12-13,,RAJ,52,50.5,30,37.5,-42.5,37.5,37.5,F,Sub-Juniors,B,Single-ply
3,Sanasam Chaoba Devi,2004-10-20,,MNP,52,51.5,37.5,-42.5,-42.5,37.5,37.5,F,Sub-Juniors,B,Single-ply
4,Mahek,2006-10-17,,DEL,52,49.2,25,-30,-30,25,25,F,Sub-Juniors,B,Single-ply
1,Vaishnavi D K,2000-10-30,,KTK,57,56.9,52.5,57.5,-60,57.5,57.5,F,Sub-Juniors,B,Single-ply
2,Ajnu,2000-01-01,,RAJ,57,55.2,45,52.5,-57.5,52.5,52.5,F,Sub-Juniors,B,Single-ply
3,Archita Sidhant Shirodkar,2004-02-10,,GOA,57,54,40,-47.5,47.5,47.5,47.5,F,Sub-Juniors,B,Single-ply
4,Niketa,,,DEL,57,56.1,40,-45,-45,40,40,F,Sub-Juniors,B,Single-ply
5,Rishitaa Jain,,,DEL,57,52.5,30,32.5,-35,32.5,32.5,F,Sub-Juniors,B,Single-ply
6,Simran Mujawar,2000-11-24,,GOA,57,57,25,-30,-30,25,25,F,Sub-Juniors,B,Single-ply
1,Venizeia Carlo,2000-07-02,,KTK,63,61.9,67.5,72.5,-77.5,72.5,72.5,F,Sub-Juniors,B,Single-ply
2,Hritvika Sardesai,2000-03-31,,MAH,63,62.8,55,60,-65,60,60,F,Sub-Juniors,B,Single-ply
1,Raj Nandini Purohit,2000-02-13,,RAJ,72,66.6,52.5,57.5,-62.5,57.5,57.5,F,Sub-Juniors,B,Single-ply
2,S.R.Payal,2005-09-13,,TN,72,66.6,30,-40,40,40,40,F,Sub-Juniors,B,Single-ply
3,Pratibha Prajapat,2003-02-24,,RAJ,72,71.6,40,-50,-50,40,40,F,Sub-Juniors,B,Single-ply
1,Diksha Sain,2000-03-30,,DEL,84,82.8,77.5,85,90,90,90,F,Sub-Juniors,B,Single-ply
2,Janhavi Sawrdekar,2001-09-19,,MAH,84,79.4,55,65,-85,65,65,F,Sub-Juniors,B,Single-ply
3,Disha N,2000-09-14,,KTK,84,75,30,40,-45,40,40,F,Sub-Juniors,B,Single-ply
1,Panchami,2004-02-25,,KTK,84+,105,45,-50,-50,45,45,F,Sub-Juniors,B,Single-ply
2,Purvi Sharma,2002-08-24,,MP,84+,95.3,25,32.5,-37.5,32.5,32.5,F,Sub-Juniors,B,Single-ply
1,Anjali P. Sangle,1999-07-08,,GUJ,43,43,45,-50,50,50,50,F,Juniors,B,Single-ply
2,Sushmitha D,1997-11-09,,KAR,43,43,25,27.5,-30,27.5,27.5,F,Juniors,B,Single-ply
1,Chhaya,1999-06-30,,DEL,47,45.6,50,55,-60,55,55,F,Juniors,B,Single-ply
2,Bincy Varghese,1999-02-24,,KER,47,46.2,-35,-40,40,40,40,F,Juniors,B,Single-ply
3,Bindu J R,1998-04-01,,KTK,47,46.7,25,35,-37.5,35,35,F,Juniors,B,Single-ply
4,Sanasam Sonia,1998-12-25,,MNP,47,44.5,25,-27.5,-27.5,25,25,F,Juniors,B,Single-ply
1,Bharosa Ved,1996-07-20,,RAJ,52,50.1,60,65,70,70,70,F,Juniors,B,Single-ply
2,Neema Kumari. M,1997-01-06,,KTK,52,49.4,60,-65,65,65,65,F,Juniors,B,Single-ply
3,Kajal.B.Vaghela,1996-08-11,,GUJ,52,51,60,-67.5,-67.5,60,60,F,Juniors,B,Single-ply
4,Kriti Kumari,1998-11-07,,KER,52,51.9,57.5,60,-65,60,60,F,Juniors,B,Single-ply
5,Kanchan Swami,1999-08-01,,RAJ,52,51.5,55,57.5,-67.5,57.5,57.5,F,Juniors,B,Single-ply
6,Ikara Bano,2000-07-15,,UP,52,52,37.5,-42.5,-42.5,37.5,37.5,F,Juniors,B,Single-ply
1,Suchita Tendulkar,1995-02-28,,MAH,57,55.4,55,65,-75,65,65,F,Juniors,B,Single-ply
2,Jyoti Singh,1997-01-01,,UP,57,55.5,-52.5,52.5,-55,52.5,52.5,F,Juniors,B,Single-ply
DQ,Swathi. U.K,1997-03-27,,KTK,57,56.5,-55,-55,-55,,,F,Juniors,B,Single-ply
1,Anjali Sharma #1,1999-05-25,,RAJ,63,62.1,97.5,105,110,110,110,F,Juniors,B,Single-ply
2,Madhawi Bilochan #1,1996-05-21,,JHR,63,57.2,70,77.5,82.5,82.5,82.5,F,Juniors,B,Single-ply
3,Sampada Nagvekar,1998-04-04,,MAH,63,62.1,65,70,-72.5,70,70,F,Juniors,B,Single-ply
4,Rajshree Joshi,1999-05-14,,RAJ,63,61,-50,52.5,-70,52.5,52.5,F,Juniors,B,Single-ply
5,Pradnya Pawar,1998-07-19,,MAH,63,62.9,50,52.5,-55,52.5,52.5,F,Juniors,B,Single-ply
6,A. Sireesha,1999-10-04,,AP,63,63,45,-50,50,50,50,F,Juniors,B,Single-ply
1,Akshaya Shedge,1995-05-13,,MAH,72,66.2,70,77.5,-82.5,77.5,77.5,F,Juniors,B,Single-ply
1,Om Kanwar,1997-05-10,,RAJ,84,75.8,70,-77.5,-85,70,70,F,Juniors,B,Single-ply
1,Deepali Kumari,1995-10-19,,RAJ,84+,103,-60,60,70,70,70,F,Juniors,B,Single-ply
2,Rachael Noronha,1999-12-08,,KTK,84+,107,50,62.5,-72.5,62.5,62.5,F,Juniors,B,Single-ply
DQ,Irom Premabati Devi,1974-08-15,,MNP,47,47,-25,-25,-25,,,F,Masters 1,B,Single-ply
1,Archana Jain,1974-04-10,,DEL,52,50.8,-55,55,60,60,60,F,Masters 1,B,Single-ply
1,Ng Tombi Devi,1969-01-01,,MNP,57,57,-30,35,40,40,40,F,Masters 1,B,Single-ply
1,Deepa K S,1978-03-28,,KTK,72,69.5,50,-52.5,52.5,52.5,52.5,F,Masters 1,B,Single-ply
2,Aarti Jain,1976-11-06,,DEL,72,67.9,-37.5,37.5,40,40,40,F,Masters 1,B,Single-ply
1,Rohini Gohri,1977-04-01,,DEL,84,76.3,-55,55,60,60,60,F,Masters 1,B,Single-ply
2,Charusita Tiwari,1978-06-28,,MP,84,76.7,50,55,-60,55,55,F,Masters 1,B,Single-ply
1,Poonam Duneja,1974-12-08,,DEL,84+,91,50,55,-57.5,55,55,F,Masters 1,B,Single-ply
1,Seema Verma,1966-06-01,,MP,57,57,67.5,75,-77.5,75,75,F,Masters 2,B,Single-ply
2,Regina Dourado,1965-02-03,,GOA,57,52.1,25,30,-35,30,30,F,Masters 2,B,Single-ply
DQ,W. Ibemhal Devi,1962-02-01,,MNP,63,57.3,-25,-25,-25,,,F,Masters 2,B,Single-ply
1,Gayatri Tomar,1966-11-04,,MP,84,81.3,50,55,57.5,57.5,57.5,F,Masters 2,B,Single-ply
1,Sushila Devi,1950-12-10,,RAJ,84,82,30,35,-40,35,35,F,Masters 3,B,Single-ply
2,H. Ibempishak Devi,,,MNP,84,83.4,25,-27.5,,25,25,F,Masters 3,B,Single-ply
1,Dharmendra Yadav #1,1993-10-01,,MAH,59,57.5,140,150,155,155,155,M,Open,B,Single-ply
2,Rajesh Shukrware,1983-10-05,,MP,59,58.7,137.5,142.5,-147.5,142.5,142.5,M,Open,B,Single-ply
3,Sunil Kumar,1987-06-21,,RAJ,59,56.6,127.5,132.5,140,140,140,M,Open,B,Single-ply
4,Sawan Kumar,1995-05-02,,J&K,59,57.8,130,140,-145,140,140,M,Open,B,Single-ply
5,Thirthesha M.K,1992-10-15,,KTK,59,58,115,125,-130,125,125,M,Open,B,Single-ply
6,Chandrashekar S.K,1983-05-22,,KTK,59,58.2,120,125,,125,125,M,Open,B,Single-ply
7,S.Billore,1967-09-26,,OFB,59,59,92.5,97.5,-102.5,97.5,97.5,M,Open,B,Single-ply
DQ,Manish Gupta,1990-05-11,,UP,59,58,-145,-150,-152.5,,,M,Open,B,Single-ply
1,Jagadeesha. K,1986-06-01,,KTK,66,65.1,155,162.5,165,165,165,M,Open,B,Single-ply
2,Vipin Kumar,1987-08-12,,DEL,66,66,165,-172.5,-172.5,165,165,M,Open,B,Single-ply
3,Priyaranjan P,,,KER,66,65.2,150,155,160,160,160,M,Open,B,Single-ply
4,Sunil Parasharam Konewadkar,1993-08-05,,GOA,66,66,135,147.5,157.5,157.5,157.5,M,Open,B,Single-ply
5,Hem Singh Baghela,1972-09-02,,RAJ,66,64.5,140,147.5,-155,147.5,147.5,M,Open,B,Single-ply
6,Rajiv Sharma,1969-08-13,,DEL,66,65,142.5,147.5,-150,147.5,147.5,M,Open,B,Single-ply
7,Kamala Kannan,1985-04-10,,TN,66,66,130,140,-152.5,140,140,M,Open,B,Single-ply
8,Bichitra Nayak,1993-07-07,,ODI,66,65.8,135,-145,-145,135,135,M,Open,B,Single-ply
9,Deepak Jyoti,1982-03-08,,BSL,66,64.4,-130,132.5,-137.5,132.5,132.5,M,Open,B,Single-ply
10,T. Umamaheswara Rao,1979-03-04,,OFB,66,65.7,110,-120,-130,110,110,M,Open,B,Single-ply
DQ,Ankush Sundan,1994-01-29,,J&K,66,65.7,-130,-140,-162.5,,,M,Open,B,Single-ply
1,Pradeep Kumar #3,1988-05-04,,KTK,74,74,185,195,200,200,200,M,Open,B,Single-ply
2,S. Tandelu,1976-12-28,,OFB,74,74,180,185,190,190,190,M,Open,B,Single-ply
3,Md. Harish Tausif,1994-06-24,,BIH,74,72.4,177.5,182.5,187.5,187.5,187.5,M,Open,B,Single-ply
4,Naveen Kumar #1,1982-02-12,,DEL,74,73,170,-180,-185,170,170,M,Open,B,Single-ply
5,Mahesh Pedamkar,1978-10-31,,MAH,74,68.6,155,-162.5,-162.5,155,155,M,Open,B,Single-ply
6,Sunil Nagouri,1976-02-07,,RAJ,74,66.6,-140,140,145,145,145,M,Open,B,Single-ply
7,Naresh Kumar #2,1990-10-15,,HAR,74,71.9,-125,125,-130,125,125,M,Open,B,Single-ply
DQ,Vikrant Singh,1989-10-27,,J&K,74,74,-167.5,-167.5,-180,,,M,Open,B,Single-ply
1,Vincent P. Carlo,1972-01-26,,KTK,83,82.2,185,192.5,195,195,195,M,Open,B,Single-ply
2,Deepak Kumar #4,1987-08-23,,DEL,83,79.9,180,-192.5,192.5,192.5,192.5,M,Open,B,Single-ply
3,Joginder Kumar,1986-10-24,,J&K,83,81.9,-180,180,-192.5,180,180,M,Open,B,Single-ply
4,Kannan.K,1985-05-23,,KER,83,81.5,160,170,177.5,177.5,177.5,M,Open,B,Single-ply
5,Manoj Rathaur,1989-12-10,,UP,83,82.1,170,-172.5,,170,170,M,Open,B,Single-ply
6,Kiran Sanas,1985-12-22,,MAH,83,78.5,150,165,-180,165,165,M,Open,B,Single-ply
7,Mahesh Chile,1986-01-14,,OFB,83,82.4,140,150,-155,150,150,M,Open,B,Single-ply
8,Jitendra Yadav,1982-05-12,,MAH,83,81.2,140,147.5,-155,147.5,147.5,M,Open,B,Single-ply
9,Samarthya Tanti,1984-08-20,,WB,83,81.3,-125,125,-140,125,125,M,Open,B,Single-ply
1,Aryan Passi,1994-08-26,,PUN,93,89.6,200,207.5,210,210,210,M,Open,B,Single-ply
2,Prateek Mishra,1993-08-20,,MP,93,92.9,190,197.5,-202.5,197.5,197.5,M,Open,B,Single-ply
3,Anshuman Sharma,1986-10-28,,J&K,93,87.2,190,192.5,-207.5,192.5,192.5,M,Open,B,Single-ply
4,Shivam Sharma,1995-10-15,,DEL,93,91.9,-170,175,182.5,182.5,182.5,M,Open,B,Single-ply
5,Suresh Kolkar,1973-12-04,,MAH,93,92,135,142.5,147.5,147.5,147.5,M,Open,B,Single-ply
6,K.Gogul Raj,1985-12-29,,TN,93,92,110,-130,-130,110,110,M,Open,B,Single-ply
7,S. K. Mishra,1977-11-12,,OFB,93,92.5,110,,,110,110,M,Open,B,Single-ply
DQ,Arshad Ulla,1993-06-11,,KTK,93,93,-170,-192.5,-205,,,M,Open,B,Single-ply
1,Bhaskar Shah,1992-08-09,,DEL,105,99.7,250,262.5,-270.5,262.5,262.5,M,Open,B,Single-ply
2,Vijaya Kanchan,1968-07-24,,KTK,105,105,220,230,235,235,235,M,Open,B,Single-ply
3,Pradeep Kumar #4,1986-07-15,,DEL,105,97.2,210,-217.5,217.5,217.5,217.5,M,Open,B,Single-ply
4,Kalyan Karde,1989-03-21,,MAH,105,99,195,-205,212.5,212.5,212.5,M,Open,B,Single-ply
5,Gurdeep Singh Bakshi,1982-09-07,,HAR,105,103.1,185,-190,190,190,190,M,Open,B,Single-ply
6,Satyendra Singh Rathore,1975-07-15,,RAJ,105,104.5,190,-212.5,-212.5,190,190,M,Open,B,Single-ply
7,Vikram Deep,1995-04-23,,J&K,105,100.4,180,-192.5,-192.5,180,180,M,Open,B,Single-ply
8,Vinod Dattatray Jadhav,1984-07-12,,MAH,105,94.3,165,175,-182.5,175,175,M,Open,B,Single-ply
9,Deepak Kumar Tingre,1988-12-11,,MP,105,102,165,175,-177.5,175,175,M,Open,B,Single-ply
10,Jugal Modi,1981-08-10,,RAJ,105,103.2,172.5,-182.5,,172.5,172.5,M,Open,B,Single-ply
11,B. K. Soni,1979-09-03,,OFB,105,97.7,-100,100,,100,100,M,Open,B,Single-ply
1,Debi Prasad Chatterjee,1980-01-02,,JHR,120,118.4,220,230,-235,230,230,M,Open,B,Single-ply
2,Jagbir Singh,1992-02-14,,J&K,120,112.7,220,225,-230,225,225,M,Open,B,Single-ply
3,Dharm Veer Shilu,1981-07-06,,RAJ,120,113.2,185,202.5,-210,202.5,202.5,M,Open,B,Single-ply
4,Vinayak Aldar,1992-12-25,,MAH,120,108.8,150,162.5,167.5,167.5,167.5,M,Open,B,Single-ply
5,M.Gopinath,1984-09-08,,TN,120,109.9,155,165,-175,165,165,M,Open,B,Single-ply
6,Laxminarayana T,1989-11-19,,KTK,120,112,140,,,140,140,M,Open,B,Single-ply
DQ,A. Jaya Karthik,1989-05-26,,OFB,120,105.4,-90,,,,,M,Open,B,Single-ply
1,Ajay Gogna,1988-01-06,,PUN,120+,138,185,195,202.5,202.5,202.5,M,Open,B,Single-ply
2,Bhuvneshwar Vyas,1992-08-15,,RAJ,120+,124.8,160,-167.5,167.5,167.5,167.5,M,Open,B,Single-ply
3,Vickram Jeet Singh,1996-04-06,,J&K,120+,150,-167.5,167.5,-172.5,167.5,167.5,M,Open,B,Single-ply
4,Sarvesh Kauthanker,1992-10-09,,GOA,120+,120.2,160,-170,-170,160,160,M,Open,B,Single-ply
5,Paritesh Pal,1999-02-13,,MP,120+,123,-120,130,-135,130,130,M,Open,B,Single-ply
DQ,Ankit Khatri #1,1996-12-19,,DEL,120+,137,-230,-230,-230,,,M,Open,B,Single-ply
1,Dhruv Raj,2002-02-02,,MP,53,52.2,87.5,95,100,100,100,M,Sub-Juniors,B,Single-ply
2,Devendra Vyas,2000-08-10,,RAJ,53,50.9,85,92.5,97.5,97.5,97.5,M,Sub-Juniors,B,Single-ply
3,S.Samuel Vasanth,2004-11-11,,TN,53,51.7,65,75,-80,75,75,M,Sub-Juniors,B,Single-ply
4,Khushal Patel,2002-02-11,,CHT,53,52.3,60,67.5,72.5,72.5,72.5,M,Sub-Juniors,B,Single-ply
5,Rishikesh Kadam,2002-01-03,,MAH,53,47.7,-70,70,-77.5,70,70,M,Sub-Juniors,B,Single-ply
6,Himanshu Kumar,,,DEL,53,53,-55,62.5,65,65,65,M,Sub-Juniors,B,Single-ply
1,Chandra Prakash Ojha,2003-06-27,,RAJ,59,58,85,95,105,105,105,M,Sub-Juniors,B,Single-ply
2,S.Vigneshwaran,2000-01-21,,TN,59,57.9,62.5,70,-75,70,70,M,Sub-Juniors,B,Single-ply
3,B. Naveen Kumar #2,2001-07-30,,AP,59,58.7,65,70,-75,70,70,M,Sub-Juniors,B,Single-ply
4,Akshay Ashok,2000-07-02,,KER,59,59,70,-72.5,-72.5,70,70,M,Sub-Juniors,B,Single-ply
5,Dhondu Desai,2001-03-13,,GOA,59,53.9,45,-50,50,50,50,M,Sub-Juniors,B,Single-ply
1,Tourangbam Satish Meitei,2001-03-02,,MNP,66,65.2,-117.5,-117.5,117.5,117.5,117.5,M,Sub-Juniors,B,Single-ply
2,Anish,2000-03-01,,DEL,66,66,105,112.5,-135,112.5,112.5,M,Sub-Juniors,B,Single-ply
3,W.Vijay Justine,2001-07-20,,TN,66,60.7,85,92.5,95,95,95,M,Sub-Juniors,B,Single-ply
4,B. Viswanadh,2001-02-03,,AP,66,64.7,80,87.5,-95,87.5,87.5,M,Sub-Juniors,B,Single-ply
5,Saurabh Alvi,2001-07-25,,UP,66,63,70,72.5,-82.5,72.5,72.5,M,Sub-Juniors,B,Single-ply
6,S. Premson,2002-01-20,,MNP,66,66,-60,60,-70,60,60,M,Sub-Juniors,B,Single-ply
7,Vipin Raj.R,2001-02-22,,KER,66,61.4,55,-65,-67.5,55,55,M,Sub-Juniors,B,Single-ply
1,Simon Masih,2002-03-04,,PUN,74,69.9,140,142.5,155,155,155,M,Sub-Juniors,B,Single-ply
2,Yagyesh Ojha,2000-01-20,,RAJ,74,70.5,110,122.5,-130,122.5,122.5,M,Sub-Juniors,B,Single-ply
3,Luv Mali,2000-01-11,,MP,74,66.3,87.5,95,100,100,100,M,Sub-Juniors,B,Single-ply
4,Ashay Mehendale,2001-03-14,,MAH,74,72.3,75,80,-85,80,80,M,Sub-Juniors,B,Single-ply
5,Sunny Kewat,2002-03-13,,GOA,74,66.6,65,67.5,-75,67.5,67.5,M,Sub-Juniors,B,Single-ply
1,Rahul Joshi,2000-04-20,,RAJ,83,79,137.5,-147.5,-147.5,137.5,137.5,M,Sub-Juniors,B,Single-ply
2,P. Lashman Reddy,2001-05-29,,AP,83,81.5,90,97.5,102.5,102.5,102.5,M,Sub-Juniors,B,Single-ply
3,Rithvik K V,2001-09-20,,KTK,83,81.3,-85,-90,90,90,90,M,Sub-Juniors,B,Single-ply
4,Rutvik Shashikant Gaonkar,2000-11-23,,GOA,83,75,-60,75,-92.5,75,75,M,Sub-Juniors,B,Single-ply
5,A.Anwar Basha,2000-09-19,,TN,83,78.9,60,67.5,-77.5,67.5,67.5,M,Sub-Juniors,B,Single-ply
6,Rityaz Naikodi,2001-03-07,,GOA,83,75.7,30,40,-50,40,40,M,Sub-Juniors,B,Single-ply
1,Varshith S. Rao,2002-02-25,,KTK,93,89.1,130,140,142.5,142.5,142.5,M,Sub-Juniors,B,Single-ply
2,Mukesh Kumar Singh,2000-10-05,,JHR,93,90,127.5,130,132.5,132.5,132.5,M,Sub-Juniors,B,Single-ply
3,Sanskar Singh Parihar,2000-11-07,,MP,93,91,100,110,-120,110,110,M,Sub-Juniors,B,Single-ply
4,Daksh Singh Chouhan,2004-04-19,,RAJ,93,83.7,102.5,-110,-110,102.5,102.5,M,Sub-Juniors,B,Single-ply
5,Sachin.A.S,2001-09-11,,KER,93,90.3,65,100,-105,100,100,M,Sub-Juniors,B,Single-ply
6,P.Sathish Kumar,2001-03-24,,TN,93,86.6,65,72.5,75,75,75,M,Sub-Juniors,B,Single-ply
DQ,Hritik Maji,2000-01-23,,WB,93,84.8,-130,-130,-130,,,M,Sub-Juniors,B,Single-ply
1,Hanuman Ojha,2002-10-10,,RAJ,105,102,135,142.5,150,150,150,M,Sub-Juniors,B,Single-ply
2,Santosh Thapa,2000-08-30,,MAH,105,96.8,-125,-125,125,125,125,M,Sub-Juniors,B,Single-ply
3,G.Vinoth,2001-01-06,,TN,105,97.8,90,-100,100,100,100,M,Sub-Juniors,B,Single-ply
4,Kalpesh Sadanand Waingankar,2001-03-05,,GOA,105,94.5,55,60,-75,60,60,M,Sub-Juniors,B,Single-ply
1,Aniket Khatri,2000-04-20,,DEL,120,115.9,140,-152.5,-152.5,140,140,M,Sub-Juniors,B,Single-ply
2,Nikhil Saini,2000-12-29,,RAJ,120,117.8,110,117.5,120,120,120,M,Sub-Juniors,B,Single-ply
3,Prathvi. P. Kumar,2001-05-10,,KTK,120,118.4,105,-110,110,110,110,M,Sub-Juniors,B,Single-ply
DQ,Indrajitsingh Shekhawat,2001-10-04,,RAJ,120,106,-100,-100,,,,M,Sub-Juniors,B,Single-ply
1,Rohit Ojha,2002-10-07,,RAJ,120+,126.7,105,112.5,125,125,125,M,Sub-Juniors,B,Single-ply
2,Tanishq Grover,2002-05-01,,MP,120+,120.7,85,100,110,110,110,M,Sub-Juniors,B,Single-ply
1,Rajkumar Yadav,1995-08-09,,MP,53,53,-100,100,102.5,102.5,102.5,M,Juniors,B,Single-ply
2,Sujit Kumar Yadav,1999-10-16,,UP,53,51.3,-95,95,100,100,100,M,Juniors,B,Single-ply
3,K. Narendra,1998-11-02,,AP,53,53,90,-100,100,100,100,M,Juniors,B,Single-ply
4,Sunil B,1998-03-09,,KTK,53,52.4,85,90,-95,90,90,M,Juniors,B,Single-ply
5,R.Mariyappan,1998-08-25,,TN,53,51.6,-60,60,65,65,65,M,Juniors,B,Single-ply
1,Adarsh Tanwar,1998-03-04,,RAJ,59,58.5,105,117.5,127.5,127.5,127.5,M,Juniors,B,Single-ply
2,Akshay Rathod,1996-12-22,,MAH,59,55.6,115,125,-130,125,125,M,Juniors,B,Single-ply
3,Yadhnesh V. Raut,1998-08-29,,KTK,59,59,-110,110,117.5,117.5,117.5,M,Juniors,B,Single-ply
4,Subham Dey,1995-11-03,,ASM,59,58.1,102.5,-110,110,110,110,M,Juniors,B,Single-ply
5,Nishanth.A,1995-08-24,,PUD,59,58.5,-105,105,-120,105,105,M,Juniors,B,Single-ply
6,Aditya Sharma #2,1996-03-20,,J&K,59,56.5,100,-105,-105,100,100,M,Juniors,B,Single-ply
7,Md. Amir,1999-08-15,,UP,59,58.2,75,-80,-80,75,75,M,Juniors,B,Single-ply
1,Sahil Mahesh Utekar,1996-10-27,,MAH,66,65.2,140,-147.5,147.5,147.5,147.5,M,Juniors,B,Single-ply
2,Prahlad Singh,1995-06-21,,RAJ,66,64.9,-135,135,142.5,142.5,142.5,M,Juniors,B,Single-ply
3,Pawan Joshi,1995-07-01,,RAJ,66,64.5,125,132.5,140,140,140,M,Juniors,B,Single-ply
4,Priyanshu Vats,,,DEL,66,65.3,125,130,-140,130,130,M,Juniors,B,Single-ply
5,Dhruv Naik,1997-12-05,,MP,66,63.7,110,120,-137.5,120,120,M,Juniors,B,Single-ply
6,Pawan Kumar Gupta,1997-02-21,,MP,66,60.3,-100,100,-105,100,100,M,Juniors,B,Single-ply
7,Devendra Bagh,1998-01-06,,CHT,66,65.9,-100,100,,100,100,M,Juniors,B,Single-ply
8,V. Vishnu Vardhan,1999-12-23,,AP,66,64.7,82.5,90,95,95,95,M,Juniors,B,Single-ply
9,Akash Gawas,1997-03-13,,GOA,66,63.4,-60,60,-62.5,60,60,M,Juniors,B,Single-ply
DQ,Siddharth Verma,1997-06-14,,DEL,66,65.8,-130,-132.5,-140,,,M,Juniors,B,Single-ply
1,Akash Chorge,1998-02-21,,MAH,74,73.3,145,155,157.5,157.5,157.5,M,Juniors,B,Single-ply
2,Vikram Singh Shekhawat,1999-03-03,,RAJ,74,72.5,-145,145,155,155,155,M,Juniors,B,Single-ply
3,Rakesh Singh,1999-10-10,,UP,74,70.1,130,137.5,142.5,142.5,142.5,M,Juniors,B,Single-ply
4,Maumin Khan,1997-01-11,,UP,74,72.1,-140,140,-160,140,140,M,Juniors,B,Single-ply
5,Rahul Bhagat,1997-02-28,,JHR,74,73,130,-135,-135,130,130,M,Juniors,B,Single-ply
6,Akhil.K.Kumar,1999-10-30,,KER,74,71.2,105,107.5,-112.5,107.5,107.5,M,Juniors,B,Single-ply
7,Sreenath.S,1998-06-19,,KER,74,72.3,100,-112.5,-112.5,100,100,M,Juniors,B,Single-ply
1,Mohd Farhan,1996-09-15,,KTK,83,77.4,155,162.5,-167.5,162.5,162.5,M,Juniors,B,Single-ply
2,Mohit Kumar #1,1996-03-11,,UP,83,82.5,150,160,-170,160,160,M,Juniors,B,Single-ply
3,Dhaneshwar Sahu,1998-12-10,,JHR,83,80.8,145,-155,155,155,155,M,Juniors,B,Single-ply
4,Vikas Sharma,2000-01-05,,RAJ,83,79.7,-140,-140,150,150,150,M,Juniors,B,Single-ply
5,B. Harish Kumar,1997-06-12,,AP,83,82.9,130,140,-147.5,140,140,M,Juniors,B,Single-ply
6,Gouresh Kadam,1999-02-15,,MAH,83,76.9,135,137.5,-145,137.5,137.5,M,Juniors,B,Single-ply
7,Mohammed Farooque. K. I,1999-05-13,,KER,83,75.9,110,-120,,110,110,M,Juniors,B,Single-ply
8,Amal Anand,1997-04-07,,KER,83,77.7,80,85,-92.5,85,85,M,Juniors,B,Single-ply
1,Shivam Sharma,1995-10-15,,DEL,93,91.9,-170,175,182.5,182.5,182.5,M,Juniors,B,Single-ply
2,Veeranna Hingani,1997-12-19,,KTK,93,92.1,160,167.5,177.5,177.5,177.5,M,Juniors,B,Single-ply
3,Md. Faizan Reza,1997-01-10,,WB,93,90.6,165,170,175,175,175,M,Juniors,B,Single-ply
4,Gursimran,1998-07-22,,PUN,93,90.1,-165,172.5,-180,172.5,172.5,M,Juniors,B,Single-ply
5,Arvind Singh Tanwar,1997-07-19,,RAJ,93,88.3,145,160,170,170,170,M,Juniors,B,Single-ply
6,Akshay Kale,1998-01-28,,MAH,93,89.9,160,167.5,-175,167.5,167.5,M,Juniors,B,Single-ply
7,Abilash.H,1996-06-28,,KER,93,89,127.5,137.5,147.5,147.5,147.5,M,Juniors,B,Single-ply
8,Ananth S. Bhat,1996-07-10,,KTK,93,88.7,145,-155,-160,145,145,M,Juniors,B,Single-ply
9,P. Channakesulu,1997-12-10,,AP,93,91.9,115,125,-130,125,125,M,Juniors,B,Single-ply
10,Mohit Patil,1999-01-12,,MP,93,92.7,-105,115,122.5,122.5,122.5,M,Juniors,B,Single-ply
11,Faseeh Kasim,1999-11-01,,KER,93,88,85,90,-95,90,90,M,Juniors,B,Single-ply
1,Inder Singh,1996-11-10,,DEL,105,100.8,-185,-190,192.5,192.5,192.5,M,Juniors,B,Single-ply
2,Raj Prasad Rajak,1997-08-12,,WB,105,102.3,-150,150,-162.5,150,150,M,Juniors,B,Single-ply
1,Dharmender,1996-04-29,,DEL,120,117.4,200,207.5,212.5,212.5,212.5,M,Juniors,B,Single-ply
2,Shivraj Singh,1995-07-01,,RAJ,120,105.4,130,-145,145,145,145,M,Juniors,B,Single-ply
3,Rishab R Rao,1999-03-02,,KTK,120,115.6,120,127.5,132.5,132.5,132.5,M,Juniors,B,Single-ply
1,Abhishek B. Horkeri,1998-06-08,,KTK,120+,140.2,185,190,-200,190,190,M,Juniors,B,Single-ply
2,Mahesh Raskar,1996-11-20,,MAH,120+,136,175,185,-190,185,185,M,Juniors,B,Single-ply
3,Himanshu Kiradoo,1997-10-23,,RAJ,120+,135.3,125,132.5,-140,132.5,132.5,M,Juniors,B,Single-ply
DQ,Ankit Khatri #1,1996-12-19,,DEL,120+,137,-230,-230,-230,,,M,Juniors,B,Single-ply
1,Eshwar N,1970-10-05,,KTK,59,59,75,85,-90,85,85,M,Masters 1,B,Single-ply
2,Dhanenjay Naik,1978-08-18,,GOA,59,57.2,70,75,-80,75,75,M,Masters 1,B,Single-ply
1,Hem Singh Baghela,1972-09-02,,RAJ,66,64.5,140,147.5,-155,147.5,147.5,M,Masters 1,B,Single-ply
2,Rajiv Sharma,1969-08-13,,DEL,66,65,142.5,147.5,-150,147.5,147.5,M,Masters 1,B,Single-ply
3,K. Prakash,1975-06-11,,TN,66,63,132.5,137.5,-140,137.5,137.5,M,Masters 1,B,Single-ply
4,Kishore J,1972-06-24,,KTK,66,64.8,-102.5,102.5,-105,102.5,102.5,M,Masters 1,B,Single-ply
5,Raikumar Naorem,1976-01-02,,MNP,66,64.8,85,95,-105,95,95,M,Masters 1,B,Single-ply
1,S. Tandelu,1976-12-28,,OFB,74,74,180,185,190,190,190,M,Masters 1,B,Single-ply
2,Sunil Nagouri,1976-02-07,,RAJ,74,66.6,-140,140,145,145,145,M,Masters 1,B,Single-ply
3,Nitin Mhalaskar,1977-09-24,,MAH,74,72.8,132.5,137.5,142.5,142.5,142.5,M,Masters 1,B,Single-ply
4,Jayappa Lamani,1972-07-23,,KTK,74,72.6,120,125,-137.5,125,125,M,Masters 1,B,Single-ply
5,Ghanshyam Singh Goyal,1974-10-17,,RAJ,74,71.2,110,115,-120,115,115,M,Masters 1,B,Single-ply
6,Dhirendra Solanki,1976-07-04,,RAJ,74,72.6,105,110,-115,110,110,M,Masters 1,B,Single-ply
7,Prakash.M.Sangle,1972-01-14,,GUJ,74,71,90,95,-100,95,95,M,Masters 1,B,Single-ply
8,Mahesh Patel,1972-10-05,,CHT,74,68.3,85,-90,,85,85,M,Masters 1,B,Single-ply
1,Manoj Patil,1975-08-02,,MAH,83,82.2,150,160,-167.5,160,160,M,Masters 1,B,Single-ply
2,Anand Mandia,1971-10-07,,DEL,83,81.3,140,150,155,155,155,M,Masters 1,B,Single-ply
3,Dinesh Khanaa,1975-10-11,,RAJ,83,75.6,135,145,150,150,150,M,Masters 1,B,Single-ply
4,Rajesh Rawale,1969-10-01,,MAH,83,76.6,120,127.5,147.5,147.5,147.5,M,Masters 1,B,Single-ply
5,Balgovind Tiwari,1972-10-29,,AP,83,82.9,135,-145,,135,135,M,Masters 1,B,Single-ply
6,Kamayani Singh,1976-05-02,,JHR,83,80.8,125,132.5,-145,132.5,132.5,M,Masters 1,B,Single-ply
7,D. Vinayagam,1977-05-19,,TN,83,76.8,-130,130,-140,130,130,M,Masters 1,B,Single-ply
8,Mukesh Girap,1976-04-01,,GOA,83,80.8,120,-125,,120,120,M,Masters 1,B,Single-ply
9,Balbir Singh,1973-12-08,,RAJ,83,80,115,120,-125,120,120,M,Masters 1,B,Single-ply
10,U Jagadish,1972-07-22,,KTK,83,83,115,-120,-122.5,115,115,M,Masters 1,B,Single-ply
11,Atheeq Ahmed,1977-04-05,,KTK,83,77,110,-117.5,-140,110,110,M,Masters 1,B,Single-ply
1,Vikram Singh Chouhan #1,1976-06-08,,RAJ,93,92.2,167.5,172.5,175,175,175,M,Masters 1,B,Single-ply
2,Ravinder Singh #1,1975-12-27,,HAR,93,89.1,160,-170,172.5,172.5,172.5,M,Masters 1,B,Single-ply
3,A Arun Kumar,1977-01-05,,KTK,93,90,150,-160,-160,150,150,M,Masters 1,B,Single-ply
4,Rajhans Mehandale,1972-03-26,,MAH,93,84.4,120,125,130,130,130,M,Masters 1,B,Single-ply
5,C.Saravanan,1973-05-30,,TN,93,87.9,90,100,-105,100,100,M,Masters 1,B,Single-ply
DQ,Mahendar Kumar Shrama,1976-04-24,,JHR,93,92.1,-140,-140,-152.5,,,M,Masters 1,B,Single-ply
1,Satyandra Singh,1975-07-15,,RAJ,105,104.5,190,-212.5,-212.5,190,190,M,Masters 1,B,Single-ply
2,Vishal Umbalkar,1978-01-17,,MAH,105,94.5,170,177.5,-185,177.5,177.5,M,Masters 1,B,Single-ply
3,Golden Rathore,1978-07-13,,DEL,105,102.6,160,165,,165,165,M,Masters 1,B,Single-ply
4,N.Seth Bagyaraj,1976-06-01,,TN,105,93.9,110,-120,125,125,125,M,Masters 1,B,Single-ply
5,M. Sasi Kumar,1974-10-29,,TN,105,105,110,117.5,125,125,125,M,Masters 1,B,Single-ply
1,Neeraj Chawla,1976-06-17,,DEL,120,115,190,205,220,220,220,M,Masters 1,B,Single-ply
2,Udoy Kumar Gogoi,1973-09-07,,ASM,120,107,145,155,165,165,165,M,Masters 1,B,Single-ply
3,Rajesh Sutrave,1976-05-25,,KTK,120,120,135,142.5,-150,142.5,142.5,M,Masters 1,B,Single-ply
4,Girish Binjwe,1971-10-01,,MAH,120,107.3,127.5,137.5,-150,137.5,137.5,M,Masters 1,B,Single-ply
5,Unnikrishnan Nair,1973-05-15,,KER,120,107.8,100,110,120,120,120,M,Masters 1,B,Single-ply
1,Shanavas Mangalathel,1977-05-15,,MAH,120+,126.4,150,160,170,170,170,M,Masters 1,B,Single-ply
1,Satish Patade,1963-11-11,,MAH,59,57.3,105,-107.5,-107.5,105,105,M,Masters 2,B,Single-ply
2,B. Ravi,1960-07-17,,TN,59,55.7,90,100,,100,100,M,Masters 2,B,Single-ply
3,Ganesh,1968-02-01,,KTK,59,58,92.5,97.5,-100,97.5,97.5,M,Masters 2,B,Single-ply
4,S.Billore,1967-09-26,,OFB,59,59,92.5,97.5,-102.5,97.5,97.5,M,Masters 2,B,Single-ply
1,Arun Sharma,1962-10-02,,DEL,66,65.1,-110,120,-140,120,120,M,Masters 2,B,Single-ply
2,Siba Gogoi,1966-09-01,,ASM,66,64.4,105,110,115,115,115,M,Masters 2,B,Single-ply
3,K Ganesh,1968-07-11,,KTK,66,65.1,90,95,-100,95,95,M,Masters 2,B,Single-ply
4,V.J. Xavier,1960-01-19,,KER,66,60.7,60,65,-67.5,65,65,M,Masters 2,B,Single-ply
1,Hemachandra,1966-10-27,,KTK,74,73.7,117.5,122.5,127.5,127.5,127.5,M,Masters 2,B,Single-ply
2,M. Baskar Rao,1965-07-01,,AP,74,74,107.5,115,-120,115,115,M,Masters 2,B,Single-ply
3,Rajendra Sawant,1966-11-23,,MAH,74,71.4,95,102.5,107.5,107.5,107.5,M,Masters 2,B,Single-ply
4,T. Chinnadurai,1960-01-25,,TN,74,68,100,105,-107.5,105,105,M,Masters 2,B,Single-ply
5,Shashidhar A,1968-10-24,,KTK,74,66.3,-85,90,92.5,92.5,92.5,M,Masters 2,B,Single-ply
6,Arun Pal Singh,1968-01-22,,DEL,74,72.9,80,85,-90,85,85,M,Masters 2,B,Single-ply
1,Tanaji Patil,1966-06-01,,MAH,83,82.4,127.5,135,-140,135,135,M,Masters 2,B,Single-ply
2,Mujeebulla Khan,1959-05-10,,MP,83,82.1,-110,115,130,130,130,M,Masters 2,B,Single-ply
3,Pabitra Biswas,1966-02-25,,WB,83,78.9,115,122.5,-127.5,122.5,122.5,M,Masters 2,B,Single-ply
4,Sadashiva Shetty,1961-08-01,,KTK,83,80.5,95,105,110,110,110,M,Masters 2,B,Single-ply
5,Mohd Haneef,1967-07-05,,KTK,83,76.7,90,100,-105,100,100,M,Masters 2,B,Single-ply
6,Surinder Kumar Kadyan,1968-07-14,,DEL,83,80,-95,95,-105,95,95,M,Masters 2,B,Single-ply
1,Bimal Indu Sharma,1964-12-16,,J&K,93,91.2,135,145,-152.5,145,145,M,Masters 2,B,Single-ply
2,Shashidhar S,1967-01-20,,KTK,93,89.9,105,115,125,125,125,M,Masters 2,B,Single-ply
3,Sajan Thekkedathu Appachan,1968-04-22,,MP,93,84.5,-80,80,90,90,90,M,Masters 2,B,Single-ply
1,Vijay Kanchan,1968-07-24,,KTK,105,105,220,230,235,235,235,M,Masters 2,B,Single-ply
2,G. Ramaswamy,1968-03-02,,AP,105,95.4,132.5,140,-145,140,140,M,Masters 2,B,Single-ply
3,R.Veeraraghavan,1961-06-15,,TN,105,95.7,-132.5,-132.5,132.5,132.5,132.5,M,Masters 2,B,Single-ply
1,James Thomas #4,1962-09-24,,KER,120,106,70,72.5,90,90,90,M,Masters 2,B,Single-ply
2,Shivanand A,1966-01-07,,KTK,120,105.8,60,70,-80,70,70,M,Masters 2,B,Single-ply
1,Gautam Banerjee,1961-07-04,,WB,120+,137.2,115,127.5,,127.5,127.5,M,Masters 2,B,Single-ply
2,Easo John,1961-07-10,,KER,120+,121.7,65,70,75,75,75,M,Masters 2,B,Single-ply
1,Gopinath Pawar,1956-04-01,,MAH,59,55.9,77.5,85,-87.5,85,85,M,Masters 3,B,Single-ply
2,Srinivasan K.C,1950-08-28,,KER,59,56.7,80,-85,-85,80,80,M,Masters 3,B,Single-ply
3,Devdutta Bhoir,1953-03-03,,MAH,59,56.4,67.5,72.5,-75,72.5,72.5,M,Masters 3,B,Single-ply
4,I.Sundaraj,1949-10-24,,TN,59,59,60,70,-75,70,70,M,Masters 3,B,Single-ply
1,Sadananda Amin,1956-10-24,,KTK,66,65.1,60,70,80,80,80,M,Masters 3,B,Single-ply
1,Jyotirmoy Burman,1956-12-30,,WB,74,73.3,115,125,127.5,127.5,127.5,M,Masters 3,B,Single-ply
2,B Ravi Kumar,1955-09-16,,KTK,74,73.8,-110,115,125,125,125,M,Masters 3,B,Single-ply
3,Ram Prakash,1949-03-28,,DEL,74,73.1,-60,60,65,65,65,M,Masters 3,B,Single-ply
4,Jayachandran.G,1950-05-24,,KER,74,70.8,45,55,62.5,62.5,62.5,M,Masters 3,B,Single-ply
1,Inderjit Singh,1954-02-07,,JHR,83,80.4,132.5,142.5,-152.5,142.5,142.5,M,Masters 3,B,Single-ply
2,Yadav Suvarna,1950-05-08,,KTK,83,76.7,97.5,102.5,110,110,110,M,Masters 3,B,Single-ply
3,Harish Kumar #1,1952-11-15,,KTK,83,82.3,95,-100,-100,95,95,M,Masters 3,B,Single-ply
1,Ajit Kumar Baruah,1955-03-01,,ASM,93,84.7,-85,90,100,100,100,M,Masters 3,B,Single-ply
1,Joydeb Ghosh,1957-09-02,,WB,105,97.9,115,125,127.5,127.5,127.5,M,Masters 3,B,Single-ply
2,Manjunath Mallya,1956-05-08,,KTK,105,95,115,117.5,125,125,125,M,Masters 3,B,Single-ply
3,Mahesh Chandra Mahatma,1957-07-19,,RAJ,105,101.8,120,125,-130,125,125,M,Masters 3,B,Single-ply
1,Chhaya,1999-06-30,,DEL,47,44.3,50,-55,-57.5,50,50,F,Open,B,Raw
2,Fatema Dhoondia,1989-02-19,,MAH,47,45.3,40,42.5,45,45,45,F,Open,B,Raw
3,Manisha Sharma,1994-08-01,,UP,47,44.5,35,37.5,-40,37.5,37.5,F,Open,B,Raw
4,N. Sunita Devi,1980-09-17,,MNP,47,44.1,25,27.5,-35,27.5,27.5,F,Open,B,Raw
DQ,Radha Kumari,1987-02-05,,J & K,47,47,,,,,,F,Open,B,Raw
1,Akshatha Poojarthy,1986-06-01,,KTK,52,52,65,67.5,70,70,70,F,Open,B,Raw
2,Shrvari Inamdar,1983-02-21,,MAH,52,51.7,55,60,-67.5,60,60,F,Open,B,Raw
3,Deeksha Sharma,1991-12-21,,UP,52,48,40,-42.5,-42.5,40,40,F,Open,B,Raw
1,Sudha Kumari,1979-01-06,,BIH,57,55.1,75,82.5,85,85,85,F,Open,B,Raw
2,Nidhi Singh Patel,1990-07-07,,UP,57,56.7,70,75,-80,75,75,F,Open,B,Raw
3,Rajani Upadhayay,1979-08-11,,RAJ,57,55.9,65,70,72.5,72.5,72.5,F,Open,B,Raw
4,Sargam Chouhan,1997-06-15,,MP,57,55.7,62.5,67.5,-70,67.5,67.5,F,Open,B,Raw
5,Apoorvi Sharma,1994-06-07,,J & K,57,55.3,55,60,-62.5,60,60,F,Open,B,Raw
6,Trupti Sawant,1985-05-03,,MAH,57,54.7,40,45,47.5,47.5,47.5,F,Open,B,Raw
7,Moirangthem Anupama Devi,1994-05-01,,MNP,57,53.9,30,,,30,30,F,Open,B,Raw
1,Chandra Badani Mohanta,1993-06-23,,ODI,63,63,70,77.5,80,80,80,F,Open,B,Raw
2,Kulwinder Kaur,1982-05-15,,PUN,63,59.2,62.5,-72.5,77.5,77.5,77.5,F,Open,B,Raw
3,Anjali Sharma #1,1999-05-25,,RAJ,63,62.8,65,70,-75,70,70,F,Open,B,Raw
4,Tapasi Chakraborty,1985-12-04,,WB,63,60.2,50,57.5,,57.5,57.5,F,Open,B,Raw
5,Gauri Shinde,1991-05-17,,MAH,63,59.6,-50,50,-55,50,50,F,Open,B,Raw
6,Pallavi Thakur,1993-10-19,,MAH,63,59.6,42.5,-47.5,47.5,47.5,47.5,F,Open,B,Raw
7,Monika Sharma,1986-02-02,,J & K,63,61.2,40,,,40,40,F,Open,B,Raw
8,Savita Nirmalkar,1985-05-06,,CHT,63,62.1,20,25,27.5,27.5,27.5,F,Open,B,Raw
1,Bithika Mondal,1992-09-12,,WB,72,68.3,70,72.5,-75,72.5,72.5,F,Open,B,Raw
2,Iti Sehgal,1983-09-02,,DEL,72,71.5,62.5,65,67.5,67.5,67.5,F,Open,B,Raw
3,Prajakta Bhosale,1997-03-21,,MAH,72,71.5,57.5,62.5,65,65,65,F,Open,B,Raw
4,Sonia Sharma,1985-02-26,,HAR,72,66.9,57.5,-60,-62.5,57.5,57.5,F,Open,B,Raw
5,Malvi Gupta,1990-02-28,,J & K,72,68.2,47.5,52.5,-57.5,52.5,52.5,F,Open,B,Raw
6,Meghna Gore,1993-07-23,,MP,72,69.9,-30,30,42.5,42.5,42.5,F,Open,B,Raw
1,Juhi Gupta,1993-10-05,,J & K,84,76.5,60,65,-70,65,65,F,Open,B,Raw
2,Nileema Minz,1993-09-28,,JHR,84,83,65,-70,-70,65,65,F,Open,B,Raw
3,Raj Kumari Yadav,1981-08-15,,RAJ,84,79.4,55,60,62.5,62.5,62.5,F,Open,B,Raw
4,Libas P. Bava,1984-02-27,,KER,84,80.7,55,60,-67.5,60,60,F,Open,B,Raw
5,Chaitali Bar,1986-10-05,,WB,84,84,55,60,-62.5,60,60,F,Open,B,Raw
6,Sneha Shinde,1996-03-14,,MAH,84,72.9,52.5,55,-60,55,55,F,Open,B,Raw
7,Sathi Bharathi,1980-08-29,,KTK,84,79.5,42.5,47.5,-50,47.5,47.5,F,Open,B,Raw
8,Manisha Grover,1984-08-04,,DEL,84,75.8,40,42.5,45,45,45,F,Open,B,Raw
9,Manisha Girap,1981-12-30,,GOA,84,78,35,40,-45,40,40,F,Open,B,Raw
1,Beuty Bhattacharjee,1987-07-26,,JHR,84+,92.7,65,70,-72.5,70,70,F,Open,B,Raw
2,Saswati Behera,1985-03-03,,DEL,84+,86.9,45,50,52.5,52.5,52.5,F,Open,B,Raw
3,Upasana Mahajan,1989-08-15,,J & K,84+,122,50,-52.5,-52.5,50,50,F,Open,B,Raw
1,Humanshi Gurjar,2003-09-06,,RAJ,43,42.3,45,47.5,50,50,50,F,Sub-Juniors,B,Raw
2,Rohini Modak,2002-11-01,,MAH,43,41.5,30,32.5,-35,32.5,32.5,F,Sub-Juniors,B,Raw
3,Vipasha Dadhich,2004-01-14,,RAJ,43,40,22.5,25,-30,25,25,F,Sub-Juniors,B,Raw
1,Sayma,2001-04-23,,DEL,47,45,40,42.5,-45,42.5,42.5,F,Sub-Juniors,B,Raw
2,Mahi Chouhan,2004-04-30,,RAJ,47,45.3,35,42.5,-45,42.5,42.5,F,Sub-Juniors,B,Raw
3,Vaishnavi Chavan,2002-11-13,,MAH,47,47,35,-40,-40,35,35,F,Sub-Juniors,B,Raw
4,Tabassum Mansuri,2000-12-07,,MP,47,46,-32.5,32.5,-37.5,32.5,32.5,F,Sub-Juniors,B,Raw
DQ,Jai Shree,2001-09-26,,RAJ,47,44.7,-20,-20,-20,,,F,Sub-Juniors,B,Raw
1,Mamta Choudhary,2002-10-06,,RAJ,52,49.9,45,47.5,-50,47.5,47.5,F,Sub-Juniors,B,Raw
2,Priyal Rathod,2004-12-06,,MAH,52,51,40,42.5,-45,42.5,42.5,F,Sub-Juniors,B,Raw
3,Adity Khurana,2004-10-20,,J&K,52,49.4,35,37.5,40,40,40,F,Sub-Juniors,B,Raw
4,Sanasam Chaoba Devi,2004-10-20,,MNP,52,51.6,37.5,-40,40,40,40,F,Sub-Juniors,B,Raw
5,Rishitaa Jain,2003-04-19,,DEL,52,51.3,30,-35,-35,30,30,F,Sub-Juniors,B,Raw
6,Mahek,2006-10-17,,DEL,52,48.6,25,27.5,-30,27.5,27.5,F,Sub-Juniors,B,Raw
DQ,Ritu Sharma,2001-05-17,,HAR,52,50.2,-20,,,,,F,Sub-Juniors,B,Raw
1,Vaishnavi D K,2000-10-30,,KTK,57,57,45,50,-52.5,50,50,F,Sub-Juniors,B,Raw
2,Niketa,2002-02-11,,DEL,57,55.5,40,42.5,-50,42.5,42.5,F,Sub-Juniors,B,Raw
3,Ajnu,2000-01-01,,RAJ,57,54.1,35,40,-42.5,40,40,F,Sub-Juniors,B,Raw
4,Archita Sidhant Shirodkar,2004-02-10,,GOA,57,54.6,40,-42.5,-45,40,40,F,Sub-Juniors,B,Raw
5,Riya Kaushal,2006-01-01,,MP,57,53.4,30,-35,-35,30,30,F,Sub-Juniors,B,Raw
6,Prerna Rawane,2003-06-07,,MAH,57,53.6,30,-32.5,-35,30,30,F,Sub-Juniors,B,Raw
7,Simran Mujawar,2000-11-24,,GOA,57,56.4,25,27.5,-30,27.5,27.5,F,Sub-Juniors,B,Raw
1,Venizeia Carlo,2000-07-02,,KTK,63,62.2,55,62.5,-67.5,62.5,62.5,F,Sub-Juniors,B,Raw
2,Celestina Antoniette Rebello,2000-06-23,,KER,63,61.1,40,42.5,-45,42.5,42.5,F,Sub-Juniors,B,Raw
3,Prashnthi Moodamanasu,2000-03-30,,MAH,63,61.2,32.5,35,37.5,37.5,37.5,F,Sub-Juniors,B,Raw
4,Muskan,2000-09-26,,DEL,63,61.1,30,-35,-37.5,30,30,F,Sub-Juniors,B,Raw
1,Palak Chhangani,2000-08-31,,MP,72,66.1,37.5,42.5,-45,42.5,42.5,F,Sub-Juniors,B,Raw
2,Anjali Pawde,2000-05-31,,MAH,72,68.4,40,42.5,-47.5,42.5,42.5,F,Sub-Juniors,B,Raw
3,Nikita Rajput,2001-08-15,,MP,72,70.1,30,35,-40,35,35,F,Sub-Juniors,B,Raw
4,Pratibha Prajapat,2003-02-24,,RAJ,72,71.6,30,32.5,-37.5,32.5,32.5,F,Sub-Juniors,B,Raw
5,Varsha,2004-05-20,,DEL,72,67.1,25,-27.5,27.5,27.5,27.5,F,Sub-Juniors,B,Raw
1,Diksha Sain,2000-03-30,,DEL,84,82.2,77.5,85,95,95,95,F,Sub-Juniors,B,Raw
2,Disha N,2000-09-14,,KTK,84,75.3,30,-40,,30,30,F,Sub-Juniors,B,Raw
1,Malvika Sahane,2002-03-26,,MAH,84+,99.4,37.5,42.5,45,45,45,F,Sub-Juniors,B,Raw
2,Panchami,2004-02-25,,KTK,84+,103,40,42.5,-47.5,42.5,42.5,F,Sub-Juniors,B,Raw
3,Purvi Sharma,2002-08-24,,MP,84+,95.2,-25,25,35,35,35,F,Sub-Juniors,B,Raw
4,Anuradha,2000-08-10,,HAR,84+,85,25,30,-35,30,30,F,Sub-Juniors,B,Raw
1,Sehej Maini,1997-04-25,,MAH,43,43,40,42.5,-45,42.5,42.5,F,Juniors,B,Raw
2,Priti Yadav,1998-01-04,,UP,43,42.2,30,35,-37.5,35,35,F,Juniors,B,Raw
3,Sushmitha G,1997-08-28,,KTK,43,40.1,27.5,32.5,-35,32.5,32.5,F,Juniors,B,Raw
4,Sushmitha D,1997-11-09,,KTK,43,43,25,27.5,-30,27.5,27.5,F,Juniors,B,Raw
1,Sushmita Deshmukh #1,1996-11-06,,MAH,47,46.6,55,57.5,-60,57.5,57.5,F,Juniors,B,Raw
2,Chhaya,1999-06-30,,DEL,47,44.3,50,-55,-57.5,50,50,F,Juniors,B,Raw
3,Sakshi,1998-03-02,,UP,47,44.2,42.5,45,-50,45,45,F,Juniors,B,Raw
4,Aayushi Yadav,1999-03-31,,MP,47,45,32.5,37.5,-42.5,37.5,37.5,F,Juniors,B,Raw
5,Anjali P. Sangle,1999-07-08,,GUJ,47,43.5,30,35,-40,35,35,F,Juniors,B,Raw
6,Bindu J R,1998-04-01,,KTK,47,47,25,35,-37.5,35,35,F,Juniors,B,Raw
7,Sanasam Sonia,1998-12-25,,MNP,47,45,25,,,25,25,F,Juniors,B,Raw
1,Kajal.B.Vaghela,1996-08-11,,GUJ,52,52,45,50,55,55,55,F,Juniors,B,Raw
2,Bharosa Ved,1996-07-20,,RAJ,52,50,42.5,45,52.5,52.5,52.5,F,Juniors,B,Raw
3,Neema Kumari,1997-01-06,,KTK,52,49,45,50,-55,50,50,F,Juniors,B,Raw
4,Kriti Kumari,1998-11-07,,KER,52,49.9,50,-52.5,-52.5,50,50,F,Juniors,B,Raw
5,Anjani Bari,1998-06-19,,JHR,52,52,45,-47.5,-47.5,45,45,F,Juniors,B,Raw
6,Renuka Gautam,1998-08-05,,UP,52,51.1,40,-45,-45,40,40,F,Juniors,B,Raw
7,Mamta Mallah,1999-12-12,,MAH,52,51.5,30,32.5,-37.5,32.5,32.5,F,Juniors,B,Raw
1,Jyoti Singh,1997-01-01,,UP,57,56.2,45,47.5,50,50,50,F,Juniors,B,Raw
2,Swathi. U.K,1997-03-27,,KTK,57,56.2,40,45,-50,45,45,F,Juniors,B,Raw
3,Aishwarya Bodke,1999-03-16,,MAH,57,56,40,-42.5,-42.5,40,40,F,Juniors,B,Raw
4,Nirma Mali,1997-01-01,,RAJ,57,52.1,30,35,-40,35,35,F,Juniors,B,Raw
5,Dimple Parihar,1999-09-07,,RAJ,57,55.4,32.5,-40,-42.5,32.5,32.5,F,Juniors,B,Raw
6,Sahiba,1999-06-19,,HAR,57,52.3,20,,,20,20,F,Juniors,B,Raw
1,Madhavi Bilochan,1996-05-21,,JHR,63,57.3,65,75,-77.5,75,75,F,Juniors,B,Raw
2,Anjali Sharma #1,1999-05-25,,RAJ,63,,65,70,-75,70,70,F,Juniors,B,Raw
3,Aditi Parshetty,2002-03-26,,MAH,63,60.6,45,50,52.5,52.5,52.5,F,Juniors,B,Raw
4,Aakansha Sahu,1995-06-23,,MP,63,61.4,25,35,40,40,40,F,Juniors,B,Raw
5,Kriti,1995-11-01,,HAR,63,60.9,25,27.5,-30,27.5,27.5,F,Juniors,B,Raw
1,Prajkta Bhosle,1997-03-21,,MAH,72,71.5,57.5,62.5,65,65,65,F,Juniors,B,Raw
2,Chandrakala Salvi,1999-08-31,,MAH,72,67.7,50,52.5,-55,52.5,52.5,F,Juniors,B,Raw
3,Monalisa Sardar,1999-01-05,,WB,72,72,45,50,-52.5,50,50,F,Juniors,B,Raw
4,Priya Patel,1999-02-24,,MP,72,70.1,30,35,-37.5,35,35,F,Juniors,B,Raw
5,Renu Sharma,1999-09-15,,HAR,72,64.2,25,27.5,-32.5,27.5,27.5,F,Juniors,B,Raw
1,Manisha Ekka,1995-10-25,,JHR,84,80.4,67.5,-75,75,75,75,F,Juniors,B,Raw
2,Sneha Shinde,1996-03-14,,MAH,84,72.9,52.5,55,-60,55,55,F,Juniors,B,Raw
3,Mahima Bhati,1997-08-02,,MP,84,74.9,45,47.5,50,50,50,F,Juniors,B,Raw
1,Jagrati Junaniya,1998-08-06,,MP,84+,87.4,52.5,57.5,-62.5,57.5,57.5,F,Juniors,B,Raw
2,Rachael Noranha,1999-12-08,,KTK,84+,109.3,40,-47.5,47.5,47.5,47.5,F,Juniors,B,Raw
1,Irom Premabati Devi,1974-08-15,,MNP,47,47,-20,20,-25,20,20,F,Masters 1,B,Raw
1,Archana Jain,1974-04-10,,DEL,52,51.5,42.5,45,-47.5,45,45,F,Masters 1,B,Raw
1,Ng Tombi Devi,1969-01-01,,MNP,57,57,35,42.5,-45,42.5,42.5,F,Masters 1,B,Raw
2,Suvarna Shinde,1976-10-05,,MAH,57,52.9,35,40,-42.5,40,40,F,Masters 1,B,Raw
1,Faye Cummings,1972-03-25,,MAH,63,60.7,45,-47.5,47.5,47.5,47.5,F,Masters 1,B,Raw
2,Vilma Saldanha,1970-12-02,,MAH,63,60.4,45,-50,-50,45,45,F,Masters 1,B,Raw
3,M. Ibemcha Devi,1976-01-01,,MNP,63,62.5,27.5,32.5,-37.5,32.5,32.5,F,Masters 1,B,Raw
1,Rohini Bansal,1976-07-05,,MAH,72,69.9,62.5,65,67.5,67.5,67.5,F,Masters 1,B,Raw
2,Ranjita Mishra,1972-03-23,,MAH,72,70.2,57.5,62.5,-70,62.5,62.5,F,Masters 1,B,Raw
3,Deepa K S,1978-03-28,,KTK,72,69.8,40,45,-47.5,45,45,F,Masters 1,B,Raw
4,Aarti Jain,1976-11-06,,DEL,72,69.5,37.5,40,42.5,42.5,42.5,F,Masters 1,B,Raw
5,Manisha Shukla,1978-11-29,,UP,72,66.6,30,-35,,30,30,F,Masters 1,B,Raw
6,N. Ibechaobi Devi,1974-03-01,,MNP,72,64.4,25,27.5,-35,27.5,27.5,F,Masters 1,B,Raw
1,Rohini Gohri,1977-04-01,,DEL,84,77.1,55,57.5,-62.5,57.5,57.5,F,Masters 1,B,Raw
2,Disha Sahani,1976-10-18,,MAH,84,84,22.5,25,27.5,27.5,27.5,F,Masters 1,B,Raw
1,Poonam Duneja,1974-12-08,,DEL,84+,90.2,-50,50,55,55,55,F,Masters 1,B,Raw
1,Seema Verma,1966-06-01,,MP,57,57,60,65,-67.5,65,65,F,Masters 2,B,Raw
2,Vinutha Raghunath,1968-04-22,,MAH,57,55,45,47.5,50,50,50,F,Masters 2,B,Raw
3,Regina Dourado,1965-02-03,,GOA,57,53,25,30,-32.5,30,30,F,Masters 2,B,Raw
DQ,W. Ibemhal Devi,1962-02-01,,MNP,63,57.8,-20,-20,-20,,,F,Masters 2,B,Raw
1,Gayatri Tomar,1966-11-04,,MP,84,82.1,50,55,-60,55,55,F,Masters 2,B,Raw
2,H. Ibempishak Devi,1965-03-01,,MNP,84,84,20,-25,-25,20,20,F,Masters 2,B,Raw
1,Purna Bharde,1958-07-28,,MAH,72,65.9,20,30,32.5,32.5,32.5,F,Masters 3,B,Raw
1,Sushila Devi,1950-12-10,,RAJ,84,82.4,30,35,-40,35,35,F,Masters 3,B,Raw
1,Anuja Tendolkar,1958-01-10,,MAH,84+,101.2,52.5,60,65,65,65,F,Masters 3,B,Raw
1,Manish Gupta,1990-05-11,,UP,59,57.9,120,127.5,130,130,130,M,Open,B,Raw
2,Sawan Kumar,1995-05-02,,J&K,59,58.2,122.5,127.5,130,130,130,M,Open,B,Raw
3,Chandrashekara S K,1983-05-22,,KTK,59,58.9,120,125,-130,125,125,M,Open,B,Raw
4,Thirthesha M.K,1992-10-15,,KTK,59,58.3,100,105,107.5,107.5,107.5,M,Open,B,Raw
5,Rajesh Richhariya,1998-07-12,,MP,59,58.5,90,95,-100,95,95,M,Open,B,Raw
6,Ranjeet Kumar,1991-06-07,,JHR,59,52.8,85,-90,-90,85,85,M,Open,B,Raw
7,Parmar Ashok Kumar.K,1986-09-20,,GUJ,59,57.2,75,85,-90,85,85,M,Open,B,Raw
1,Bichitra Nayak,1993-07-07,,ODI,66,65.1,135,-140,140,140,140,M,Open,B,Raw
2,Nilesh Patil,1993-03-23,,MAH,66,65,122.5,130,-135,130,130,M,Open,B,Raw
4,Priyarenjan P,1990-05-02,,KER,66,63.8,115,125,-130,125,125,M,Open,B,Raw
3,Vimlesh Sonkar,1990-03-10,,UP,66,64.6,110,120,125,125,125,M,Open,B,Raw
5,Mohammad Abid,1993-05-02,,ODI,66,66,112.5,120,-127.5,120,120,M,Open,B,Raw
6,Solanki Kailash.A,1994-10-15,,GUJ,66,65.1,85,102.5,110,110,110,M,Open,B,Raw
7,V.M.Gangadhar,1989-06-01,,AP,66,64.3,85,-95,95,95,95,M,Open,B,Raw
8,Alipeer,1988-06-02,,AP,66,65.2,80,87.5,92.5,92.5,92.5,M,Open,B,Raw
1,Md. Harish Tausif,1994-06-24,,BIH,74,72.8,147.5,150,-152.5,150,150,M,Open,B,Raw
2,Akshay Shanmughan,1992-03-23,,MAH,74,70,140,145,-147.5,145,145,M,Open,B,Raw
3,P. Ramesh,1984-06-04,,TN,74,72.5,145,-150,-150,145,145,M,Open,B,Raw
4,Pradeep Kumar #3,1988-05-04,,KTK,74,74,142.5,-145,-147.5,142.5,142.5,M,Open,B,Raw
5,Pankaj Chib,1994-06-10,,J&K,74,73.7,137.5,-145,-150,137.5,137.5,M,Open,B,Raw
6,Sunil Nagori,1976-02-07,,RAJ,74,67.8,110,117.5,130,130,130,M,Open,B,Raw
7,Abdul Salam K,1990-03-31,,KER,74,68.9,130,-145,,130,130,M,Open,B,Raw
8,Aslam Khan,1993-06-20,,MP,74,71.7,125,130,-132.5,130,130,M,Open,B,Raw
9,Rakesh Singh,1999-10-10,,UP,74,70.8,120,122.5,125,125,125,M,Open,B,Raw
10,Naresh Kumar #3,1999-10-15,,HAR,74,71.3,110,-112.5,-112.5,110,110,M,Open,B,Raw
11,Shaik Allah Bakshi,1991-02-23,,AP,74,72.5,110,-117.5,-117.5,110,110,M,Open,B,Raw
12,C. Venkata Anand,1997-09-21,,AP,74,72.8,90,92.5,95,95,95,M,Open,B,Raw
1,Rakesh Kumar Satapathy,1987-07-04,,ODI,83,82.5,150,160,165,165,165,M,Open,B,Raw
2,Sajad Hussain,1986-11-12,,J&K,83,82.3,145,152.5,157.5,157.5,157.5,M,Open,B,Raw
3,Mahendar Kumar Singh,1989-11-23,,JHR,83,81.9,150,155,-160,155,155,M,Open,B,Raw
4,Hement Kumar Mohnot,1988-11-28,,RAJ,83,82.2,145,-152.5,-152.5,145,145,M,Open,B,Raw
5,Shivam Yadav,1993-01-01,,MP,83,80.3,127.5,135,-140,135,135,M,Open,B,Raw
6,Kannan.K,1985-05-23,,KER,83,81.2,125,135,-145,135,135,M,Open,B,Raw
7,Jibin Verghese,1986-03-31,,KTK,83,82.5,130,135,-150,135,135,M,Open,B,Raw
8,Chand Singh,1989-02-13,,PUN,83,81.8,132.5,-137.5,-140,132.5,132.5,M,Open,B,Raw
9,Dora Konda Gori,1991-12-10,,ODI,83,82.7,120,130,-135,130,130,M,Open,B,Raw
10,Sk. Nazeer,,,AP,83,81.1,115,-125,125,125,125,M,Open,B,Raw
11,B. Kumar,1990-06-01,,AP,83,74.3,90,-100,100,100,100,M,Open,B,Raw
12,Dhaud Sangam,1992-05-15,,GOA,83,79.7,60,80,-95,80,80,M,Open,B,Raw
13,Chetan Bhim Rao Gouda,1993-03-20,,GOA,83,75.1,60,70,-80,70,70,M,Open,B,Raw
1,Parul Kumar #2,1986-02-06,,UP,93,88.3,175,180,-185,180,180,M,Open,B,Raw
2,Amandeep Bassan,1996-09-23,,J&K,93,89.6,150,155,157.5,157.5,157.5,M,Open,B,Raw
3,Samir Dalvi,1973-11-29,,MAH,93,90.7,140,152.5,157.5,157.5,157.5,M,Open,B,Raw
4,Katara Kalpesh.R,1981-05-12,,GUJ,93,86.5,110,130,152.5,152.5,152.5,M,Open,B,Raw
5,Mohd. Imran Khan,1992-05-15,,MP,93,85.7,125,135,140,140,140,M,Open,B,Raw
6,M. Veeranna,1992-07-01,,AP,93,83.1,100,120,130,130,130,M,Open,B,Raw
7,Pinal.J.Mahla,1983-10-13,,GUJ,93,87.8,100,110,115,115,115,M,Open,B,Raw
8,Sushant Kumar,1986-03-17,,GUJ,93,90.3,90,100,-107.5,100,100,M,Open,B,Raw
DQ,Arshad Ulla,1993-06-11,,KTK,93,93,,,,,,M,Open,B,Raw
1,Rajinder Kumar,1988-04-18,,PUN,105,103.3,180,187.5,-192.5,187.5,187.5,M,Open,B,Raw
2,Pradeep Kumar #4,1986-07-15,,DEL,105,96,170,182.5,-192.5,182.5,182.5,M,Open,B,Raw
3,Rhubham Sharma,1995-11-06,,J&K,105,102.34,170,177.5,182.5,182.5,182.5,M,Open,B,Raw
4,Vijaya Kanchan,1968-07-24,,KTK,105,104.5,170,177.5,-182.5,177.5,177.5,M,Open,B,Raw
5,Rakesh Bhukta,1995-07-04,,ODI,105,102.5,150,170,-177.5,170,170,M,Open,B,Raw
6,Gurdeep Singh Bakshi,1982-09-07,,HAR,105,102.9,155,160,-162.5,160,160,M,Open,B,Raw
7,Satyendra Singh Rathore,1975-07-15,,RAJ,105,104.8,150,157.5,-165,157.5,157.5,M,Open,B,Raw
8,G Mohan Raj,1991-12-26,,TN,105,97.37,145,-152.5,,145,145,M,Open,B,Raw
9,Shahbaj Khan,1993-01-01,,MP,105,100.36,135,142.5,-147.5,142.5,142.5,M,Open,B,Raw
10,Sanjay Yadav,1992-03-03,,MAH,105,100.5,130,135,140,140,140,M,Open,B,Raw
11,Viraj V Borkar,1991-03-22,,GOA,105,100.2,-125,-125,125,125,125,M,Open,B,Raw
12,Manojit Chakraboty,1977-05-25,,WB,105,93.6,-125,125,-127.5,125,125,M,Open,B,Raw
13,Praful Sharma,1992-01-01,,GUJ,105,98.4,90,97.5,102.5,102.5,102.5,M,Open,B,Raw
1,Md. Jawed Arshad,1994-05-26,,ODI,120,117.1,145,165,167.5,167.5,167.5,M,Open,B,Raw
2,Babuji R. K,1992-09-07,,KER,120,117.5,155,162.5,167.5,167.5,167.5,M,Open,B,Raw
3,Amol Kaduskar,1985-07-01,,MAH,120,115.2,150,-162.5,162.5,162.5,162.5,M,Open,B,Raw
4,Kuntal Das,1984-07-26,,WB,120,108.6,155,-160,160,160,160,M,Open,B,Raw
5,Laxminarayana T,1989-11-19,,KTK,120,112.46,147.5,-157.5,157.5,157.5,157.5,M,Open,B,Raw
6,Dharam Veer Shilu,1981-07-06,,RAJ,120,112.7,140,-155,-157.5,140,140,M,Open,B,Raw
DQ,Suraj Yadav,1992-11-01,,GOA,120,112.9,-170,-170,-170,,,M,Open,B,Raw
DQ,Jagbir Singh Bhav,1992-02-14,,J&K,120,112.7,,,,,,M,Open,B,Raw
1,Ajay Gogna,,,PUN,120+,137.96,-170,170,,170,170,M,Open,B,Raw
2,Ankit Khatri #1,1996-12-19,,DEL,120+,136.12,152.5,160,-170,160,160,M,Open,B,Raw
3,Abhishek Rane,1984-10-18,,MAH,120+,137.54,127.5,135,140,140,140,M,Open,B,Raw
4,Sarvesh Kauthanker,1992-10-09,,GOA,120+,120.1,127.5,137.5,-142.5,137.5,137.5,M,Open,B,Raw
5,Yogendra Hardiya,1983-08-17,,MP,120+,122.4,-125,125,130,130,130,M,Open,B,Raw
6,Paritesh Pal,1999-09-13,,MP,120+,123.9,110,125,130,130,130,M,Open,B,Raw
DQ,Vikram Jeet Singh,1996-04-06,,J&K,120+,151,-160,,,,,M,Open,B,Raw
1,Dhiraj Kinger,2000-11-15,,JHR,53,51.5,85,92.5,97.5,97.5,97.5,M,Sub-Juniors,B,Raw
2,Munna Kumar,2001-06-15,,BIH,53,47.7,-90,90,95,95,95,M,Sub-Juniors,B,Raw
3,Arindam Das,2001-04-19,,WB,53,51.4,87.5,92.5,-97.5,92.5,92.5,M,Sub-Juniors,B,Raw
4,Devendra Vyas,2000-08-10,,RAJ,53,50.8,75,82.5,-92.5,82.5,82.5,M,Sub-Juniors,B,Raw
5,Dhruv Raj Kure,2002-06-02,,MP,53,52.4,75,82.5,-87.5,82.5,82.5,M,Sub-Juniors,B,Raw
6,Thongam Rakesh,2000-01-18,,MNP,53,50.9,70,72.5,-82.5,72.5,72.5,M,Sub-Juniors,B,Raw
7,Abhay Tripathi,2002-01-04,,UP,53,52.1,70,72.5,-77.5,72.5,72.5,M,Sub-Juniors,B,Raw
8,Ronit Raj Munda,2001-03-28,,JHR,53,51.1,-65,65,70,70,70,M,Sub-Juniors,B,Raw
9,Abhishek Kadam,2000-03-08,,MAH,53,48.4,55,65,-72.5,65,65,M,Sub-Juniors,B,Raw
10,Arjun Kumar,2001-02-26,,J&K,53,48.8,60,-70,,60,60,M,Sub-Juniors,B,Raw
11,Kishenjeet Kangjam,2000-03-23,,MNP,53,46.1,50,55,-60,55,55,M,Sub-Juniors,B,Raw
12,Akashdeep #1,2002-11-25,,PUN,53,51.9,50,52.5,-67.5,52.5,52.5,M,Sub-Juniors,B,Raw
13,Mohammed Zuber,2000-05-27,,GOA,53,47.7,40,50,-65,50,50,M,Sub-Juniors,B,Raw
1,Shahil Hussain,2000-04-22,,KER,59,57.5,85,90,95,95,95,M,Sub-Juniors,B,Raw
2,Raviraj Ghadage,2000-03-24,,MAH,59,57.8,80,90,92.5,92.5,92.5,M,Sub-Juniors,B,Raw
3,Sourabh Dhanware,2004-07-16,,MP,59,59,-80,80,85,85,85,M,Sub-Juniors,B,Raw
4,Lalit Jat,2000-04-06,,MP,59,57,70,-80,80,80,80,M,Sub-Juniors,B,Raw
5,Pavan Kumar,2001-01-08,,UP,59,58.8,-70,75,-82.5,75,75,M,Sub-Juniors,B,Raw
6,M.Thulasiram,2000-07-31,,TN,59,55.2,70,-75,-75,70,70,M,Sub-Juniors,B,Raw
7,Amandeep Singh Dhillon,2001-01-19,,PUN,59,57.9,70,-80,-80,70,70,M,Sub-Juniors,B,Raw
8,Maibam Loveson,2001-07-12,,MNP,59,59,60,67.5,-72.5,67.5,67.5,M,Sub-Juniors,B,Raw
9,Suraj,2001-02-05,,DEL,59,53.6,65,-77.5,-80,65,65,M,Sub-Juniors,B,Raw
10,Nikhil Tripathi,2002-02-08,,UP,59,56.7,-65,-65,65,65,65,M,Sub-Juniors,B,Raw
11,K. Yaswanth,2000-02-11,,AP,59,57.1,45,55,-60,55,55,M,Sub-Juniors,B,Raw
1,Rambir Singh,2000-09-13,,JHR,66,65.2,-105,105,110,110,110,M,Sub-Juniors,B,Raw
2,Tourangbam Satish Meitei,2001-03-02,,MNP,66,65.9,95,100,-102.5,100,100,M,Sub-Juniors,B,Raw
3,Harshdeep Singh,2000-10-29,,J&K,66,64.4,92.5,97.5,-100,97.5,97.5,M,Sub-Juniors,B,Raw
4,Pranav Kumar Gahlot,2002-05-05,,RAJ,66,64.5,90,97.5,-100,97.5,97.5,M,Sub-Juniors,B,Raw
5,Akib Khan,2000-05-01,,MAH,66,64.9,90,97.5,-102.5,97.5,97.5,M,Sub-Juniors,B,Raw
6,Lav Mali,2001-01-11,,MP,66,65.6,90,97.5,-102.5,97.5,97.5,M,Sub-Juniors,B,Raw
7,T Netaji,2003-04-20,,AP,66,64.9,87.5,90,-95,90,90,M,Sub-Juniors,B,Raw
8,Timanshu Mehra,2000-07-06,,PUN,66,66,80,87.5,-95,87.5,87.5,M,Sub-Juniors,B,Raw
9,Altab Khan,2000-09-05,,WB,66,61,80,-85,-85,80,80,M,Sub-Juniors,B,Raw
10,Khushal Samriya,2001-04-24,,RAJ,66,63.6,70,80,-90,80,80,M,Sub-Juniors,B,Raw
11,Ashraf Umar Sharif,2000-10-14,,GOA,66,64.2,50,60,-70,60,60,M,Sub-Juniors,B,Raw
12,Prem Pralhad Girap,2002-01-05,,GOA,66,61.8,50,55,-60,55,55,M,Sub-Juniors,B,Raw
13,G. Suresh,2000-07-12,,AP,66,65.2,35,45,55,55,55,M,Sub-Juniors,B,Raw
1,B.Mohammed Asif,2000-09-12,,TN,74,73.2,112.5,117.5,120,120,120,M,Sub-Juniors,B,Raw
2,Soram Sunil Singh,2002-03-25,,MNP,74,72.5,105,110,,110,110,M,Sub-Juniors,B,Raw
3,Haroon Choudhary,2001-07-15,,J&K,74,73.3,95,102.5,-107.5,102.5,102.5,M,Sub-Juniors,B,Raw
4,Aman Khan,2001-06-08,,MP,74,68,95,100,-105,100,100,M,Sub-Juniors,B,Raw
5,Sandeep Rutudi,2000-04-20,,MAH,74,69.3,85,95,-102.5,95,95,M,Sub-Juniors,B,Raw
6,Lakhwinder Singh,2000-04-23,,PUN,74,68.9,87.5,92.5,-97.5,92.5,92.5,M,Sub-Juniors,B,Raw
7,S. Vivek,2000-07-31,,AP,74,67.2,80,85,90,90,90,M,Sub-Juniors,B,Raw
8,Ch. Rakeshwar,2000-10-27,,AP,74,69.9,75,85,90,90,90,M,Sub-Juniors,B,Raw
9,Jaskaran Singh,2000-05-16,,PUN,74,73.9,80,85,-87.5,85,85,M,Sub-Juniors,B,Raw
10,Darrel A Tholado,2000-02-24,,KTK,74,68.1,70,80,-85,80,80,M,Sub-Juniors,B,Raw
11,Sunny Kewat,2002-03-13,,GOA,74,66.6,-65,65,-70,65,65,M,Sub-Juniors,B,Raw
12,Akashmuttappa Harijan,2000-12-24,,GOA,74,66.7,45,47.5,-60,47.5,47.5,M,Sub-Juniors,B,Raw
1,Tejas Rajaputran,2000-03-23,,MAH,83,82.4,115,125,135,135,135,M,Sub-Juniors,B,Raw
2,Harshit Yadav,2001-10-13,,UP,83,79.5,-110,110,-112.5,110,110,M,Sub-Juniors,B,Raw
3,Sumit Rathore,2001-01-01,,MP,83,77.4,90,100,107.5,107.5,107.5,M,Sub-Juniors,B,Raw
4,Updesh Tiwari,2001-11-08,,UP,83,77.7,100,107.5,-112.5,107.5,107.5,M,Sub-Juniors,B,Raw
5,U Mahesh Rao,2001-04-25,,AP,83,81,90,100,-112.5,100,100,M,Sub-Juniors,B,Raw
6,G. Shyam Prakash,2001-10-02,,AP,83,79,87.5,92.5,-97.5,92.5,92.5,M,Sub-Juniors,B,Raw
7,Mirza Abdul Ali. M,2000-03-06,,WB,83,80.5,87.5,90,-95,90,90,M,Sub-Juniors,B,Raw
8,Rithvik K V,2001-09-20,,KTK,83,82.3,60,62.5,72.5,72.5,72.5,M,Sub-Juniors,B,Raw
9,Rutvik Shashikant Gaonkar,2000-11-23,,GOA,83,76.1,70,-85,-85,70,70,M,Sub-Juniors,B,Raw
10,Shreyas S,2000-11-08,,KTK,83,74.9,45,52.5,-57.5,52.5,52.5,M,Sub-Juniors,B,Raw
1,Mukesh Kumar Singh,2000-10-05,,JHR,93,90.1,125,132.5,137.5,137.5,137.5,M,Sub-Juniors,B,Raw
2,Varshith S. Rao,2002-02-25,,KTK,93,88.8,110,120,-125,120,120,M,Sub-Juniors,B,Raw
3,Akash Tyagi,2001-03-04,,UP,93,90.7,-110,110,112.5,112.5,112.5,M,Sub-Juniors,B,Raw
4,Sanskar Singh,2000-11-07,,MP,93,90.2,90,102.5,-110,102.5,102.5,M,Sub-Juniors,B,Raw
5,Adithya Kiran.P,2000-08-20,,KER,93,85,92.5,-100,-100,92.5,92.5,M,Sub-Juniors,B,Raw
6,R.Ruban Daniel,2000-08-11,,TN,93,85,87.5,92.5,-100,92.5,92.5,M,Sub-Juniors,B,Raw
7,Daksh Singh Chouhan,2004-04-19,,RAJ,93,84,75,85,-87.5,85,85,M,Sub-Juniors,B,Raw
1,Sidharth Khatri,2001-09-23,,DEL,105,99.24,130,-140,-140,130,130,M,Sub-Juniors,B,Raw
2,Hanuman Ojha,2002-10-10,,RAJ,105,101.9,105,115,-132.5,115,115,M,Sub-Juniors,B,Raw
3,Gourav Sharma #2,2000-09-11,,J&K,105,102.8,87.5,92.5,-95,92.5,92.5,M,Sub-Juniors,B,Raw
4,Sourav Gurung,2000-02-28,,CHT,105,93.6,80,90,-92.5,90,90,M,Sub-Juniors,B,Raw
5,Pritam Bagkar,2000-01-22,,MAH,105,95.92,80,-87.5,-92.5,80,80,M,Sub-Juniors,B,Raw
1,Sarwar Patil,2000-01-07,,MAH,120,105.74,107.5,110,112.5,112.5,112.5,M,Sub-Juniors,B,Raw
2,Suryakant Patel,2000-02-29,,MP,120,106.2,90,-97.5,97.5,97.5,97.5,M,Sub-Juniors,B,Raw
3,Prathvi. P. Kumar,2001-05-10,,KTK,120,118.4,90,95,97.5,97.5,97.5,M,Sub-Juniors,B,Raw
4,Nikhil Saini,2000-12-29,,RAJ,120,116.9,80,87.5,-92.5,87.5,87.5,M,Sub-Juniors,B,Raw
5,Jai Shankar Ojha,2000-12-20,,RAJ,120,105.5,65,-75,-80,65,65,M,Sub-Juniors,B,Raw
1,Rohit Ojha,2002-10-07,,RAJ,120+,127.4,70,85,92.5,92.5,92.5,M,Sub-Juniors,B,Raw
2,Sinoj Mathew,2001-11-28,,MAH,120+,133.1,70,75,-92.5,75,75,M,Sub-Juniors,B,Raw
1,A.Shajith Husan,1997-05-21,,TN,53,47.9,90,95,97.5,97.5,97.5,M,Juniors,B,Raw
2,Sunil B,1998-03-09,,KTK,53,51.5,-85,90,92.5,92.5,92.5,M,Juniors,B,Raw
3,Nilesh Kadam,1995-02-13,,MAH,53,46.9,82.5,90,-95,90,90,M,Juniors,B,Raw
4,Sujit Kumar Yadav,1999-10-16,,UP,53,52.3,82.5,87.5,-92.5,87.5,87.5,M,Juniors,B,Raw
5,Tamnesh Bhomkar,1995-06-10,,GOA,53,51.8,75,85,-92.5,85,85,M,Juniors,B,Raw
6,Himanshu Kure,1998-11-11,,MP,53,52.5,77.5,85,-95,85,85,M,Juniors,B,Raw
7,Sankha Suvra Das,1998-12-01,,WB,53,50,65,-70,70,70,70,M,Juniors,B,Raw
8,Arijit Dawn,1998-06-25,,WB,53,50.4,67.5,-72.5,-72.5,67.5,67.5,M,Juniors,B,Raw
9,Ganpat,1997-01-01,,RAJ,53,51.8,65,67.5,-82.5,67.5,67.5,M,Juniors,B,Raw
10,Sunil Nayak,1996-10-13,,ODI,53,51.9,55,57.5,-70,57.5,57.5,M,Juniors,B,Raw
1,Yadhnesh V. Raut,1998-08-29,,KTK,59,59,97.5,100,107.5,107.5,107.5,M,Juniors,B,Raw
2,M.Kannan,1996-04-10,,TN,59,57.9,100,-105,105,105,105,M,Juniors,B,Raw
3,Nishanth.A,1995-08-24,,PUD,59,58.8,95,-102.5,102.5,102.5,102.5,M,Juniors,B,Raw
4,Varun Gupta,1996-09-05,,J&K,59,58.3,87.5,95,97.5,97.5,97.5,M,Juniors,B,Raw
5,Ch. Ramesh,1996-02-09,,AP,59,58,85,90,-95,90,90,M,Juniors,B,Raw
6,Alok Kumar Yadav,1998-12-18,,UP,59,58,80,87.5,-92.5,87.5,87.5,M,Juniors,B,Raw
7,Bimal Thapa,1998-07-21,,MAH,59,54.6,85,-97.5,-102.5,85,85,M,Juniors,B,Raw
8,Aditya Sharma #2,1996-03-20,,J&K,59,54.8,77.5,85,-95,85,85,M,Juniors,B,Raw
9,Md Fahim,1996-02-19,,CHT,59,58.7,80,-90,-90,80,80,M,Juniors,B,Raw
10,Kailash Chandrakant Girap,1995-11-30,,GOA,59,56.1,65,-70,-70,65,65,M,Juniors,B,Raw
11,Vijay A Parmar,1997-03-05,,GUJ,59,57.5,60,65,-72.5,65,65,M,Juniors,B,Raw
DQ,Jatinder Kumar,1995-10-04,,PUN,59,58.1,-92.5,-95,-102.5,,,M,Juniors,B,Raw
1,Gurpreet Singh #4,1995-07-13,,PUN,66,63.7,125,135,-140,135,135,M,Juniors,B,Raw
2,Dibakar Gochhayat,1996-10-15,,ODI,66,66,120,-130,132.5,132.5,132.5,M,Juniors,B,Raw
3,Biswajeet Jena,1995-06-15,,ODI,66,65.8,127.5,130,-135,130,130,M,Juniors,B,Raw
4,Pawan Kumar,1997-07-06,,DEL,66,66,115,-120,-120,115,115,M,Juniors,B,Raw
5,Akhilesh Kamble,1999-12-31,,MAH,66,61,105,112.5,-117.5,112.5,112.5,M,Juniors,B,Raw
6,Pawan Joshi,1995-07-01,,RAJ,66,65.6,105,-112.5,-120,105,105,M,Juniors,B,Raw
7,Abhishek Bharti,1998-03-05,,MP,66,66,100,-115,-120,100,100,M,Juniors,B,Raw
8,M.Kamalakannan,1996-08-01,,TN,66,62.5,95,-102.5,-102.5,95,95,M,Juniors,B,Raw
9,M. Ashok Kumar,1998-07-14,,AP,66,63.7,80,90,95,95,95,M,Juniors,B,Raw
10,Vishwakarma Paswan,1995-02-07,,BIH,66,64.7,85,-92.5,-92.5,85,85,M,Juniors,B,Raw
11,Naveen Kherde,1999-02-04,,CHT,66,65,70,80,85,85,85,M,Juniors,B,Raw
12,Brijesh D. Patel,1997-07-19,,GUJ,66,65.2,75,80,82.5,82.5,82.5,M,Juniors,B,Raw
13,Narayan Shantaram Pednekar,1997-04-26,,GOA,66,64.6,-70,-70,80,80,80,M,Juniors,B,Raw
14,P.V.V. Anjaneyulu,1996-09-02,,AP,66,65.2,60,70,77.5,77.5,77.5,M,Juniors,B,Raw
15,Vinay Kumar Sahu,1998-06-30,,CHT,66,63.7,45,50,52.5,52.5,52.5,M,Juniors,B,Raw
1,Jogendar Tiwari,1997-11-11,,MP,74,69.2,135,137.5,142.5,142.5,142.5,M,Juniors,B,Raw
2,Maumin Khan,1997-01-11,,UP,74,71.8,130,137.5,142.5,142.5,142.5,M,Juniors,B,Raw
3,Abishek Chawla,1999-02-02,,J&K,74,73.9,135,-137.5,-140,135,135,M,Juniors,B,Raw
4,Rajvardhan Singh,1996-06-01,,MP,74,69.7,125,127.5,-135,127.5,127.5,M,Juniors,B,Raw
5,Sachin Kumar #1,,,DEL,74,73.2,125,127.5,-137.5,127.5,127.5,M,Juniors,B,Raw
6,Mohammed Rameezraza Akram Khan,1995-07-01,,MAH,74,71.6,107.5,117.5,-135,117.5,117.5,M,Juniors,B,Raw
7,Harsh Kumar,1997-09-28,,PUN,74,71.8,110,117.5,-120,117.5,117.5,M,Juniors,B,Raw
8,Sudama Singh,1997-05-11,,ODI,74,68.2,-105,105,-120,105,105,M,Juniors,B,Raw
9,Kori Jitendra.K,1996-05-15,,GUJ,74,72.2,90,105,-115,105,105,M,Juniors,B,Raw
10,Arjun. K,1997-11-25,,KER,74,69.7,90,100,-105,100,100,M,Juniors,B,Raw
11,Gaurav Kumar #1,1998-11-09,,CHT,74,68.6,80,87.5,90,90,90,M,Juniors,B,Raw
12,Aditya Mishra,1998-04-20,,CHT,74,69.9,80,82.5,85,85,85,M,Juniors,B,Raw
13,Harshad Ram Parab,1998-12-12,,GOA,74,72.1,80,85,-87.5,85,85,M,Juniors,B,Raw
14,Tejas.V.Gite,1997-10-06,,GUJ,74,67.8,65,75,77.5,77.5,77.5,M,Juniors,B,Raw
15,D. Salman Raju,1998-06-10,,AP,74,73.2,65,70,-75,70,70,M,Juniors,B,Raw
1,Mohit Srivastava,1996-03-11,,UP,83,81.4,130,140,142.5,142.5,142.5,M,Juniors,B,Raw
2,Aniket Dhamal,1997-09-26,,MAH,83,83,130,137.5,-142.5,137.5,137.5,M,Juniors,B,Raw
3,Sushil Goswami,1996-10-12,,DEL,83,81.1,127.5,135,-140,135,135,M,Juniors,B,Raw
4,Dhaneswar Sahu,1998-12-10,,JHR,83,82.9,125,127.5,-130,127.5,127.5,M,Juniors,B,Raw
5,Anubhav Pandey,1997-09-20,,MP,83,79.5,115,125,-127.5,125,125,M,Juniors,B,Raw
6,Naveen Kadam,1998-03-01,,MAH,83,76.3,110,120,-130,120,120,M,Juniors,B,Raw
7,Sohan Lal,1995-12-01,,RAJ,83,77.5,100,110,115,115,115,M,Juniors,B,Raw
8,Ashish Mallia,1997-07-08,,ODI,83,75.5,105,-112.5,112.5,112.5,112.5,M,Juniors,B,Raw
9,Ganseh M,1996-02-18,,KER,83,77.6,95,105,-110,105,105,M,Juniors,B,Raw
10,Arjun Gadewadar,1998-02-07,,GOA,83,77.7,90,100,-110,100,100,M,Juniors,B,Raw
11,U.Leela Sagar,1997-06-11,,AP,83,75.3,70,75,-80,75,75,M,Juniors,B,Raw
12,T. Krupa Kumar,1999-06-15,,AP,83,76.8,55,60,65,65,65,M,Juniors,B,Raw
DQ,Vishal Singh,1997-03-04,,J&K,83,81.3,-135,-135,-140,,,M,Juniors,B,Raw
1,Vijay Goswami,1998-01-12,,DEL,93,91.9,150,155,157.5,157.5,157.5,M,Juniors,B,Raw
2,Md. Faizan Reza,1997-01-10,,WB,93,91.3,140,-147.5,147.5,147.5,147.5,M,Juniors,B,Raw
3,Arvind Singh Tanwar,1997-07-12,,RAJ,93,88.2,125,135,-140,135,135,M,Juniors,B,Raw
4,Rahul Sawant,1996-12-26,,MAH,93,88.6,125,-135,-137.5,125,125,M,Juniors,B,Raw
5,Veeranna Hingani,1997-12-19,,KTK,93,92.3,110,122.5,-142.5,122.5,122.5,M,Juniors,B,Raw
6,Sunil Singh #1,1999-03-28,,JK,93,87.1,110,120,-137.5,120,120,M,Juniors,B,Raw
7,Manoj Harichandra Bhishi,1997-10-20,,GOA,93,87.6,90,100,105,105,105,M,Juniors,B,Raw
8,Faseeh Kasim.P,1999-11-01,,KER,93,86.8,-90,90,,90,90,M,Juniors,B,Raw
9,Gauresh Khandolkar,1997-05-07,,GOA,93,87.5,80,90,-107.5,90,90,M,Juniors,B,Raw
10,Sumit Kumar #2,1996-02-02,,MP,93,93,-90,90,-95,90,90,M,Juniors,B,Raw
11,Akshay Panwar,2000-04-01,,RAJ,93,91.3,75,-85,-155,75,75,M,Juniors,B,Raw
1,Srinivas Kastoori,1995-09-28,,MAH,105,96.82,142.5,147.5,-152.5,147.5,147.5,M,Juniors,B,Raw
2,Sudarshan Tiwari,1995-08-18,,MP,105,104,135,140,142.5,142.5,142.5,M,Juniors,B,Raw
3,Raj Prasad Rajak,1997-08-12,,WB,105,101.2,130,-135,135,135,135,M,Juniors,B,Raw
4,Anant Shripad Bhat,1996-07-10,,KTK,105,93.5,110,120,-130,120,120,M,Juniors,B,Raw
5,Hashir Ahmad Shah,1997-08-07,,J&K,105,101.1,90,-92.5,92.5,92.5,92.5,M,Juniors,B,Raw
1,Saurav Bhardwaj,1999-08-22,,DEL,120,112.1,140,145,-147.5,145,145,M,Juniors,B,Raw
2,Shivaprasad. S. Nair,1995-06-01,,GUJ,120,115.6,120,140,-150,140,140,M,Juniors,B,Raw
3,Abhishek Vishal,1996-07-07,,BIH,120,115,132.5,135,137.5,137.5,137.5,M,Juniors,B,Raw
4,Raja Kanchale,1997-11-14,,MP,120,105.1,125,-132.5,-132.5,125,125,M,Juniors,B,Raw
5,Raman Kumar,1997-03-15,,J&K,120,112.4,120,-127.5,-127.5,120,120,M,Juniors,B,Raw
6,Rishab R Rao,1999-02-03,,KTK,120,115.36,105,112.5,-120,112.5,112.5,M,Juniors,B,Raw
7,Shahil.A.Vishwakarm,1998-07-25,,GUJ,120,113.5,100,110,-120,110,110,M,Juniors,B,Raw
1,Gurkirat Singh,1995-09-03,,PUN,120+,127.12,147.5,155,165,165,165,M,Juniors,B,Raw
2,Ankit Khatri #1,1996-12-19,,DEL,120+,136.12,152.5,160,-170,160,160,M,Juniors,B,Raw
3,Abhishek B. Horkeri,1998-07-06,,KTK,120+,140.3,135,145,157.5,157.5,157.5,M,Juniors,B,Raw
4,Anil Patel,1995-06-30,,MP,120+,131.8,130,135,-140,135,135,M,Juniors,B,Raw
5,Urshil Thaker,1995-02-09,,MAH,120+,138.5,55,67.5,72.5,72.5,72.5,M,Juniors,B,Raw
1,Motiram Dabi,1977-06-30,,MP,59,59,80,90,95,95,95,M,Masters 1,B,Raw
2,Sujit Kumar Giri,1972-04-15,,ODI,59,58.9,80,87.5,-92.5,87.5,87.5,M,Masters 1,B,Raw
3,Mahesh Kumar,1975-02-25,,PUN,59,57.6,70,77.5,85,85,85,M,Masters 1,B,Raw
4,Eshwara N,1970-10-05,,KTK,59,59,70,80,-85,80,80,M,Masters 1,B,Raw
5,G.Prabhu,1975-08-29,,TN,59,58.3,77.5,-82.5,-85,77.5,77.5,M,Masters 1,B,Raw
6,Dhananjay Naik,1978-08-18,,GOA,59,56.9,70,75,-80,75,75,M,Masters 1,B,Raw
7,Girijesh Shandilya,1969-01-01,,DEL,59,59,65,-70,70,70,70,M,Masters 1,B,Raw
8,Santosh Gawde,,,MAH,59,58.6,60,67.5,-87.5,67.5,67.5,M,Masters 1,B,Raw
DQ,C. Pullaiah,1973-07-01,,AP,59,58.1,-85,-85,-85,,,M,Masters 1,B,Raw
1,Hem Singh Baghela,1972-09-02,,RAJ,66,65,125,130,-135,130,130,M,Masters 1,B,Raw
2,Binod Patra,1969-11-23,,JHR,66,62.6,110,120,127.5,127.5,127.5,M,Masters 1,B,Raw
3,G. Ram Babu,1975-05-03,,AP,66,64.7,100,105,107.5,107.5,107.5,M,Masters 1,B,Raw
4,K. Prakash,1975-06-11,,TN,66,66,105,-107.5,-110,105,105,M,Masters 1,B,Raw
5,Ruben Srivastava,1974-10-07,,DEL,66,65.7,92.5,102.5,-110,102.5,102.5,M,Masters 1,B,Raw
6,Arvind Shukla,1974-05-22,,MP,66,63.1,-100,100,-115,100,100,M,Masters 1,B,Raw
7,Mahesh Patil,1975-08-02,,MAH,66,65.3,90,95,-107.5,95,95,M,Masters 1,B,Raw
8,Kishore J,1972-06-24,,KTK,66,65.2,85,92.5,-100,92.5,92.5,M,Masters 1,B,Raw
9,Raikumar Naorem,1976-01-02,,MNP,66,65.5,-82.5,82.5,-105,82.5,82.5,M,Masters 1,B,Raw
1,Sunil Nagouri,1976-02-07,,RAJ,74,67.8,110,117.5,130,130,130,M,Masters 1,B,Raw
2,Sohan Rana,1975-06-17,,MP,74,72,125,-130,130,130,130,M,Masters 1,B,Raw
3,P.Mathan,1978-05-23,,TN,74,73.9,112.5,120,-127.5,120,120,M,Masters 1,B,Raw
4,A.M.Syed Ali,1976-05-31,,TN,74,72.7,110,115,-120,115,115,M,Masters 1,B,Raw
5,Rajendra Chavan,1970-08-17,,MAH,74,69.5,97.5,-105,105,105,105,M,Masters 1,B,Raw
6,Bibhuti Bhusan Bhanja,1976-05-12,,ODI,74,72.3,90,-100,-115,90,90,M,Masters 1,B,Raw
7,Prakash.M.Sangle,1972-01-14,,GUJ,74,72,70,75,80,80,80,M,Masters 1,B,Raw
DQ,Shibir Das,1977-01-15,,WB,74,72.6,-80,-80,-80,,,M,Masters 1,B,Raw
1,Raj Kumar #3,1978-08-01,,PUN,83,81.5,125,132.5,137.5,137.5,137.5,M,Masters 1,B,Raw
2,Sukhvinder Singh,1978-03-17,,UP,83,79.6,125,132.5,-135,132.5,132.5,M,Masters 1,B,Raw
3,Vinayagam,1977-05-19,,TN,83,77.4,120,127.5,-132.5,127.5,127.5,M,Masters 1,B,Raw
4,Sanjeev Sharma,1978-07-19,,PUN,83,81.6,117.5,125,-130,125,125,M,Masters 1,B,Raw
5,Mukesh Girap,1976-04-01,,GOA,83,81.7,122.5,-127.5,-135,122.5,122.5,M,Masters 1,B,Raw
6,Anil Bare,1976-02-11,,MAH,83,82.9,115,120,-127.5,120,120,M,Masters 1,B,Raw
7,Ch. Satya Gangadhara Rao,1978-06-02,,AP,83,75,100,110,115,115,115,M,Masters 1,B,Raw
8,Atheeq Ahmed,1977-07-05,,KTK,83,76.7,110,-115,115,115,115,M,Masters 1,B,Raw
9,Dinesh Khanna,1975-10-11,,RAJ,83,75.6,112.5,-120,-127.5,112.5,112.5,M,Masters 1,B,Raw
10,Ajay Prasad Arya,1976-01-02,,JHR,83,82.3,107.5,112.5,-120,112.5,112.5,M,Masters 1,B,Raw
11,Rakesh Kumar Nayak,1978-12-31,,CHT,83,76.3,100,-107.5,-107.5,100,100,M,Masters 1,B,Raw
12,Prafulla Amantya,1975-04-25,,ODI,83,80.5,92.5,100,-107.5,100,100,M,Masters 1,B,Raw
13,Abdul Fareed,1974-01-01,,MP,83,74.1,95,-100,-100,95,95,M,Masters 1,B,Raw
1,Pardeep Babbar,1972-07-09,,PUN,93,92,145,152.5,157.5,157.5,157.5,M,Masters 1,B,Raw
2,Ravinder Singh #1,1975-12-27,,HAR,93,89.6,140,145,-152.5,145,145,M,Masters 1,B,Raw
3,Gharjeet Singh,1977-05-07,,J&K,93,91,130,-140,140,140,140,M,Masters 1,B,Raw
4,A Arun Kumar,1977-01-05,,KTK,93,90.9,135,-137.5,-137.5,135,135,M,Masters 1,B,Raw
5,Vikram Singh Chouhan #1,1976-06-08,,RAJ,93,92.7,132.5,-137.5,-137.5,132.5,132.5,M,Masters 1,B,Raw
6,Jayesh Naik,1978-04-25,,GOA,93,88.2,115,-127.5,-127.5,115,115,M,Masters 1,B,Raw
7,Santosh Dubey,1975-08-26,,MP,93,89.4,100,110,-117.5,110,110,M,Masters 1,B,Raw
8,Suresh Jadhav,1971-06-25,,MAH,93,85.1,90,-100,107.5,107.5,107.5,M,Masters 1,B,Raw
9,Nitin Jadhav,1969-08-22,,MAH,93,83.8,100,107.5,-112.5,107.5,107.5,M,Masters 1,B,Raw
10,Rajesh Parmar,1970-11-28,,MP,93,89.5,72.5,77.5,82.5,82.5,82.5,M,Masters 1,B,Raw
DQ,Khursheed,1974-04-11,,UP,93,92.4,-127.5,-127.5,-127.5,,,M,Masters 1,B,Raw
1,Satyendra Singh,1975-07-15,,RAJ,105,104.8,150,157.5,-165,157.5,157.5,M,Masters 1,B,Raw
2,Golden Rathore,1978-07-13,,DEL,105,104,145,152.5,155,155,155,M,Masters 1,B,Raw
3,Shailendra Edwin,1969-09-16,,MP,105,98.1,140,147.5,152.5,152.5,152.5,M,Masters 1,B,Raw
4,Manojit Chakraboty,1977-05-25,,WB,105,93.6,-125,125,-127.5,125,125,M,Masters 1,B,Raw
5,M. Sasi Kumar,1974-10-29,,TN,105,101.22,117.5,125,-130,125,125,M,Masters 1,B,Raw
6,Vinod Kumar Gotherwal,1976-12-25,,RAJ,105,93.95,105,115,120,120,120,M,Masters 1,B,Raw
7,Rakesh Pardeshi,1975-09-02,,MAH,105,95.8,65,72.5,80,80,80,M,Masters 1,B,Raw
1,Neeraj Chawla,1976-06-17,,DEL,120,115.4,170,180,-190,180,180,M,Masters 1,B,Raw
2,Juver Qureshi,1972-02-10,,MP,120,108.45,135,142.5,147.5,147.5,147.5,M,Masters 1,B,Raw
3,Rajesh G. Sutrave,1976-05-25,,KTK,120,120,135,142.5,145,145,145,M,Masters 1,B,Raw
4,Younis Ansari,1977-06-26,,J&K,120,110.64,-120,120,-142.5,120,120,M,Masters 1,B,Raw
5,Ravinder Kumar,1977-02-02,,RAJ,120,117,75,85,-100,85,85,M,Masters 1,B,Raw
6,Jaison Anthappan,1970-05-16,,MAH,120,116,60,,,60,60,M,Masters 1,B,Raw
1,B. Ravi,1960-07-17,,TN,59,56.5,87.5,92.5,-95,92.5,92.5,M,Masters 2,B,Raw
2,Shubhakar Shetty,1967-08-19,,KTK,59,58.8,80,87.5,-95,87.5,87.5,M,Masters 2,B,Raw
3,Rajendra Mane,,,MAH,59,58.8,55,-60,60,60,60,M,Masters 2,B,Raw
1,Arun Sharma,1962-10-02,,DEL,66,65.3,105,-112.5,112.5,112.5,112.5,M,Masters 2,B,Raw
2,Narayan Sethy,1960-04-10,,ODI,66,64.2,-90,-90,95,95,95,M,Masters 2,B,Raw
3,K Ganesh,1968-07-01,,KTK,66,64.6,80,85,90,90,90,M,Masters 2,B,Raw
4,Jagdish Junaniya,1961-05-07,,MP,66,62.9,70,75,-77.5,75,75,M,Masters 2,B,Raw
1,T. Chinnadurai,1960-06-25,,TN,74,68.5,100,105,-107.5,105,105,M,Masters 2,B,Raw
2,Bhaskara Rao,1965-05-01,,AP,74,73.1,95,100,105,105,105,M,Masters 2,B,Raw
3,Shashidhar A,1968-10-24,,KTK,74,67.6,-85,85,,85,85,M,Masters 2,B,Raw
4,Shiv Kumar Soni,1962-08-27,,RAJ,74,71.1,85,-90,-90,85,85,M,Masters 2,B,Raw
5,Arun Pal Singh,1968-01-22,,DEL,74,73.6,80,85,-92.5,85,85,M,Masters 2,B,Raw
1,Mujeebulla Khan,1959-05-10,,MP,83,82.4,112.5,117.5,-122.5,117.5,117.5,M,Masters 2,B,Raw
2,Ajay Taribagil,1967-10-14,,MAH,83,77.2,90,105,115,115,115,M,Masters 2,B,Raw
3,Pabitra Biswas,1966-02-25,,WB,83,79.4,105,115,-120,115,115,M,Masters 2,B,Raw
4,B. M. Thakur,1967-05-11,,CHT,83,80.5,95,105,112.5,112.5,112.5,M,Masters 2,B,Raw
5,Lawrence Martin,1968-08-06,,MP,83,82.1,-110,110,-117.5,110,110,M,Masters 2,B,Raw
6,Kantilal Takale,1959-05-01,,MAH,83,79.2,85,95,102.5,102.5,102.5,M,Masters 2,B,Raw
7,Surinder Kumar Kadyan,1968-07-14,,DEL,83,80.2,95,102.5,-107.5,102.5,102.5,M,Masters 2,B,Raw
8,T. Ramakrishna,1967-01-03,,AP,83,80.5,85,90,95,95,95,M,Masters 2,B,Raw
9,Blasio Gomes,1965-02-03,,GOA,83,81,90,92.5,-122.5,92.5,92.5,M,Masters 2,B,Raw
10,Sadashiva Shetty,1961-08-01,,KTK,83,80.6,80,87.5,-92.5,87.5,87.5,M,Masters 2,B,Raw
1,Nikhil.D.Maheswari,1967-08-03,,GUJ,93,93,140,147.5,152.5,152.5,152.5,M,Masters 2,B,Raw
2,Bimal Indu Sharma,1964-12-16,,J&K,93,90.2,135,145,-152.5,145,145,M,Masters 2,B,Raw
3,Shashidar,1967-01-20,,KTK,93,90.6,110,120,-125,120,120,M,Masters 2,B,Raw
4,Arun A Kharat,1963-10-10,,MAH,93,90.1,92.5,102.5,-110,102.5,102.5,M,Masters 2,B,Raw
5,E. Sanyasi Rao,1964-05-25,,AP,93,90.8,95,100,-102.5,100,100,M,Masters 2,B,Raw
6,Lalit Daddee,1966-12-24,,MAH,93,84.5,85,92.5,-95,92.5,92.5,M,Masters 2,B,Raw
7,Harvindey Kumar Bharwaj,1961-08-28,,PUN,93,92.4,75,80,-82.5,80,80,M,Masters 2,B,Raw
8,Rajiv Chauhan,1965-05-28,,MP,93,92.5,70,75,,75,75,M,Masters 2,B,Raw
9,Basanth Kumar Swain,1966-06-26,,AP,93,89.8,70,-85,-85,70,70,M,Masters 2,B,Raw
1,Surinderpal,1962-08-15,,PUN,105,98.1,120,-127.5,132.5,132.5,132.5,M,Masters 2,B,Raw
2,G. Ramaswamy,1968-03-02,,AP,105,94.9,117.5,125,130,130,130,M,Masters 2,B,Raw
3,Karambir,1968-02-05,,DEL,105,103.4,110,120,-122.5,120,120,M,Masters 2,B,Raw
4,R.Veeraraghavan,1961-06-15,,TN,105,95.1,110,115,-120,115,115,M,Masters 2,B,Raw
1,Ronald Lobo,1965-10-22,,KTK,120,105.6,90,95,100,100,100,M,Masters 2,B,Raw
1,Gautam Banerjee,1961-07-04,,WB,120+,138.4,100,115,,115,115,M,Masters 2,B,Raw
1,Srinivasan K.C,1950-08-28,,KER,59,57,77.5,80,82.5,82.5,82.5,M,Masters 3,B,Raw
2,Sunder Raj. I,1949-10-24,,TN,59,59,60,70,-72.5,70,70,M,Masters 3,B,Raw
3,Brijbhooshan Ladiya,1958-02-02,,MP,59,58.7,50,57.5,60,60,60,M,Masters 3,B,Raw
1,Sadanand Amin,1956-10-24,,KTK,66,64.9,50,60,70,70,70,M,Masters 3,B,Raw
1,Jyotirmoy Barman,1956-12-30,,WB,74,74,95,102.5,107.5,107.5,107.5,M,Masters 3,B,Raw
2,B Ravi Kumar,1955-09-16,,KTK,74,73.9,95,100,-107.5,100,100,M,Masters 3,B,Raw
3,Satpal,1958-07-06,,DEL,74,73,90,-100,-100,90,90,M,Masters 3,B,Raw
4,Anoop Sharma,1955-07-19,,MP,74,71.7,75,82.5,-87.5,82.5,82.5,M,Masters 3,B,Raw
5,Jayachandran.G,1950-05-24,,KER,74,71,55,62.5,-70,62.5,62.5,M,Masters 3,B,Raw
6,Gurdev Singh,1955-12-07,,PUN,74,72.5,52.5,-57.5,57.5,57.5,57.5,M,Masters 3,B,Raw
1,Inderjit Singh,1954-02-07,,JHR,83,80.9,110,120,-125,120,120,M,Masters 3,B,Raw
2,Yadav Suvarna,1950-05-08,,KTK,83,77,82.5,87.5,90,90,90,M,Masters 3,B,Raw
3,Om Prakash Chouhan,1954-06-10,,RAJ,83,80.5,70,82.5,85,85,85,M,Masters 3,B,Raw
4,Subhash Shelwale,1958-06-01,,MAH,83,80.1,75,80,-85,80,80,M,Masters 3,B,Raw
5,Bhaskar Behera,1957-08-05,,ODI,83,81.1,70,80,-90,80,80,M,Masters 3,B,Raw
6,Bir Parkash,1957-11-18,,PUN,83,81.7,60,67.5,70,70,70,M,Masters 3,B,Raw
1,Suresh Bansode,1952-04-01,,MAH,93,88.7,60,65,-75,65,65,M,Masters 3,B,Raw
1,Joydeb Ghosh,1957-09-02,,WB,105,96.9,100,102.5,110,110,110,M,Masters 3,B,Raw
2,Manjunath Mallya,1956-05-08,,KTK,105,96.72,100,105,107.5,107.5,107.5,M,Masters 3,B,Raw
3,Mahesh Chandra Mahatma,1957-07-19,,RAJ,105,104.5,100,107.5,-112.5,107.5,107.5,M,Masters 3,B,Raw
4,Sayad Salim,1955-05-20,,MAH,105,99.21,65,-75,-75,65,65,M,Masters 3,B,Raw
1,Anil Kumthekar,1941-06-26,,MAH,59,54.4,50,55,-57.5,55,55,M,Masters 4,B,Raw
1,A.S.Xavier,1943-09-03,,MP,74,68.8,-45,45,50,50,50,M,Masters 4,B,Raw
