Place,Name,Country,Equipment,Age,BodyweightKg,WeightClassKg,Division,Squat1Kg,Squat2Kg,Squat3Kg,Squat4Kg,Best3SquatKg,Sex,Bench1Kg,Bench2Kg,Bench3Kg,Bench4Kg,Best3BenchKg,Deadlift1Kg,Deadlift2Kg,Deadlift3Kg,Deadlift4Kg,Best3DeadliftKg,TotalKg,Event,BirthDate
1,Nadia Wieszczyk,Poland,Wraps,16,51.20,52.0,Teen,90.0,100.0,-107.5,,100.0,F,50.0,52.5,,,52.5,110.0,120.0,-126.0,,120.0,272.5,SBD,
1,Lilien Pačová,Slovakia,Wraps,18,58.90,60.0,Teen,120.0,130.0,135.0,,135.0,F,55.0,61.0,-62.5,,61.0,100.0,-120,-120,,100.0,296.0,SBD,
1,Annika Grund,Germany,Wraps,17,67.10,67.5,Teen,-95,95.0,-102.5,,95.0,F,55.0,60.0,62.5,,62.5,110.0,120.0,130.0,,130.0,287.5,SBD,
2,Marie Lipovská,Czechia,Wraps,17,64.80,67.5,Teen,100.0,110.0,-115,,110.0,F,-50,50.0,55.0,,55,110.0,120.0,-125,,120.0,285.0,SBD,
1,Lívia Liptáková,Slovakia,Wraps,19,83.90,82.5+,Teen,-90,-90,90.0,,90.0,F,60.0,65.0,-67.5,,65,110.0,-116.0,116.0,,116.0,271.0,SBD,
1,Leoni Heigl,Austria,Wraps,20,58.90,60.0,Juniors,112.5,115.0,125.0,,125.0,F,65.0,70.0,73.0,,73,115.0,120.0,127.5,,127.5,325.5,SBD,
1,Lenka Rudločáková,Slovakia,Wraps,20,64.40,67.5,Juniors,145,155.0,-165,,155.0,F,57.5,65.0,-72.5,,65,140,150.0,162.5,,162.5,382.5,SBD,
1,Pavlína Rakučáková,Slovakia,Wraps,20,75.80,82.5,Juniors,150.0,160.0,170.0,,170.0,F,90.0,95.0,100.0,,100,180.0,195.0,205.0,,205.0,475.0,SBD,
2,Lisa Müller,Germany,Wraps,23,79.60,82.5,Juniors,110.0,122.5,132.5,,132.5,F,52.5,57.5,-62.5,,57.5,125.0,135.0,145.0,,145.0,335.0,SBD,
1,Sylvia Schmidt,Germany,Wraps,41,50.70,52.0,M 40-49,80.0,90.0,-95.0,,90.0,F,50.0,55.0,57.5,,57.5,115.0,120.0,125.0,,125.0,272.5,SBD,
1,Elżbieta Pachucy-Sacharzec,Poland,Wraps,44,56.50,60.0,M 40-49,90.0,100.0,-105,,100.0,F,50.0,55.0,57.5,,57.5,100.0,110.0,120.0,,120.0,277.5,SBD,
1,Bozena Porada,Poland,Wraps,49,61.00,67.5,M 40-49,30.0,45.0,,,45.0,F,40.0,-45,-45,,40,80.0,90.0,,,90.0,175.0,SBD,
1,Nadiia Holynska,Ukraine,Wraps,42,69.10,82.5,M 40-49,-60,60.0,-70,,60.0,F,40.0,-42.5,42.5,,42.5,80.0,95.0,105.0,,105.0,207.5,SBD,
1,Claudia Busse,Germany,Wraps,45,96.60,82.5+,M 40-49,95.0,105.0,-125,,105.0,F,91.0,96.0,100.0,,100.0,130.0,140.0,155.0,,155.0,360.0,SBD,
1,Monika Lelkes,Slovakia,Wraps,50,72.90,82.5,M 50-59,90.0,95.0,100.0,,100.0,F,50.0,-52.5,-52.5,,50,125.0,130.0,132.5,,132.5,282.5,SBD,
2,Klaudia Tanczos,Slovakia,Wraps,50,74.10,82.5,M 50-59,95.0,-100,-125,,95.0,F,40.0,-50,,,40,105.0,,,,105.0,240.0,SBD,
1,Samra Alebić,Bosnia and Herzegovina,Wraps,25,51.60,52.0,Open,163.0,165.0,,,165.0,F,55.0,-62.5,-62.5,,55,-145,-145,145.0,,145.0,365.0,SBD,
2,Radka Tóth,Slovakia,Wraps,36,50.90,52.0,Open,85.0,90.0,95.0,,95.0,F,50.0,52.5,55.0,,55,115.0,120.0,125.0,,125.0,275.0,SBD,
1,Liza Kovács,Hungary,Wraps,27,58.90,60.0,Open,120.0,-130,130.0,,130.0,F,62.5,67.5,72.5,,72.5,125.0,135.0,140.0,,140.0,342.5,SBD,
1,Anna Staszczak,Poland,Wraps,24,65.90,67.5,Open,125.0,140.0,145.0,,145.0,F,60.0,62.5,65.0,,65,130.0,150.0,160.0,,160.0,370.0,SBD,
2,Anna Fialková,Czechia,Wraps,35,65.40,67.5,Open,82.5,90.0,97.5,,97.5,F,40.0,42.5,-45,,42.5,105.0,115.0,-120,,115.0,255.0,SBD,
1,Mariia Matvienko,Czechia,Wraps,26,75.00,82.5,Open,130.0,145.0,155.0,,155.0,F,67.5,75.0,-80,,75.0,140.0,155.0,-170,,155.0,385.0,SBD,
1,Andrea Thurner,Austria,Unlimited,58,73.50,82.5,M 50-59,150.0,161.0,170.0,,170.0,F,90.0,-101.0,101.0,,101.0,170.0,181.0,190.0,,190.0,461.0,SBD,
1,Jozef Suchánek,Slovakia,Wraps,18,67.50,67.5,Teen,130.0,140.0,-145,,140.0,M,90.0,100.0,-102.5,,100,200.0,210.0,-220.5,,210.0,450.0,SBD,
2,Aleš Zelený,Czechia,Wraps,18,65.90,67.5,Teen,130.0,-150,150.0,,150.0,M,80.0,90.0,100.0,,100,140,170.0,-200,,170.0,420.0,SBD,
1,Miloš Škvarka,Slovakia,Wraps,17,81.10,82.5,Teen,-180,180.0,190.0,,190.0,M,110,115.0,122.5,,122.5,245.0,260.0,272.5,,272.5,585.0,SBD,
2,Adam Wimmer,Czechia,Wraps,19,81.60,82.5,Teen,175,187.5,-200,,187.5,M,110.0,-115,-115,,110,220.0,230.0,-242.5,,230.0,527.5,SBD,
3,Pavel Stupka,Czechia,Wraps,19,80.10,82.5,Teen,160,175.0,182.5,,182.5,M,120.0,130.0,-135,,130.0,170.0,190.0,-202.5,,190.0,502.5,SBD,
4,Stanislav Šebesta,Slovakia,Wraps,18,81.10,82.5,Teen,160.0,170.0,-175,,170.0,M,110.0,117.5,122.5,,122.5,200.0,205.0,210.0,,210.0,502.5,SBD,
1,József Tibor Kozma,Hungary,Wraps,19,94.70,95.0,Teen,240.0,250.0,260.0,,260.0,M,-125,125.0,130.0,,130,235.0,247.5,255.0,,255.0,645.0,SBD,
2,Frederik Jendraššák,Slovakia,Wraps,19,85.30,95.0,Teen,200.0,-220,220.0,,220.0,M,120.0,-130,130.0,,130,210.0,225.0,235.0,,235.0,585.0,SBD,
3,Martin Szombath,Slovakia,Wraps,19,94.70,95.0,Teen,175,195.0,-207.5,,195.0,M,125.0,135.0,142.5,,142.5,190.0,210.0,215.0,,215.0,552.5,SBD,
4,Alexander Michálek,Slovakia,Wraps,19,87.90,95.0,Teen,160.0,172.5,-180,,172.5,M,95.0,105.0,-107.5,,105.0,180.0,200.0,222.5,,222.5,500.0,SBD,
DQ,Benjamín Imrich,Slovakia,Wraps,18,91.90,95.0,Teen,-180,180.0,200.0,,200.0,M,-120,-135,-135,,,,,,,,,SBD,
1,Samuel Herodes,Czechia,Wraps,18,101.40,110.0,Teen,170.0,190.0,-200,,190.0,M,110.0,115.0,-117.5,,115,180.0,200.0,-220,,200.0,505.0,SBD,
1,Samuel Kaszás,Slovakia,Wraps,17,112.40,125.0,Teen,-260,260.0,267.5,,267.5,M,140.0,150.0,-155,,150.0,240.0,-260,-260,,240.0,657.5,SBD,
1,Adrián Lašák,Slovakia,Wraps,22,77.20,82.5,Juniors,170.0,-185,-185,,170.0,M,105.0,110.0,112.5,,112.5,180.0,200.0,210.0,,210.0,492.5,SBD,
1,Marek Červenka,Slovakia,Wraps,23,92.00,95.0,Juniors,240.0,-265,265.0,,265.0,M,130.0,140.0,-150,,140.0,250.0,265.0,-270,,265.0,670.0,SBD,
2,Nikolaj Lapihuska,Slovakia,Wraps,22,91.80,95.0,Juniors,195.0,210.0,220.0,,220.0,M,130.0,140.0,145.0,,145,230.0,250.0,260.0,,260.0,625.0,SBD,
3,Michael Bartoň,Czechia,Wraps,23,86.60,95.0,Juniors,170.0,-185,-185,,170.0,M,100.0,105.0,107.5,,107.5,170.0,190.0,200.0,,200.0,477.5,SBD,
1,Sebastián Kušnier,Slovakia,Wraps,20,104.30,110.0,Juniors,270.0,-290,290.0,,290.0,M,172.5,180.0,,,180.0,300.0,320.0,330.0,,330.0,800.0,SBD,
2,Šimon Harnas,Slovakia,Wraps,23,107.90,110.0,Juniors,270.0,-290,-290,,270.0,M,170.0,-180,180.0,,180,270.0,290.0,-300,,290.0,740.0,SBD,
3,Jan Jírek,Czechia,Wraps,21,108.50,110.0,Juniors,210.0,-235,235.0,,235.0,M,130.0,140.0,150.0,,150,230.0,250.0,270.0,,270.0,655.0,SBD,
1,Matthias Grund,Germany,Wraps,20,111.00,125.0,Juniors,205.0,220.0,-232.5,,220.0,M,105.0,112.5,-120,,112.5,200.0,225.0,-235,,225.0,557.5,SBD,
1,Marcel Sanftleben,Germany,Wraps,45,97.00,110.0,M 40-49,200.0,210.0,212.5,,212.5,M,155.0,160.0,165.0,,165.0,210.0,220.0,230.0,,230.0,607.5,SBD,
2,Marcel Baláž,Slovakia,Wraps,47,107.50,110.0,M 40-49,180.0,200.0,210.0,,210.0,M,180,185.0,-192.5,,185,175.0,185.0,192.5,,192.5,587.5,SBD,
1,Ivan Georgiev,Bulgaria,Wraps,48,116.10,125.0,M 40-49,240.0,250.0,260.0,,260.0,M,130.0,145.0,160.0,,160,260.0,270.0,-285,,270.0,690.0,SBD,
2,Matthias Hörning,Germany,Wraps,49,122.70,125.0,M 40-49,205.0,217.5,225.0,,225.0,M,-165,165.0,-170,,165.0,235.0,-245,245.0,,245.0,635.0,SBD,
3,Francesco Natalizi,Italy,Wraps,45,110.30,125.0,M 40-49,190.0,205.0,-212.5,,205.0,M,90.0,-100,-100,,90,190.0,-205,,,190.0,485.0,SBD,
1,Alexander Tartakovskiy,Austria,Wraps,42,94.20,95.0,M 40-49,200.0,210.0,220.0,,220.0,M,135.0,142.5,150.0,,150.0,200.0,215.0,230.0,,230.0,600.0,SBD,
DQ,Dominik Grajciar,Slovakia,Wraps,52,107.90,110.0,M 50-59,-90,-90,-90,,,M,,,,,,,,,,,,SBD,
1,Vladan Milidragović,Serbia,Wraps,53,101.20,110.0,M 50-59,250.0,260.0,,,260.0,M,105.0,120.0,,,120.0,280.0,300.0,,,300.0,680.0,SBD,
2,Oleksandr Molodov,Ukraine,Wraps,52,108.80,110.0,M 50-59,235.0,250.0,-260.0,,250.0,M,130.0,-140.0,140.0,,140.0,260.0,275.0,280.0,,280.0,670.0,SBD,
3,Pavel Kolibár,Slovakia,Wraps,50,107.90,110.0,M 50-59,180.0,190.0,200.0,,200.0,M,135.0,140.0,145.0,,145.0,200.0,215.0,230.0,,230.0,575.0,SBD,
1,Gagik Tonoyan,Armenia,Wraps,58,112.30,125.0,M 50-59,245,255.0,265.0,,265.0,M,105.0,117.5,120.0,,120.0,250.0,265.0,-275,,265.0,650.0,SBD,
1,Thomas Schmidt,Germany,Wraps,54,130.50,125.0+,M 50-59,255,260.0,280.0,,280.0,M,155.0,162.5,167.5,,167.5,265.0,280.0,300.0,,300.0,747.5,SBD,
2,Bernd Beyer,Germany,Wraps,56,126.60,125.0+,M 50-59,130.0,140.0,-150,,140.0,M,90.0,95.0,100.0,,100.0,130.0,140.0,-150,,140.0,380.0,SBD,
1,Michael Schmidt,Germany,Wraps,54,81.30,82.5,M 50-59,220.0,-235,235.0,,235.0,M,140.0,145.0,150.0,,150.0,210.0,230.0,240.0,,240.0,625.0,SBD,
2,Jens Schünemann,Germany,Wraps,57,81.30,82.5,M 50-59,140,145.0,155.0,,155.0,M,110.0,120.0,125.0,,125.0,160.0,170.0,,,170.0,450.0,SBD,
1,Kai Gißler,Germany,Wraps,54,91.70,95.0,M 50-59,180.0,190.0,-200,,190.0,M,110.0,115.0,-117.5,,115,200.0,215.0,,,215.0,520.0,SBD,
1,Jaroslav Šolc,Slovakia,Wraps,67,109.20,110.0,M 60-69,200.0,210.0,220.0,,220.0,M,165.0,170.0,175.5,,175.5,200.0,210.0,215.0,,215.0,610.5,SBD,
2,Jiří Barnet,Czechia,Wraps,64,104.50,110.0,M 60-69,190,205.0,-215,,205.0,M,105.0,115.0,-125,,115.0,190.0,205.0,-215,,205.0,525.0,SBD,
1,František Makranský,Slovakia,Wraps,62,116.40,125.0,M 60-69,200.0,-220,,,200.0,M,140.0,155.0,160.0,,160.0,211.0,230.0,-245.0,,230.0,590.0,SBD,
1,Detlef Riedel,Germany,Wraps,64,89.30,95.0,M 60-69,200,210.0,232.5,,232.5,M,110.0,120.0,125.0,,125.0,190.0,200.0,210.0,,210.0,567.5,SBD,
2,Paolo Stefanelli,Italy,Wraps,64,95.00,95.0,M 60-69,145.0,-155,155.0,,155.0,M,90.0,95.0,100.0,,100.0,160.0,170.0,175.0,,175.0,430.0,SBD,
1,Mieczysłąw Maczka,Germany,Wraps,70,85.80,95.0,M 70-74,150,152.5,,,152.5,M,105.0,112.5,117.5,,117.5,152.5,162.5,167.5,,167.5,437.5,SBD,
1,Viktor Nagy,Slovakia,Wraps,26,65.30,67.5,Open,145.0,-160,160.0,,160.0,M,85.0,92.5,97.5,,97.5,190.0,205.0,215.0,,215.0,472.5,SBD,
2,Martin Macháč,Slovakia,Wraps,24,67.50,67.5,Open,160.0,167.5,170.0,,170.0,M,90.0,-95,95.0,,95,170.0,182.5,190.0,,190.0,455.0,SBD,
1,Denis Kovačík,Czechia,Wraps,27,79.10,82.5,Open,235.0,245.0,255.0,,255.0,M,150.0,160.0,-165,,160.0,280.0,295.0,-305,,295.0,710.0,SBD,
2,Patrik Kovačík,Czechia,Wraps,24,78.70,82.5,Open,220.0,-230,230.0,,230.0,M,100.0,110.0,-117.5,,110.0,270.0,-275,,,270.0,610.0,SBD,
3,Lasha Tsenteradze,Germany,Wraps,31,80.10,82.5,Open,190.0,200.0,-215,,200.0,M,120.0,130.0,-135,,130.0,190.0,200.0,215.0,,215.0,545.0,SBD,
4,Maik Schubert,Germany,Wraps,34,74.00,82.5,Open,150.0,165.0,175.0,,175.0,M,112.5,120.0,-125,,120.0,180.0,190.0,-205,,190.0,485.0,SBD,
1,Martin Hepka,Slovakia,Wraps,24,93.80,95.0,Open,255.0,270.0,280.0,,280.0,M,180.0,200,203.0,,203.0,280.0,,,,280.0,763.0,SBD,
2,Petr Srdínko,Czechia,Wraps,28,94.90,95.0,Open,210.0,230.0,245.0,,245.0,M,170.0,180.0,-190,,180.0,260.0,280.0,-292.5,,280.0,705.0,SBD,
3,Martin Tesař,Czechia,Wraps,25,94.70,95.0,Open,230.0,245.0,255.0,,255.0,M,130.0,140.0,-145,,140.0,250.0,265.0,,,265.0,660.0,SBD,
4,Konstantin Davy,Austria,Wraps,34,93.90,95.0,Open,200.0,212.5,-222.5,,212.5,M,150.0,160.0,167.5,,167.5,225.0,240.0,247.5,,247.5,627.5,SBD,
1,Ondřej Štěpán,Czechia,Wraps,25,104.60,110.0,Open,245.0,260.0,270.0,,270.0,M,150.0,160.0,165.0,,165,260.0,275.0,285.0,,285.0,720.0,SBD,
2,Merlin Sammetinger,Germany,Wraps,29,108.30,110.0,Open,210.0,220.0,230.0,,230.0,M,120.0,130.0,-140,,130.0,230.0,240.0,250.0,,250.0,610.0,SBD,
3,Florian Hartl,Germany,Wraps,35,106.70,110.0,Open,-180,180.0,200.0,,200.0,M,-145,145.0,-150,,145.0,215.0,230.0,-240,,230.0,575.0,SBD,
DQ,Vladan Milidragović,Serbia,Wraps,53,101.20,110.0,Open,-250,,,,,M,,,,,,,,,,,,SBD,
1,Tomáš Tóth,Slovakia,Wraps,33,117.30,125.0,Open,240.0,255.0,265.0,,265.0,M,180.0,-190,-190,,180,275.0,300.0,320.0,,320.0,765.0,SBD,
2,Florian Fink,Germany,Wraps,29,120.00,125.0,Open,250.0,270.0,280.0,,280.0,M,170.0,182.5,185.0,,185,275.0,-300,300.0,,300.0,765.0,SBD,
3,David Urban,Czechia,Wraps,28,116.30,125.0,Open,220.0,240.0,260.0,,260.0,M,150.0,-160,-160,,150,270.0,300.0,-320,,300.0,710.0,SBD,
1,Roman Jelínek,Czechia,Wraps,26,138.70,125.0+,Open,405.0,-430.0,-430.0,,405.0,M,220.0,230.0,241.0,-250.0,241,300.0,-320,320.0,,320.0,966.0,SBD,
2,Dražen Filipovič,Montenegro,Wraps,37,138.90,125.0+,Open,300.0,317.5,,,317.5,M,210.0,220.0,,,220.0,305.0,325.0,335.0,,335.0,872.5,SBD,
3,Tomáš Halaj,Slovakia,Wraps,31,150.20,125.0+,Open,230.0,,,,230.0,M,170.0,,,,170,320.0,,,,320.0,720.0,SBD,
1,Kamil Kopeć,Poland,Unlimited,17,72.20,82.5,Teen,150.0,167.5,-177.5,,167.5,M,80.0,-90,90.0,,90,150.0,170.0,180.0,,180.0,437.5,SBD,
1,Mamikon Kostanyan,Armenia,Unlimited,40,91.90,95.0,M 40-49,100.0,,,,100.0,M,-150,-150,150.0,,150,130.0,,,,130.0,380.0,SBD,
1,Ivan Levický,Slovakia,Unlimited,54,103.10,110.0,M 50-59,-200,200.0,222.5,-240.5,222.5,M,150.0,-160,160.0,,160,-280,280.0,290.0,-301.0,290.0,672.5,SBD,
1,Sergio Bianchi,Italy,Unlimited,64,78.80,82.5,M 60-69,150.0,160.0,-170,,160.0,M,65.0,70.0,72.5,,72.5,140.0,150.0,,,150.0,382.5,SBD,
1,Lothar Pritzl,Germany,Unlimited,64,89.10,95.0,M 60-69,155.0,175.0,185.0,,185.0,M,100,105.0,,,105.0,-160,160.0,180.0,,180.0,470.0,SBD,
1,Mieczysłąw Maczka,Germany,Unlimited,70,84.60,95.0,M 70-74,152.5,,,,152.5,M,105.0,115.0,122.5,,122.5,150.0,157.5,,,157.5,432.5,SBD,
1,Sargis Arakelyan,Armenia,Unlimited,36,109.30,110.0,Open,190.0,210.0,225.0,,225.0,M,-130,130.0,,,130.0,180.0,200.0,230.0,,230.0,585.0,SBD,
1,Luca Lukács,Hungary,Raw,17,61.70,67.5,Teen,,,,,,F,,,,,,115.0,122.5,130.0,,130.0,130.0,D,
1,Joanna Mosor,Poland,Raw,18,88.50,82.5+,Teen,,,,,,F,,,,,,150.0,165.5,170,-172.5,170.0,170.0,D,
1,Zuzanna Buchowiecka,Poland,Raw,22,47.00,52,Juniors,,,,,,F,,,,,,132.5,140,145.5,,145.5,145.5,D,
2,Danijela Karkušova,Slovakia,Raw,21,48.30,52,Juniors,,,,,,F,,,,,,122.5,127.5,-132.5,,127.5,127.5,D,
1,Vivien Hüse,Hungary,Raw,23,67.50,67.5,Juniors,,,,,,F,,,,,,120.0,130.0,140.0,,140.0,140.0,D,
1,Andrea Vitásková,Czechia,Raw,21,77.30,82.5,Juniors,,,,,,F,,,,,,167.5,-172.5,175.0,,175.0,175.0,D,
1,Letícia Udvardi,Hungary,Raw,21,85.40,82.5+,Juniors,,,,,,F,,,,,,110.0,120.0,130.0,,130.0,130.0,D,
1,Sylvia Schmidt,Germany,Raw,41,52.60,60,M 40-49,,,,,,F,,,,,,117.5,125.0,130.0,,130.0,130.0,D,
2,Iryna Kriukova,Ukraine,Raw,45,57.50,60,M 40-49,,,,,,F,,,,,,95.0,105.0,110.0,,110.0,110.0,D,
1,Henrietta Tuba,Hungary,Raw,49,66.20,67.5,M 40-49,,,,,,F,,,,,,160.0,170.0,-180.0,,170.0,170.0,D,
1,Lilit Vardanyan,Armenia,Raw,49,76.00,82.5,M 40-49,,,,,,F,,,,,,170.0,182.5,195.0,,195.0,195.0,D,
2,Ana Božović,Montenegro,Raw,42,78.90,82.5,M 40-49,,,,,,F,,,,,,150.0,160.0,170.0,,170.0,170.0,D,
3,Melinda Derdák,Hungary,Raw,49,78.80,82.5,M 40-49,,,,,,F,,,,,,120.0,130.0,-140.0,,130.0,130.0,D,
1,Claudia Busse,Germany,Raw,45,96.60,82.5+,M 40-49,,,,,,F,,,,,,140.0,150.0,-160.0,,150.0,150.0,D,
1,Judit Poliák,Hungary,Raw,51,50.70,52,M 50-59,,,,,,F,,,,,,80.0,90.0,100.0,,100.0,100.0,D,
1,Kati Györökné,Hungary,Raw,50,55.00,60,M 50-59,,,,,,F,,,,,,115.0,125.0,130.0,,130.0,130.0,D,
1,Elvira Gerland,Germany,Raw,53,67.50,67.5,M 50-59,,,,,,F,,,,,,80.0,90.0,95.0,,95.0,95.0,D,
1,Monika Lelkes,Slovakia,Raw,50,74.00,82.5,M 50-59,,,,,,F,,,,,,125.0,130.0,-135.0,,130.0,130.0,D,
1,Brigitte Maczka,Germany,Raw,62,65.60,67.5,M 60-69,,,,,,F,,,,,,95.0,102.5,107.5,,107.5,107.5,D,
1,Květuše Baranovičová,Slovakia,Raw,71,61.20,67.5,M 70-74,,,,,,F,,,,,,70.0,80.0,-90.0,,80.0,80.0,D,
1,Božena Imreová,Slovakia,Raw,71,84.70,82.5+,M 70-74,,,,,,F,,,,,,85,93,97.5,-100,97.5,97.5,D,
1,Radka Tóth,Slovakia,Raw,36,51.30,52,Open,,,,,,F,,,,,,-117.5,120.0,130.0,,130.0,130.0,D,
1,Anna Gallinaro,Italy,Raw,34,59.50,60,Open,,,,,,F,,,,,,132.5,140.0,150.0,,150.0,150.0,D,
2,Lilla Bodon,Slovakia,Raw,31,54.80,60,Open,,,,,,F,,,,,,120.0,127.5,132.5,,132.5,132.5,D,
3,Eva Padová,Slovakia,Raw,34,59.50,60,Open,,,,,,F,,,,,,110.0,117.5,122.5,,122.5,122.5,D,
4,Sarah Weber,Germany,Raw,25,57.80,60,Open,,,,,,F,,,,,,85.0,95.0,100.0,,100.0,100.0,D,
1,Natascha Scheidleder,Austria,Raw,25,65.00,67.5,Open,,,,,,F,,,,,,135.0,150.0,-162.5,,150.0,150.0,D,
1,Miroslava Hrašková,Slovakia,Raw,36,79.30,82.5,Open,,,,,,F,,,,,,150.0,160.0,172.5,,172.5,172.5,D,
2,Stefanie Hartl,Germany,Raw,33,78.10,82.5,Open,,,,,,F,,,,,,100.0,110.0,120.0,,120.0,120.0,D,
3,Severinová Renáta Pastýřík,Czechia,Raw,36,81.20,82.5,Open,,,,,,F,,,,,,100.0,110.0,-122.5,,110.0,110.0,D,
1,Jennifer Maluck,Germany,Raw,24,91.20,82.5+,Open,,,,,,F,,,,,,160.0,175.0,180.0,,180.0,180.0,D,
2,Dominika Uhrová,Czechia,Raw,26,92.20,82.5+,Open,,,,,,F,,,,,,180.0,-200.0,-200.0,,180.0,180.0,D,
3,Zsófia Blaskó,Hungary,Raw,26,93.40,82.5+,Open,,,,,,F,,,,,,140.0,150.0,-160.0,,150.0,150.0,D,
4,Žaneta Herzánová,Czechia,Raw,36,88.60,82.5+,Open,,,,,,F,,,,,,110.0,120.0,130.0,,130.0,130.0,D,
1,Andrea Thurner,Austria,Multi-ply,58,72.70,82.5,M 50-59,,,,,,F,,,,,,175.0,191,-200,,191.0,191.0,D,
2,Klaudia Tanczos,Slovakia,Multi-ply,50,74.50,82.5,M 50-59,,,,,,F,,,,,,110.0,-120.0,120.0,,120.0,120.0,D,
1,Božena Imreová,Slovakia,Multi-ply,71,84.70,82.5+,M 70-74,,,,,,F,,,,,,65,70,80,90,80.0,80.0,D,
1,Nikolas Harčár,Slovakia,Raw,18,61.70,67.5,Teen,,,,,,M,,,,,,180.0,195.0,-202.5,,195.0,195.0,D,
2,Jozef Suchánek,Slovakia,Raw,18,67.40,67.5,Teen,,,,,,M,,,,,,180.0,-205.5,-205.5,,180.0,180.0,D,
1,David Horst Šos,Czechia,Raw,18,80.50,82.5,Teen,,,,,,M,,,,,,250.0,-265,-265,,250.0,250.0,D,
1,Martin Šilháb,Czechia,Raw,18,93.20,95,Teen,,,,,,M,,,,,,250.0,260.0,-270.5,,260.0,260.0,D,
2,Zsolt Dankó,Hungary,Raw,18,88.20,95,Teen,,,,,,M,,,,,,210.0,-222.5,232.5,,232.5,232.5,D,
3,Jan Karbowiak,Poland,Raw,19,94.30,95,Teen,,,,,,M,,,,,,200.0,210.0,220.0,,220.0,220.0,D,
1,Christoph Vilsmeier,Germany,Raw,16,98.80,110,Teen,,,,,,M,,,,,,170.0,180.0,190.0,,190.0,190.0,D,
1,Dániel Páder,Hungary,Raw,19,117.20,125,Teen,,,,,,M,,,,,,230.0,240,245,,245.0,245.0,D,
1,Kryštof Polák,Czechia,Raw,20,79.90,82.5,Juniors,,,,,,M,,,,,,240.0,250.0,260.0,,260.0,260.0,D,
2,Szymon Skrudlik,Poland,Raw,23,71.00,82.5,Juniors,,,,,,M,,,,,,200.0,-215.0,-215.0,,200.0,200.0,D,
3,Vladyslav Filoněnko,Ukraine,Raw,22,78.10,82.5,Juniors,,,,,,M,,,,,,132.5,142.5,152.5,,152.5,152.5,D,
1,Tomáš Kloc,Czechia,Raw,22,92.50,95,Juniors,,,,,,M,,,,,,175.0,-190.0,,,175.0,175.0,D,
1,Tomáš Obrlík,Czechia,Raw,23,108.10,110,Juniors,,,,,,M,,,,,,260.0,270.0,-275.0,,270.0,270.0,D,
1,Ladislav Mikovčík,Slovakia,Raw,42,93.30,95,M 40-49,,,,,,M,,,,,,270.0,280.0,-290.5,,280.0,280.0,D,
2,Konstantin Glok,Germany,Raw,49,94.60,95,M 40-49,,,,,,M,,,,,,150.0,165.0,175.0,,175.0,175.0,D,
1,Miroslav Král,Czechia,Raw,42,106.30,110,M 40-49,,,,,,M,,,,,,300.0,315.0,322.5,,322.5,322.5,D,
2,Marcel Marossow,Germany,Raw,48,104.10,110,M 40-49,,,,,,M,,,,,,270.0,277.5,-280.0,,277.5,277.5,D,
3,Štefan Elischer,Slovakia,Raw,41,109.30,110,M 40-49,,,,,,M,,,,,,277.5,-292.5,,,277.5,277.5,D,
4,Eduard Šidó,Slovakia,Raw,47,108.60,110,M 40-49,,,,,,M,,,,,,250.0,265.0,,,265.0,265.0,D,
5,Jens Lohse,Germany,Raw,48,107.80,110,M 40-49,,,,,,M,,,,,,222.5,232.5,245.0,,245.0,245.0,D,
6,Marcel Sanftleben,Germany,Raw,45,97.80,110,M 40-49,,,,,,M,,,,,,210.0,225.0,235.0,,235.0,235.0,D,
1,Nikola Lazović,Montenegro,Raw,42,116.00,125,M 40-49,,,,,,M,,,,,,282.5,300.0,,,300.0,300.0,D,
2,Ivan Georgiev,Bulgaria,Raw,48,115.00,125,M 40-49,,,,,,M,,,,,,260.0,270.0,280.0,,280.0,280.0,D,
3,Matthias Hörning,Germany,Raw,49,122.60,125,M 40-49,,,,,,M,,,,,,240.0,-247.5,250.0,,250.0,250.0,D,
4,Mushegh Danielyan,Armenia,Raw,42,117.60,125,M 40-49,,,,,,M,,,,,,185.0,200.0,-210.0,,200.0,200.0,D,
1,Markus Zehethofer,Austria,Raw,49,143.40,125.0+,M 40-49,,,,,,M,,,,,,310.0,330.0,342.5,-360.5,342.5,342.5,D,
2,Hayk Barsamyan,Armenia,Raw,41,135.10,125.0+,M 40-49,,,,,,M,,,,,,250.0,260.0,270.0,,270.0,270.0,D,
1,Reinhard Müller,Austria,Raw,56,81.70,82.5,M 50-59,,,,,,M,,,,,,210.0,220.0,225.0,,225.0,225.0,D,
2,Jens Schünemann,Germany,Raw,57,81.10,82.5,M 50-59,,,,,,M,,,,,,160.0,175.0,,,175.0,175.0,D,
1,Michele Andriollo,Italy,Raw,52,94.10,95,M 50-59,,,,,,M,,,,,,250.0,260,-272.5,,260.0,260.0,D,
2,Jasmin Kočan,Montenegro,Raw,53,92.50,95,M 50-59,,,,,,M,,,,,,210.0,225.0,232.5,,232.5,232.5,D,
3,Michael Pyritz,Germany,Raw,52,94.00,95,M 50-59,,,,,,M,,,,,,205.0,215.0,-225.0,,215.0,215.0,D,
1,Jarosław Dąbrowski,Poland,Raw,58,107.10,110,M 50-59,,,,,,M,,,,,,260.0,275.0,283,290,283.0,283.0,D,
2,Steffen Schneider,Germany,Raw,56,102.40,110,M 50-59,,,,,,M,,,,,,210.0,220.0,225.0,,225.0,225.0,D,
1,René Falk,Germany,Raw,54,119.90,125,M 50-59,,,,,,M,,,,,,260.0,280.0,-300.0,,280.0,280.0,D,
1,Günther Däullery,Germany,Raw,62,81.60,82.5,M 60-69,,,,,,M,,,,,,160.0,170.0,-180.0,,170.0,170.0,D,
1,Peter Herák,Slovakia,Raw,63,92.90,95,M 60-69,,,,,,M,,,,,,225.0,232.5,-237.5,,232.5,232.5,D,
2,Frank Kutzsch,Germany,Raw,67,94.10,95,M 60-69,,,,,,M,,,,,,202.5,215.0,220.0,,220.0,220.0,D,
1,Tibor Gejdoš,Slovakia,Raw,60,103.70,110,M 60-69,,,,,,M,,,,,,225.0,245.0,255.0,,255.0,255.0,D,
2,Vitalij Filoněnko,Ukraine,Raw,60,102.20,110,M 60-69,,,,,,M,,,,,,207.5,-227.5,232.5,,232.5,232.5,D,
1,László Kurucz,Hungary,Raw,71,62.80,67.5,M 70-74,,,,,,M,,,,,,-130.0,130.0,-140,,130.0,130.0,D,
1,Burkhard Steffen,Germany,Raw,74,68.10,82.5,M 70-74,,,,,,M,,,,,,100.0,,,,100.0,100.0,D,
1,Lothar Schulze,Germany,Raw,74,82.70,95,M 70-74,,,,,,M,,,,,,160.0,175.0,-180.0,,175.0,175.0,D,
2,Mieczysłąw Maczka,Germany,Raw,70,85.50,95,M 70-74,,,,,,M,,,,,,140.0,-177.5,-177.5,,140.0,140.0,D,
1,Stefan Sochaňski,Poland,Raw,75,82.60,95,M 75+,,,,,,M,,,,,,155,167.5,180,,180.0,180.0,D,
1,Viktor Šafránek,Slovakia,Raw,30,60.40,67.5,Open,,,,,,M,,,,,,200.0,220.0,230,235,230.0,230.0,D,
1,Dominik Šafránek,Slovakia,Raw,32,78.90,82.5,Open,,,,,,M,,,,,,290.0,300.0,-305.5,,300.0,300.0,D,
2,Denis Kovačík,Czechia,Raw,27,81.50,82.5,Open,,,,,,M,,,,,,-280.0,280.0,292.5,,292.5,292.5,D,
3,Marek Fusko,Slovakia,Raw,24,82.50,82.5,Open,,,,,,M,,,,,,230.0,245.0,252.5,,252.5,252.5,D,
4,Patrik Kovačík,Czechia,Raw,24,80.50,82.5,Open,,,,,,M,,,,,,250.0,-260.0,,,250.0,250.0,D,
5,Ján Gribanič,Slovakia,Raw,29,75.00,82.5,Open,,,,,,M,,,,,,245.0,-252.5,-252.5,,245.0,245.0,D,
1,Roman Kövári,Slovakia,Raw,25,92.20,95,Open,,,,,,M,,,,,,270.0,300.0,-315.5,,300.0,300.0,D,
2,András Vass,Slovakia,Raw,29,86.70,95,Open,,,,,,M,,,,,,270.0,280.0,-290.0,,280.0,280.0,D,
3,Pál Tóth,Hungary,Raw,33,92.50,95,Open,,,,,,M,,,,,,275.0,-285.0,-285.0,,275.0,275.0,D,
4,Denny Lindner,Germany,Raw,39,93.90,95,Open,,,,,,M,,,,,,220.0,235.0,245.0,,245.0,245.0,D,
1,Đorđe Miljenović,Montenegro,Raw,24,97.70,110,Open,,,,,,M,,,,,,310.0,325.0,340.0,345.5,340.0,340.0,D,
2,Maximilian Probst,Germany,Raw,29,98.20,110,Open,,,,,,M,,,,,,260.0,280.0,290.0,,290.0,290.0,D,
3,Tomáš Knotek,Slovakia,Raw,31,109.20,110,Open,,,,,,M,,,,,,250.0,265.0,280.0,,280.0,280.0,D,
1,Tomáš Tóth,Slovakia,Raw,33,117.70,125,Open,,,,,,M,,,,,,300.0,-320.0,330.0,,330.0,330.0,D,
2,Tadeáš Weiner,Czechia,Raw,28,121.80,125,Open,,,,,,M,,,,,,300.0,320.0,-330.0,,320.0,320.0,D,
3,Paweł Włodarczyk,Poland,Raw,39,119.50,125,Open,,,,,,M,,,,,,260.0,280.0,302.5,,302.5,302.5,D,
4,Christopher Hollmann,Germany,Raw,34,118.60,125,Open,,,,,,M,,,,,,180.0,200.0,-215.0,,200.0,200.0,D,
1,Tomáš Halaj,Slovakia,Raw,31,147.70,125.0+,Open,,,,,,M,,,,,,320.0,335.0,,,335.0,335.0,D,
2,Róbert Blácha,Slovakia,Raw,35,129.90,125.0+,Open,,,,,,M,,,,,,300.0,-315.0,-315.0,,300.0,300.0,D,
3,Róbert Šimko,Slovakia,Raw,37,145.70,125.0+,Open,,,,,,M,,,,,,300.0,-315.0,-315.0,,300.0,300.0,D,
4,Tomáš Thüringer,Slovakia,Raw,35,164.20,125.0+,Open,,,,,,M,,,,,,220.0,250.0,-280.0,,250.0,250.0,D,
5,Łukasz Oczyński,Poland,Raw,37,130.00,125.0+,Open,,,,,,M,,,,,,-220.0,230.0,240.0,,240.0,240.0,D,
1,Samuel Daniš,Slovakia,Multi-ply,23,89.70,95,Juniors,,,,,,M,,,,,,255.0,275.0,290,-300,290.0,290.0,D,
1,Tomasz Miloch,Poland,Multi-ply,41,78.50,82.5,M 40-49,,,,,,M,,,,,,220.0,235.0,-242.5,,235.0,235.0,D,
1,Peter Lincmaier,Slovakia,Multi-ply,40,94.10,95,M 40-49,,,,,,M,,,,,,280.0,300.0,-306,,300.0,300.0,D,
2,Alexander Vrana,Austria,Multi-ply,49,95.00,95,M 40-49,,,,,,M,,,,,,210.0,215.0,225.0,,225.0,225.0,D,
1,Grzegorz Drewniany,Poland,Multi-ply,47,100.70,110,M 40-49,,,,,,M,,,,,,260.0,285.0,,,285.0,285.0,D,
2,László Eck,Hungary,Multi-ply,46,98.60,110,M 40-49,,,,,,M,,,,,,220.0,230.0,-240.0,,230.0,230.0,D,
1,Ondrej Hudák,Slovakia,Multi-ply,49,117.30,125,M 40-49,,,,,,M,,,,,,270.0,300.0,-306,,300.0,300.0,D,
2,Ľubomír Trstenský,Slovakia,Multi-ply,49,110.30,125,M 40-49,,,,,,M,,,,,,190.0,210.0,-230.0,,210.0,210.0,D,
1,Norman Hermann,Germany,Multi-ply,50,88.70,95,M 50-59,,,,,,M,,,,,,-235.0,235.0,-263.5,,235.0,235.0,D,
1,Norbert Hablicsek,Hungary,Multi-ply,50,109.30,110,M 50-59,,,,,,M,,,,,,262.5,280.0,-291,,280.0,280.0,D,
1,Jan Bachmann,Czechia,Multi-ply,56,110.10,125,M 50-59,,,,,,M,,,,,,150.0,170.0,-200.0,,170.0,170.0,D,
1,Karol Kornel Repiský,Slovakia,Multi-ply,60,136.50,125.0+,M 60-69,,,,,,M,,,,,,210.0,220,-230,,220.0,220.0,D,
1,Mieczysłąw Maczka,Germany,Multi-ply,70,85.50,95,M 70-74,,,,,,M,,,,,,140.0,160.0,167.5,,167.5,167.5,D,
1,Stefan Sochaňski,Poland,Multi-ply,75,82.60,95,M 75+,,,,,,M,,,,,,175,192.5,200,,200.0,200.0,D,
1,Tomáš Čan,Slovakia,Multi-ply,36,75.60,82.5,Open,,,,,,M,,,,,,175.0,185.0,-195.0,,185.0,185.0,D,
1,Martin Tesař,Czechia,Multi-ply,25,94.50,95,Open,,,,,,M,,,,,,280.0,305.5,-310,,305.5,305.5,D,
1,Mátyás Sándor Mészáros,Hungary,Multi-ply,29,99.90,110,Open,,,,,,M,,,,,,290.0,-300.0,,,290.0,290.0,D,
2,Tommaso Callegari,Italy,Multi-ply,39,100.30,110,Open,,,,,,M,,,,,,230.0,-240.0,-242.5,,230.0,230.0,D,
1,Josef Capouch,Czechia,Multi-ply,27,119.80,125,Open,,,,,,M,,,,,,355,-380,-380,,355.0,355.0,D,
2,Petr Pastýřík,Czechia,Multi-ply,35,118.00,125,Open,,,,,,M,,,,,,270.0,290.0,-305.0,,290.0,290.0,D,
1,Klaudia Savanyu,Hungary,Raw,19,59.00,60,Teen,,,,,,F,50.0,55,60.0,,60.0,,,,,,60.0,B,
1,Lívia Liptáková,Slovakia,Raw,19,83.20,82.5+,Teen,,,,,,F,60.0,63.0,65.0,-67.5,65.0,,,,,,65.0,B,
1,Laura Sophie Drescher,Germany,Raw,20,73.90,82.5,Juniors,,,,,,F,90.0,-95,-95,,90.0,,,,,,90.0,B,
1,Diana Balážová,Slovakia,Raw,21,101.30,82.5+,Juniors,,,,,,F,42.5,45.0,50.0,,50.0,,,,,,50.0,B,
1,Tatiana Magulová,Slovakia,Raw,43,75.10,82.5,M 40-49,,,,,,F,92.5,97.5,102.5,,102.5,,,,,,102.5,B,
2,Beáta Szalai,Hungary,Raw,44,80.40,82.5,M 40-49,,,,,,F,80.0,85.0,87.5,,87.5,,,,,,87.5,B,
1,Sabine Allner,Germany,Raw,40,124.60,82.5+,M 40-49,,,,,,F,110.0,125.0,,,125.0,,,,,,125.0,B,
2,Claudia Busse,Germany,Raw,45,96.50,82.5+,M 40-49,,,,,,F,95.0,100.0,105.0,,105.0,,,,,,105.0,B,
1,Judit Poliák,Hungary,Raw,51,50.70,52,M 50-59,,,,,,F,35.0,-37.5,-40,,35.0,,,,,,35.0,B,
1,Ilona Egri,Hungary,Raw,51,59.20,60,M 50-59,,,,,,F,-55,-55,55.0,,55.0,,,,,,55.0,B,
2,Mónika Hamana-Hinger,Hungary,Raw,51,59.40,60,M 50-59,,,,,,F,40.0,45.0,50.0,,50.0,,,,,,50.0,B,
1,Zsanett Pálfalvi,Hungary,Raw,51,64.00,67.5,M 50-59,,,,,,F,55.0,60.0,62.5,,62.5,,,,,,62.5,B,
1,Mária Hegedűs,Hungary,Raw,59,68.80,82.5,M 50-59,,,,,,F,50.0,55.0,,,55.0,,,,,,55.0,B,
2,Monika Lelkes,Slovakia,Raw,50,73.10,82.5,M 50-59,,,,,,F,47.5,50.0,52.5,,52.5,,,,,,52.5,B,
1,Brigitte Maczka,Germany,Raw,62,65.60,67.5,M 60-69,,,,,,F,32.5,37.5,40.0,,40.0,,,,,,40.0,B,
1,Jana Müller,Germany,Raw,39,58.60,60,Open,,,,,,F,75.0,80.0,82.5,,82.5,,,,,,82.5,B,
2,Ilona Egri,Hungary,Raw,50,59.20,60,Open,,,,,,F,45.0,50.0,-55,,50.0,,,,,,50.0,B,
1,Andrea Benešová,Czechia,Raw,32,65.50,67.5,Open,,,,,,F,90.0,100.0,-105,,100.0,,,,,,100.0,B,
2,Natascha Scheidleder,Austria,Raw,25,66.20,67.5,Open,,,,,,F,75.0,-87.5,-87.5,,75.0,,,,,,75.0,B,
1,Nadine Noack,Germany,Raw,39,80.90,82.5,Open,,,,,,F,100.0,107.5,-112.5,,107.5,,,,,,107.5,B,
1,Sabine Allner,Germany,Raw,40,124.60,82.5+,Open,,,,,,F,135.0,145.0,-150,,145.0,,,,,,145.0,B,
2,Jennifer Maluck,Germany,Raw,24,91.60,82.5+,Open,,,,,,F,92.5,-100,-100,,92.5,,,,,,92.5,B,
3,Omidvar Zahra,Iran,Raw,31,87.70,82.5+,Open,,,,,,F,60.0,-70,-75,,60.0,,,,,,60.0,B,
4,Žaneta Herzánová,Czechia,Raw,36,88.60,82.5+,Open,,,,,,F,-60,60.0,-65,,60.0,,,,,,60.0,B,
1,Klaudia Savanyu,Hungary,Unlimited,19,59.00,60,Teen,,,,,,F,80.0,90.0,-101.0,,90.0,,,,,,90.0,B,
1,Erika Molnár,Hungary,Unlimited,47,69.20,82.5,M 40-49,,,,,,F,95.0,102.5,107.5,,107.5,,,,,,107.5,B,
1,Sabine Allner,Germany,Unlimited,40,124.60,82.5+,M 40-49,,,,,,F,180.0,205.0,-215,,205.0,,,,,,205.0,B,
1,Tál Lívia Némethné,Hungary,Unlimited,52,70.90,82.5,M 50-59,,,,,,F,80.0,-85,-90,,80.0,,,,,,80.0,B,
1,Anita Riedl,Germany,Unlimited,59,97.30,82.5+,M 50-59,,,,,,F,-90,-90,90.0,,90.0,,,,,,90.0,B,
1,Brigitte Maczka,Germany,Unlimited,62,65.60,67.5,M 60-69,,,,,,F,35.0,-40,40.0,,40.0,,,,,,40.0,B,
1,Astrid Fehr,Germany,Unlimited,71,56.70,60,M 70-74,,,,,,F,-50.0,50.0,-52.5,,50.0,,,,,,50.0,B,
1,Sabine Allner,Germany,Unlimited,40,124.60,82.5+,Open,,,,,,F,150,180,,,180.0,,,,,,180.0,B,
1,David Čtvrtníček,Czechia,Raw,19,54.70,67.5,Teen,,,,,,M,85.0,95,100.0,,100.0,,,,,,100.0,B,
2,Mateusz Jażdżewski,Poland,Raw,17,64.50,67.5,Teen,,,,,,M,85.0,90.0,92.5,,92.5,,,,,,92.5,B,
1,Paul Paweletz,Austria,Raw,18,80.70,82.5,Teen,,,,,,M,125.0,-135,135.0,,135.0,,,,,,135.0,B,
2,Gabriel Bošňák,Slovakia,Raw,18,79.10,82.5,Teen,,,,,,M,115.0,127.5,132.5,,132.5,,,,,,132.5,B,
3,Michael Pavlasek,Czechia,Raw,18,70.30,82.5,Teen,,,,,,M,110.0,120.0,125.0,,125.0,,,,,,125.0,B,
4,Tibor Berta,Slovakia,Raw,16,75.30,82.5,Teen,,,,,,M,115.0,125.0,-130,,125.0,,,,,,125.0,B,
1,Michal Hucík,Slovakia,Raw,19,87.80,95,Teen,,,,,,M,140.0,-150,150.0,,150.0,,,,,,150.0,B,
2,Dávid Bučok,Slovakia,Raw,19,87.40,95,Teen,,,,,,M,135.0,145.0,-147.5,,145.0,,,,,,145.0,B,
1,Kristóf Szalai,Hungary,Raw,18,144.60,125.0+,Teen,,,,,,M,175.0,185.0,-195,,185.0,,,,,,185.0,B,
1,Radovan Čech,Slovakia,Raw,23,75.20,82.5,Juniors,,,,,,M,150.0,157.5,-160,,157.5,,,,,,157.5,B,
2,Radoslav Krajčovič,Slovakia,Raw,20,74.30,82.5,Juniors,,,,,,M,105.0,110.0,-112.5,,110.0,,,,,,110.0,B,
1,Jan Knežević,Croatia,Raw,20,92.80,95,Juniors,,,,,,M,-170,170.0,,,170.0,,,,,,170.0,B,
2,Arne Becker,Germany,Raw,22,91.80,95,Juniors,,,,,,M,142.5,150.0,155.0,,155.0,,,,,,155.0,B,
DQ,Michal Šimek,Czechia,Raw,22,89.90,95,Juniors,,,,,,M,-180,-180,-180,,,,,,,,,B,
1,Tomáš Obrlík,Czechia,Raw,23,107.50,110,Juniors,,,,,,M,160.0,165.0,-170,,165.0,,,,,,165.0,B,
1,Andreas Donath,Germany,Raw,40,82.50,82.5,M 40-49,,,,,,M,170.0,175.0,181.0,,181.0,,,,,,181.0,B,
2,Sebastian Niedziela,Poland,Raw,45,81.90,82.5,M 40-49,,,,,,M,160.0,165.0,-170,,165.0,,,,,,165.0,B,
3,Vladimír Kúdelka,Slovakia,Raw,44,77.70,82.5,M 40-49,,,,,,M,145.0,155.0,-160,,155.0,,,,,,155.0,B,
4,Sergej Hard,Hungary,Raw,41,82.40,82.5,M 40-49,,,,,,M,-140,140.0,147.5,,147.5,,,,,,147.5,B,
5,Branko Kautz,Germany,Raw,45,79.90,82.5,M 40-49,,,,,,M,122.5,-127.5,127.5,,127.5,,,,,,127.5,B,
6,Radosław Jażdżewski,Poland,Raw,49,80.00,82.5,M 40-49,,,,,,M,120.0,127.5,-130,,127.5,,,,,,127.5,B,
1,Ladislav Mikovčík,Slovakia,Raw,42,93.40,95,M 40-49,,,,,,M,185.0,192.5,-195,,192.5,,,,,,192.5,B,
2,László Németh,Hungary,Raw,44,94.00,95,M 40-49,,,,,,M,185.0,-190,190.0,,190.0,,,,,,190.0,B,
3,Jozef Kišš,Slovakia,Raw,49,94.10,95,M 40-49,,,,,,M,180.0,-200,-200,,180.0,,,,,,180.0,B,
4,Václav Šmíd,Czechia,Raw,41,91.70,95,M 40-49,,,,,,M,160.0,-170,-170,,160.0,,,,,,160.0,B,
5,Josef Rothensteiner,Austria,Raw,48,91.80,95,M 40-49,,,,,,M,150.0,-155,,,150.0,,,,,,150.0,B,
6,Péter Póhr,Hungary,Raw,44,86.40,95,M 40-49,,,,,,M,120.0,-130,-140,,120.0,,,,,,120.0,B,
1,Jan Habart,Germany,Raw,47,104.20,110,M 40-49,,,,,,M,230.0,235.0,240.0,,240.0,,,,,,240.0,B,
2,Marijo Rukavina,Croatia,Raw,40,109.60,110,M 40-49,,,,,,M,205.0,215.0,-220,,215.0,,,,,,215.0,B,
3,Marcel Marossow,Germany,Raw,48,103.80,110,M 40-49,,,,,,M,195.0,202.5,-207.5,,202.5,,,,,,202.5,B,
4,Peter Ševčík,Slovakia,Raw,45,106.70,110,M 40-49,,,,,,M,180.0,185.0,190.0,,190.0,,,,,,190.0,B,
5,Marcel Sanftleben,Germany,Raw,45,99.70,110,M 40-49,,,,,,M,160.0,170.0,175.0,,175.0,,,,,,175.0,B,
1,Vlastimil Kužel,Czechia,Raw,46,119.10,125,M 40-49,,,,,,M,230.0,240.0,245.0,,245.0,,,,,,245.0,B,
2,Matthias Hörning,Germany,Raw,49,121.90,125,M 40-49,,,,,,M,165.0,-167.5,167.5,,167.5,,,,,,167.5,B,
1,Imrich Vörös,Slovakia,Raw,40,179.40,125.0+,M 40-49,,,,,,M,235.0,-247.5,247.5,,247.5,,,,,,247.5,B,
2,Marcel Gorgas,Germany,Raw,40,133.50,125.0+,M 40-49,,,,,,M,195.0,200.0,-205,,200.0,,,,,,200.0,B,
3,Roland Lukács,Hungary,Raw,49,133.80,125.0+,M 40-49,,,,,,M,175.0,182.5,-185,,182.5,,,,,,182.5,B,
4,Jozef Minár,Slovakia,Raw,48,127.00,125.0+,M 40-49,,,,,,M,150.0,,,,150.0,,,,,,150.0,B,
1,Péter Barkó,Hungary,Raw,50,79.80,82.5,M 50-59,,,,,,M,150.0,-160,-160,,150.0,,,,,,150.0,B,
2,Jens Schünemann,Germany,Raw,57,81.00,82.5,M 50-59,,,,,,M,110.0,117.5,120.0,,120.0,,,,,,120.0,B,
3,Reinhard Müller,Austria,Raw,56,81.70,82.5,M 50-59,,,,,,M,110.0,117.5,120.0,,120.0,,,,,,120.0,B,
1,Michal Benda,Czechia,Raw,51,88.10,95,M 50-59,,,,,,M,170.0,177.5,-180,,177.5,,,,,,177.5,B,
2,Sławomír Purta,Poland,Raw,51,91.60,95,M 50-59,,,,,,M,170,172.5,-180,,172.5,,,,,,172.5,B,
1,Krzysztof Bożyczko-Jałocha,Poland,Raw,59,109.40,110,M 50-59,,,,,,M,-190,190.0,-200,,190.0,,,,,,190.0,B,
2,František Sajko,Slovakia,Raw,53,95.60,110,M 50-59,,,,,,M,150.0,160.0,165.0,,165.0,,,,,,165.0,B,
3,Franz Gansinger,Austria,Raw,56,108.30,110,M 50-59,,,,,,M,140.0,152.5,160.0,,160.0,,,,,,160.0,B,
4,Joachim Krebs,Austria,Raw,56,107.50,110,M 50-59,,,,,,M,150.0,155.0,-160,,155.0,,,,,,155.0,B,
1,Günther Hold,Austria,Raw,57,117.00,125,M 50-59,,,,,,M,200.0,215.0,,,215.0,,,,,,215.0,B,
1,László Horváth,Hungary,Raw,52,128.60,125.0+,M 50-59,,,,,,M,190.0,202.5,-207.5,,202.5,,,,,,202.5,B,
1,Rémy Krayzel,Czechia,Raw,69,79.00,82.5,M 60-69,,,,,,M,155.0,160.0,165.0,,165.0,,,,,,165.0,B,
1,Frank Kutzsch,Germany,Raw,67,94.10,95,M 60-69,,,,,,M,140.0,147.5,150.0,,150.0,,,,,,150.0,B,
2,Rene Hobohm,Germany,Raw,63,93.40,95,M 60-69,,,,,,M,145.0,147.5,-150,,147.5,,,,,,147.5,B,
1,Vitalii Filonenko,Ukraine,Raw,60,102.30,110,M 60-69,,,,,,M,137.5,147.5,155.0,,155.0,,,,,,155.0,B,
2,Július Vrbiniak,Slovakia,Raw,67,108.50,110,M 60-69,,,,,,M,150.0,-155,,,150.0,,,,,,150.0,B,
3,Jozef Belica,Slovakia,Raw,68,110.00,110,M 60-69,,,,,,M,135.0,142.5,-150,,142.5,,,,,,142.5,B,
4,Libor Bock,Czechia,Raw,60,97.10,110,M 60-69,,,,,,M,105.0,110.0,115.0,,115.0,,,,,,115.0,B,
1,Csaba Molnár,Hungary,Raw,60,132.50,125.0+,M 60-69,,,,,,M,165.0,,,,165.0,,,,,,165.0,B,
1,László Kurucz,Hungary,Raw,71,62.80,67.5,M 70-74,,,,,,M,85.0,90.0,95.0,,95.0,,,,,,95.0,B,
1,Gerd Müller,Germany,Raw,72,79.30,82.5,M 70-74,,,,,,M,105.0,110.0,115.0,,115.0,,,,,,115.0,B,
1,István Kucsera,Hungary,Raw,70,85.50,95,M 70-74,,,,,,M,105.0,112.5,-120,,112.5,,,,,,112.5,B,
2,Mieczysłąw Maczka,Germany,Raw,70,85.30,95,M 70-74,,,,,,M,102.5,,,,102.5,,,,,,102.5,B,
1,Ján Slovík,Slovakia,Raw,73,100.50,110,M 70-74,,,,,,M,50.0,60.0,62.5,,62.5,,,,,,62.5,B,
1,Jozef Bartek,Slovakia,Raw,79,74.10,82.5,M 75+,,,,,,M,-50,50.0,55.0,,55.0,,,,,,55.0,B,
1,Albert Olomek,Germany,Raw,77,90.80,95,M 75+,,,,,,M,125.0,130.0,135.0,,135.0,,,,,,135.0,B,
1,Michal Juriš,Slovakia,Raw,76,103.90,110,M 75+,,,,,,M,70.0,-75,-75,,70.0,,,,,,70.0,B,
1,Stanislav Beneš,Czechia,Raw,34,81.70,82.5,Open,,,,,,M,180.0,190.0,-195,,190.0,,,,,,190.0,B,
2,Sergej Hard,Hungary,Raw,41,82.40,82.5,Open,,,,,,M,-145,145.0,150.0,,150.0,,,,,,150.0,B,
1,Benjámín Móricz,Hungary,Raw,29,92.50,95,Open,,,,,,M,212.5,222.5,231.0,-235.0,231.0,,,,,,231.0,B,
2,Kamil Babiš,Czechia,Raw,32,93.60,95,Open,,,,,,M,170.0,180.0,-190,,180.0,,,,,,180.0,B,
3,Benjámin Laki,Hungary,Raw,27,92.70,95,Open,,,,,,M,160.0,165.0,170.0,,170.0,,,,,,170.0,B,
1,Jan Habart,Germany,Raw,47,104.20,110,Open,,,,,,M,235.0,-240,,,235.0,,,,,,235.0,B,
2,Lukáš Škorík,Slovakia,Raw,35,109.00,110,Open,,,,,,M,-222.5,222.5,-230,,222.5,,,,,,222.5,B,
1,Mirko Welke,Germany,Raw,35,117.00,125,Open,,,,,,M,210,215.0,-225,,215.0,,,,,,215.0,B,
2,Juraj Korman,Slovakia,Raw,28,111.90,125,Open,,,,,,M,200.0,210.0,-215,,210.0,,,,,,210.0,B,
3,Paweł Włodarczyk,Poland,Raw,39,121.10,125,Open,,,,,,M,155.0,165.0,175.0,,175.0,,,,,,175.0,B,
1,Keamo Schultheis,Germany,Raw,30,154.50,125.0+,Open,,,,,,M,250.0,260.0,265.0,,265.0,,,,,,265.0,B,
2,Adam Kekelák,Slovakia,Raw,29,141.20,125.0+,Open,,,,,,M,180.0,190.0,-195,,190.0,,,,,,190.0,B,
3,Łukasz Oczyński,Poland,Raw,37,131.00,125.0+,Open,,,,,,M,152.5,160.0,162.5,,162.5,,,,,,162.5,B,
4,Robert Kiss,Slovakia,Raw,36,142.90,125.0+,Open,,,,,,M,155,160.0,-165,,160.0,,,,,,160.0,B,
1,Milan Vojačik,Slovakia,Unlimited,23,69.00,82.5,Juniors,,,,,,M,130.0,-140,140.0,,140.0,,,,,,140.0,B,
1,Jakub Kohout,Czechia,Unlimited,22,109.40,110,Juniors,,,,,,M,250.0,-280,-300,,250.0,,,,,,250.0,B,
DQ,Miloš Leveš,Slovakia,Unlimited,23,113.60,125,Juniors,,,,,,M,-180,-180,-180,,,,,,,,,B,
1,János Bialik,Hungary,Unlimited,23,131.90,125.0+,Juniors,,,,,,M,-330.0,330.0,-340.0,,330.0,,,,,,330.0,B,
1,Branko Kautz,Germany,Unlimited,45,79.90,82.5,M 40-49,,,,,,M,150.0,-160,160.0,,160.0,,,,,,160.0,B,
DQ,Róbert Csetényi,Hungary,Unlimited,47,92.40,95,M 40-49,,,,,,M,-250,-250,-290,,,,,,,,,B,
1,Daniel Kaufmann,Germany,Unlimited,48,90.20,95,M 40-49,,,,,,M,275.0,297.5,-305.0,,297.5,,,,,,297.5,B,
2,Josef Rothensteiner,Austria,Unlimited,48,91.80,95,M 40-49,,,,,,M,215.0,225.0,240.0,,240.0,,,,,,240.0,B,
3,Péter Póhr,Hungary,Unlimited,44,86.40,95,M 40-49,,,,,,M,180.0,190.0,200.0,,200.0,,,,,,200.0,B,
4,Christian Stoebke,Germany,Unlimited,47,91.70,95,M 40-49,,,,,,M,-175,175.0,-180,,175.0,,,,,,175.0,B,
1,Henning Tiedje,Germany,Unlimited,45,105.80,110,M 40-49,,,,,,M,-297.5,297.5,320.0,,320.0,,,,,,320.0,B,
2,Zoltán Győri,Hungary,Unlimited,49,99.00,110,M 40-49,,,,,,M,245,252.5,260.0,,260.0,,,,,,260.0,B,
3,Alexander Vrana,Austria,Unlimited,49,96.90,110,M 40-49,,,,,,M,215.0,220.0,-227.5,,220.0,,,,,,220.0,B,
1,Michael Pischinger,Austria,Unlimited,46,124.70,125,M 40-49,,,,,,M,300.0,-325,325.0,-345.0,325.0,,,,,,325.0,B,
2,Petr Hron,Czechia,Unlimited,47,112.00,125,M 40-49,,,,,,M,255.0,275,280.0,,280.0,,,,,,280.0,B,
3,Michal Čorba,Slovakia,Unlimited,44,120.40,125,M 40-49,,,,,,M,-170,170.0,,,170.0,,,,,,170.0,B,
1,Gábor Salamon,Hungary,Unlimited,46,160.30,125.0+,M 40-49,,,,,,M,300.0,345.0,,,345.0,,,,,,345.0,B,
2,Jozef Minár,Slovakia,Unlimited,48,127.00,125.0+,M 40-49,,,,,,M,150.0,170.0,-190,,170.0,,,,,,170.0,B,
1,Attila Marosi,Hungary,Unlimited,51,93.70,95,M 50-59,,,,,,M,260.0,-285.0,-285.0,,260.0,,,,,,260.0,B,
2,Kai Gißler,Germany,Unlimited,54,92.20,95,M 50-59,,,,,,M,140.0,150.0,-155,,150.0,,,,,,150.0,B,
DQ,Rudolf Siska,Slovakia,Unlimited,53,91.50,95,M 50-59,,,,,,M,-195,,,,,,,,,,,B,
1,Ferenc Balázs,Hungary,Unlimited,54,105.50,110,M 50-59,,,,,,M,295.0,305.0,-312.5,,305.0,,,,,,305.0,B,
2,Helmut Kraus,Germany,Unlimited,53,98.80,110,M 50-59,,,,,,M,280.0,302.5,-310,,302.5,,,,,,302.5,B,
3,Franz Gansinger,Austria,Unlimited,56,108.30,110,M 50-59,,,,,,M,170.0,190.0,-200,,190.0,,,,,,190.0,B,
DQ,Günther Hold,Austria,Unlimited,57,117.00,125,M 50-59,,,,,,M,-280,-280,,,,,,,,,,B,
1,Károly Németh,Hungary,Unlimited,53,139.30,125.0+,M 50-59,,,,,,M,250.0,270.0,280.0,,280.0,,,,,,280.0,B,
2,Estakhr Mohsen,Iran,Unlimited,54,125.10,125.0+,M 50-59,,,,,,M,100.0,,,,100.0,,,,,,100.0,B,
1,Uwe Haase,Germany,Unlimited,60,93.60,95,M 60-69,,,,,,M,-212.5,212.5,225.0,,225.0,,,,,,225.0,B,
2,Peter Rathke,Germany,Unlimited,64,92.80,95,M 60-69,,,,,,M,200.0,212.5,220.0,,220.0,,,,,,220.0,B,
3,Ota Drudík,Czechia,Unlimited,63,92.60,95,M 60-69,,,,,,M,140.0,-185,-185,,140.0,,,,,,140.0,B,
1,Boris Švirec,Slovakia,Unlimited,60,112.90,125,M 60-69,,,,,,M,-140,140.0,-147.5,,140.0,,,,,,140.0,B,
DQ,Csaba Molnár,Hungary,Unlimited,60,132.50,125.0+,M 60-69,,,,,,M,,,,,,,,,,,,B,
DQ,Dirk Lauber,Germany,Unlimited,60,141.30,125.0+,M 60-69,,,,,,M,-290,-290,-290,,,,,,,,,B,
1,Mieczysłąw Maczka,Germany,Unlimited,70,85.30,95,M 70-74,,,,,,M,105.0,115.0,,,115.0,,,,,,115.0,B,
1,Erik Kondákor,Slovakia,Unlimited,37,77.40,82.5,Open,,,,,,M,170.0,-180,-185,,170.0,,,,,,170.0,B,
DQ,Dániel Oláh,Hungary,Unlimited,26,89.40,95,Open,,,,,,M,-330.0,-335.0,-335.0,,,,,,,,,B,
1,Gracjan Hnatów,Poland,Unlimited,32,94.80,95,Open,,,,,,M,320.0,335.0,340.0,,340.0,,,,,,340.0,B,
2,Sebastian Świtoński,Poland,Unlimited,26,86.50,95,Open,,,,,,M,250.0,-285,,,250.0,,,,,,250.0,B,
3,Vladimír Pavko,Slovakia,Unlimited,36,92.40,95,Open,,,,,,M,180.0,192.5,210.0,,210.0,,,,,,210.0,B,
1,Seyedi Kamal,Iran,Unlimited,33,105.00,110,Open,,,,,,M,-230,230.0,240.0,,240.0,,,,,,240.0,B,
2,Imre Kadenszki,Hungary,Unlimited,31,97.20,110,Open,,,,,,M,180.0,200.0,-220,,200.0,,,,,,200.0,B,
1,Petr Pastýřík,Czechia,Unlimited,35,118.00,125,Open,,,,,,M,240.0,260.0,-280,,260.0,,,,,,260.0,B,
