Division,WeightClassKg,Place,Name,Team,BodyweightKg,Best3SquatKg,Best3BenchKg,Best3DeadliftKg,TotalKg,Equipment,Event,Sex
Boys,51.71,1,Anthony Garcia,Weslaco,51.17,145.15,90.72,163.29,399.16,Single-ply,SBD,M
Boys,51.71,2,Jerry Milan,La Joya,50.26,117.93,68.04,136.08,322.05,Single-ply,SBD,M
Boys,51.71,3,Joshua Martinez,Hidalgo Early College,51.71,92.99,56.7,122.47,272.16,Single-ply,SBD,M
Boys,51.71,4,Michael Puente,PSJA Southwest,49.71,83.91,56.7,129.27,269.89,Single-ply,SBD,M
Boys,59.87,1,Mauro Vargas,La Joya Juarez-Lincoln,56.79,172.37,111.13,183.7,467.2,Single-ply,SBD,M
Boys,59.87,2,Damien Palomo,Weslaco,58.51,149.69,79.38,170.1,399.16,Single-ply,SBD,M
Boys,59.87,3,Abraham Hernández,La Joya Palmview,59.15,151.95,79.38,161.03,392.36,Single-ply,SBD,M
Boys,59.87,4,Esai Marez,Mission Sharyland,58.69,131.54,77.11,158.76,367.41,Single-ply,SBD,M
Boys,59.87,5,Kevin Marroquin,PSJA Southwest,57.24,113.4,54.43,124.74,292.57,Single-ply,SBD,M
Boys,67.13,1,Coy Burrows,Sharyland Pioneer,63.68,174.63,95.25,149.69,419.57,Single-ply,SBD,M
Boys,67.13,2,Gilbert Rosales,Mission Veterans Memorial,63.32,142.88,108.86,163.29,415.04,Single-ply,SBD,M
Boys,67.13,3,Albert Valle,Hidalgo Early College,62.14,136.08,83.91,158.76,378.75,Single-ply,SBD,M
Boys,67.13,4,Juan Gonzalez,PSJA Southwest,62.78,142.88,79.38,147.42,369.68,Single-ply,SBD,M
Boys,67.13,5,Bryan Rodriguez,La Joya Juarez-Lincoln,61.42,136.08,79.38,142.88,358.34,Single-ply,SBD,M
Boys,67.13,6,Brian Nunez,Hidalgo Early College,61.69,120.2,92.99,138.35,351.53,Single-ply,SBD,M
Boys,67.13,7,Oliver Barrera,Rio Grande City Grulla,66.32,90.72,74.84,145.15,310.71,Single-ply,SBD,M
Boys,67.13,DQ,Richard Nunez,Hidalgo Early College,65.77,113.4,,,,Single-ply,SBD,M
Boys,67.13,DQ,Enrique Pina,Mission,63.05,113.4,,,,Single-ply,SBD,M
Boys,74.84,1,Jacob Gracia,Weslaco,72.48,219.99,120.2,231.33,571.53,Single-ply,SBD,M
Boys,74.84,2,Joe H Rodriguez,PSJA Southwest,72.57,229.06,133.81,199.58,562.45,Single-ply,SBD,M
Boys,74.84,3,Frank Marin,Weslaco,70.49,204.12,117.93,204.12,526.17,Single-ply,SBD,M
Boys,74.84,4,Ronnie Longora,Sharyland Pioneer,70.31,161.03,79.38,183.7,424.11,Single-ply,SBD,M
Boys,74.84,5,Isaiah Garcia,Mission Sharyland,73.12,158.76,92.99,167.83,419.57,Single-ply,SBD,M
Boys,74.84,6,Jacob Trevino,Sharyland Pioneer,72.94,129.27,72.57,145.15,347,Single-ply,SBD,M
Boys,74.84,7,Brandon Mirles,Mission Sharyland,73.39,136.08,65.77,129.27,331.12,Single-ply,SBD,M
Boys,74.84,DQ,AJ Munguia,Mission Veterans Memorial,73.39,142.88,83.91,,,Single-ply,SBD,M
Boys,82.1,1,Robert Hernandez,La Joya Juarez-Lincoln,79.02,233.6,142.88,256.28,632.76,Single-ply,SBD,M
Boys,82.1,2,Salvador Castillo,Mission Sharyland,80.1,219.99,122.47,244.94,587.4,Single-ply,SBD,M
Boys,82.1,3,Alex Perez,Sharyland Pioneer,80.92,188.24,142.88,219.99,551.11,Single-ply,SBD,M
Boys,82.1,4,Javier Elizondo,Mission Sharyland,81.42,183.7,142.88,201.85,528.44,Single-ply,SBD,M
Boys,82.1,5,Sal Mendez,PSJA Southwest,80.2,158.76,138.35,215.46,512.56,Single-ply,SBD,M
Boys,82.1,6,Bryan Leal,Weslaco,82.1,183.7,127.01,192.78,503.49,Single-ply,SBD,M
Boys,82.1,7,Andrew Cantu,Mission Sharyland,82.1,199.58,106.59,190.51,496.68,Single-ply,SBD,M
Boys,82.1,8,Haroldo Ramirez,Rio Grande City Grulla,80.65,183.7,106.59,172.37,462.66,Single-ply,SBD,M
Boys,82.1,9,Norberto Vasquez,La Joya,81.56,151.95,127.01,170.1,449.06,Single-ply,SBD,M
Boys,82.1,10,Josue Sanchez,Mission,79.38,170.1,111.13,163.29,444.52,Single-ply,SBD,M
Boys,82.1,11,Javier Bernal,La Joya,76.66,181.44,106.59,151.95,439.98,Single-ply,SBD,M
Boys,82.1,12,Anibal Espinoza,La Joya,77.84,165.56,92.99,176.9,435.45,Single-ply,SBD,M
Boys,82.1,13,Ismael Gonzalez,Sharyland Pioneer,78.74,147.42,102.06,163.29,412.77,Single-ply,SBD,M
Boys,82.1,14,Marcos Perez,Rio Grande City Grulla,79.56,113.4,83.91,151.95,349.27,Single-ply,SBD,M
Boys,89.81,1,Julio Garcia,La Joya Juarez-Lincoln,89.81,233.6,158.76,229.06,621.42,Single-ply,SBD,M
Boys,89.81,2,Jose Nicoleau,Sharyland Pioneer,88.81,226.8,154.22,217.72,598.74,Single-ply,SBD,M
Boys,89.81,3,Luis Salinas,Sharyland Pioneer,88.81,226.8,136.08,233.6,596.47,Single-ply,SBD,M
Boys,89.81,4,Fernando Hernandez,La Joya Juarez-Lincoln,89.63,210.92,147.42,238.14,596.47,Single-ply,SBD,M
Boys,89.81,5,Carlos Zarate,Mission Sharyland,88.27,213.19,131.54,231.33,576.06,Single-ply,SBD,M
Boys,89.81,6,Victor Garza,PSJA Southwest,89.27,231.33,145.15,199.58,576.06,Single-ply,SBD,M
Boys,89.81,7,Isaac Aleman,Hidalgo Early College,89.81,192.78,124.74,201.85,519.36,Single-ply,SBD,M
Boys,89.81,8,Eddie Hernandez,La Joya Juarez-Lincoln,88.99,183.7,117.93,183.7,485.34,Single-ply,SBD,M
Boys,89.81,9,Jonathan Gomez #3,La Joya,83.91,183.7,99.79,183.7,467.2,Single-ply,SBD,M
Boys,89.81,10,Jorge Munoz,Weslaco,89.09,156.49,122.47,176.9,455.86,Single-ply,SBD,M
Boys,89.81,11,Eddie Garza,Rio Grande City,89.81,149.69,115.67,183.7,449.06,Single-ply,SBD,M
Boys,89.81,12,Vicente Spario,La Joya,86.18,124.74,83.91,136.08,344.73,Single-ply,SBD,M
Boys,89.81,DQ,Joel Moreno,Mission Sharyland,89.81,165.56,,,,Single-ply,SBD,M
Boys,89.81,DQ,Diego Alvarez,Mission Sharyland,84.19,124.74,,,,Single-ply,SBD,M
Boys,99.79,1,Fernando Gonzalez,La Joya Palmview,99.7,265.35,142.88,240.4,648.64,Single-ply,SBD,M
Boys,99.79,2,Jesus Ramos,Hidalgo Early College,98.97,249.48,154.22,210.92,614.62,Single-ply,SBD,M
Boys,99.79,3,Daniel González,La Joya Juarez-Lincoln,97.61,204.12,129.27,226.8,560.19,Single-ply,SBD,M
Boys,99.79,4,Daniel Villarreal,La Joya,92.71,219.99,124.74,204.12,548.85,Single-ply,SBD,M
Boys,99.79,5,Obed Hernandez,Sharyland Pioneer,92.99,206.38,115.67,219.99,542.04,Single-ply,SBD,M
Boys,99.79,6,Steven de Leon,Mission,91.53,210.92,120.2,204.12,535.24,Single-ply,SBD,M
Boys,99.79,7,Joseph Rios,Mission,94.26,197.31,142.88,192.78,532.97,Single-ply,SBD,M
Boys,99.79,8,Danny Munguia,Mission Veterans Memorial,96.07,213.19,138.35,174.63,526.17,Single-ply,SBD,M
Boys,99.79,9,Lazaro Bernabe,Hidalgo Early College,99.43,204.12,111.13,208.65,523.9,Single-ply,SBD,M
Boys,99.79,10,Esteban Licerio,Mission Veterans Memorial,96.25,204.12,106.59,204.12,514.83,Single-ply,SBD,M
Boys,99.79,11,Gilbert Romero,La Joya Juarez-Lincoln,96.25,195.04,111.13,197.31,503.49,Single-ply,SBD,M
Boys,99.79,12,Elizar Rodriguez,Weslaco,99.16,208.65,124.74,170.1,503.49,Single-ply,SBD,M
Boys,99.79,13,Fernando Castro,Hidalgo Early College,99.06,183.7,120.2,197.31,501.22,Single-ply,SBD,M
Boys,99.79,14,David Cantu,Mission Sharyland,92.26,204.12,115.67,142.88,462.66,Single-ply,SBD,M
Boys,99.79,15,Said Aleman,Hidalgo Early College,94.17,195.04,111.13,156.49,462.66,Single-ply,SBD,M
Boys,99.79,16,Julio Menchaca,Rio Grande City Grulla,96.25,174.63,92.99,161.03,428.64,Single-ply,SBD,M
Boys,99.79,17,Caleb Longoria,Rio Grande City,98.16,154.22,92.99,170.1,417.3,Single-ply,SBD,M
Boys,99.79,DQ,Eddie Leal,Mission Veterans Memorial,94.44,,,,,Single-ply,SBD,M
Boys,99.79,DQ,Leeroy Barrientos,Hidalgo Early College,97.07,158.76,102.06,,,Single-ply,SBD,M
Boys,109.77,1,Zeke Gutierrez,Mission,108.77,283.5,115.67,224.53,623.69,Single-ply,SBD,M
Boys,109.77,2,Sam Rodriguez,La Joya,104.96,235.87,158.76,226.8,621.42,Single-ply,SBD,M
Boys,109.77,3,Luis Salinas,Rio Grande City,109.77,172.37,124.74,226.8,523.9,Single-ply,SBD,M
Boys,109.77,4,Alexis Garces,PSJA Southwest,103.24,197.31,147.42,172.37,517.1,Single-ply,SBD,M
Boys,109.77,5,Juan Resendez,La Joya,108.95,183.7,138.35,195.04,517.1,Single-ply,SBD,M
Boys,109.77,6,Oliver Chapa,La Joya Juarez-Lincoln,106.14,183.7,120.2,183.7,487.61,Single-ply,SBD,M
Boys,109.77,7,Joey Castillo,PSJA Southwest,101.6,181.44,124.74,172.37,478.54,Single-ply,SBD,M
Boys,109.77,8,Albert Manroy,Mission Veterans Memorial,101.79,174.63,97.52,181.44,453.59,Single-ply,SBD,M
Boys,109.77,DQ,Jose Guerrero,Rio Grande City,107.73,,,,,Single-ply,SBD,M
Boys,124.74,1,Nazario Garza,Rio Grande City Grulla,122.83,256.28,165.56,249.48,671.32,Single-ply,SBD,M
Boys,124.74,2,Andres Hernandez,La Joya Palmview,124.74,256.28,158.76,222.26,637.3,Single-ply,SBD,M
Boys,124.74,3,Roger Benavidez,Rio Grande City,118.93,249.48,142.88,238.14,630.49,Single-ply,SBD,M
Boys,124.74,4,Rudy De La Torre,Weslaco,123.83,249.48,127.01,206.38,582.87,Single-ply,SBD,M
Boys,124.74,5,Diego Trevino,PSJA Southwest,120.56,183.7,102.06,197.31,483.08,Single-ply,SBD,M
Boys,124.74,6,Fernando Robles,Rio Grande City,117.16,163.29,92.99,190.51,446.79,Single-ply,SBD,M
Boys,124.74+,1,Shawn Gonzalez,PSJA Southwest,128,249.48,156.49,249.48,655.44,Single-ply,SBD,M
Boys,124.74+,2,Brandon Perez #2,Weslaco,158.03,265.35,142.88,226.8,635.03,Single-ply,SBD,M
Boys,124.74+,3,Jaime Morin,Rio Grande City,126.33,233.6,129.27,195.04,557.92,Single-ply,SBD,M
Boys,124.74+,4,Gabriel Cardona,Weslaco,126.55,210.92,136.08,206.38,553.38,Single-ply,SBD,M
Boys,124.74+,5,Issac Maynez,PSJA Southwest,125.65,181.44,115.67,161.03,458.13,Single-ply,SBD,M
