Place,Name,BirthYear,Team,BodyweightKg,Best3SquatKg,Best3BenchKg,Best3DeadliftKg,TotalKg,Event,WeightClassKg,Division,Equipment,Sex,BirthDate
1,Bali József,1973,Atlas SE,57.8,125.0,92.5,165.0,382.5,SBD,59,Open,Raw,M,
1,Molnár Gábor,1978,RKA Erőm.,66.0,115.0,135.0,147.5,397.5,SBD,66,Open,Raw,M,
2,Békési Norbert,1994,RKA Erőm.,64.1,115.0,115.0,150.0,380.0,SBD,66,Open,Raw,M,
3,R.Nagy Zoltán István,2001,JAK,66.0,120.0,75.0,155.0,350.0,SBD,66,Open,Raw,M,
1,Mike Péter,1994,DucsaiSzeg,72.5,165.0,132.5,215.0,512.5,SBD,74,Open,Raw,M,
2,Forgács László,1985,Powerbuild,67.2,175.0,130.0,205.0,510.0,SBD,74,Open,Raw,M,
3,Treszkai Viktor,1993,Erzsváros,72.6,185.0,115.0,202.5,502.5,SBD,74,Open,Raw,M,
4,Kálmán Zoltán,1991,Sirius,71.4,157.5,120.0,202.5,480.0,SBD,74,Open,Raw,M,
5,Tégény Tamás,1996,Westfit,74.0,155.0,107.5,190.0,452.5,SBD,74,Open,Raw,M,
6,Solymosi Péter,1979,Vasdisznó,73.1,142.5,95.0,195.0,432.5,SBD,74,Open,Raw,M,
7,Haga Zoltán,1978,Powerbuild,72.6,145.0,105.0,175.0,425.0,SBD,74,Open,Raw,M,
1,Sinkovits Alex,1994,RKA Erőm.,80.4,192.5,137.5,220.0,550.0,SBD,83,Open,Raw,M,
2,Monoki Zsolt,1994,Powerbuild,81.6,182.5,145.0,215.0,542.5,SBD,83,Open,Raw,M,
3,Cérna László,1993,KeletEreje,82.8,187.5,160.0,190.0,537.5,SBD,83,Open,Raw,M,
4,Somogyi Gábor,2000,RKA Erőm.,77.5,195.0,107.5,220.0,522.5,SBD,83,Open,Raw,M,
5,Kristóf Balázs,2001,Vasdisznó,82.8,165.0,130.0,225.0,520.0,SBD,83,Open,Raw,M,
6,Szabó Levente,2001,KeletEreje,80.2,175.0,120.0,210.0,505.0,SBD,83,Open,Raw,M,
7,Tyukodi Lajos,1987,Powerbuild,81.0,167.5,130.0,205.0,502.5,SBD,83,Open,Raw,M,
8,György Károly,1989,Marvel,81.3,170.0,130.0,200.0,500.0,SBD,83,Open,Raw,M,
9,Szántai László,1992,DeltaBeled,81.6,160.0,127.5,195.0,482.5,SBD,83,Open,Raw,M,
10,Szántai Tamás,1987,Powerbuild,79.6,160.0,105.0,200.0,465.0,SBD,83,Open,Raw,M,
11,Petlyánszki Ádám,1996,Westfit,81.6,150.0,107.5,200.0,457.5,SBD,83,Open,Raw,M,
12,Urbán István,1988,MAFC,81.4,165.0,110.0,172.5,447.5,SBD,83,Open,Raw,M,
13,Kertész Balázs,1998,Powerbuild,81.9,155.0,95.0,170.0,420.0,SBD,83,Open,Raw,M,
14,Kiss Balázs István,1997,Westfit,78.5,130.0,97.5,190.0,417.5,SBD,83,Open,Raw,M,
15,Tajti Csaba,1985,Powerbuild,81.1,150.0,95.0,160.0,405.0,SBD,83,Open,Raw,M,
16,Csire Krisztián,1984,KapCross,77.2,110.0,80.0,165.0,355.0,SBD,83,Open,Raw,M,
DQ,Zsiros Dániel,1991,RKA Erőm.,81.7,,110.0,210.0,,SBD,83,Open,Raw,M,
1,Baffia Dániel,1999,RKA Erőm.,92.5,210.0,137.5,240.0,587.5,SBD,93,Open,Raw,M,
2,Kovács Dezső Attila,1982,Powerbuild,90.8,205.0,155.0,210.0,570.0,SBD,93,Open,Raw,M,
3,Szentgyörgyi Máté,1987,Westfit,90.7,197.5,110.0,250.0,557.5,SBD,93,Open,Raw,M,
4,Simon Péter,1975,SugóPower,91.7,190.0,140.0,205.0,535.0,SBD,93,Open,Raw,M,
5,Szőke Richárd,1994,TabiFK,92.3,170.0,130.0,210.0,510.0,SBD,93,Open,Raw,M,
6,Gájer Áron,1985,Powerbuild,90.6,150.0,130.0,225.0,505.0,SBD,93,Open,Raw,M,
7,Góren Gábor,1985,Powerbuild,84.4,165.0,105.0,220.0,490.0,SBD,93,Open,Raw,M,
8,György Tamás,1979,TabiFK,92.6,140.0,100.0,175.0,415.0,SBD,93,Open,Raw,M,
9,Papp II Zsolt,1975,Powerbuild,88.9,135.0,90.0,155.0,380.0,SBD,93,Open,Raw,M,
10,Neszveda Tamás,1984,Sirius,91.1,105.0,117.5,150.0,372.5,SBD,93,Open,Raw,M,
1,P.Nagy Bálint,1994,RKA Erőm.,95.3,235.0,165.0,255.0,655.0,SBD,105,Open,Raw,M,
2,Mecseki Ádám,1995,DeltaBeled,104.4,225.0,150.0,265.0,640.0,SBD,105,Open,Raw,M,
3,Jescheta Péter,1992,Powerbuild,95.8,200.0,155.0,260.0,615.0,SBD,105,Open,Raw,M,
4,Torzsa Ferenc,1981,Atlas SE,103.5,210.0,152.5,230.0,592.5,SBD,105,Open,Raw,M,
5,Brabecz Péter,1991,Powerbuild,96.5,200.0,142.5,240.0,582.5,SBD,105,Open,Raw,M,
6,Kloiber Ádám,1995,TabiFK,93.6,210.0,132.5,220.0,562.5,SBD,105,Open,Raw,M,
7,Szabó Tibor,1982,PowerStati,101.8,162.5,130.0,220.0,512.5,SBD,105,Open,Raw,M,
8,Turóczi Simon,1995,Westfit,100.5,180.0,132.5,197.5,510.0,SBD,105,Open,Raw,M,
9,Mezriczky Zsolt,1990,Fortius SE,102.9,160.0,117.5,222.5,500.0,SBD,105,Open,Raw,M,
10,Balázs András,1977,Powerbuild,103.5,180.0,110.0,210.0,500.0,SBD,105,Open,Raw,M,
11,Medgyesi Bálint,1994,Powerbuild,99.3,162.5,127.5,190.0,480.0,SBD,105,Open,Raw,M,
12,Zsoldos Péter,1969,Powerbuild,102.9,155.0,110.0,185.0,450.0,SBD,105,Open,Raw,M,
13,Bíró Péter,1987,Fortius SE,99.5,140.0,125.0,155.0,420.0,SBD,105,Open,Raw,M,
DQ,Huszák Gábor,1980,VaultHunt,97.9,,140.0,,,SBD,105,Open,Raw,M,
1,Sasvári Tamás,1986,Vasdisznó,114.9,235.0,140.0,260.0,635.0,SBD,120,Open,Raw,M,
2,Bakos Adrián,1981,Powerbuild,116.0,230.0,120.0,235.0,585.0,SBD,120,Open,Raw,M,
1,Szolnoki Béla,1969,Atlas SE,123.9,270.0,140.0,292.5,702.5,SBD,120+,Open,Raw,M,
2,Horváth Mihály,1992,Mérk SE,120.5,220.0,132.5,237.5,590.0,SBD,120+,Open,Raw,M,
3,Kolozsi Sándor,1991,KapCross,131.4,190.0,145.0,240.0,575.0,SBD,120+,Open,Raw,M,
4,Vincze Tamás,1991,Powerbuild,134.2,200.0,120.0,220.0,540.0,SBD,120+,Open,Raw,M,
1,Nyers Mónika,1978,TabiFK,50.0,82.5,97.5,115.0,295.0,SBD,52,Open,Raw,F,
1,Divják Janka,1998,KapCross,55.7,95.0,82.5,132.5,310.0,SBD,57,Open,Raw,F,
2,Salamon Erika,1974,TabiFK,56.6,80.0,100.0,105.0,285.0,SBD,57,Open,Raw,F,
3,Rizán Katalin,1987,RKA Erőm.,55.3,85.0,62.5,115.0,262.5,SBD,57,Open,Raw,F,
4,Hódi Enikő,1992,Powerbuild,56.4,92.5,45.0,122.5,260.0,SBD,57,Open,Raw,F,
5,Varga Veronika,1977,Fortius SE,54.2,75.0,47.5,102.5,225.0,SBD,57,Open,Raw,F,
6,Szmolár Natália,1996,Vasdisznó,55.6,77.5,37.5,95.0,210.0,SBD,57,Open,Raw,F,
1,Bakó Mónika,1997,RKA Erőm.,60.4,117.5,67.5,130.0,315.0,SBD,63,Open,Raw,F,
2,Fehér Barbara,1994,RKA Erőm.,63.0,125.0,55.0,127.5,307.5,SBD,63,Open,Raw,F,
3,Janics Tímea,1988,AnimaCore,57.1,110.0,65.0,115.0,290.0,SBD,63,Open,Raw,F,
4,Jóni Szonja,1989,RKA Erőm.,59.7,90.0,55.0,125.0,270.0,SBD,63,Open,Raw,F,
5,Hollósi Eszter,1986,Powerbuild,61.7,97.5,50.0,115.0,262.5,SBD,63,Open,Raw,F,
6,Budai Gvendolin,2001,Nagytétény,61.6,70.0,67.5,90.0,227.5,SBD,63,Open,Raw,F,
DQ,Susa Felicita,1994,Vasdisznó,62.3,127.5,,,,SBD,63,Open,Raw,F,
1,Horváth Tímea,1985,RKA Erőm.,67.9,107.5,62.5,120.0,290.0,SBD,72,Open,Raw,F,
2,Balog Réka Magdolna,1993,DucsaiSzeg,68.0,105.0,47.5,120.0,272.5,SBD,72,Open,Raw,F,
3,Domján Diána,1994,Powerbuild,68.5,87.5,50.0,120.0,257.5,SBD,72,Open,Raw,F,
4,Valter Adrienn,1987,TabiFK,63.9,82.5,62.5,102.5,247.5,SBD,72,Open,Raw,F,
5,Makai Éva,1979,TabiFK,64.8,92.5,45.0,105.0,242.5,SBD,72,Open,Raw,F,
6,Marosi Renáta,1991,Powerbuild,68.8,85.0,45.0,105.0,235.0,SBD,72,Open,Raw,F,
7,Farkas Viktória Fruzsina,1985,Fortius SE,64.2,75.0,40.0,110.0,225.0,SBD,72,Open,Raw,F,
1,Juhász Anna Csilla,1996,MAFC,83.2,142.5,90.0,150.0,382.5,SBD,84,Open,Raw,F,
2,Zsíros Rita,1992,RKA Erőm.,78.7,132.5,65.0,150.0,347.5,SBD,84,Open,Raw,F,
3,Gaál Kinga,2000,RKA Erőm.,83.6,125.0,65.0,140.0,330.0,SBD,84,Open,Raw,F,
4,Katalin Éva Szabados,1975,Fortius SE,75.6,115.0,60.0,145.0,320.0,SBD,84,Open,Raw,F,
5,Fodor Zsófia,1995,Fortius SE,81.0,115.0,55.0,130.0,300.0,SBD,84,Open,Raw,F,
6,Békési Bernadett,1993,Westfit,83.0,97.5,45.0,140.0,282.5,SBD,84,Open,Raw,F,
1,Bak Szilvia,1971,Fortius SE,87.8,100.0,80.0,155.0,335.0,SBD,84+,Open,Raw,F,
2,Csajbók Eszter,1991,Powerbuild,91.3,120.0,55.0,140.0,315.0,SBD,84+,Open,Raw,F,
3,Fazekas Andrea,1966,Fortius SE,102.0,90.0,62.5,130.0,282.5,SBD,84+,Open,Raw,F,
