Place,Name,BirthDate,Sex,BirthYear,Age,Country,State,Equipment,Division,BodyweightKg,WeightClassKg,Squat1Kg,Squat2Kg,Squat3Kg,Best3SquatKg,Bench1Kg,Bench2Kg,Bench3Kg,Best3BenchKg,Deadlift1Kg,Deadlift2Kg,Deadlift3Kg,Best3DeadliftKg,TotalKg,Event,Tested
1,Pricila Orduno,,F,2001,22,,OR,Raw,Juniors 20-23,99,100,165,172.5,-182.5,172.5,72.5,75,77.5,77.5,165,175,182.5,182.5,432.5,SBD,Yes
1,Jennifer Cruz-Rodriguez,,F,2000,23,,OR,Raw,Juniors 20-23,105.1,110,145,160,167.5,167.5,62.5,72.5,-85,72.5,160,-172.5,-185.5,160,400,SBD,Yes
1,Molly Hendryx,,F,1983,40,,OR,Raw,Masters 40-44,58.4,60,137.5,142.5,150,150,65,70,72.5,72.5,182.5,192.5,-200,192.5,415,SBD,Yes
1,Lauri Holguin,,F,1981,42,,OR,Raw,Masters 40-44,73,75,-120.5,120.5,-125,120.5,59,65,-67.5,65,110,120,130,130,315.5,SBD,Yes
1,Anastasia Roeszler,,F,1982,41,,OR,Raw,Masters 40-44,91.5,100,112.5,117.5,122.5,122.5,55,-57.5,-57.5,55,127.5,135,-137.5,135,312.5,SBD,Yes
1,Yuki Hasegawa,,F,1973,50,,OR,Raw,Masters 50-54,65.4,67.5,90,95,102.5,102.5,62.5,65,70,70,115,122.5,130,130,302.5,SBD,Yes
2,Sheran Lyles,,F,1973,50,,OR,Raw,Masters 50-54,62.5,67.5,55,65,70,70,35,42.5,-47.5,42.5,80,-90,-90,80,192.5,SBD,Yes
1,Marcia Homer,,F,1966,57,,OR,Raw,Masters 55-59,80.5,82.5,97.5,105,110,110,52.5,57.5,-60,57.5,125,132.5,-137.5,132.5,300,SBD,Yes
1,Jayne Calmer,,F,1963,60,,OR,Raw,Masters 60-64,59.2,60,37.5,40,42.5,42.5,42.5,47.5,50,50,82.5,87.5,90,90,182.5,SBD,Yes
1,Brenna Calmer,,F,1995,28,,OR,Raw,Open,54.7,56,100,105,107.5,107.5,55,57.5,60,60,125,132.5,137.5,137.5,305,SBD,Yes
2,Rachel Goff,,F,1989,34,,OR,Raw,Open,54.6,56,90,95,100,100,55,-57.5,57.5,57.5,110,120,130,130,287.5,SBD,Yes
3,Sarah Blakeman,,F,1994,29,,OR,Raw,Open,54.3,56,67.5,75,80,80,50,-55,55,55,77.5,87.5,97.5,97.5,232.5,SBD,Yes
1,Molly Hendryx,,F,1983,40,,OR,Raw,Open,58.4,60,137.5,142.5,150,150,65,70,72.5,72.5,182.5,192.5,-200,192.5,415,SBD,Yes
2,Emma Lindell,,F,1990,33,,OR,Raw,Open,59.5,60,127.5,137.5,-140,137.5,67.5,70,-75,70,130,137.5,142.5,142.5,350,SBD,Yes
1,Luna Bruno,,F,1990,33,,OR,Raw,Open,66.5,67.5,-152.5,160,-165,160,107.5,110,-115,110,167.5,177.5,-187.5,177.5,447.5,SBD,Yes
2,Lea Cassidy,,F,1997,26,,CO,Raw,Open,65.2,67.5,117.5,125,132.5,132.5,75,77.5,80,80,142.5,150,-152.5,150,362.5,SBD,Yes
3,Xin Li Phuah,,F,1995,28,,OR,Raw,Open,64.2,67.5,107.5,112.5,117.5,117.5,52.5,55,57.5,57.5,140,147.5,152.5,152.5,327.5,SBD,Yes
4,Victoria Ham,,F,1991,32,,WA,Raw,Open,67.5,67.5,92.5,100,105,105,-47.5,-52.5,55,55,122.5,135,140,140,300,SBD,Yes
5,Dori Grabinski,,F,1992,31,,OR,Raw,Open,66,67.5,95,-100,100,100,50,52.5,55,55,120,125,-132.5,125,280,SBD,Yes
6,Monica Elizondo,,F,1991,32,,OR,Raw,Open,62.6,67.5,92.5,97.5,-105,97.5,55,60,62.5,62.5,100,107.5,115,115,275,SBD,Yes
7,Mallory Dudley,,F,1993,30,,OR,Raw,Open,64.8,67.5,67.5,72.5,77.5,77.5,32.5,35,37.5,37.5,82.5,87.5,92.5,92.5,207.5,SBD,Yes
1,Sage Stewart,,F,1999,25,,OR,Raw,Open,73.8,75,70,77.5,82.5,82.5,40,42.5,-45,42.5,122.5,-127.5,-127.5,122.5,247.5,SBD,Yes
2,Jenna Knobloch,,F,1990,34,,OR,Raw,Open,72.8,75,72.5,80,85,85,42.5,47.5,50,50,95,102.5,107.5,107.5,242.5,SBD,Yes
3,Eliza Thompson,,F,1994,29,,OR,Raw,Open,71.1,75,67.5,70,75,75,45,47.5,52.5,52.5,100,105,110,110,237.5,SBD,Yes
4,Daniella Iovino,,F,1993,31,,OR,Raw,Open,74,75,77.5,82.5,85,85,42.5,47.5,-52.5,47.5,80,85,95,95,227.5,SBD,Yes
1,Eliza Roddy,,F,1992,31,,OR,Raw,Open,82.5,82.5,90,-100,100,100,57.5,-60,-60,57.5,130,137.5,142.5,142.5,300,SBD,Yes
2,Sahara Coleman,,F,1990,34,,WA,Raw,Open,77,82.5,90,97.5,105,105,50,55,60,60,105,115,122.5,122.5,287.5,SBD,Yes
3,Jacqueline Martinez,,F,1992,31,,OR,Raw,Open,77.7,82.5,80,85,87.5,87.5,50,52.5,55,55,97.5,105,112.5,112.5,255,SBD,Yes
4,Christina Tommeraasen,,F,1984,39,,OR,Raw,Open,81.8,82.5,75,85,92.5,92.5,-47.5,50,-52.5,50,92.5,100,105,105,247.5,SBD,Yes
5,Martty Aleman,,F,1994,30,,OR,Raw,Open,77.9,82.5,47.5,52.5,57.5,57.5,30,32.5,35,35,75,82.5,87.5,87.5,180,SBD,Yes
DQ,Erin Lochary,,F,1991,32,,OR,Raw,Open,76.4,82.5,95,105,110,110,-47.5,-52.5,-52.5,,110,117.5,125,125,,SBD,Yes
1,Brianna J. Aragon,,F,1994,30,,OR,Raw,Open,86.2,90,115,120,125,125,52.5,55,57.5,57.5,142.5,145,-150,145,327.5,SBD,Yes
2,Lindsey Blake,,F,1990,33,,OR,Raw,Open,89.7,90,92.5,97.5,102.5,102.5,-55,55,-57.5,55,132.5,137.5,142.5,142.5,300,SBD,Yes
3,Stephanie Carmichael,,F,1990,33,,OR,Raw,Open,88.3,90,77.5,85,-90,85,37.5,40,42.5,42.5,82.5,90,95,95,222.5,SBD,Yes
1,Chloe Clay,,F,1996,27,,OR,Raw,Open,93.9,100,160,170,180,180,85,90,-95,90,180,190,200,200,470,SBD,Yes
2,Pricila Orduno,,F,2001,22,,OR,Raw,Open,99,100,165,172.5,-182.5,172.5,72.5,75,77.5,77.5,165,175,182.5,182.5,432.5,SBD,Yes
3,Alicia Farias,,F,1996,27,,OR,Raw,Open,99.2,100,150,162.5,170,170,70,-75,-75,70,152.5,165,172.5,172.5,412.5,SBD,Yes
1,Kuulei Misech,,F,1989,34,,OR,Raw,Open,109.3,110,152.5,-162.5,170,170,85,90,95,95,157.5,167.5,175,175,440,SBD,Yes
2,Brittanie Flakes,,F,1986,37,,OR,Raw,Open,108.5,110,92.5,97.5,102.5,102.5,57.5,60,62.5,62.5,130,137.5,142.5,142.5,307.5,SBD,Yes
3,Meghan Keener,,F,1985,38,,OR,Raw,Open,107.6,110,85,90,97.5,97.5,47.5,50,52.5,52.5,102.5,110,120,120,270,SBD,Yes
1,Erin Stanton,,F,1988,35,,OR,Raw,Open,139,140,157.5,172.5,185,185,87.5,97.5,105,105,157.5,172.5,185,185,475,SBD,Yes
1,Brandie Harris,,F,1990,33,,OR,Raw,Open,158.6,140+,-130,-130,130,130,67.5,70,72.5,72.5,-150,150,157.5,157.5,360,SBD,Yes
1,Sohini Vagha,,F,1988,35,,CA,Raw,Submasters 35-39,66.3,67.5,125,135,140,140,62.5,65,67.5,67.5,127.5,135,140,140,347.5,SBD,Yes
1,Ashley Bergren,,F,1986,37,,OR,Raw,Submasters 35-39,74.5,75,105,110,115,115,-85,-85,85,85,120,127.5,132.5,132.5,332.5,SBD,Yes
1,Christina Tommeraasen,,F,1984,39,,OR,Raw,Submasters 35-39,81.8,82.5,75,85,92.5,92.5,-47.5,50,-52.5,50,92.5,100,105,105,247.5,SBD,Yes
1,Rebecca Craven,,F,1984,39,,,Raw,Submasters 35-39,99.7,100,-92.5,-95,95,95,-52.5,55,-57.5,55,92.5,95,102.5,102.5,252.5,SBD,Yes
1,Jayne Calmer,,F,1963,60,,OR,Raw,Masters 60-64,59.2,60,,,,,42.5,47.5,50,50,,,,,50,B,Yes
1,Emma Lindell,,F,1990,33,,OR,Raw,Open,59.5,60,,,,,67.5,70,-75,70,,,,,70,B,Yes
1,Ashley Bergren,,F,1986,37,,OR,Raw,Submasters 35-39,74.5,75,,,,,-85,-85,85,85,,,,,85,B,Yes
1,Brenna Calmer,,F,1995,28,,OR,Raw,Open,54.7,56,,,,,,,,,125,132.5,137.5,137.5,137.5,D,Yes
1,Atticus St. Martin,,M,2008,15,,OR,Raw,Teen 13-15,78,82.5,95,100,107.5,107.5,57.5,60,65,65,122.5,130,-140,130,302.5,SBD,Yes
1,Matisse Aldredge,,M,2006,17,,OR,Raw,Teen 16-17,74.7,75,152.5,160,165,165,120,127.5,132.5,132.5,165,-172.5,175,175,472.5,SBD,Yes
2,Jasper Park,,M,2007,16,,WA,Raw,Teen 16-17,71.6,75,125,135,-140,135,92.5,102.5,110,110,175,182.5,-192.5,182.5,427.5,SBD,Yes
1,Jonah Tebbe,,M,,,,OR,Raw,Teen 16-17,89.8,90,-197.5,205,,205,125,130,-132.5,130,242.5,257.5,262.5,262.5,597.5,SBD,Yes
2,Joshua Goodfellow,,M,2007,16,,OR,Raw,Teen 16-17,87.6,90,167.5,175,185,185,137.5,142.5,-147.5,142.5,182.5,192.5,200,200,527.5,SBD,Yes
1,Evan Livermore,,M,2005,18,,WA,Raw,Teen 18-19,73.5,75,160,177.5,185,185,90,105,-115,105,172.5,192.5,212.5,212.5,502.5,SBD,Yes
1,Leo Alexander DeLeon,,M,2003,20,,CA,Raw,Juniors 20-23,82.5,82.5,237.5,250,257.5,257.5,150,162.5,170.5,170.5,282.5,-295,-295,282.5,710.5,SBD,Yes
2,Samson Wheeler,,M,2000,23,,OR,Raw,Juniors 20-23,80.1,82.5,180,190,192.5,192.5,125,132.5,-142.5,132.5,215,232.5,237.5,237.5,562.5,SBD,Yes
1,Dominic Barela,,M,2002,21,,OR,Raw,Juniors 20-23,89.4,90,227.5,235,245,245,140,147.5,-155.5,147.5,-275,275,282.5,282.5,675,SBD,Yes
2,Joseph Marsh,,M,2003,20,,OR,Raw,Juniors 20-23,88.4,90,122.5,127.5,132.5,132.5,-25,-25,25,25,145,150,157.5,157.5,315,SBD,Yes
1,Avian Mendoza,,M,2000,23,,OR,Raw,Juniors 20-23,102.3,110,195,210,-227.5,210,130,137.5,150,150,190,205,225,225,585,SBD,Yes
1,David Sugerik,,M,1984,40,,OR,Raw,Masters 40-44,98.8,100,280,295,307.5,307.5,155,162.5,167.5,167.5,277.5,-295,-295,277.5,752.5,SBD,Yes
1,Michael Jones #24,,M,1978,45,,OR,Raw,Masters 45-49,98.4,100,100,107.5,-117.5,107.5,82.5,87.5,97.5,97.5,145,155,170,170,375,SBD,Yes
1,Benny Richardson,,M,1972,51,,OR,Raw,Masters 50-54,143.3,140+,-157.5,157.5,-162.5,157.5,-117.5,117.5,122.5,122.5,165,175,185,185,465,SBD,Yes
1,Michael Lobb,,M,1954,,,OR,Raw,Masters 70-74,98.6,100,140,150,-160,150,77.5,82.5,-83,82.5,167.5,185,192.5,192.5,425,SBD,Yes
1,Tan Minh Vu,,M,1998,25,,OR,Raw,Open,72.4,75,175,192.5,-200,192.5,105,-117.5,120,120,220,240,-257.5,240,552.5,SBD,Yes
1,Samson Wheeler,,M,2000,23,,OR,Raw,Open,80.1,82.5,180,190,192.5,192.5,125,132.5,-142.5,132.5,215,232.5,237.5,237.5,562.5,SBD,Yes
2,Conor Sass,,M,1991,32,,OR,Raw,Open,75.3,82.5,125,132.5,140,140,92.5,100,105,105,162.5,172.5,180,180,425,SBD,Yes
3,Kyle Cox,,M,1999,25,,OR,Raw,Open,82.1,82.5,140,142.5,147.5,147.5,80,85,-87.5,85,185,187.5,190,190,422.5,SBD,Yes
4,Ory Brockman,,M,1992,31,,OR,Raw,Open,76,82.5,95,100,105,105,62.5,65,70,70,107.5,115,120,120,295,SBD,Yes
1,Dominic Barela,,M,2002,21,,OR,Raw,Open,89.4,90,227.5,235,245,245,140,147.5,-155.5,147.5,-275,275,282.5,282.5,675,SBD,Yes
2,Ilya Semyrazum,,M,1997,26,,WA,Raw,Open,89.2,90,220,235,240,240,137.5,-143.5,-143.5,137.5,240,250,-255,250,627.5,SBD,Yes
3,Cole Kreutzer,,M,1996,27,,OR,Raw,Open,88.5,90,202.5,215,227.5,227.5,152.5,162.5,-173,162.5,235,-255,-260,235,625,SBD,Yes
4,Thomas Davidson,,M,1990,33,,OR,Raw,Open,87.8,90,167.5,182.5,187.5,187.5,115,-125,125,125,200,212.5,-217.5,212.5,525,SBD,Yes
5,Wyatt Maki,,M,1992,31,,OR,Raw,Open,84,90,152.5,162.5,172.5,172.5,95,100,105,105,217.5,232.5,245,245,522.5,SBD,Yes
6,Chancelor Lickar,,M,1997,26,,WA,Raw,Open,88.6,90,160,162.5,170,170,130,137.5,-142.5,137.5,197.5,-210,-210,197.5,505,SBD,Yes
7,Preston Jensen,,M,1998,25,,OR,Raw,Open,89.4,90,162.5,-177.5,177.5,177.5,105,115,117.5,117.5,160,177.5,182.5,182.5,477.5,SBD,Yes
8,Abenicio Cisneros,,M,1983,40,,OR,Raw,Open,86.9,90,142.5,150,-155,150,112.5,117.5,-122.5,117.5,162.5,175,-187.5,175,442.5,SBD,Yes
9,Adam Shumaker,,M,1984,39,,OR,Raw,Open,83.5,90,125,130,-137.5,130,-90,90,92.5,92.5,170,177.5,182.5,182.5,405,SBD,Yes
DQ,Isaiah Caldwell,,M,1997,26,,WA,Raw,Open,88.7,90,187.5,210,-215,210,152.5,160,-170,160,-200,-200,-200,,,SBD,Yes
1,David Sugerik,,M,1984,40,,OR,Raw,Open,98.8,100,280,295,307.5,307.5,155,162.5,167.5,167.5,277.5,-295,-295,277.5,752.5,SBD,Yes
2,Travis Tolstedt,,M,1989,34,,OR,Raw,Open,96.7,100,225,237.5,250,250,152.5,165,170,170,247.5,260,272.5,272.5,692.5,SBD,Yes
3,Marquis Station,,M,1993,30,,OR,Raw,Open,96,100,215,227.5,237.5,237.5,155,162.5,167.5,167.5,245,265,-280,265,670,SBD,Yes
4,Darren James,,M,1998,25,,OR,Raw,Open,100,100,185,200,207.5,207.5,122.5,130,-135,130,210,227.5,-232.5,227.5,565,SBD,Yes
5,Jordan Long,,M,1991,32,,OR,Raw,Open,90.3,100,177.5,182.5,192.5,192.5,107.5,110,115,115,205,217.5,227.5,227.5,535,SBD,Yes
6,Samuel Zimmer,,M,1988,35,,OR,Raw,Open,97.9,100,157.5,165,170,170,115,122.5,127.5,127.5,172.5,182.5,195,195,492.5,SBD,Yes
7,Elliot Bishow,,M,1986,37,,OR,Raw,Open,94.9,100,135,142.5,-152.5,142.5,100,105,-110,105,157.5,167.5,170,170,417.5,SBD,Yes
1,Alex Hallquist,,M,1996,27,,OR,Raw,Open,108,110,215,225,232.5,232.5,145,152.5,157.5,157.5,230,242.5,255,255,645,SBD,Yes
2,Robert Erwin,,M,1997,26,,WA,Raw,Open,103,110,-215,215,-227.5,215,130,-137.5,-137.5,130,275,-295,-300,275,620,SBD,Yes
3,Jordan Martinez #1,,M,1989,34,,OR,Raw,Open,103.6,110,177.5,185,192.5,192.5,125,132.5,137.5,137.5,187.5,200,212.5,212.5,542.5,SBD,Yes
4,William Foronda,,M,1993,30,,OR,Raw,Open,105,110,155,165,175,175,120,130,137.5,137.5,172.5,185,195,195,507.5,SBD,Yes
1,Joshua Goodfellow,,M,2007,16,,OR,Raw,Teen 16-17,87.6,90,,,,,137.5,142.5,-147.5,142.5,,,,,142.5,B,Yes
1,Joshua Goodfellow,,M,2007,16,,OR,Raw,Open,87.6,90,,,,,137.5,142.5,-147.5,142.5,,,,,142.5,B,Yes
1,Joshua Goodfellow,,M,2007,16,,OR,Raw,Teen 16-17,87.6,90,,,,,,,,,182.5,192.5,200,200,200,D,Yes
1,Johnathan Williams Monro,,M,1995,28,,WA,Wraps,Open,127.4,140,287.5,302.5,320,320,175,182.5,190,190,-260,277.5,-300,277.5,787.5,SBD,Yes
