Division,WeightClassKg,Place,Name,Team,BodyweightKg,Best3SquatKg,Best3BenchKg,Best3DeadliftKg,TotalKg,Equipment,Event,Sex
Boys,51.71,1,Jose Sanchez,Gilmer,48.08,131.54,70.31,127.01,328.85,Single-ply,SBD,M
Boys,51.71,2,Raleigh Calvert,Sunnyvale,47.63,61.23,29.48,74.84,165.56,Single-ply,SBD,M
Boys,55.79,1,Eric Reaper,Tyler Chapel Hill,54.88,163.29,106.59,149.69,419.57,Single-ply,SBD,M
Boys,55.79,2,Angel Barroso,Tyler Chapel Hill,54.43,136.08,97.52,142.88,376.48,Single-ply,SBD,M
Boys,55.79,3,Jordan Mayhall,Athens,55.79,136.08,65.77,140.61,342.46,Single-ply,SBD,M
Boys,55.79,4,Evelio Mendoza,Gilmer,55.79,124.74,63.5,136.08,324.32,Single-ply,SBD,M
Boys,55.79,5,Austin Caldwell,Wills Point,53.98,113.4,72.57,124.74,310.71,Single-ply,SBD,M
Boys,55.79,6,Jose Lopez,Grand Saline,55.79,95.25,61.23,97.52,254.01,Single-ply,SBD,M
Boys,59.87,1,Langdon Bautista,Quitman,58.51,127.01,79.38,156.49,362.87,Single-ply,SBD,M
Boys,59.87,2,Rigo Herrera,Van,58.06,111.13,70.31,170.1,351.53,Single-ply,SBD,M
Boys,59.87,3,River Chaney,Quitman,59.33,117.93,68.04,140.61,326.59,Single-ply,SBD,M
Boys,59.87,4,Ethan Lee #1,Sunnyvale,59.87,120.2,65.77,127.01,312.98,Single-ply,SBD,M
Boys,59.87,5,Rylan Gervers,Wills Point,59.42,102.06,65.77,142.88,310.71,Single-ply,SBD,M
Boys,59.87,6,Louis Ortiz,Wills Point,56.7,113.4,61.23,124.74,299.37,Single-ply,SBD,M
Boys,59.87,7,Ryan Kvapil,Wills Point,58.97,83.91,52.16,124.74,260.82,Single-ply,SBD,M
Boys,59.87,8,Dylan Castillo,Brownsboro,59.87,81.65,61.23,113.4,256.28,Single-ply,SBD,M
Boys,67.13,1,Bryce Stephens,Brownsboro,65.77,183.7,127.01,172.37,483.08,Single-ply,SBD,M
Boys,67.13,2,Sean Collins,Gilmer,66.22,165.56,88.45,151.95,405.97,Single-ply,SBD,M
Boys,67.13,3,Lukas Enloe,Gilmer,66.22,142.88,86.18,154.22,383.29,Single-ply,SBD,M
Boys,67.13,4,Tristan Larsen,Tyler Chapel Hill,62.14,138.35,83.91,158.76,381.02,Single-ply,SBD,M
Boys,67.13,5,Orran Simmons,Longview Pine Tree,67.13,142.88,92.99,145.15,381.02,Single-ply,SBD,M
Boys,67.13,6,Kortlon Erskine,Red Oak,63.96,142.88,74.84,149.69,367.41,Single-ply,SBD,M
Boys,67.13,7,Jose Guerrero,Athens,63.5,127.01,81.65,151.95,360.61,Single-ply,SBD,M
Boys,67.13,8,Adontee Richardson,Red Oak,64.41,111.13,92.99,147.42,351.53,Single-ply,SBD,M
Boys,67.13,9,Kobi Thomas,Longview Pine Tree,63.23,117.93,68.04,136.08,322.05,Single-ply,SBD,M
Boys,67.13,10,Ethan Clark #2,Grand Saline,67.13,117.93,72.57,124.74,315.25,Single-ply,SBD,M
Boys,67.13,11,Beau Hanna,Brownsboro,60.78,115.67,61.23,124.74,301.64,Single-ply,SBD,M
Boys,74.84,1,Xavius Fulton,Athens,73.03,181.44,102.06,215.46,498.95,Single-ply,SBD,M
Boys,74.84,2,Cody Coldwell,Sunnyvale,73.48,215.46,124.74,158.76,498.95,Single-ply,SBD,M
Boys,74.84,3,Javon Dawson,Longview Pine Tree,68.04,165.56,92.99,190.51,449.06,Single-ply,SBD,M
Boys,74.84,4,Cameron Wisdom,Gilmer,74.84,158.76,90.72,176.9,426.38,Single-ply,SBD,M
Boys,74.84,5,Brayson Yates,Sunnyvale,73.94,165.56,90.72,167.83,424.11,Single-ply,SBD,M
Boys,74.84,6,Trevor Harrell,Wills Point,71.67,145.15,97.52,170.1,412.77,Single-ply,SBD,M
Boys,74.84,7,Gustavo Arango,Mineola,68.49,161.03,90.72,142.88,394.63,Single-ply,SBD,M
Boys,74.84,8,Reginald Fulton,Longview Pine Tree,73.03,108.86,92.99,176.9,378.75,Single-ply,SBD,M
Boys,74.84,9,Andrew McBride,Athens,68.49,102.06,86.18,181.44,369.68,Single-ply,SBD,M
Boys,74.84,10,Cole Catlin,Van,73.94,136.08,83.91,142.88,362.87,Single-ply,SBD,M
Boys,74.84,11,Jay Easley,Longview Pine Tree,69.4,136.08,61.23,158.76,356.07,Single-ply,SBD,M
Boys,74.84,12,Dantrail Richardson,Red Oak,72.76,120.2,102.06,131.54,353.8,Single-ply,SBD,M
Boys,74.84,13,Tim Block,Grand Saline,74.66,149.69,81.65,117.93,349.27,Single-ply,SBD,M
Boys,74.84,14,Jonathan Werner,Van,73.94,122.47,70.31,136.08,328.85,Single-ply,SBD,M
Boys,74.84,15,Jake Mayham,Gilmer,71.21,127.01,70.31,129.27,326.59,Single-ply,SBD,M
Boys,74.84,16,Mike Molina,Brownsboro,73.03,111.13,65.77,124.74,301.64,Single-ply,SBD,M
Boys,74.84,17,Caleb James,Longview Pine Tree,70.03,79.38,61.23,142.88,283.5,Single-ply,SBD,M
Boys,74.84,18,Giovanni Alvarez #2,Longview Pine Tree,70.31,102.06,70.31,99.79,272.16,Single-ply,SBD,M
Boys,74.84,19,Braydon Miller,Quitman,71.3,99.79,54.43,113.4,267.62,Single-ply,SBD,M
Boys,74.84,20,Ryan Rainey,Van,74.39,97.52,56.7,102.06,256.28,Single-ply,SBD,M
Boys,74.84,DQ,Jace Khan,Longview Pine Tree,72.39,129.27,,151.95,,Single-ply,SBD,M
Boys,74.84,DQ,Carson Barber,Gilmer,68.95,142.88,,154.22,,Single-ply,SBD,M
Boys,74.84,DQ,Jacob Proche,Red Oak,68.04,,88.45,124.74,,Single-ply,SBD,M
Boys,82.1,1,Josh Hull,Wills Point,80.74,181.44,115.67,204.12,501.22,Single-ply,SBD,M
Boys,82.1,2,Maalik Hall,Athens,82.1,181.44,104.33,215.46,501.22,Single-ply,SBD,M
Boys,82.1,3,Keelan Felts,Brownsboro,77.11,174.63,92.99,172.37,439.98,Single-ply,SBD,M
Boys,82.1,4,Adrian Martinez #9,Grand Saline,76.2,161.03,113.4,163.29,437.72,Single-ply,SBD,M
Boys,82.1,5,Bobby Posey,Brownsboro,75.75,167.83,92.99,167.83,428.64,Single-ply,SBD,M
Boys,82.1,6,Josh Bateman,Athens,76.2,149.69,95.25,161.03,405.97,Single-ply,SBD,M
Boys,82.1,7,Klayton House,Athens,76.2,136.08,81.65,154.22,371.95,Single-ply,SBD,M
Boys,82.1,8,Colton Munoz,Longview Pine Tree,78.93,124.74,97.52,136.08,358.34,Single-ply,SBD,M
Boys,82.1,9,Drake Walker,Van,80.29,124.74,72.57,145.15,342.46,Single-ply,SBD,M
Boys,89.81,1,DeCorian Horton,Tyler Chapel Hill,87.54,260.82,151.95,249.48,662.24,Single-ply,SBD,M
Boys,89.81,2,Marquis Massenburge,Tyler Chapel Hill,89.81,204.12,111.13,217.72,532.97,Single-ply,SBD,M
Boys,89.81,3,Khristion Little,Tyler Chapel Hill,89.36,213.19,106.59,206.38,526.17,Single-ply,SBD,M
Boys,89.81,4,Antonio Miranda,Athens,87.54,192.78,113.4,183.7,489.88,Single-ply,SBD,M
Boys,89.81,5,Chris Boone,Red Oak,87.54,192.78,111.13,170.1,474,Single-ply,SBD,M
Boys,89.81,6,Jon Paye,Gilmer,89.81,174.63,106.59,176.9,458.13,Single-ply,SBD,M
Boys,89.81,7,Christian Lemus,Van,86.18,199.58,129.27,127.01,455.86,Single-ply,SBD,M
Boys,89.81,8,Brandon Holland,Grand Saline,85.73,151.95,92.99,163.29,408.23,Single-ply,SBD,M
Boys,89.81,9,Quentin Freeman,Longview Pine Tree,88,142.88,92.99,158.76,394.63,Single-ply,SBD,M
Boys,89.81,10,Juan Martinez,Wills Point,88,147.42,70.31,149.69,367.41,Single-ply,SBD,M
Boys,89.81,11,Reese Gardner,Van,87.09,122.47,83.91,158.76,365.14,Single-ply,SBD,M
Boys,89.81,12,Gary Wiley,Longview Pine Tree,89.81,142.88,77.11,142.88,362.87,Single-ply,SBD,M
Boys,89.81,DQ,Eric Lee,Red Oak,84.82,,,179.17,,Single-ply,SBD,M
Boys,89.81,DQ,Jake Kellam,Van,88,190.51,,,,Single-ply,SBD,M
Boys,99.79,1,Donaven Dotson,Tyler Chapel Hill,92.99,199.58,122.47,208.65,530.7,Single-ply,SBD,M
Boys,99.79,2,Bronson Links,Red Oak,91.63,210.92,120.2,192.78,523.9,Single-ply,SBD,M
Boys,99.79,3,Shemar Willis,Athens,97.07,183.7,136.08,204.12,523.9,Single-ply,SBD,M
Boys,99.79,4,Bryan Bunger,Sunnyvale,91.17,195.04,113.4,190.51,498.95,Single-ply,SBD,M
Boys,99.79,5,Coltin Paskey,Tyler Chapel Hill,99.79,204.12,124.74,170.1,498.95,Single-ply,SBD,M
Boys,99.79,6,Jacob Hurst,Mineola,96.16,188.24,122.47,185.97,496.68,Single-ply,SBD,M
Boys,99.79,7,Jason Molina,Sunnyvale,97.07,176.9,122.47,183.7,483.08,Single-ply,SBD,M
Boys,99.79,8,Anthony Perales,Red Oak,91.63,185.97,111.13,183.7,480.81,Single-ply,SBD,M
Boys,99.79,9,Swinton Jackson,Red Oak,93.44,188.24,106.59,170.1,464.93,Single-ply,SBD,M
Boys,99.79,10,Cash Nations,Grand Saline,92.53,154.22,111.13,183.7,449.06,Single-ply,SBD,M
Boys,99.79,11,Alex Spera,Sunnyvale,95.25,161.03,99.79,176.9,437.72,Single-ply,SBD,M
Boys,99.79,12,Cole Thomas,Sunnyvale,95.71,158.76,97.52,176.9,433.18,Single-ply,SBD,M
Boys,99.79,13,Bryce Smith,Brownsboro,92.08,170.1,90.72,170.1,430.91,Single-ply,SBD,M
Boys,99.79,14,Anthony Hill #4,Athens,97.98,149.69,120.2,149.69,419.57,Single-ply,SBD,M
Boys,99.79,15,Eil Britton,Grand Saline,98.43,167.83,90.72,158.76,417.3,Single-ply,SBD,M
Boys,99.79,16,Jackson Willis,Van,97.52,142.88,97.52,174.63,415.04,Single-ply,SBD,M
Boys,99.79,17,Brady Shackleford,Van,97.52,174.63,77.11,140.61,392.36,Single-ply,SBD,M
Boys,99.79,18,Melito Sanchez,Van,98.88,156.49,68.04,167.83,392.36,Single-ply,SBD,M
Boys,99.79,19,Hunter Huggins,Quitman,97.52,136.08,70.31,156.49,362.87,Single-ply,SBD,M
Boys,99.79,20,Chase Sheridan,Van,98.43,136.08,72.57,145.15,353.8,Single-ply,SBD,M
Boys,109.77,1,Jose Rodriguez #8,Gilmer,104.33,226.8,111.13,215.46,553.38,Single-ply,SBD,M
Boys,109.77,2,Landon Green,Gilmer,108.41,215.46,102.06,210.92,528.44,Single-ply,SBD,M
Boys,109.77,3,Cameron Penny,Wills Point,107.5,138.35,92.99,170.1,401.43,Single-ply,SBD,M
Boys,109.77,4,Aubrey Barnes #2,Grand Saline,103.42,140.61,99.79,158.76,399.16,Single-ply,SBD,M
Boys,109.77,5,Bladen Collom,Gilmer,103.87,142.88,88.45,154.22,385.55,Single-ply,SBD,M
Boys,109.77,6,Clayton Wafer,Wills Point,101.6,142.88,79.38,158.76,381.02,Single-ply,SBD,M
Boys,109.77,7,Reed Deatherage,Grand Saline,103.42,124.74,92.99,145.15,362.87,Single-ply,SBD,M
Boys,109.77,8,Erick Rosas,Longview Pine Tree,109.41,129.27,61.23,163.29,353.8,Single-ply,SBD,M
Boys,109.77,DQ,Sam Bartis,Sunnyvale,104.78,147.42,,156.49,,Single-ply,SBD,M
Boys,109.77,DQ,Aaron McKiddy,Grand Saline,103.42,136.08,,122.47,,Single-ply,SBD,M
Boys,124.74,1,Jose Arreguin,Tyler Chapel Hill,122.92,242.67,151.95,204.12,598.74,Single-ply,SBD,M
Boys,124.74,2,Caleb York,Van,115.67,231.33,145.15,208.65,585.13,Single-ply,SBD,M
Boys,124.74,3,Jp Salas,Sunnyvale,114.76,219.99,111.13,226.8,557.92,Single-ply,SBD,M
Boys,124.74,4,Sammy Palma,Grand Saline,116.57,199.58,117.93,208.65,526.17,Single-ply,SBD,M
Boys,124.74,5,Garrett Hayes,Athens,122.02,192.78,124.74,204.12,521.63,Single-ply,SBD,M
Boys,124.74,6,Brody Bushnell,Wills Point,110.68,183.7,113.4,192.78,489.88,Single-ply,SBD,M
Boys,124.74,7,Blake Olivares,Gilmer,117.93,176.9,113.4,190.51,480.81,Single-ply,SBD,M
Boys,124.74,8,Keith Burkes,Longview Pine Tree,114.31,183.7,102.06,188.24,474,Single-ply,SBD,M
Boys,124.74,9,Ian Hancock,Van,117.03,174.63,79.38,142.88,396.89,Single-ply,SBD,M
Boys,124.74,10,Carson McCoy,Van,113.4,115.67,99.79,124.74,340.19,Single-ply,SBD,M
Boys,124.74,DQ,Mark Jackson #2,Red Oak,111.58,,102.06,163.29,,Single-ply,SBD,M
Boys,124.74+,1,Mose Jeffery,Longview Pine Tree,155.58,226.8,129.27,213.19,569.26,Single-ply,SBD,M
Boys,124.74+,2,Kevin Hawkins,Mineola,142.43,195.04,136.08,181.44,512.56,Single-ply,SBD,M
Boys,124.74+,3,Isaac Sims,Quitman,137.44,183.7,111.13,204.12,498.95,Single-ply,SBD,M
Boys,124.74+,4,Jobin Chirayil,Sunnyvale,127.01,174.63,138.35,176.9,489.88,Single-ply,SBD,M
Boys,124.74+,5,Devon King,Gilmer,126.1,181.44,113.4,188.24,483.08,Single-ply,SBD,M
Boys,124.74+,6,Noah Luelling,Quitman,130.18,181.44,117.93,181.44,480.81,Single-ply,SBD,M
Boys,124.74+,7,Alex Thornburg,Longview Pine Tree,127.01,142.88,111.13,181.44,435.45,Single-ply,SBD,M
Boys,124.74+,8,Jordan Young,Van,131.54,170.1,106.59,142.88,419.57,Single-ply,SBD,M
Boys,124.74+,9,Peyton McClain,Red Oak,126.1,147.42,111.13,156.49,415.04,Single-ply,SBD,M
