Place,Name,BirthYear,BodyweightKg,Best3SquatKg,Best3BenchKg,Best3DeadliftKg,TotalKg,Team,WeightClassKg,Event,Equipment,Division,Sex,BirthDate
1,Kristóf Bence Budai,1999,120.30,320,215,343,878,"Barbell Bunker ""A""",120+,SBD,Raw,Team,M,
1,Ádám Dániel Hubert,2005,73.10,245,127.5,280,652.5,"Barbell Bunker ""A""",74,SBD,Raw,Team,M,
1,Gábor Dudás,2000,91.80,270,180,270,720,"Barbell Bunker ""A""",93,SBD,Raw,Team,M,
1,András Gerlai,2002,90.95,245,182.5,270,697.5,"Barbell Bunker ""A""",93,SBD,Raw,Team,M,
1,Máté Gábor Király,2003,103.30,262.5,200,270,732.5,"Barbell Bunker ""A""",105,SBD,Raw,Team,M,
2,László Póta,2000,70.50,250,170,260,680,"Vasdisznó ""A""",74,SBD,Raw,Team,M,
2,Olivér Susa,2004,102.90,270,230,290,790,"Vasdisznó ""A""",105,SBD,Raw,Team,M,
2,Krisztián Cseszkó,1999,104.40,275,165,305,745,"Vasdisznó ""A""",105,SBD,Raw,Team,M,
2,Péter Horváth,1991,92.40,255,167.5,270,692.5,"Vasdisznó ""A""",93,SBD,Raw,Team,M,
2,Dávid Susa #2,1990,104.50,275,177.5,265,717.5,"Vasdisznó ""A""",105,SBD,Raw,Team,M,
3,Benjámin Tóth,1998,92.30,240,180,300,720,"Vasdisznó ""B""",93,SBD,Raw,Team,M,
3,András Lelkes,1998,92.00,270,160,280,710,"Vasdisznó ""B""",93,SBD,Raw,Team,M,
3,Richárd Zavesicki,1993,92.30,260,170,280,710,"Vasdisznó ""B""",93,SBD,Raw,Team,M,
3,Balázs Ledényi,1999,91.50,237.5,162.5,295,695,"Vasdisznó ""B""",93,SBD,Raw,Team,M,
3,Kornél Csorbai,1995,82.50,217.5,147.5,280,645,"Vasdisznó ""B""",83,SBD,Raw,Team,M,
4,Szilárd Zmák,1993,82.80,230,152.5,282.5,665,"Powerbuilder SE ""A""",83,SBD,Raw,Team,M,
4,Márk Érmelléki,1994,103.35,275,180,280,735,"Powerbuilder SE ""A""",105,SBD,Raw,Team,M,
4,Bertalan Vas,2000,82.50,230,150,250,630,"Powerbuilder SE ""A""",83,SBD,Raw,Team,M,
4,Nándor Dominik Simon,2000,104.20,280,167.5,255,702.5,"Powerbuilder SE ""A""",105,SBD,Raw,Team,M,
4,Ármin Gaál,2003,89.30,210,152.5,275,637.5,"Powerbuilder SE ""A""",93,SBD,Raw,Team,M,
5,Hunor Nagy,1987,118.80,341,215,300,856,Sirius Lifting Felnõtt(ebb)ek),120,SBD,Raw,Team,M,
5,Tamás Levente Tóth,2001,91.65,240,177.5,250,667.5,Sirius Lifting Felnõtt(ebb)ek),93,SBD,Raw,Team,M,
5,Tamás Zalán Péter,2002,96.20,240,160,270,670,Sirius Lifting Felnõtt(ebb)ek),105,SBD,Raw,Team,M,
5,Péter Hornyák,1979,82.40,205,150,245,600,Sirius Lifting Felnõtt(ebb)ek),83,SBD,Raw,Team,M,
5,Gábor Szabó,1987,103.70,227.5,167.5,245,640,Sirius Lifting Felnõtt(ebb)ek),105,SBD,Raw,Team,M,
6,Kristóf Nagy,1997,81.50,220,183,242.5,645.5,"Vasdisznó ""C""",83,SBD,Raw,Team,M,
6,Márton Varga,2003,82.20,245,145,250,640,"Vasdisznó ""C""",83,SBD,Raw,Team,M,
6,Tamás Lakó,2005,105.20,265,165,265,695,"Vasdisznó ""C""",120,SBD,Raw,Team,M,
6,Robin Pintér,1996,83.00,227.5,160,230,617.5,"Vasdisznó ""C""",83,SBD,Raw,Team,M,
6,Bence Spolár,1993,142.10,255,200,295,750,"Vasdisznó ""C""",120+,SBD,Raw,Team,M,
7,Ferenc Viski,1994,90.30,237.5,180,290,707.5,"Erõtér Powerlifting ""A""",93,SBD,Raw,Team,M,
7,Dániel Attila Nagy,2002,111.80,280,177.5,290,747.5,"Erõtér Powerlifting ""A""",120,SBD,Raw,Team,M,
7,Norbert Andor Dobány,2004,88.70,212.5,130,262.5,605,"Erõtér Powerlifting ""A""",93,SBD,Raw,Team,M,
7,Barnabás Németh,2003,90.80,220,125,265,610,"Erõtér Powerlifting ""A""",93,SBD,Raw,Team,M,
7,István Bence Szalay,1991,100.50,225,147.5,260,632.5,"Erõtér Powerlifting ""A""",105,SBD,Raw,Team,M,
8,Áron Hegedűs #1,1996,104.55,305,190,350.5,845.5,Westfit GYM SE,105,SBD,Raw,Team,M,
8,Ákos Szabacsi,1992,98.75,230,165,290,685,Westfit GYM SE,105,SBD,Raw,Team,M,
8,Gergely Király,2006,91.60,217.5,127.5,250,595,Westfit GYM SE,93,SBD,Raw,Team,M,
8,András Porkoláb,1990,103.00,190,150,265,605,Westfit GYM SE,105,SBD,Raw,Team,M,
8,Márk Levente Hegedűs,2003,91.50,190,125,215,530,Westfit GYM SE,93,SBD,Raw,Team,M,
9,Dániel László Molnár,2000,83.60,215,162.5,250,627.5,"Barbell Bunker ""B""",93,SBD,Raw,Team,M,
9,Botond Szujó,1995,87.00,240,147.5,250,637.5,"Barbell Bunker ""B""",93,SBD,Raw,Team,M,
9,Máté Erik Nagy,2003,90.95,242.5,120,252.5,615,"Barbell Bunker ""B""",93,SBD,Raw,Team,M,
9,Alex Kozma,2003,91.50,230,135,240,605,"Barbell Bunker ""B""",93,SBD,Raw,Team,M,
9,Dávid Sipos,1990,93.40,200,130,255,585,"Barbell Bunker ""B""",105,SBD,Raw,Team,M,
10,András Kiss,1994,101.00,225,180,265,670,"Powerbuilder SE ""B""",105,SBD,Raw,Team,M,
10,Ádám Õzse,1980,101.60,220,150,275,645,"Powerbuilder SE ""B""",105,SBD,Raw,Team,M,
10,Ádám Szlávich,1996,103.40,225,145,280,650,"Powerbuilder SE ""B""",105,SBD,Raw,Team,M,
10,Bence Szikora,1993,100.15,230,130,260,620,"Powerbuilder SE ""B""",105,SBD,Raw,Team,M,
10,Dominik Kovács,2001,100.70,220,152.5,235,607.5,"Powerbuilder SE ""B""",105,SBD,Raw,Team,M,
11,Ákos Ujvári,2006,90.70,220,132.5,237.5,590,Belme Ceglédi Erõemelõ SE,93,SBD,Raw,Team,M,
11,Péter Árvai,1999,116.55,240,165,250,655,Belme Ceglédi Erõemelõ SE,120,SBD,Raw,Team,M,
11,Ádám Sándor Klincsik,1994,81.40,180,115,240,535,Belme Ceglédi Erõemelõ SE,83,SBD,Raw,Team,M,
11,Norbert Lajos Mózes,1997,83.00,180,140,220,540,Belme Ceglédi Erõemelõ SE,83,SBD,Raw,Team,M,
11,Imre Viktor Gaál,1977,81.60,195,120,210,525,Belme Ceglédi Erõemelõ SE,83,SBD,Raw,Team,M,
12,Milán Bence Száz,2000,100.10,247.5,145,240,632.5,"Erõtér Powerlifting ""B""",105,SBD,Raw,Team,M,
12,Gábor József Turi,2006,106.80,230,172,250,652,"Erõtér Powerlifting ""B""",120,SBD,Raw,Team,M,
12,Péter Farkas,1993,65.90,162.5,115,202.5,480,"Erõtér Powerlifting ""B""",66,SBD,Raw,Team,M,
12,János Kocsis,2006,65.00,178.5,95,187.5,461,"Erõtér Powerlifting ""B""",66,SBD,Raw,Team,M,
12,Márton Felber,1999,99.80,185,140,230,555,"Erõtér Powerlifting ""B""",105,SBD,Raw,Team,M,
13,Bence Domonkos Duris,2005,89.25,250,140,270,660,Fõnix Erõemelõ és Szabadidõs SE,93,SBD,Raw,Team,M,
13,Marcell Füzesi,2003,89.25,215,135,265,615,Fõnix Erõemelõ és Szabadidõs SE,93,SBD,Raw,Team,M,
13,Márk Attila Nagy,2001,90.50,200,117.5,230,547.5,Fõnix Erõemelõ és Szabadidõs SE,93,SBD,Raw,Team,M,
13,Ádám Sándor Micskei,2003,80.50,170,100,200,470,Fõnix Erõemelõ és Szabadidõs SE,83,SBD,Raw,Team,M,
13,Béla Hercz,2006,72.50,160,102.5,180,442.5,Fõnix Erõemelõ és Szabadidõs SE,74,SBD,Raw,Team,M,
14,Norbert Ferencz,2007,93.00,217.5,155,240,612.5,Sirius Lifting Székelyek,93,SBD,Raw,Team,M,
14,Norbert Izsák,1998,92.70,212.5,135,240,587.5,Sirius Lifting Székelyek,93,SBD,Raw,Team,M,
14,Ákos Both,2004,92.10,200,127.5,242.5,570,Sirius Lifting Székelyek,93,SBD,Raw,Team,M,
14,Előd Bíró,2004,84.10,195,120,217.5,532.5,Sirius Lifting Székelyek,93,SBD,Raw,Team,M,
14,Hunor Géza Jáno,2007,82.00,190,102.5,200,492.5,Sirius Lifting Székelyek,83,SBD,Raw,Team,M,
15,Mihály Mihaljevic,2004,81.10,205,125,240,570,Sugó Power SE,83,SBD,Raw,Team,M,
15,Dániel Kliegl,2005,71.60,185,112.5,215,512.5,Sugó Power SE,74,SBD,Raw,Team,M,
15,Bence Bacsi,2007,72.00,152.5,95,250,497.5,Sugó Power SE,74,SBD,Raw,Team,M,
15,Gábor Manulek,1994,117.10,245,142.5,235,622.5,Sugó Power SE,120,SBD,Raw,Team,M,
15,János Tamás Zsibrek,1997,65.05,160,90,185,435,Sugó Power SE,66,SBD,Raw,Team,M,
16,Saleh Hamami,2005,103.80,225,140,275,640,Siriusi Ifjak/Migránsok,105,SBD,Raw,Team,M,
16,Zalán Vilmos Váry,2002,90.35,195,150,230,575,Siriusi Ifjak/Migránsok,93,SBD,Raw,Team,M,
16,Barnabás Faragó,2005,101.50,207.5,122.5,220,550,Siriusi Ifjak/Migránsok,105,SBD,Raw,Team,M,
16,Minh Hien Nguyen,2005,70.20,160,100,180,440,Siriusi Ifjak/Migránsok,74,SBD,Raw,Team,M,
16,Lőrinc Kuna,2007,65.20,152.5,87.5,180,420,Siriusi Ifjak/Migránsok,66,SBD,Raw,Team,M,
17,Kristóf Szabó,2005,80.30,240,152.5,240,632.5,Cutler Pulzus Fitness (Jenei),83,SBD,Raw,Team,M,
17,Patrik Balogh,1996,90.10,205,162.5,245,612.5,Cutler Pulzus Fitness (Jenei),93,SBD,Raw,Team,M,
17,Krisztián Bódis,1995,109.35,192.5,140,245,577.5,Cutler Pulzus Fitness (Jenei),120,SBD,Raw,Team,M,
17,Márton István Fülöp,2004,89.20,150,112.5,200,462.5,Cutler Pulzus Fitness (Jenei),93,SBD,Raw,Team,M,
18,Gellért Brúnó Bojtor,2000,101.80,250,180,305,735,Biobuilding SE,105,SBD,Raw,Team,M,
18,Márk Katona,2005,73.30,190,125,215,530,Biobuilding SE,74,SBD,Raw,Team,M,
18,Mark William Mitchell,2006,104.40,210,122.5,245,577.5,Biobuilding SE,105,SBD,Raw,Team,M,
18,Márton Malinics,2006,78.60,145,120,155,420,Biobuilding SE,83,SBD,Raw,Team,M,
19,Zsolt Pupos,1999,77.50,190,152.5,200,542.5,"Powerbuilder SE ""C""",83,SBD,Raw,Team,M,
19,Richárd Bálizs,1996,81.00,185,130,235,550,"Powerbuilder SE ""C""",83,SBD,Raw,Team,M,
19,Róbert Raska,1987,137.25,235,155,280,670,"Powerbuilder SE ""C""",120+,SBD,Raw,Team,M,
19,Áron Csík,1993,71.30,157.5,100,200,457.5,"Powerbuilder SE ""C""",74,SBD,Raw,Team,M,
20,Martin Tóth,1996,90.60,200,130,250,580,"Vasdisznó ""D""",93,SBD,Raw,Team,M,
20,Márk Fehér,1998,110.95,230,147.5,242.5,620,"Vasdisznó ""D""",120,SBD,Raw,Team,M,
20,Dávid József Kiss,2000,80.05,182.5,125,207.5,515,"Vasdisznó ""D""",83,SBD,Raw,Team,M,
20,Roland Szabó,1998,82.80,175,115,225,515,"Vasdisznó ""D""",83,SBD,Raw,Team,M,
21,Alex Sinkovits,1994,93.00,237.5,160,255,652.5,Sirius Lifting Vegyes,93,SBD,Raw,Team,M,
21,János Kocsis,1978,81.40,200,130,235,565,Sirius Lifting Vegyes,83,SBD,Raw,Team,M,
21,Zalán Kelemen,2003,64.70,150,102.5,192.5,445,Sirius Lifting Vegyes,66,SBD,Raw,Team,M,
21,Tamás Baranyai,1988,78.60,140,90,190,420,Sirius Lifting Vegyes,83,SBD,Raw,Team,M,
22,Rajmund Schwarz,2002,77.60,247.5,140,265,652.5,Ducsai Erõemelõ Oskolája 1,83,SBD,Raw,Team,M,
22,Marcell Péter Magyar,1995,105.50,255,152.5,280,687.5,Ducsai Erõemelõ Oskolája 1,120,SBD,Raw,Team,M,
22,Bálint Pozsgai,2001,111.70,242.5,177.5,277.5,697.5,Ducsai Erõemelõ Oskolája 1,120,SBD,Raw,Team,M,
23,Máté Munkás,2001,119.20,280,160,310,750,Bátmonostori Atlas SE.,120,SBD,Raw,Team,M,
23,Zoltán Pinke,1977,116.10,250,165,280,695,Bátmonostori Atlas SE.,120,SBD,Raw,Team,M,
23,Bence Sipos,2003,91.40,220,120,265,605,Bátmonostori Atlas SE.,93,SBD,Raw,Team,M,
24,László Stopka,1989,102.10,195,140,220,555,Fortius Erõemelõ SE.,105,SBD,Raw,Team,M,
24,Maxim Szőnyi,1998,102.85,195,125,205,525,Fortius Erõemelõ SE.,105,SBD,Raw,Team,M,
24,Dávid Ádám #2,2009,64.20,140,82.5,127.5,350,Fortius Erõemelõ SE.,66,SBD,Raw,Team,M,
24,Olivér Hatzl,2009,72.70,125,62.5,125,312.5,Fortius Erõemelõ SE.,74,SBD,Raw,Team,M,
25,Gergő Lajos Kozma,2000,104.55,255,172.5,290,717.5,Ducsai Erõemelõ Oskolája 2,105,SBD,Raw,Team,M,
25,Igor Király,1995,78.40,190,142.5,242.5,575,Ducsai Erõemelõ Oskolája 2,83,SBD,Raw,Team,M,
25,János Fabríció Tichi,2001,88.55,182.5,107.5,195,485,Ducsai Erõemelõ Oskolája 2,93,SBD,Raw,Team,M,
26,Norbert Harangozó,1990,85.00,180,120,220,520,"Erõtér Powerlifting ""C""",93,SBD,Raw,Team,M,
26,Dániel István Boruta,2004,56.50,135,90,182.5,407.5,"Erõtér Powerlifting ""C""",59,SBD,Raw,Team,M,
26,Róbert Lovas,1991,80.80,162.5,115,200,477.5,"Erõtér Powerlifting ""C""",83,SBD,Raw,Team,M,
1,Milán Szabó,2006,56.9,115,80,155,350,JAK,59,SBD,Raw,Sub-Juniors,M,
1,Krisztián Boldizsár,2008,66,140,107.5,214,461.5,Toldi SE,66,SBD,Raw,Sub-Juniors,M,
2,János Kocsis,2006,65,178.5,95,187.5,461,ErõtérPow,66,SBD,Raw,Sub-Juniors,M,
3,Ákos Schwalm,2007,64.8,167.5,105,175,447.5,Vasdisznó,66,SBD,Raw,Sub-Juniors,M,
4,Lázár Tóth,2007,65.6,160,82.5,192.5,435,Vasdisznó,66,SBD,Raw,Sub-Juniors,M,
5,Lőrinc Kuna,2007,65.2,152.5,87.5,180,420,Sirius,66,SBD,Raw,Sub-Juniors,M,
6,Levente Specziár,2009,64.2,147.5,95,170,412.5,ErõtérPow,66,SBD,Raw,Sub-Juniors,M,
7,József Freund,2009,61.3,140,95,165,400,Mérk SE,66,SBD,Raw,Sub-Juniors,M,
8,Bence Róbert Vizi,2007,65.1,135,90,165,390,SugóPower,66,SBD,Raw,Sub-Juniors,M,
9,Benjámin Áron Sánta,2008,61.9,122.5,85,160,367.5,SugóPower,66,SBD,Raw,Sub-Juniors,M,
10,Dávid Ádám #2,2009,64.2,140,82.5,127.5,350,Fortius SE,66,SBD,Raw,Sub-Juniors,M,
11,Csaba Nagy-Kurucz,2008,64.9,100,67.5,120,287.5,Sirius,66,SBD,Raw,Sub-Juniors,M,
1,Bence Bacsi,2007,72,152.5,95,250,497.5,SugóPower,74,SBD,Raw,Sub-Juniors,M,
2,Huba Hajdók,2006,72.2,155,110,217.5,482.5,SugóPower,74,SBD,Raw,Sub-Juniors,M,
3,Béla Hercz,2006,72.5,160,102.5,180,442.5,FõnixSE,74,SBD,Raw,Sub-Juniors,M,
4,Olivér Hatzl,2009,72.7,125,62.5,125,312.5,Fortius SE,74,SBD,Raw,Sub-Juniors,M,
5,Róbert Seres,2009,70.6,100,55,120,275,Jászapáti,74,SBD,Raw,Sub-Juniors,M,
1,Gábor Dóra,2006,80.8,190,130,230,550,JAK,83,SBD,Raw,Sub-Juniors,M,
2,Noah Levente Marussi,2006,81.3,202.5,115,222.5,540,JAK,83,SBD,Raw,Sub-Juniors,M,
3,Hunor Géza Jáno,2007,82,190,102.5,200,492.5,Sirius,83,SBD,Raw,Sub-Juniors,M,
4,Noel Gábor Vajner,2007,79.7,170,107.5,210,487.5,SugóPower,83,SBD,Raw,Sub-Juniors,M,
5,Benjamin Ravadics,2006,81.4,180,115,190,485,Zalaszám,83,SBD,Raw,Sub-Juniors,M,
6,Krisztián Botond Árva,2008,78.8,152.5,102.5,190,445,Sirius,83,SBD,Raw,Sub-Juniors,M,
7,Márton Malinics,2006,78.6,145,120,155,420,Biobuildin,83,SBD,Raw,Sub-Juniors,M,
8,Botond Kottán,2008,81.8,120,70,135,325,Mérk SE,83,SBD,Raw,Sub-Juniors,M,
1,Norbert Ferencz,2007,93,217.5,155,240,612.5,Sirius,93,SBD,Raw,Sub-Juniors,M,
2,Gergely Király,2006,91.6,217.5,127.5,250,595,Westfit,93,SBD,Raw,Sub-Juniors,M,
3,Ákos Ujvári,2006,90.7,220,132.5,237.5,590,BelmeCegl,93,SBD,Raw,Sub-Juniors,M,
4,Imre Kiss,2006,90.1,200,130,257.5,587.5,Mérk SE,93,SBD,Raw,Sub-Juniors,M,
5,Roland Kővári,2007,93,200,140,225,565,Powerbuild,93,SBD,Raw,Sub-Juniors,M,
6,Marcell Barnabás Takács,2006,91.5,200,132.5,225,557.5,Vasdisznó,93,SBD,Raw,Sub-Juniors,M,
7,Gergely Takács,2007,88.1,142.5,110,147.5,400,ErõtérPow,93,SBD,Raw,Sub-Juniors,M,
8,Gábor Pál Vasvári,2006,88.2,127.5,92.5,175,395,ErõtérPow,93,SBD,Raw,Sub-Juniors,M,
9,Csaba Seres,2006,85.7,140,95,150,385,Jászapáti,93,SBD,Raw,Sub-Juniors,M,
10,Péter Király,2006,83.3,135,100,140,375,JAK,93,SBD,Raw,Sub-Juniors,M,
1,Brúnó Szegedi,2006,102.4,205,135,237.5,577.5,Vasdisznó,105,SBD,Raw,Sub-Juniors,M,
2,Mark William Mitchell,2006,104.4,210,122.5,245,577.5,Biobuildin,105,SBD,Raw,Sub-Juniors,M,
1,Péter Holéczy,2006,120,235,150,268,653,Vasdisznó,120,SBD,Raw,Sub-Juniors,M,
2,Gábor József Turi,2006,106.8,230,172,250,652,ErõtérPow,120,SBD,Raw,Sub-Juniors,M,
1,Mátyás Cziczeri,2009,136.9,160,90,172.5,422.5,JAK,120+,SBD,Raw,Sub-Juniors,M,
1,Dániel István Boruta,2004,56.5,135,90,182.5,407.5,ErõtérPow,59,SBD,Raw,Juniors,M,
2,Milán Szabó,2006,56.9,115,80,155,350,JAK,59,SBD,Raw,Juniors,M,
1,Dániel Sajben,2006,62.1,165,112.5,200,477.5,BcsSúlySza,66,SBD,Raw,Juniors,M,
2,Zalán Kelemen,2003,64.7,150,102.5,192.5,445,Sirius,66,SBD,Raw,Juniors,M,
3,Lőrinc Juhász,2004,66,160,102.5,182.5,445,TabiFK,66,SBD,Raw,Juniors,M,
4,Levente Ákos Vajda,2005,65.9,127.5,105,170,402.5,Vasdisznó,66,SBD,Raw,Juniors,M,
5,József Freund,2009,61.3,140,95,165,400,Mérk SE,66,SBD,Raw,Juniors,M,
1,Ádám Dániel Hubert,2005,73.1,245,127.5,280,652.5,BarbellBun,74,SBD,Raw,Juniors,M,
2,Márk Katona,2005,73.3,190,125,215,530,Biobuildin,74,SBD,Raw,Juniors,M,
3,Dominik Gergely,2002,73.8,170,135,220,525,Vasdisznó,74,SBD,Raw,Juniors,M,
4,Dániel Kliegl,2005,71.6,185,112.5,215,512.5,SugóPower,74,SBD,Raw,Juniors,M,
5,Balázs Borbély,2004,72.9,180,107.5,200,487.5,Powerbuild,74,SBD,Raw,Juniors,M,
6,József Farkasdi,2005,71.3,157.5,105,195,457.5,RKA Erõm.,74,SBD,Raw,Juniors,M,
7,Minh Hien Nguyen,2005,70.2,160,100,180,440,Sirius,74,SBD,Raw,Juniors,M,
8,Botond Gábor Szabó,2005,69.5,145,102.5,165,412.5,Powerbuild,74,SBD,Raw,Juniors,M,
1,Rajmund Schwarz,2002,77.6,247.5,140,265,652.5,DucsaiSzeg,83,SBD,Raw,Juniors,M,
2,Márton Varga,2003,82.2,245,145,250,640,Vasdisznó,83,SBD,Raw,Juniors,M,
3,Kristóf Szabó,2005,80.3,240,152.5,240,632.5,CutlerJene,83,SBD,Raw,Juniors,M,
4,Patrik Somkereki,2004,81.4,245,122.5,247.5,615,Zalaszám,83,SBD,Raw,Juniors,M,
5,Gergő Áron Racskó,2003,82.4,205,150,230,585,ErõtérPow,83,SBD,Raw,Juniors,M,
6,Mihály Mihaljevic,2004,81.1,205,125,240,570,SugóPower,83,SBD,Raw,Juniors,M,
7,Mihály Simán,2002,82.3,190,135,240,565,Hagyma ZSE,83,SBD,Raw,Juniors,M,
8,Mátyás Patkó,2002,77.5,200,127.5,230,557.5,Powerbuild,83,SBD,Raw,Juniors,M,
9,Gábor Dóra,2006,80.8,190,130,230,550,JAK,83,SBD,Raw,Juniors,M,
10,Zoltán IfjNagy,2004,79.6,192.5,132.5,220,545,TabiFK,83,SBD,Raw,Juniors,M,
11,Botond Biebel,2003,81.4,180,140,225,545,Sirius,83,SBD,Raw,Juniors,M,
12,Noah Levente Marussi,2006,81.3,202.5,115,222.5,540,JAK,83,SBD,Raw,Juniors,M,
13,Gergely Boldizsár,2005,81,190,130,215,535,Vasdisznó,83,SBD,Raw,Juniors,M,
14,Dávid Bogner,2001,80.8,185,127.5,215,527.5,Powerbuild,83,SBD,Raw,Juniors,M,
15,Richárd Káli,2005,81.5,190,102.5,200,492.5,BarbellBun,83,SBD,Raw,Juniors,M,
16,Ádám Sándor Micskei,2003,80.5,170,100,200,470,FõnixSE,83,SBD,Raw,Juniors,M,
17,Simon Petrik,2004,82.2,165,97.5,190,452.5,BarbellBun,83,SBD,Raw,Juniors,M,
18,Gergő Nagy,2004,80.8,155,95,195,445,BarbellBun,83,SBD,Raw,Juniors,M,
19,Pál Csoh,2002,75.1,170,90,180,440,BelmeCegl,83,SBD,Raw,Juniors,M,
20,Ákos Szécsi,2005,82.8,145,67.5,170,382.5,ErõtérPow,83,SBD,Raw,Juniors,M,
DQ,Dániel Bistyák,2005,76.7,150,,175,,Sirius,83,SBD,Raw,Juniors,M,
1,András Gerlai,2002,90.95,245,182.5,270,697.5,BarbellBun,93,SBD,Raw,Juniors,M,
2,Tamás Levente Tóth,2001,91.65,240,177.5,250,667.5,Sirius,93,SBD,Raw,Juniors,M,
3,Bence Domonkos Duris,2005,89.25,250,140,270,660,FõnixSE,93,SBD,Raw,Juniors,M,
4,Ármin Gaál,2003,89.3,210,152.5,275,637.5,Powerbuild,93,SBD,Raw,Juniors,M,
5,Marcell Füzesi,2003,89.25,215,135,265,615,FõnixSE,93,SBD,Raw,Juniors,M,
6,Máté Erik Nagy,2003,90.95,242.5,120,252.5,615,BarbellBun,93,SBD,Raw,Juniors,M,
7,Barnabás Németh,2003,90.8,220,125,265,610,ErõtérPow,93,SBD,Raw,Juniors,M,
8,Dávid Wiemann,2005,91.15,220,140,250,610,Powerbuild,93,SBD,Raw,Juniors,M,
9,Norbert Andor Dobány,2004,88.7,212.5,130,262.5,605,ErõtérPow,93,SBD,Raw,Juniors,M,
10,Bence Sipos,2003,91.4,220,120,265,605,BátmonAtl,93,SBD,Raw,Juniors,M,
11,Alex Kozma,2003,91.5,230,135,240,605,BarbellBun,93,SBD,Raw,Juniors,M,
12,Vince Muraközi,2002,91.95,205,150,237.5,592.5,Nememberek,93,SBD,Raw,Juniors,M,
13,Adam Kovács,2003,89.75,205,127.5,252.5,585,Sirius,93,SBD,Raw,Juniors,M,
14,Kornél Kalmár,2003,90.8,235,127.5,220,582.5,BarbellBun,93,SBD,Raw,Juniors,M,
15,Zalán Vilmos Váry,2002,90.35,195,150,230,575,Sirius,93,SBD,Raw,Juniors,M,
16,Barna Mikler,2002,90.6,197.5,140,235,572.5,Powerbuild,93,SBD,Raw,Juniors,M,
17,Ákos Both,2004,92.1,200,127.5,242.5,570,Sirius,93,SBD,Raw,Juniors,M,
18,Dániel Német,2001,91.45,210,120,235,565,BarbellBun,93,SBD,Raw,Juniors,M,
19,Áron Hegedűs #2,2002,88.85,195,130,227.5,552.5,Vasdisznó,93,SBD,Raw,Juniors,M,
20,Márk Attila Nagy,2001,90.5,200,117.5,230,547.5,FõnixSE,93,SBD,Raw,Juniors,M,
21,Előd Bíró,2004,84.1,195,120,217.5,532.5,Sirius,93,SBD,Raw,Juniors,M,
22,Márk Levente Hegedűs,2003,91.5,190,125,215,530,Westfit,93,SBD,Raw,Juniors,M,
23,Dániel Sterbik,2005,90.1,200,110,207.5,517.5,BarbellBun,93,SBD,Raw,Juniors,M,
24,Benedek Tóth,2005,91.95,185,110,220,515,Powerbuild,93,SBD,Raw,Juniors,M,
25,Balázs Nemes,2001,91.95,180,112.5,210,502.5,Vasdisznó,93,SBD,Raw,Juniors,M,
26,Ábel Gergely Tóth,2005,88.85,185,107.5,200,492.5,Vasdisznó,93,SBD,Raw,Juniors,M,
27,Máté Bilicki,2005,91.95,160,125,205,490,BarbellBun,93,SBD,Raw,Juniors,M,
28,János Fabríció Tichi,2001,88.55,182.5,107.5,195,485,DucsaiSzeg,93,SBD,Raw,Juniors,M,
29,Máté Vereckei,2001,92.7,140,115,207.5,462.5,Powerbuild,93,SBD,Raw,Juniors,M,
DQ,Gál Péter Molnár,2002,92.55,190,,,,Powerbuild,93,SBD,Raw,Juniors,M,
1,Olivér Susa,2004,102.9,270,230,290,790,Vasdisznó,105,SBD,Raw,Juniors,M,
2,Máté Gábor Király,2003,103.3,262.5,200,270,732.5,BarbellBun,105,SBD,Raw,Juniors,M,
3,Gergő Nagy,2001,102.9,252.5,150,295,697.5,Vasdisznó,105,SBD,Raw,Juniors,M,
4,Balázs Sebestyén Patka,2002,102.1,255,165,275,695,RKA Erõm.,105,SBD,Raw,Juniors,M,
5,Tamás Zalán Péter,2002,96.2,240,160,270,670,Sirius,105,SBD,Raw,Juniors,M,
6,Saleh Hamami,2005,103.8,225,140,275,640,Sirius,105,SBD,Raw,Juniors,M,
7,Bálint Hajdu,2001,102.5,230,155,250,635,Vasdisznó,105,SBD,Raw,Juniors,M,
8,Dávid Simon,2001,102.6,205,147.5,280,632.5,BarbellBun,105,SBD,Raw,Juniors,M,
9,Milán Sándor Takács,2004,94.2,220,150,240,610,Vasdisznó,105,SBD,Raw,Juniors,M,
10,Dominik Kovács,2001,100.7,220,152.5,235,607.5,Powerbuild,105,SBD,Raw,Juniors,M,
11,Marcell Ferenczi,2005,98.7,202.5,137.5,260,600,4%SE,105,SBD,Raw,Juniors,M,
12,Kevin Csille,2004,104.1,202.5,165,220,587.5,BarbellBun,105,SBD,Raw,Juniors,M,
13,Boldizsár Nagy,2005,100.5,205,155,205,565,Vasdisznó,105,SBD,Raw,Juniors,M,
14,Barnabás Faragó,2005,101.5,207.5,122.5,220,550,Sirius,105,SBD,Raw,Juniors,M,
15,Balázs Kárpáti,2005,103.4,190,132.5,212.5,535,Zalaszám,105,SBD,Raw,Juniors,M,
16,István Kovács,2001,99.9,180,120,215,515,Vasdisznó,105,SBD,Raw,Juniors,M,
17,Máté Zsolt Kiss-Szigeti,2005,97.1,190,105,205,500,ErõtérPow,105,SBD,Raw,Juniors,M,
18,Gergő Rakos,2003,100.5,175,115,200,490,Hagyma ZSE,105,SBD,Raw,Juniors,M,
19,Mihály Dán,2005,102.7,175,127.5,185,487.5,Vasdisznó,105,SBD,Raw,Juniors,M,
20,Márk Kovács,2005,104.2,160,100,210,470,Vasdisznó,105,SBD,Raw,Juniors,M,
1,Máté Munkás,2001,119.2,280,160,310,750,BátmonAtl,120,SBD,Raw,Juniors,M,
2,Dániel Attila Nagy,2002,111.8,280,177.5,290,747.5,ErõtérPow,120,SBD,Raw,Juniors,M,
3,Bálint Pozsgai,2001,111.7,242.5,177.5,277.5,697.5,DucsaiSzeg,120,SBD,Raw,Juniors,M,
4,Tamás Lakó,2005,105.2,265,165,265,695,Vasdisznó,120,SBD,Raw,Juniors,M,
5,Viktor Félix Fejes,2002,114.5,180,190,220,590,BelmeCegl,120,SBD,Raw,Juniors,M,
6,József Csinos-Kovács,2001,117.5,212.5,110,210,532.5,BelmeCegl,120,SBD,Raw,Juniors,M,
7,Zsombor Méder-Böjthe,2005,116.9,180,120,172.5,472.5,Powerbuild,120,SBD,Raw,Juniors,M,
1,Mátyás Cziczeri,2009,136.9,160,90,172.5,422.5,JAK,120+,SBD,Raw,Juniors,M,
1,Krisztián Lábas,1979,65.1,150,130,180,460,MozogjBátr,66,SBD,Raw,Masters 1,M,
1,Péter Hornyák,1979,82.4,205,150,245,600,Sirius,83,SBD,Raw,Masters 1,M,
2,János Kocsis,1978,81.4,200,130,235,565,Sirius,83,SBD,Raw,Masters 1,M,
3,Péter Elek Karacs,1977,82.3,192.5,145,205,542.5,TIFIT,83,SBD,Raw,Masters 1,M,
4,Imre Viktor Gaál,1977,81.6,195,120,210,525,BelmeCegl,83,SBD,Raw,Masters 1,M,
5,Attila Juhász #2,1981,82.2,187.5,115,217.5,520,Jászapáti,83,SBD,Raw,Masters 1,M,
1,Kelemen Richárd,1975,92.2,172.5,155,235,562.5,RKA Erõm.,93,SBD,Raw,Masters 1,M,
2,István Szegi,1981,90.8,185,125,200,510,ErõtérPow,93,SBD,Raw,Masters 1,M,
3,Tamás Kun,1979,92.1,170,112.5,205,487.5,CutlerJene,93,SBD,Raw,Masters 1,M,
4,Balázs Budai,1979,93,170,115,200,485,TIFIT,93,SBD,Raw,Masters 1,M,
5,Zsolt Béres,1978,84.1,175,90,210,475,Jászapáti,93,SBD,Raw,Masters 1,M,
1,Ádám Õzse,1980,101.6,220,150,275,645,Powerbuild,105,SBD,Raw,Masters 1,M,
2,Róbert Kornél Tóth,1975,101.8,195,140,230,565,Powerbuild,105,SBD,Raw,Masters 1,M,
3,Zsolt Viktór Szabó,1976,93.5,192.5,127.5,230,550,Sirius,105,SBD,Raw,Masters 1,M,
4,Gábor Szabó,1975,100.1,180,120,245,545,GrubersGym,105,SBD,Raw,Masters 1,M,
1,Zoltán Pinke,1977,116.1,250,165,280,695,BátmonAtl,120,SBD,Raw,Masters 1,M,
2,György Lesták,1978,119.2,212.5,147.5,250,610,Powerbuild,120,SBD,Raw,Masters 1,M,
3,László Lakatos,1976,116.6,170,145,210,525,Sirius,120,SBD,Raw,Masters 1,M,
1,Zsolt Papp,1979,147.5,280,145,280,705,Powerbuild,120+,SBD,Raw,Masters 1,M,
1,István Varga,1968,71.4,150,120,202.5,472.5,Nememberek,74,SBD,Raw,Masters 2,M,
2,Attila Veinémer,1973,74,155,112.5,180,447.5,MozogjBátr,74,SBD,Raw,Masters 2,M,
1,Zoltán Gerlai,1971,81.7,192.5,107.5,210,510,BarbellBun,83,SBD,Raw,Masters 2,M,
1,Attila Árvai,1967,96.8,157.5,107.5,175,440,Powerbuild,105,SBD,Raw,Masters 2,M,
1,István Bodnár,1965,161,200,160,200,560,Toldi SE,120+,SBD,Raw,Masters 2,M,
1,Istvan Orsos,1961,80.5,155,75,160,390,SugóPower,83,SBD,Raw,Masters 3,M,
2,János Pluhár,1960,82.1,115,90,135,340,BcsSúlySza,83,SBD,Raw,Masters 3,M,
1,László Zöld,1958,90.6,215,105,210,530,Európa2024,93,SBD,Raw,Masters 3,M,
1,Aletta Rozsnyai-Kovács,1999,67.90,175.5,125.5,182.5,483.5,"Vasdisznó ""A""",69,SBD,Raw,Team,F,
1,Krisztina Lilla Dékány,1998,75.10,165,92.5,180,437.5,"Vasdisznó ""A""",76,SBD,Raw,Team,F,
1,Ramóna Kelemen,1995,75.80,165,110.5,162.5,438,"Vasdisznó ""A""",76,SBD,Raw,Team,F,
1,Csilla Ruzsa,1995,62.90,142.5,90,155,387.5,"Vasdisznó ""A""",63,SBD,Raw,Team,F,
1,Felicita Susa,1994,64.00,152.5,85,147.5,385,"Vasdisznó ""A""",69,SBD,Raw,Team,F,
2,Fawal Margit Lehóczkyné,1988,52.35,147.5,95,172.5,415,"Powerbuilder SE ""A""",57,SBD,Raw,Team,F,
2,Boglárka Bóta,2000,81.10,162.5,97.5,185,445,"Powerbuilder SE ""A""",84,SBD,Raw,Team,F,
2,Patrícia Holbigh,2001,66.05,137.5,87.5,150,375,"Powerbuilder SE ""A""",69,SBD,Raw,Team,F,
2,Enikő Hódi,1992,55.80,117.5,67.5,147.5,332.5,"Powerbuilder SE ""A""",57,SBD,Raw,Team,F,
2,Réka Babarczi-Fábián,1994,68.80,127.5,72.5,170,370,"Powerbuilder SE ""A""",69,SBD,Raw,Team,F,
3,Tóth Viktória Flávia,1997,56.90,144,90,172.5,406.5,"Erõtér Powerlifting ""A""",57,SBD,Raw,Team,F,
3,Enikő Tóth,1998,75.80,172.5,105,205,482.5,"Erõtér Powerlifting ""A""",76,SBD,Raw,Team,F,
3,Nikolett Arany,1994,79.20,157.5,102.5,175,435,"Erõtér Powerlifting ""A""",84,SBD,Raw,Team,F,
3,Anikó Serdült,1999,111.70,155,100,185,440,"Erõtér Powerlifting ""A""",84+,SBD,Raw,Team,F,
3,Renáta Lívia Jagos,1987,68.70,117.5,67.5,142.5,327.5,"Erõtér Powerlifting ""A""",69,SBD,Raw,Team,F,
4,Anett Kiss,1976,62.20,138,80,188,406,Barbell Bunker SE,63,SBD,Raw,Team,F,
4,Kincső Dóra,2007,50.60,112.5,67.5,142.5,322.5,Barbell Bunker SE,52,SBD,Raw,Team,F,
4,Dorina Vivien Murányi,2004,75.35,132.5,90,167.5,390,Barbell Bunker SE,76,SBD,Raw,Team,F,
4,Zsófia Bedi,2004,56.25,117.5,65,130,312.5,Barbell Bunker SE,57,SBD,Raw,Team,F,
4,Zsófia Inoka,1994,65.75,127.5,70,142.5,340,Barbell Bunker SE,69,SBD,Raw,Team,F,
5,Blanka Gál-Molnár,2005,74.85,165,80,162.5,407.5,"Vasdisznó ""B""",76,SBD,Raw,Team,F,
5,Anna Sashegyi,1973,78.40,148,85,180,413,"Vasdisznó ""B""",84,SBD,Raw,Team,F,
5,Barbara Bodrogi,1990,72.00,132.5,75,165,372.5,"Vasdisznó ""B""",76,SBD,Raw,Team,F,
5,Dorina Jelenek,2007,61.90,130,72.5,135,337.5,"Vasdisznó ""B""",63,SBD,Raw,Team,F,
5,Renáta Sófalvi,1996,83.20,145,80,155,380,"Vasdisznó ""B""",84,SBD,Raw,Team,F,
6,Szonja Balogh,2003,83.40,150,85,167.5,402.5,Cutler Pulzus Fitness (Jenei),84,SBD,Raw,Team,F,
6,Petra Tamás,1996,55.40,120,60,137.5,317.5,Cutler Pulzus Fitness (Jenei),57,SBD,Raw,Team,F,
6,Eszter Tomacsek,2006,64.70,130,77.5,140,347.5,Cutler Pulzus Fitness (Jenei),69,SBD,Raw,Team,F,
6,Evelyn Ivett Kocsán,1995,70.20,130,65,160,355,Cutler Pulzus Fitness (Jenei),76,SBD,Raw,Team,F,
6,Dóra Kinga Németh,2003,56.00,110,65,127.5,302.5,Cutler Pulzus Fitness (Jenei),57,SBD,Raw,Team,F,
7,Panna Rózsás,2001,67.95,140,72.5,157.5,370,"Powerbuilder SE ""B""",69,SBD,Raw,Team,F,
7,Viktória Varga,1998,53.75,115,52.5,145,312.5,"Powerbuilder SE ""B""",57,SBD,Raw,Team,F,
7,Zsófia Práger,1998,83.30,145,85,162.5,392.5,"Powerbuilder SE ""B""",84,SBD,Raw,Team,F,
7,Lilla Emília Lovas,1999,62.95,117.5,62.5,150,330,"Powerbuilder SE ""B""",63,SBD,Raw,Team,F,
7,Csenge Tóth,1996,68.90,135,65,142.5,342.5,"Powerbuilder SE ""B""",69,SBD,Raw,Team,F,
8,Lászlóné Farkas,1967,68.80,125,73,135,333,Fortius Erõemelõ SE.,69,SBD,Raw,Team,F,
8,Anita Várkonyi,1978,68.60,117.5,57.5,130,305,Fortius Erõemelõ SE.,69,SBD,Raw,Team,F,
8,Ilona Hatzl,1972,68.20,110,45,130,285,Fortius Erõemelõ SE.,69,SBD,Raw,Team,F,
8,Anna Cseh,2004,69.00,95,57.5,130,282.5,Fortius Erõemelõ SE.,69,SBD,Raw,Team,F,
8,Viktória Kovács,1989,69.40,90,47.5,110,247.5,Fortius Erõemelõ SE.,76,SBD,Raw,Team,F,
9,Réka Szabó,1988,66.05,140,82.5,160,382.5,Westfit GYM SE,69,SBD,Raw,Team,F,
9,Laura Györe,1999,67.60,130,65,170,365,Westfit GYM SE,69,SBD,Raw,Team,F,
9,Janka Józsa,1988,56.85,117.5,60,120,297.5,Westfit GYM SE,57,SBD,Raw,Team,F,
9,Dóra Balogh,2000,67.40,115,52.5,130,297.5,Westfit GYM SE,69,SBD,Raw,Team,F,
10,Boglárka Trencsényi,2007,83.20,150,67.5,160,377.5,"Vasdisznó ""C""",84,SBD,Raw,Team,F,
10,Emese Tomsics,2006,64.80,120,82.5,122.5,325,"Vasdisznó ""C""",69,SBD,Raw,Team,F,
10,Iona Flóra Ferguson,2004,61.90,107.5,65,120,292.5,"Vasdisznó ""C""",63,SBD,Raw,Team,F,
10,Nóra Viola,2002,62.60,100,52.5,132.5,285,"Vasdisznó ""C""",63,SBD,Raw,Team,F,
11,Zsófia Gáncs,1989,65.80,130,75,132.5,337.5,"Erõtér Powerlifting ""B""",69,SBD,Raw,Team,F,
11,Zsófia Keszeli,2004,80.45,137.5,67.5,150,355,"Erõtér Powerlifting ""B""",84,SBD,Raw,Team,F,
11,Zsófia Balog,1992,88.20,145,72.5,142.5,360,"Erõtér Powerlifting ""B""",84+,SBD,Raw,Team,F,
11,Emese Buczó,1999,75.50,100,67.5,130,297.5,"Erõtér Powerlifting ""B""",76,SBD,Raw,Team,F,
12,Éva Suszterics,1972,55.70,82.5,50,105,237.5,Belme Ceglédi Erõemelõ SE,57,SBD,Raw,Team,F,
12,Barbara Belme,2005,97.65,112.5,70,127.5,310,Belme Ceglédi Erõemelõ SE,84+,SBD,Raw,Team,F,
12,Zita Mari,2005,62.75,90,55,107.5,252.5,Belme Ceglédi Erõemelõ SE,63,SBD,Raw,Team,F,
12,Nelli Belme,2002,56.90,80,42.5,100,222.5,Belme Ceglédi Erõemelõ SE,57,SBD,Raw,Team,F,
1,Fanni Zsarnai,2010,43.1,70,42.5,90.5,203,Mérk SE,47,SBD,Raw,Sub-Juniors,F,
1,Kincső Dóra,2007,50.6,112.5,67.5,142.5,322.5,BarbellBun,52,SBD,Raw,Sub-Juniors,F,
1,Kamilla Diána Bognár,2009,55.8,123,70,127.5,320.5,Powerbuild,57,SBD,Raw,Sub-Juniors,F,
2,Katinka Kriller,2007,55.8,110,75,135,320,Biobuildin,57,SBD,Raw,Sub-Juniors,F,
3,Noémi Farkas,2008,54.2,45,27.5,65,137.5,Jászapáti,57,SBD,Raw,Sub-Juniors,F,
1,Dorina Jelenek,2007,61.9,130,72.5,135,337.5,Vasdisznó,63,SBD,Raw,Sub-Juniors,F,
2,Zsófia Angster,2006,62.4,102.5,67.5,137.5,307.5,Powerbuild,63,SBD,Raw,Sub-Juniors,F,
3,Elizabet Varga,2007,61.8,110,57.5,130,297.5,SugóPower,63,SBD,Raw,Sub-Juniors,F,
4,Beatrix Szűcs,2007,58.6,70,37.5,75,182.5,Egyetértés,63,SBD,Raw,Sub-Juniors,F,
1,Eszter Tomacsek,2006,64.7,130,77.5,140,347.5,CutlerJene,69,SBD,Raw,Sub-Juniors,F,
2,Emese Tomsics,2006,64.8,120,82.5,122.5,325,Vasdisznó,69,SBD,Raw,Sub-Juniors,F,
3,Lili Czibere,2008,66.5,135,67.5,120,322.5,FõnixSE,69,SBD,Raw,Sub-Juniors,F,
4,Janka Luca Nováky,2007,68.5,87.5,47.5,105,240,Hagyma ZSE,69,SBD,Raw,Sub-Juniors,F,
1,Boglárka Trencsényi,2007,83.2,150,67.5,160,377.5,Vasdisznó,84,SBD,Raw,Sub-Juniors,F,
1,Barbara Babinszki,2008,108.5,157.5,75,165,397.5,BcsSúlySza,84+,SBD,Raw,Sub-Juniors,F,
2,Noémi Anna Mucsi,2008,117.4,142.5,75,157.5,375,BcsSúlySza,84+,SBD,Raw,Sub-Juniors,F,
3,Bianka Németh,2006,85.6,110,75,170,355,BarbellBun,84+,SBD,Raw,Sub-Juniors,F,
1,Zsanett Horváth,2003,41.8,95,43,112.5,250.5,4%SE,43,SBD,Raw,Juniors,F,
1,Fanni Zsarnai,2010,43.1,70,42.5,90.5,203,Mérk SE,47,SBD,Raw,Juniors,F,
1,Katinka Kriller,2007,55.8,110,75,135,320,Biobuildin,57,SBD,Raw,Juniors,F,
2,Zsófia Bedi,2004,56.25,117.5,65,130,312.5,BarbellBun,57,SBD,Raw,Juniors,F,
3,Vanda Deme,2005,56.95,97.5,62.5,132.5,292.5,RKA Erõm.,57,SBD,Raw,Juniors,F,
4,Dóra Goszták,2005,56.1,105,45,127.5,277.5,4%SE,57,SBD,Raw,Juniors,F,
5,Dorina Burkovics,2005,56.7,80,50,105,235,Powerbuild,57,SBD,Raw,Juniors,F,
6,Nelli Belme,2002,56.9,80,42.5,100,222.5,BelmeCegl,57,SBD,Raw,Juniors,F,
1,Gréta Szőke,2001,61.5,107.5,72.5,127.5,307.5,DucsaiSzeg,63,SBD,Raw,Juniors,F,
2,Iona Flóra Ferguson,2004,61.9,107.5,65,120,292.5,Vasdisznó,63,SBD,Raw,Juniors,F,
3,Nóra Viola,2002,62.8,100,52.5,132.5,285,Vasdisznó,63,SBD,Raw,Juniors,F,
4,Zita Mari,2005,62.75,90,55,107.5,252.5,BelmeCegl,63,SBD,Raw,Juniors,F,
1,Patrícia Holbigh,2001,66.05,137.5,87.5,150,375,Powerbuild,69,SBD,Raw,Juniors,F,
2,Réka Nagy,2003,67.55,130,75,167.5,372.5,RKA Erõm.,69,SBD,Raw,Juniors,F,
3,Panna Rózsás,2001,67.95,140,72.5,157.5,370,Powerbuild,69,SBD,Raw,Juniors,F,
4,Monika Eszter Zilinsky,2003,67.8,122.5,62.5,150,335,DucsaiSzeg,69,SBD,Raw,Juniors,F,
5,Anna Marton,2002,58.35,135,60,137.5,332.5,BarbellBun,63,SBD,Raw,Juniors,F,
6,Dóra Rita Horváth,2003,65.7,102.5,62.5,150,315,GrubersGym,69,SBD,Raw,Juniors,F,
7,Anna Cseh,2004,69,95,57.5,130,282.5,Fortius SE,69,SBD,Raw,Juniors,F,
8,Dorina Veinémer,2003,66.4,97.5,62.5,107.5,267.5,MozogjBátr,69,SBD,Raw,Juniors,F,
9,Petra Petrovics,2003,68.1,100,47.5,115,262.5,Powerbuild,69,SBD,Raw,Juniors,F,
10,Beatrix Béres,2002,64.95,87.5,50,102.5,240,Jászapáti,69,SBD,Raw,Juniors,F,
1,Blanka Gál-Molnár,2005,74.85,165,80,162.5,407.5,Vasdisznó,76,SBD,Raw,Juniors,F,
2,Dorina Vivien Murányi,2004,75.35,132.5,90,167.5,390,BarbellBun,76,SBD,Raw,Juniors,F,
1,Dorka Pál,2007,78.5,162.5,70,180,412.5,Mérk SE,84,SBD,Raw,Juniors,F,
2,Szonja Balogh,2003,83.4,150,85,167.5,402.5,CutlerJene,84,SBD,Raw,Juniors,F,
3,Regina Petri,2005,80.4,130,67.5,175,372.5,BcsSúlySza,84,SBD,Raw,Juniors,F,
4,Zsófia Keszeli,2004,80.45,137.5,67.5,150,355,ErõtérPow,84,SBD,Raw,Juniors,F,
5,Katalin Hunyás,2001,81.65,125,70,152.5,347.5,Powerbuild,84,SBD,Raw,Juniors,F,
6,Annabella Debreczeni-Kiss,2001,81.55,125,62.5,145,332.5,Powerbuild,84,SBD,Raw,Juniors,F,
7,Angelika Farkas,2003,82,92.5,45,100,237.5,Jászapáti,84,SBD,Raw,Juniors,F,
1,Barbara Belme,2005,97.65,112.5,70,127.5,310,BelmeCegl,84+,SBD,Raw,Juniors,F,
1,Barbara Balázs,1982,56.1,95,57.5,130,282.5,BarbellBun,57,SBD,Raw,Masters 1,F,
2,Eszter Márta Szász,1976,55.2,60,40,102.5,202.5,Nememberek,57,SBD,Raw,Masters 1,F,
1,Anett Kiss,1976,62.2,138,80,188,406,BarbellBun,63,SBD,Raw,Masters 1,F,
2,Veronika Lesták,1978,59.1,102.5,52.5,125,280,Powerbuild,63,SBD,Raw,Masters 1,F,
1,Orsolya Kajtár,1975,82.4,132.5,75,165,372.5,THORSE,84,SBD,Raw,Masters 1,F,
2,Ágnes Tolnai,1979,83.1,130,80,150,360,Powerbuild,84,SBD,Raw,Masters 1,F,
1,Csilla Béres,1983,66.3,97.5,80,127.5,305,Jászapáti,69,SBD,Raw,Masters 1,F,
2,Anita Várkonyi,1978,68.6,117.5,57.5,130,305,Fortius SE,69,SBD,Raw,Masters 1,F,
3,Barbara Abonyi,1984,67.6,100,52.5,125,277.5,Powerbuild,69,SBD,Raw,Masters 1,F,
DQ,Orsolya Kis,1977,63.9,,60,117.5,,Sirius,69,SBD,Raw,Masters 1,F,
DQ,Kecskés Judit Siposné,1984,73.4,,50,110,,BelmeCegl,76,SBD,Raw,Masters 1,F,
1,Márta Katona,1970,54.6,103,40,145.5,288.5,HerkulesSE,57,SBD,Raw,Masters 2,F,
2,Éva Suszterics,1972,55.7,82.5,50,105,237.5,BelmeCegl,57,SBD,Raw,Masters 2,F,
1,Tünde Rákos,1974,61.4,77.5,45,112.5,235,Sirius,63,SBD,Raw,Masters 2,F,
1,Anna Sashegyi,1973,78.4,148,85,180,413,Vasdisznó,84,SBD,Raw,Masters 2,F,
1,Lászlóné Farkas,1967,68.8,125,73,135,333,Fortius SE,69,SBD,Raw,Masters 2,F,
2,Tímea Maksa,1972,68.7,100,50,137.5,287.5,TabiFK,69,SBD,Raw,Masters 2,F,
3,Ilona Hatzl,1972,68.2,110,45,130,285,Fortius SE,69,SBD,Raw,Masters 2,F,
