Division,WeightClassKg,Place,Name,Team,BodyweightKg,Best3SquatKg,Best3BenchKg,Best3DeadliftKg,TotalKg,Equipment,Event,Sex
Boys,51.71,1,Jason Nguyen,Oakridge School,50.8,154.22,74.84,158.76,387.82,Single-ply,SBD,M
Boys,55.79,2,Nick Henderson,Waxahachie,51.94,117.93,58.97,138.35,315.25,Single-ply,SBD,M
Boys,51.71,3,Junior Chavez,Waxahachie,48.08,90.72,56.7,111.13,258.55,Single-ply,SBD,M
Boys,51.71,4,Carl Shehane,Quinlan Ford,51.71,,47.63,90.72,138.35,Single-ply,BD,M
Boys,55.79,1,Oscar Perez #4,Venus,54.66,165.56,92.99,170.1,428.64,Single-ply,SBD,M
Boys,55.79,2,Alejandro Cosio,Fort Worth North Side,55.79,147.42,70.31,161.03,378.75,Single-ply,SBD,M
Boys,55.79,3,Elliot Stone #2,Dallas Jesuit,54.66,133.81,74.84,142.88,351.53,Single-ply,SBD,M
Boys,55.79,4,Brandon McKee,Cedar Hill,54.66,102.06,61.23,95.25,258.55,Single-ply,SBD,M
Boys,55.79,5,Alex Schaefer,Venus,52.84,90.72,52.16,,142.88,Single-ply,SB,M
Boys,59.87,1,Jorge Perez,Venus,59.65,190.51,92.99,179.17,462.66,Single-ply,SBD,M
Boys,59.87,2,Edgar Carrera,Ennis,59.65,161.03,92.99,154.22,408.23,Single-ply,SBD,M
Boys,59.87,3,Nahum Ferretiz,Bishop Lynch,58.97,127.01,74.84,149.69,351.53,Single-ply,SBD,M
Boys,59.87,4,Gabe Alexander,Waxahachie,59.42,120.2,61.23,136.08,317.51,Single-ply,SBD,M
Boys,59.87,5,Gio Landarverde,Quinlan Ford,57.83,88.45,49.9,92.99,231.33,Single-ply,SBD,M
Boys,59.87,6,Daniel Rodriguez #12,Fort Worth Paschal,59.87,,61.23,163.29,224.53,Single-ply,BD,M
Boys,67.13,1,Chris Hernandez,Venus,66.45,204.12,120.2,213.19,537.51,Single-ply,SBD,M
Boys,67.13,2,Sean Pobst,Quinlan Ford,67.13,188.24,104.33,208.65,501.22,Single-ply,SBD,M
Boys,67.13,3,Tommy Martinez,Midlothian,66.9,190.51,113.4,188.24,492.15,Single-ply,SBD,M
Boys,67.13,4,Mark Vasquez,Ennis,66,158.76,99.79,181.44,439.98,Single-ply,SBD,M
Boys,67.13,5,Ike Montemayor,Ennis,63.28,167.83,90.72,174.63,433.18,Single-ply,SBD,M
Boys,67.13,6,Fletcher Kerr,Dallas Jesuit,66.45,142.88,97.52,161.03,401.43,Single-ply,SBD,M
Boys,67.13,7,Jerrod Bedford,Cedar Hill,63.28,161.03,74.84,154.22,390.09,Single-ply,SBD,M
Boys,67.13,8,Kevin Washington,Cedar Hill,64.18,149.69,81.65,149.69,381.02,Single-ply,SBD,M
Boys,67.13,9,Wrangler Welch,Quinlan Ford,61.46,131.54,68.04,149.69,349.27,Single-ply,SBD,M
Boys,67.13,10,Jacob Fielder,Oakridge School,63.96,113.4,70.31,136.08,319.78,Single-ply,SBD,M
Boys,67.13,11,Garrett McGuire,Cedar Hill,62.37,120.2,65.77,122.47,308.44,Single-ply,SBD,M
Boys,67.13,12,Martin Hernandez #2,Venus,65.77,90.72,52.16,113.4,256.28,Single-ply,SBD,M
Boys,67.13,13,Robert Castillo,Fort Worth North Side,61.46,72.57,52.16,97.52,222.26,Single-ply,SBD,M
Boys,74.84,1,Garrett David,Waxahachie,71.89,190.51,99.79,226.8,517.1,Single-ply,SBD,M
Boys,74.84,2,Charles Willman,Quinlan Ford,74.39,174.63,142.88,181.44,498.95,Single-ply,SBD,M
Boys,74.84,3,Gavin Pringle,Waxahachie,70.31,195.04,108.86,183.7,487.61,Single-ply,SBD,M
Boys,74.84,4,Blake Echols,Oakridge School,73.26,167.83,111.13,190.51,469.47,Single-ply,SBD,M
Boys,74.84,5,Garrett Pringle,Waxahachie,70.31,170.1,111.13,181.44,462.66,Single-ply,SBD,M
Boys,74.84,6,Calvin Olsen,Quinlan Ford,74.84,183.7,104.33,174.63,462.66,Single-ply,SBD,M
Boys,74.84,7,Sagar Patel,Oakridge School,72.12,149.69,95.25,192.78,437.72,Single-ply,SBD,M
Boys,74.84,8,Emmanuel Silva,Venus,73.26,149.69,77.11,170.1,396.89,Single-ply,SBD,M
Boys,74.84,9,Marquise Foreman,Cedar Hill,69.4,140.61,88.45,158.76,387.82,Single-ply,SBD,M
Boys,74.84,10,Caleb Hensley,Ennis,70.53,151.95,81.65,154.22,387.82,Single-ply,SBD,M
Boys,74.84,11,Ulisses Moreno,Fort Worth Paschal,73.03,154.22,83.91,147.42,385.55,Single-ply,SBD,M
Boys,74.84,12,Lee Gaines,Oakridge School,73.71,104.33,65.77,174.63,344.73,Single-ply,SBD,M
Boys,74.84,13,Sam Mitchell,Oakridge School,70.76,108.86,70.31,124.74,303.91,Single-ply,SBD,M
Boys,74.84,14,Flavio Godoy,Fort Worth North Side,73.48,104.33,61.23,136.08,301.64,Single-ply,SBD,M
Boys,82.1,1,Chance Alexander,Oakridge School,78.7,238.14,117.93,244.94,601.01,Single-ply,SBD,M
Boys,82.1,2,Chris Clark,Waxahachie,81.65,181.44,120.2,238.14,539.77,Single-ply,SBD,M
Boys,82.1,3,Mason Walker,Midlothian,81.65,188.24,120.2,199.58,508.02,Single-ply,SBD,M
Boys,82.1,4,Abraham Floes,Fort Worth North Side,78.93,158.76,97.52,204.12,460.4,Single-ply,SBD,M
Boys,82.1,5,Cade Wooten,Oakridge School,77.56,138.35,74.84,149.69,362.87,Single-ply,SBD,M
Boys,82.1,6,Dusty Leenhouts,Oakridge School,79.83,108.86,63.5,142.88,315.25,Single-ply,SBD,M
Boys,89.81,1,Caleb High,Waxahachie,82.78,226.8,122.47,204.12,553.38,Single-ply,SBD,M
Boys,89.81,2,Leonardo Zavala,Waxahachie,88.45,219.99,113.4,215.46,548.85,Single-ply,SBD,M
Boys,89.81,3,Kolbi McGary,Cedar Hill,85.28,176.9,104.33,201.85,483.08,Single-ply,SBD,M
Boys,89.81,4,Jonathon Carillo,Fort Worth Paschal,83.69,170.1,127.01,183.7,480.81,Single-ply,SBD,M
Boys,89.81,5,Joseph Stautner,Dallas Jesuit,85.5,170.1,106.59,197.31,474,Single-ply,SBD,M
Boys,89.81,6,Matthew Cherry,Midlothian,89.58,145.15,108.86,181.44,435.45,Single-ply,SBD,M
Boys,89.81,7,Brandon Melton,Quinlan Ford,89.81,229.06,,190.51,419.57,Single-ply,SD,M
Boys,89.81,8,Trey Sowell,Oakridge School,84.37,140.61,90.72,181.44,412.77,Single-ply,SBD,M
Boys,89.81,9,Deandre Carter,Cedar Hill,84.82,158.76,83.91,158.76,401.43,Single-ply,SBD,M
Boys,89.81,10,Alex Hernandez #10,Bishop Lynch,88.68,136.08,81.65,140.61,358.34,Single-ply,SBD,M
Boys,89.81,11,Andrew White,Oakridge School,82.37,124.74,79.38,151.95,356.07,Single-ply,SBD,M
Boys,89.81,12,Nick Tran,Oakridge School,87.54,127.01,68.04,151.95,347,Single-ply,SBD,M
Boys,89.81,13,Greg Martinez,Bishop Lynch,83.69,174.63,,,174.63,Single-ply,S,M
Boys,109.77,1,Taner Renfro,Quinlan Ford,100.02,283.5,140.61,238.14,662.24,Single-ply,SBD,M
Boys,99.79,2,Nico Rodriguez,Dallas Jesuit,98.43,226.8,156.49,244.94,628.23,Single-ply,SBD,M
Boys,99.79,3,Dj Jefferson #1,Waxahachie,90.72,190.51,117.93,213.19,521.63,Single-ply,SBD,M
Boys,99.79,4,Guadalupe Silva,Venus,93.44,192.78,115.67,197.31,505.76,Single-ply,SBD,M
Boys,99.79,5,Alonso Alvarado,Fort Worth Paschal,99.11,197.31,124.74,183.7,505.76,Single-ply,SBD,M
Boys,99.79,6,Matt Hever,Dallas Jesuit,92.99,179.17,124.74,199.58,503.49,Single-ply,SBD,M
Boys,99.79,7,Christian Nelson,Dallas Jesuit,92.53,192.78,111.13,183.7,487.61,Single-ply,SBD,M
Boys,99.79,8,Anthony Smith #5,Cedar Hill,95.93,170.1,111.13,188.24,469.47,Single-ply,SBD,M
Boys,99.79,9,Billy Pritchett,Quinlan Ford,99.11,170.1,81.65,192.78,444.52,Single-ply,SBD,M
Boys,99.79,10,Elliot Hartman,Dallas Jesuit,95.71,142.88,97.52,174.63,415.04,Single-ply,SBD,M
Boys,99.79,11,Cole Kellam,Oakridge School,93.21,145.15,99.79,154.22,399.16,Single-ply,SBD,M
Boys,109.77,1,Ryan Brooks,Dallas Jesuit,102.74,233.6,147.42,226.8,607.81,Single-ply,SBD,M
Boys,109.77,2,Javier Alva,Fort Worth North Side,104.1,235.87,138.35,233.6,607.81,Single-ply,SBD,M
Boys,109.77,3,D Falana,Cedar Hill,101.38,208.65,120.2,222.26,551.11,Single-ply,SBD,M
Boys,109.77,4,Noor Wafayee,Oakridge School,102.51,183.7,131.54,217.72,532.97,Single-ply,SBD,M
Boys,109.77,5,Anthony Urieta,Bishop Lynch,107.95,208.65,117.93,188.24,514.83,Single-ply,SBD,M
Boys,109.77,6,Sammy Carreon,Midlothian,107.5,170.1,113.4,181.44,464.93,Single-ply,SBD,M
Boys,109.77,7,Grayson Dickinson,Bishop Lynch,109.09,181.44,113.4,163.29,458.13,Single-ply,SBD,M
Boys,109.77,8,Glen Waters,Cedar Hill,108.64,170.1,102.06,165.56,437.72,Single-ply,SBD,M
Boys,109.77,9,Thomas Hennen,Bishop Lynch,102.06,158.76,104.33,172.37,435.45,Single-ply,SBD,M
Boys,109.77,10,Jansen Smith,Quinlan Ford,105.91,147.42,117.93,158.76,424.11,Single-ply,SBD,M
Boys,109.77,11,Taylor Phillippi,Midlothian,102.74,136.08,97.52,158.76,392.36,Single-ply,SBD,M
Boys,109.77,12,Christopher Labra,Fort Worth North Side,105.91,138.35,81.65,167.83,387.82,Single-ply,SBD,M
Boys,124.74,1,Hayden Mahone,Ennis,116.35,260.82,124.74,213.19,598.74,Single-ply,SBD,M
Boys,124.74,2,Caleb Hall-Abbott,Waxahachie,117.25,195.04,147.42,217.72,560.19,Single-ply,SBD,M
Boys,124.74,3,Javier Utrera,Quinlan Ford,110.9,213.19,120.2,176.9,510.29,Single-ply,SBD,M
Boys,124.74,4,Austin Poovey,Midlothian,117.71,163.29,102.06,181.44,446.79,Single-ply,SBD,M
Boys,124.74,5,Malik Williams,Fort Worth North Side,118.16,163.29,90.72,158.76,412.77,Single-ply,SBD,M
Boys,124.74,6,Jeremy White,Fort Worth Paschal,112.72,,61.23,120.2,181.44,Single-ply,BD,M
Boys,124.74+,1,Tariq Henderson,Fort Worth Paschal,134.94,249.48,115.67,183.7,548.85,Single-ply,SBD,M
Boys,124.74+,2,Dhillon Suraj,Fort Worth Paschal,129.73,226.8,111.13,206.38,544.31,Single-ply,SBD,M
Boys,124.74+,3,Devin Collins,Ennis,138.35,208.65,111.13,201.85,521.63,Single-ply,SBD,M
Boys,124.74+,4,Cameron Kennaley,Midlothian,136.53,199.58,115.67,204.12,519.36,Single-ply,SBD,M
Boys,124.74+,5,Andrew Kelly,Bishop Lynch,125.65,199.58,117.93,192.78,510.29,Single-ply,SBD,M
Boys,124.74+,6,David Garcia #10,Venus,127.91,170.1,136.08,172.37,478.54,Single-ply,SBD,M
Boys,124.74+,7,Tony Johnson,Fort Worth Paschal,131.31,113.4,95.25,142.88,351.53,Single-ply,SBD,M
Boys,124.74+,8,Issac Gomez,Fort Worth North Side,133.13,117.93,54.43,138.35,310.71,Single-ply,SBD,M
Boys,124.74+,DQ,Damion Torres,Cedar Hill,128.59,,,,,Single-ply,SBD,M
Boys,,NS,Isaiah Guajado,Fort Worth Paschal,,,,,,Single-ply,SBD,M
Boys,,NS,Didier Chavez,Fort Worth North Side,,,,,,Single-ply,SBD,M
Boys,,NS,Preston Smith,Midlothian,,,,,,Single-ply,SBD,M
Boys,,NS,Christopher Reyes,Fort Worth Paschal,,,,,,Single-ply,SBD,M
Boys,,NS,Manuel Murrillo,Venus,,,,,,Single-ply,SBD,M
Boys,,NS,Armando Nunez,Venus,,,,,,Single-ply,SBD,M
Boys,,NS,Juac Angoi,Bishop Lynch,,,,,,Single-ply,SBD,M
Boys,67.13,1,Nick Drkulec,Oakridge School,64.18,108.86,77.11,124.74,310.71,Single-ply,SBD,M
Boys,67.13,2,Moses Garcia,Quinlan Ford,62.82,68.04,61.23,92.99,222.26,Single-ply,SBD,M
Boys,67.13,3,Preston Tran,Oakridge School,66,49.9,43.09,86.18,179.17,Single-ply,SBD,M
Boys,74.84,1,Arthur Elgin,Oakridge School,71.67,117.93,63.5,138.35,319.78,Single-ply,SBD,M
Boys,74.84,2,Ravi Patel,Oakridge School,69.85,102.06,54.43,108.86,265.35,Single-ply,SBD,M
Boys,74.84,NS,Jacob Meadows,Oakridge School,,,,,,Single-ply,SBD,M
Boys,89.81,1,Nick Kester,Bishop Lynch,82.33,99.79,68.04,111.13,278.96,Single-ply,SBD,M
Boys,82.1,2,Adeja Ajack,Bishop Lynch,79.38,83.91,58.97,111.13,254.01,Single-ply,SBD,M
Boys,82.1,3,Zachary Hogue,Bishop Lynch,82.1,61.23,38.56,86.18,185.97,Single-ply,SBD,M
Boys,89.81,1,Cade Kellam,Oakridge School,85.28,106.59,72.57,122.47,301.64,Single-ply,SBD,M
Boys,89.81,2,William Cotton,Quinlan Ford,87.77,83.91,45.36,113.4,242.67,Single-ply,SBD,M
Boys,89.81,3,Lynn Gaines,Oakridge School,82.37,74.84,43.09,86.18,204.12,Single-ply,SBD,M
Boys,109.77,1,Mathew Bryant,Quinlan Ford,103.42,122.47,63.5,147.42,333.39,Single-ply,SBD,M
Boys,124.74,1,Abram Garcia,Quinlan Ford,115.67,63.5,61.23,136.08,260.82,Single-ply,SBD,M
Boys,124.74+,1,Jordan Sims,Bishop Lynch,131.54,83.91,52.16,106.59,242.67,Single-ply,SBD,M
