Place,Name,BirthDate,Team,WeightClassKg,BodyweightKg,Bench1Kg,Bench2Kg,Bench3Kg,Best3BenchKg,TotalKg,Sex,Division,Event,Equipment
1,Humanshi Gurjar,2003-09-26,RAJ,43,42.9,50,52.5,55,55,55,F,Sub-Juniors,B,Raw
2,Mini Mathi M,2004-07-25,PUD,43,42.7,45,-50,-50,45,45,F,Sub-Juniors,B,Raw
3,Mansi,2003-10-29,DEL,43,42.2,30,37.5,-45,37.5,37.5,F,Sub-Juniors,B,Raw
4,Ritika Dabas,2007-12-08,DEL,43,43,25,27.5,-37.5,27.5,27.5,F,Sub-Juniors,B,Raw
1,Shipra Mishra,2003-10-13,RAJ,47,45.3,65,-70,-70,65,65,F,Sub-Juniors,B,Raw
2,Sona Lakshmi V,2005-03-12,T.N,47,46.8,52.5,57.5,-60,57.5,57.5,F,Sub-Juniors,B,Raw
3,Mahi Chouhan,2004-04-30,RAJ,47,47,42.5,-47.5,-47.5,42.5,42.5,F,Sub-Juniors,B,Raw
4,Riya David,2001-11-20,DEL,47,46.7,30,32.5,35,35,35,F,Sub-Juniors,B,Raw
5,Shalu Prajapati,2001-01-07,MAH,47,45.6,30,32.5,-35,32.5,32.5,F,Sub-Juniors,B,Raw
6,Sanchita Bhoir,2003-03-31,MAH,47,46.7,27.5,-32.5,-35,27.5,27.5,F,Sub-Juniors,B,Raw
DQ,Monali Shende,2003-11-19,M P,47,45.8,-40,-40,-40,,,F,Sub-Juniors,B,Raw
1,Sanasam Chaoba Devi,2004-10-20,MAN,52,52,45,55,57.5,57.5,57.5,F,Sub-Juniors,B,Raw
2,Mamta Choudhary,2002-10-06,RAJ,52,51.3,50,52.5,-55,52.5,52.5,F,Sub-Juniors,B,Raw
3,Rinki Mahato,2002-03-27,W.B,52,51.1,40,-45,-45,40,40,F,Sub-Juniors,B,Raw
4,Rishitaa Jain,2003-04-19,DEL,52,51.8,35,-37.5,-40,35,35,F,Sub-Juniors,B,Raw
1,Pragya Sharma,2005-07-23,RAJ,57,54.3,35,-42.5,-42.5,35,35,F,Sub-Juniors,B,Raw
2,Perana Ravane,2003-06-07,MAH,57,52.6,30,32.5,-35,32.5,32.5,F,Sub-Juniors,B,Raw
3,Daniya Antony,2005-01-17,KER,57,53,30,-35,-35,30,30,F,Sub-Juniors,B,Raw
4,Konthoujam Thoibi Devi,2002-02-23,MAN,57,56.7,30,-35,-35,30,30,F,Sub-Juniors,B,Raw
1,Sejal Makwana,2001-10-01,MAH,63,62.6,45,47.5,50,50,50,F,Sub-Juniors,B,Raw
2,Harshita Bhargava,2004-02-05,DEL,63,63,45,50,-52.5,50,50,F,Sub-Juniors,B,Raw
3,Geetika Jaggi,2004-06-20,M P,63,62.6,30,35,37.5,37.5,37.5,F,Sub-Juniors,B,Raw
1,Nandini Dhawan,2002-07-20,DEL,72,68.8,45,55,-62.5,55,55,F,Sub-Juniors,B,Raw
2,Muskan Sayyad,2005-03-01,MAH,72,70.5,30,32.5,-35,32.5,32.5,F,Sub-Juniors,B,Raw
3,Elangbam Jeshika Devi,2004-03-20,MAN,72,66.2,25,30,-37.5,30,30,F,Sub-Juniors,B,Raw
DQ,Sneha S,2003-07-26,KER,72,64.6,-35,-35,-35,,,F,Sub-Juniors,B,Raw
DQ,Khushi #1,2004-03-11,DEL,72,64.8,-35,-35,-40,,,F,Sub-Juniors,B,Raw
1,Gayathri S,2004-11-02,PUD,84,82,60,65,70,70,70,F,Sub-Juniors,B,Raw
2,Hency Korat,2001-11-07,GUJ,84,73.4,55,60,-62.5,60,60,F,Sub-Juniors,B,Raw
3,Disha Disha,2006-02-03,KAR,84,75.3,40,47.5,50,50,50,F,Sub-Juniors,B,Raw
4,Muskan Borasi,2001-01-29,M P,84,82.7,45,50,-55,50,50,F,Sub-Juniors,B,Raw
5,Anushka Sarode,2002-03-02,MAH,84,81.1,35,40,-45,40,40,F,Sub-Juniors,B,Raw
6,Mahalaxmi G,2004-12-03,KAR,84,76.7,30,-35,-37.5,30,30,F,Sub-Juniors,B,Raw
1,Pranjal Solanki,2001-03-12,M P,84+,105.7,57.5,60,-62.5,60,60,F,Sub-Juniors,B,Raw
2,Deepthika J Puthran,2004-04-03,KAR,84+,89.2,45,50,-52.5,50,50,F,Sub-Juniors,B,Raw
3,Reshieal Roshni Monteiro,2005-12-07,KAR,84+,84.1,40,45,47.5,47.5,47.5,F,Sub-Juniors,B,Raw
4,Jenifer Fatardo,2003-05-11,MAH,84+,90,27.5,32.5,37.5,37.5,37.5,F,Sub-Juniors,B,Raw
5,Khushi Soni,2004-07-11,DEL,84+,100,30,32.5,-35,32.5,32.5,F,Sub-Juniors,B,Raw
1,Sushmita Deshmukh #1,1996-11-06,MAH,43,42.2,50,52.5,-55,52.5,52.5,F,Juniors,B,Raw
2,Kajal Chib,1998-07-10,J & K,43,41.5,30,35,-37.5,35,35,F,Juniors,B,Raw
1,Sakshi,1998-03-02,U.P,47,44.7,-50,50,55,55,55,F,Juniors,B,Raw
2,Teena Pareek,2002-01-01,RAJ,47,46.8,45,-50,50,50,50,F,Juniors,B,Raw
3,Kumari Chayya,1999-06-30,DEL,47,46.1,-40,45,-55,45,45,F,Juniors,B,Raw
4,Afshaneesha Ahmad Ali,2000-06-26,MAH,47,47,27.5,30,-32.5,30,30,F,Juniors,B,Raw
1,Sakshi Koul,1998-02-28,J & K,52,51.7,57.5,60,62.5,62.5,62.5,F,Juniors,B,Raw
2,Kriti Kumari,1998-11-07,KER,52,50.1,52.5,55,57.5,57.5,57.5,F,Juniors,B,Raw
3,Neema Kumari,1997-01-06,KAR,52,50.5,50,55,-57.5,55,55,F,Juniors,B,Raw
4,Pista Bai Gurjar,1997-07-01,RAJ,52,50.2,52.5,-55,-60,52.5,52.5,F,Juniors,B,Raw
5,Kannagi Pal,1998-08-18,DEL,52,49.3,45,50,-55,50,50,F,Juniors,B,Raw
6,Rupali Kahal Singh,1999-06-19,MAH,52,51.6,42.5,47.5,-50,47.5,47.5,F,Juniors,B,Raw
DQ,Sanjna Jat,1999-08-20,M P,52,47.2,-27.5,-27.5,-32.5,,,F,Juniors,B,Raw
1,Dolly Saini,1998-01-24,DEL,57,56.8,60,67.5,72.5,72.5,72.5,F,Juniors,B,Raw
2,Jyoti Singh,1997-01-01,U.P,57,57,57.5,62.5,-65,62.5,62.5,F,Juniors,B,Raw
3,Aditi Gupta,1996-06-25,KAR,57,55.8,55,60,-62.5,60,60,F,Juniors,B,Raw
4,Anjani Bari,1998-06-19,JHA,57,55.2,50,55,-60,55,55,F,Juniors,B,Raw
5,Yasmin Parveen,1998-06-11,W.B,57,55.3,47.5,50,-52.5,50,50,F,Juniors,B,Raw
6,Sanchayita Roy,1999-01-02,W.B,57,52.7,40,42.5,45,45,45,F,Juniors,B,Raw
7,Padmaja C,1997-08-10,MAH,57,56.3,45,-52.5,-60,45,45,F,Juniors,B,Raw
8,Swathi. U.K,1997-03-27,KAR,57,56.8,45,-52.5,-52.5,45,45,F,Juniors,B,Raw
9,Ajnu Mali,2000-01-01,RAJ,57,57,45,-52.5,-52.5,45,45,F,Juniors,B,Raw
10,Rashika Handa,2000-03-06,J & K,57,56,35,-42.5,-45,35,35,F,Juniors,B,Raw
11,Pragati Bairagi,2000-07-26,M P,57,52.9,27.5,30,-32.5,30,30,F,Juniors,B,Raw
12,Alka Sharma,1997-02-28,RAJ,57,56.3,30,-40,-40,30,30,F,Juniors,B,Raw
1,Manju Rani,1999-12-27,HAR,63,61.3,75,-82.5,-82.5,75,75,F,Juniors,B,Raw
2,Venizeia Annie Carlo,2000-02-07,KAR,63,62.4,60,-65,-65,60,60,F,Juniors,B,Raw
3,Aditi Parshetty,1997-08-20,MAH,63,62.5,52.5,57.5,-65,57.5,57.5,F,Juniors,B,Raw
4,Yogita Pal,2000-01-20,U.P,63,62.8,47.5,55,-62.5,55,55,F,Juniors,B,Raw
5,Harshitha K. L,1998-12-10,KAR,63,58.4,47.5,52.5,-55,52.5,52.5,F,Juniors,B,Raw
6,Charu Shekhawat,2000-12-01,RAJ,63,61,40,50,-52.5,50,50,F,Juniors,B,Raw
7,Astha Jat,2000-10-04,M P,63,61.4,40,-45,-45,40,40,F,Juniors,B,Raw
8,Kanishka Sharma,1999-07-27,M P,63,61.6,35,40,-42.5,40,40,F,Juniors,B,Raw
9,Anchal Shukla,1997-02-11,DEL,63,62.3,-32.5,32.5,-40,32.5,32.5,F,Juniors,B,Raw
1,Shama Parveen #1,1997-05-10,DEL,72,68.7,65,75,80,80,80,F,Juniors,B,Raw
2,Chandrakala Ramakant Salvi,1999-08-31,MAH,72,70.4,50,-62.5,62.5,62.5,62.5,F,Juniors,B,Raw
3,Om Kanwar,1997-05-10,RAJ,72,68.8,-50,50,-62.5,50,50,F,Juniors,B,Raw
1,Diksha Sain,2000-03-30,DEL,84,83.6,80,85,87.5,87.5,87.5,F,Juniors,B,Raw
2,Kumari Shovita,1997-08-29,DEL,84,79.9,70,72.5,-75,72.5,72.5,F,Juniors,B,Raw
3,Tanya Maru,1998-12-08,RAJ,84,73.2,50,62.5,67.5,67.5,67.5,F,Juniors,B,Raw
4,Sneha Shinde,1996-03-14,MAH,84,78.6,52.5,57.5,-65,57.5,57.5,F,Juniors,B,Raw
5,Jagrati Junaniya,1998-08-06,M P,84,82.4,52.5,57.5,-62.5,57.5,57.5,F,Juniors,B,Raw
6,Himanshi Sharma,1996-11-30,HAR,84,82.5,-55,55,-67.5,55,55,F,Juniors,B,Raw
7,Alivia Halder,1996-11-18,W.B,84,81.4,50,-55,-55,50,50,F,Juniors,B,Raw
8,Parul Modi,1999-01-22,RAJ,84,72.2,40,-45,-45,40,40,F,Juniors,B,Raw
DQ,Simran Bumrah,1998-12-04,J & K,84,76.7,-42.5,-42.5,-42.5,,,F,Juniors,B,Raw
1,Rachael Noronha,1999-12-08,KAR,84+,115.6,50,60,65,65,65,F,Juniors,B,Raw
2,Susmita Das,1997-08-21,W.B,84+,108.8,55,60,-62.5,60,60,F,Juniors,B,Raw
3,Manali Ahlawat,1998-04-16,DEL,84+,86.4,42.5,47.5,-50,47.5,47.5,F,Juniors,B,Raw
1,Sathya Kumari R,1974-09-09,KAR,47,40.6,27.5,30,-32.5,30,30,F,Masters 1,B,Raw
1,Smita Medapalli,1974-06-07,MAH,52,50.2,37.5,40,42.5,42.5,42.5,F,Masters 1,B,Raw
1,Arita Shrivastava,1978-07-01,RAJ,57,56.1,45,50,52.5,52.5,52.5,F,Masters 1,B,Raw
2,Ashlesha Tiwari,1978-10-06,DEL,57,53.7,37.5,-40,-40,37.5,37.5,F,Masters 1,B,Raw
1,Poonam Sharma,1975-12-01,DEL,63,62.4,75,82.5,85,85,85,F,Masters 1,B,Raw
2,Nirmala Yadav,1974-11-15,MAH,63,61.5,40,-47.5,47.5,47.5,47.5,F,Masters 1,B,Raw
3,Sima Dutta Chatterjee,1977-12-31,W.B,63,62,40,42.5,-45,42.5,42.5,F,Masters 1,B,Raw
4,Renuka Nigam,1973-06-12,M P,63,63,40,-45,-45,40,40,F,Masters 1,B,Raw
5,Kajal Kundu,1977-03-17,W.B,63,62,30,-35,35,35,35,F,Masters 1,B,Raw
6,Kiran Ingale,1975-08-31,MAH,63,59.7,25,27.5,-32.5,27.5,27.5,F,Masters 1,B,Raw
1,Sunita Punch,1974-07-25,M P,72,70.2,55,60,65,65,65,F,Masters 1,B,Raw
2,Jagbinder Kaur,1979-03-29,DEL,72,70,-50,50,52.5,52.5,52.5,F,Masters 1,B,Raw
3,Shweta Sahni,1978-01-31,DEL,72,71.6,52.5,-55,-55,52.5,52.5,F,Masters 1,B,Raw
4,Trina Pal,1979-05-03,W.B,72,67,42.5,47.5,-50,47.5,47.5,F,Masters 1,B,Raw
5,Rupa Baherjee,1977-08-24,W.B,72,68.9,45,-47.5,47.5,47.5,47.5,F,Masters 1,B,Raw
6,Preeti Awasthi,1973-02-03,M P,72,63.3,-30,-30,30,30,30,F,Masters 1,B,Raw
7,K Marjuna Devi,1978-08-14,MAN,72,70.7,25,30,-40,30,30,F,Masters 1,B,Raw
1,Saswati Behera,1979-03-03,DEL,84,83.9,50,60,-70,60,60,F,Masters 1,B,Raw
2,Madhushree Mukharjee,1977-10-29,W.B,84,73.2,30,35,37.5,37.5,37.5,F,Masters 1,B,Raw
DQ,Sonika Khatter,1972-10-25,CCSCSB,84,79.5,-65,-65,-65,,,F,Masters 1,B,Raw
1,Poonam Dvneja,1974-12-08,DEL,84+,89.4,50,55,-60,55,55,F,Masters 1,B,Raw
2,Sikha Mondal,1977-06-01,W.B,84+,92,42.5,45,47.5,47.5,47.5,F,Masters 1,B,Raw
3,Lavina Irene Perera,1971-10-21,KAR,84+,87.9,-40,40,45,45,45,F,Masters 1,B,Raw
1,Nicey Mohanpeters,1968-04-07,KER,57,52.2,20,-25,25,25,25,F,Masters 2,B,Raw
1,Sreeja Sajeevan,1968-01-29,KER,72,70,25,30,32.5,32.5,32.5,F,Masters 2,B,Raw
2,Manjulata Ingle,1962-07-16,M P,72,67.5,27.5,30,-32.5,30,30,F,Masters 2,B,Raw
1,Gayatri Tomar,1966-11-04,M P,84,84,57.5,60,67.5,67.5,67.5,F,Masters 2,B,Raw
2,Madhavi Nandwani,1968-12-17,DEL,84,83,40,45,-47.5,45,45,F,Masters 2,B,Raw
1,Kakali Sinha,1968-02-09,W.B,84+,100.4,25,27.5,-32.5,27.5,27.5,F,Masters 2,B,Raw
2,Huirem Ibempishak Devi,1965-03-01,MAN,84+,85.3,-20,20,-22.5,20,20,F,Masters 2,B,Raw
1,Lorraine More,1955-05-25,MAH,63,60,22.5,25,27.5,27.5,27.5,F,Masters 3,B,Raw
1,Munna Kumar,2001-06-15,BIH,53,47.9,90,97.5,102.5,102.5,102.5,M,Sub-Juniors,B,Raw
2,Dhirj Kinger,2001-01-20,JHA,53,51.5,90,95,-100,95,95,M,Sub-Juniors,B,Raw
3,Mr Akash,2002-04-23,DEL,53,53,-85,85,90,90,90,M,Sub-Juniors,B,Raw
4,Dhurv Raj Kure,2002-02-06,M P,53,52.9,82.5,87.5,-90,87.5,87.5,M,Sub-Juniors,B,Raw
5,Talim Khan,2002-01-01,U.P,53,52.2,85,-95,-97.5,85,85,M,Sub-Juniors,B,Raw
6,Rahul Bind,2003-08-03,U.P,53,52.7,80,-85,85,85,85,M,Sub-Juniors,B,Raw
7,Nirmal Ruidas,2002-08-10,W.B,53,51.8,70,75,-77.5,75,75,M,Sub-Juniors,B,Raw
8,Chirag T Ganiga,2001-09-06,KAR,53,51.9,75,-82.5,-87.5,75,75,M,Sub-Juniors,B,Raw
9,Gousepeer M,2004-12-25,KAR,53,53,70,-80,-80,70,70,M,Sub-Juniors,B,Raw
10,Diganth J,2002-01-02,T.N,53,53,-70,70,-72.5,70,70,M,Sub-Juniors,B,Raw
11,Anith Dinesan,2001-05-31,KER,53,51.5,55,60,-62.5,60,60,M,Sub-Juniors,B,Raw
12,Tushar Kalekar,2001-07-26,MAH,53,48.4,50,55,-60,55,55,M,Sub-Juniors,B,Raw
13,Rohit Kanojiya,2001-03-11,MAH,53,42.2,47.5,52.5,-57.5,52.5,52.5,M,Sub-Juniors,B,Raw
14,Irikhomba Elangbam,2003-12-03,MAN,53,46.1,30,,,30,30,M,Sub-Juniors,B,Raw
15,Arham Jain,2008-10-11,DEL,53,53,-25,30,-32.5,30,30,M,Sub-Juniors,B,Raw
1,Sonu Sharma,2003-01-26,JHA,59,56.8,95,100,102.5,102.5,102.5,M,Sub-Juniors,B,Raw
2,Abhay Tripathi,2002-04-01,U.P,59,56.9,90,-95,-95,90,90,M,Sub-Juniors,B,Raw
3,Aum Desai,2001-04-17,MAH,59,57,87.5,90,-92.5,90,90,M,Sub-Juniors,B,Raw
4,Varun Manhas,2001-09-24,J & K,59,55.8,70,-80,80,80,80,M,Sub-Juniors,B,Raw
5,Salman Faris,2002-08-20,KER,59,57,70,75,80,80,80,M,Sub-Juniors,B,Raw
6,Mr Rohit,2002-03-31,DEL,59,57.9,75,80,-85,80,80,M,Sub-Juniors,B,Raw
7,Neeraj Kumar,2001-07-27,J & K,59,57.9,65,70,77.5,77.5,77.5,M,Sub-Juniors,B,Raw
8,Sudhanshu Mandiyal,2001-12-10,HIM,59,56.2,45,47.5,52.5,52.5,52.5,M,Sub-Juniors,B,Raw
9,Daniel Easo John,2005-10-09,KER,59,53.6,27.5,30,32.5,32.5,32.5,M,Sub-Juniors,B,Raw
DQ,Prajwal Prajwal,2002-05-23,KAR,59,57.4,-90,-97.5,-97.5,,,M,Sub-Juniors,B,Raw
1,Mohammad Sad,2001-10-06,HAR,66,65,117.5,120,130,130,130,M,Sub-Juniors,B,Raw
2,Tourangbam Satish Meitei,2001-03-02,MAN,66,65.4,95,105,-110,105,105,M,Sub-Juniors,B,Raw
3,Aman Bhagat,2001-04-06,M P,66,64.3,97.5,-102.5,-105,97.5,97.5,M,Sub-Juniors,B,Raw
4,Devraj Saini,2002-07-01,HAR,66,66,95,-110,-110,95,95,M,Sub-Juniors,B,Raw
5,Anurag Kamble,2001-10-17,MAH,66,64,85,92.5,-102.5,92.5,92.5,M,Sub-Juniors,B,Raw
6,Vishwajeet Singh,2002-11-26,J & K,66,64.2,85,92.5,-100,92.5,92.5,M,Sub-Juniors,B,Raw
7,Altab Khan,2002-09-25,W.B,66,63.3,85,90,-92.5,90,90,M,Sub-Juniors,B,Raw
8,Ankush,2001-08-28,PUN,66,64.7,87.5,-92.5,-92.5,87.5,87.5,M,Sub-Juniors,B,Raw
9,Dinesh S.A,2002-03-10,T.N,66,65,80,85,87.5,87.5,87.5,M,Sub-Juniors,B,Raw
10,Konsam Rohit,2004-03-12,MAN,66,64.8,60,70,-80,70,70,M,Sub-Juniors,B,Raw
DQ,Mr Vishal,2001-05-12,DEL,66,65.1,-110,-110,-110,,,M,Sub-Juniors,B,Raw
1,Dileep Chakravarti,2001-11-11,M P,74,73.9,112.5,117.5,-122.5,117.5,117.5,M,Sub-Juniors,B,Raw
2,Hemant Kumawat,2003-05-07,RAJ,74,74,110,115,-120,115,115,M,Sub-Juniors,B,Raw
3,Bikram Patro,2002-09-28,M P,74,66.7,105,110,-112.5,110,110,M,Sub-Juniors,B,Raw
4,Atish Sharma,2002-08-15,J & K,74,67.9,100,105,-110,105,105,M,Sub-Juniors,B,Raw
5,Gautam Sharma,2004-02-10,J & K,74,72.5,80,-85,-85,80,80,M,Sub-Juniors,B,Raw
6,Jerald Jesman,2001-08-12,KER,74,67.1,72.5,75,-80,75,75,M,Sub-Juniors,B,Raw
7,Gautam Raveriya,2001-03-31,MAH,74,67.5,45,-50,50,50,50,M,Sub-Juniors,B,Raw
DQ,Sajal Singh,2002-01-29,W.B,74,71,-80,-80,-80,,,M,Sub-Juniors,B,Raw
1,Darshan,2001-07-29,HAR,83,81.9,135,-137.5,-150,135,135,M,Sub-Juniors,B,Raw
2,Parduman,2001-04-16,HAR,83,81.8,130,-135,-135,130,130,M,Sub-Juniors,B,Raw
3,Sukhwinder Singh #2,2002-09-13,PUN,83,81.5,112.5,117.5,-120,117.5,117.5,M,Sub-Juniors,B,Raw
4,Sarfaraz Alam,2002-01-01,JHA,83,81,112.5,-117.5,-117.5,112.5,112.5,M,Sub-Juniors,B,Raw
5,Mohit Saini,2001-12-12,J & K,83,80,105,110,-120,110,110,M,Sub-Juniors,B,Raw
6,Sumit Rathore,2001-01-01,M P,83,77.2,95,100,-105,100,100,M,Sub-Juniors,B,Raw
7,Madan Lal,2001-08-10,RAJ,83,78.2,100,-105,-105,100,100,M,Sub-Juniors,B,Raw
8,Gaurav Vikari,2002-10-23,MAH,83,75.6,-67.5,70,-75,70,70,M,Sub-Juniors,B,Raw
DQ,Prawan D'Souza,2001-02-23,KAR,83,82.3,-105,-105,-105,,,M,Sub-Juniors,B,Raw
1,Atul Singh,2002-01-29,J & K,93,89.2,120,122.5,125,125,125,M,Sub-Juniors,B,Raw
2,Varshith V Rao,2002-02-25,KAR,93,89.5,110,120,-125,120,120,M,Sub-Juniors,B,Raw
3,Prince Rai,2003-03-06,U.P,93,91.6,100,-110,-112.5,100,100,M,Sub-Juniors,B,Raw
4,Tarun Panchal,2002-09-21,DEL,93,91.4,95,-100,-100,95,95,M,Sub-Juniors,B,Raw
5,Priyanshu Sharma,2001-09-16,RAJ,93,92.1,80,95,-100,95,95,M,Sub-Juniors,B,Raw
6,Daksh Singh Chouhan,2004-04-19,RAJ,93,90.5,82.5,92.5,-95,92.5,92.5,M,Sub-Juniors,B,Raw
7,Satyam B,2002-11-16,U.P,93,92,75,-80,80,80,80,M,Sub-Juniors,B,Raw
8,Longjam Prashant,2005-06-10,MAN,93,90,65,75,-85,75,75,M,Sub-Juniors,B,Raw
9,Shresht Sahni,2003-05-18,DEL,93,89.1,-55,60,65,65,65,M,Sub-Juniors,B,Raw
1,Yash Ruhal,2002-10-12,DEL,105,98.05,-120,-120,120,120,120,M,Sub-Juniors,B,Raw
2,Prasad D'Souza,2001-02-23,KAR,105,95.7,110,-117.5,117.5,117.5,117.5,M,Sub-Juniors,B,Raw
3,Mehul Verma,2001-11-17,J & K,105,96.41,107.5,112.5,115,115,115,M,Sub-Juniors,B,Raw
4,Aditya Kaushik,2001-01-01,RAJ,105,97.42,110,115,-122.5,115,115,M,Sub-Juniors,B,Raw
DQ,Shailendra Rathore,2001-03-04,M P,105,93.8,-75,-75,-85,,,M,Sub-Juniors,B,Raw
1,Tushar Vijayran,2002-03-04,DEL,120+,125.7,100,110,115,115,115,M,Sub-Juniors,B,Raw
2,Prathvi. P. Kumar,2001-05-10,KAR,120+,122.12,100,105,110,110,110,M,Sub-Juniors,B,Raw
3,Tanishq Grover,2002-05-01,M P,120+,126.5,100,-110,-110,100,100,M,Sub-Juniors,B,Raw
1,Shajith Husan A,1997-05-21,T.N,53,47.9,100,107.5,110,110,110,M,Juniors,B,Raw
2,Utkasha Giri,1999-04-03,MAH,53,52.5,97.5,102.5,107.5,107.5,107.5,M,Juniors,B,Raw
3,Dinesh Bauri,1997-01-01,JHA,53,52.7,100,102.5,107.5,107.5,107.5,M,Juniors,B,Raw
4,Ahmed Nawaj,1997-11-19,M P,53,50.1,90,95,-100,95,95,M,Juniors,B,Raw
5,Uday Sharma,1997-03-26,M P,53,51.7,87.5,92.5,-105,92.5,92.5,M,Juniors,B,Raw
6,Shibashankar Ghodei,1999-08-29,DEL,53,51.2,80,85,-90,85,85,M,Juniors,B,Raw
7,Dhaval Patel,2000-10-06,GUJ,53,52.9,70,75,82.5,82.5,82.5,M,Juniors,B,Raw
8,Mohammed Nijad N V,1998-03-14,KER,53,50.7,70,80,-85,80,80,M,Juniors,B,Raw
9,Mukesh Kumar #4,1997-01-01,U.P,53,51.7,77.5,-80,-80,77.5,77.5,M,Juniors,B,Raw
10,Mr Chirag,2003-08-19,DEL,53,52.6,52.5,60,-65,60,60,M,Juniors,B,Raw
DQ,Chetan Dogra,1999-11-21,J & K,53,52.1,-82.5,-85,-85,,,M,Juniors,B,Raw
1,Pranjal Rathore,1998-07-22,M P,59,57.5,110,115,117.5,117.5,117.5,M,Juniors,B,Raw
2,Tejas Jadhav,1999-03-24,MAH,59,56.2,110,-115,-115,110,110,M,Juniors,B,Raw
3,Shailendra Pratap Singh,1998-12-08,M P,59,58.6,102.5,107.5,-112.5,107.5,107.5,M,Juniors,B,Raw
4,Varun Gupta,1996-09-05,J & K,59,58.5,102.2,-107,-110,102.2,102.2,M,Juniors,B,Raw
5,Sanjay Shahi,1998-01-30,PUN,59,58.8,95,100,-102.5,100,100,M,Juniors,B,Raw
6,Rajvirsinh Zala,2000-06-14,GUJ,59,56.6,-85,87.5,97.5,97.5,97.5,M,Juniors,B,Raw
7,Milan Sali,1997-09-19,GUJ,59,58.1,95,-100,-105,95,95,M,Juniors,B,Raw
8,Shekh Kayyum,1997-07-05,CHT,59,58.1,85,90,-97.5,90,90,M,Juniors,B,Raw
9,Bharat,1996-01-01,HAR,59,58.5,90,-102.5,-107.5,90,90,M,Juniors,B,Raw
10,Nandakumar R,1999-02-01,T.N,59,55.6,80,87.5,-90,87.5,87.5,M,Juniors,B,Raw
11,Jayaprakash R,1999-12-12,T.N,59,57.3,82.5,87.5,-90,87.5,87.5,M,Juniors,B,Raw
12,Ankit Sarkar,1997-04-15,ASA,59,58.4,82.5,-87.5,-87.5,82.5,82.5,M,Juniors,B,Raw
13,Sampat Sampat,1998-09-01,RAJ,59,57.9,80,-85,-85,80,80,M,Juniors,B,Raw
14,Susmit Sarkar,1999-12-29,W.B,59,58.6,70,80,-82.5,80,80,M,Juniors,B,Raw
DQ,Lastarly Sangma,1998-12-07,MEG,59,59,-90,-95,-95,,,M,Juniors,B,Raw
1,Amit #1,1997-11-09,HAR,66,65.7,132.5,142.5,145,145,145,M,Juniors,B,Raw
2,Adarsh Tanwar,1998-03-04,RAJ,66,66,110,120,122.5,122.5,122.5,M,Juniors,B,Raw
3,Rambir Singh,2001-09-13,JHA,66,66,107.5,112.5,-115,112.5,112.5,M,Juniors,B,Raw
4,Prince Samriya,1997-05-19,RAJ,66,65.5,105,110,-115,110,110,M,Juniors,B,Raw
5,Vivekanand K,1999-03-14,U.P,66,65.8,105,-110,110,110,110,M,Juniors,B,Raw
6,Vithesh Vithesh,1996-03-12,KAR,66,64.4,100,107.5,-112.5,107.5,107.5,M,Juniors,B,Raw
7,Deepak K,2000-01-13,U.P,66,64.4,95,-105,105,105,105,M,Juniors,B,Raw
8,Mr Anish,1999-03-01,DEL,66,63.7,100,-107.5,-107.5,100,100,M,Juniors,B,Raw
9,Harpal Singh,2000-02-12,PUN,66,62.4,85,90,95,95,95,M,Juniors,B,Raw
10,Abhijith J V,1996-09-15,KER,66,63.2,-90,95,-97.5,95,95,M,Juniors,B,Raw
11,Jatin Rana,1997-11-27,CHN,66,65,95,-102.5,-102.5,95,95,M,Juniors,B,Raw
12,Vishal P R,1999-01-09,KER,66,64,90,-95,-95,90,90,M,Juniors,B,Raw
13,Adarsh Vaishnav,1997-01-17,GUJ,66,63.6,65,70,-77.5,70,70,M,Juniors,B,Raw
DQ,Syed Tasadaq Hussain,1998-10-10,J & K,66,65.7,-100,-100,-100,,,M,Juniors,B,Raw
1,Rajvardhan Singh Panwar,1996-06-16,M P,74,70.2,132.5,137.5,140,140,140,M,Juniors,B,Raw
2,Sahil Prakash,2000-04-01,BIH,74,69.5,125,130,-137.5,130,130,M,Juniors,B,Raw
3,Sachin Kumar #1,,DEL,74,74,130,-137.5,-137.5,130,130,M,Juniors,B,Raw
4,Kamal Rathore,1998-08-16,DEL,74,72,115,125,-135,125,125,M,Juniors,B,Raw
5,Badal Behera,1996-04-10,ODI,74,71.6,-115,120,-127.5,120,120,M,Juniors,B,Raw
6,Sitendra Sahni,2000-07-13,U.P,74,70.7,110,-112.5,-115,110,110,M,Juniors,B,Raw
7,Nitesh Kumar,1998-04-19,HAR,74,73.6,105,-110,-110,105,105,M,Juniors,B,Raw
8,Varun,1997-05-02,CHN,74,72.7,100,-110,-110,100,100,M,Juniors,B,Raw
9,Nitesh,1998-03-02,HAR,74,73.5,-100,100,-110,100,100,M,Juniors,B,Raw
10,Ayush Yadav,2000-11-30,W.B,74,72.3,90,-100,-100,90,90,M,Juniors,B,Raw
11,Sahil Dhadwal,1998-06-23,HIM,74,73.2,60,65,-70,65,65,M,Juniors,B,Raw
1,Banwari Gurjar,1999-11-25,M P,83,82.2,155,157.5,160,160,160,M,Juniors,B,Raw
2,Mohit Srivastava,1996-03-11,U.P,83,80.7,140,-157.5,157.5,157.5,157.5,M,Juniors,B,Raw
3,Alok Kumar,1996-01-01,DEL,83,79.5,132.5,140,-150,140,140,M,Juniors,B,Raw
4,Surjeet Singh Jamwal,1996-12-03,J & K,83,81.7,-140,140,-147.5,140,140,M,Juniors,B,Raw
5,Akash Sharma,1999-05-20,RAJ,83,82.8,130,135,-142.5,135,135,M,Juniors,B,Raw
6,Dhaneshwar Sahu,1998-12-10,JHA,83,83,125,130,-135,130,130,M,Juniors,B,Raw
7,Mohmd Farhan,1996-09-15,KAR,83,78.5,115,127.5,-140,127.5,127.5,M,Juniors,B,Raw
8,Sarith Surendran,1996-12-18,KER,83,76,110,120,-127.5,120,120,M,Juniors,B,Raw
9,Kishan Maurya,1998-02-08,U.P,83,76.2,120,-130,-130,120,120,M,Juniors,B,Raw
10,Mayank Gamit,1997-10-27,GUJ,83,81,105,112.5,-117.5,112.5,112.5,M,Juniors,B,Raw
11,Micky Mylliemngap,1996-03-20,MEG,83,79.5,70,75,-80,75,75,M,Juniors,B,Raw
1,Nutan #1,1997-06-12,HAR,93,88,175,180,-185,180,180,M,Juniors,B,Raw
2,Kvg Sai Krishna,1998-01-01,A P,93,92.8,135,155,165,165,165,M,Juniors,B,Raw
3,Parvez Khan,1997-10-03,M P,93,90.6,155,-160,-160,155,155,M,Juniors,B,Raw
4,Mukesh Singh #2,2000-10-05,JHA,93,90.6,142.5,-150,-150,142.5,142.5,M,Juniors,B,Raw
5,Nikhil Kumar #2,2000-05-13,J & K,93,83.9,130,-132.5,-140,130,130,M,Juniors,B,Raw
6,Amarpal Singh,1999-10-28,U.P,93,88,117.5,125,130,130,130,M,Juniors,B,Raw
7,Sriram Rai,1996-10-04,MAH,93,89,120,125,-130,125,125,M,Juniors,B,Raw
8,Rahul Sinde,1997-10-26,MAH,93,90.6,117.5,122.5,-127.5,122.5,122.5,M,Juniors,B,Raw
9,Abhilash H,1996-06-28,KER,93,91,115,-122.5,-122.5,115,115,M,Juniors,B,Raw
10,Parth Soni,1999-08-16,GUJ,93,90.9,100,107.5,-115,107.5,107.5,M,Juniors,B,Raw
1,Sandeep Kumar #7,1997-08-15,HAR,105,96,165,177.5,-182.5,177.5,177.5,M,Juniors,B,Raw
2,Sokendra Gorkha,1997-06-15,MAH,105,103.9,135,140,-150,140,140,M,Juniors,B,Raw
3,Akash Malhotra,1996-08-02,J & K,105,95.05,125,130,137.5,137.5,137.5,M,Juniors,B,Raw
4,Mohit Patil,1999-11-12,M P,105,96.45,130,135,137.5,137.5,137.5,M,Juniors,B,Raw
5,B Shravan,1998-01-05,TEL,105,103,-120,120,130,130,130,M,Juniors,B,Raw
6,Vishwas Raj Shukla,1998-10-14,U.P,105,97.42,110,120,-122.5,120,120,M,Juniors,B,Raw
7,Kanhaiya Lal Vyas,1998-01-12,RAJ,105,93.4,-95,100,105,105,105,M,Juniors,B,Raw
8,Balkrishan Purohit,1996-07-12,RAJ,105,93.2,60,65,-72.5,65,65,M,Juniors,B,Raw
1,Ashish Chhikara,1997-09-26,DEL,120,114.8,155,162.5,167.5,167.5,167.5,M,Juniors,B,Raw
2,K Tejashwar,1996-07-08,TEL,120,106,120,127.5,130,130,130,M,Juniors,B,Raw
3,Rishab Rao,1999-03-02,KAR,120,111.33,110,-117.5,120,120,120,M,Juniors,B,Raw
4,Israr Pasha,1999-01-26,KAR,120,110.2,-110,115,-120,115,115,M,Juniors,B,Raw
5,Vishal Kumar,1998-12-06,J & K,120,116.23,100,105,110,110,110,M,Juniors,B,Raw
6,Diptarka Kumar,2000-12-23,W.B,120,116,80,85,-87.5,85,85,M,Juniors,B,Raw
1,Mr Abhishek,1996-05-04,DEL,120+,123.1,165,175,-180,175,175,M,Juniors,B,Raw
2,Paritesh Pal,1999-02-13,M P,120+,132.4,150,160,,160,160,M,Juniors,B,Raw
2,Motiram Dabi,1977-06-30,M P,59,58.3,90,-100,100,100,100,M,Masters 1,B,Raw
3,T. Durai Raj,1979-04-10,OFSPB,59,59,90,95,100,100,100,M,Masters 1,B,Raw
4,Sujit Kumar Giri,1972-04-15,ODI,59,58.5,85,90,97.5,97.5,97.5,M,Masters 1,B,Raw
5,Hanumanthe Gowda,1976-02-02,KAR,59,58.4,75,82.5,-87.5,82.5,82.5,M,Masters 1,B,Raw
6,Mahesh Kumar,1975-02-25,PUN,59,57.9,75,-80,-80,75,75,M,Masters 1,B,Raw
1,Deepak Tiwari,1978-10-15,M P,66,64,110,115,117.5,117.5,117.5,M,Masters 1,B,Raw
2,Naveen Arora,1976-11-24,DEL,66,65,110,-115,-115,110,110,M,Masters 1,B,Raw
3,Hari Prakash,1972-02-16,DEL,66,64.2,100,107.5,-112.5,107.5,107.5,M,Masters 1,B,Raw
4,Rajesh Poddar,1972-09-16,MAH,66,61.8,100,102.5,-107.5,102.5,102.5,M,Masters 1,B,Raw
5,Sai Santhosh,1978-02-13,KER,66,65.5,85,90,-92.5,90,90,M,Masters 1,B,Raw
6,Raikumar Naorem,1976-01-02,MAN,66,62.6,80,85,-102.5,85,85,M,Masters 1,B,Raw
DQ,Dr Prashant,1979-09-10,CCSCSB,66,65.3,-80,,,,,M,Masters 1,B,Raw
1,Sohan Rana,1975-06-17,M P,74,72.8,130,-137.5,137.5,137.5,137.5,M,Masters 1,B,Raw
2,Naresh Kumar #4,1977-01-01,DEL,74,72.3,100,110,117.5,117.5,117.5,M,Masters 1,B,Raw
3,G. Ram Babu,1975-05-03,A P,74,69.7,105,112.5,-117.5,112.5,112.5,M,Masters 1,B,Raw
4,Yanest S,1971-03-21,T.N,74,68,-110,110,-125,110,110,M,Masters 1,B,Raw
5,Sanjay Sharma,1972-09-19,MAH,74,72.1,90,95,-100,95,95,M,Masters 1,B,Raw
6,Gurbinder Singh,1976-05-25,PUN,74,72.5,85,95,-102.5,95,95,M,Masters 1,B,Raw
1,Vincent P. Carlo,1976-01-26,KAR,83,80.7,137.5,145,-150,145,145,M,Masters 1,B,Raw
2,Raj Kumar #2,1978-08-01,PUN,83,81.9,135,142.5,-152.5,142.5,142.5,M,Masters 1,B,Raw
3,Sukhvinder Singh,1978-03-17,U.P,83,81.5,122.5,127.5,132.5,132.5,132.5,M,Masters 1,B,Raw
4,Vijay Chakraborty,1978-04-17,ODI,83,81.5,120,130,-135,130,130,M,Masters 1,B,Raw
5,Vinayagam D,1977-05-19,T.N,83,76.8,125,127.5,-132.5,127.5,127.5,M,Masters 1,B,Raw
6,Chs Gangadhara Rao,1978-01-01,A P,83,77.7,110,115,120,120,120,M,Masters 1,B,Raw
7,Anand S. Mandia,1971-10-07,CCSCSB,83,82.6,120,-122.5,,120,120,M,Masters 1,B,Raw
8,Manikandan S,1976-07-13,T.N,83,80,115,-125,-125,115,115,M,Masters 1,B,Raw
9,Anthony Nongrum,1975-08-19,MEG,83,76.7,100,-105,-105,100,100,M,Masters 1,B,Raw
10,Hari Singh Yadav,1974-05-26,RAJ,83,81.4,85,95,100,100,100,M,Masters 1,B,Raw
11,Sugeshkumar C,1976-05-28,KER,83,82,95,-100,100,100,100,M,Masters 1,B,Raw
12,Dhanapati Naik,1972-06-14,ODI,83,80.2,95,-102.5,-102.5,95,95,M,Masters 1,B,Raw
13,D.Frankie.H. Nongrum,1976-10-15,MEG,83,,70,90,-100,90,90,M,Masters 1,B,Raw
14,M Senthilkumar,1978-06-11,A P,83,76,80,85,90,90,90,M,Masters 1,B,Raw
15,Bharah Kumar R,1976-05-21,KER,83,81.2,77.5,87.5,90,90,90,M,Masters 1,B,Raw
16,Shibir Das,1977-01-15,W.B,83,76.9,77.5,80,87.5,87.5,87.5,M,Masters 1,B,Raw
17,Ventatesha U N,1974-05-23,KAR,83,79.4,75,80,85,85,85,M,Masters 1,B,Raw
1,Om Prakash,1979-01-15,DEL,93,89.1,160,170,175,175,175,M,Masters 1,B,Raw
2,Golden Rathore,1978-07-13,DEL,93,91.6,160,165,-177.5,165,165,M,Masters 1,B,Raw
3,Mohd. Shaikh,1976-10-30,MAH,93,86.6,145,152.5,-160,152.5,152.5,M,Masters 1,B,Raw
4,Rajbir Singh #1,1979-08-31,HAR,93,86,142.5,147.5,-155,147.5,147.5,M,Masters 1,B,Raw
5,Ravinder Singh #1,1975-12-27,HAR,93,92.9,135,140,-142.5,140,140,M,Masters 1,B,Raw
6,Arun Kumar A,1974-01-05,KAR,93,90.7,125,137.5,-152.5,137.5,137.5,M,Masters 1,B,Raw
7,Anupam Singh,1977-07-02,U.P,93,,125,130,-135,130,130,M,Masters 1,B,Raw
8,Vinod Kumar Gotherwal,1976-12-25,RAJ,93,90.4,115,-125,125,125,125,M,Masters 1,B,Raw
9,Muhammed Muneer,1975-05-10,KER,93,85.9,-110,-115,115,115,115,M,Masters 1,B,Raw
10,Prasenjit Sarkar,1973-03-20,W.B,93,90.8,110,115,-120,115,115,M,Masters 1,B,Raw
11,Syed Mohammad Ashrafi,1973-08-12,U.P,93,91.5,105,115,-122.5,115,115,M,Masters 1,B,Raw
12,Balgovind Tiwari,1972-10-29,A P,93,86,110,,,110,110,M,Masters 1,B,Raw
13,John William Lawarance,1979-04-06,T.N,93,86.6,100,-105,-105,100,100,M,Masters 1,B,Raw
14,Prakesh Patel,1978-08-10,GUJ,93,87.8,75,85,-90,85,85,M,Masters 1,B,Raw
1,Gurpreet Singh #9,1979-03-14,PUN,105,102.42,150,162.5,170,170,170,M,Masters 1,B,Raw
2,Satyendra Singh Rathore,1975-07-15,RAJ,105,101.6,150,160,162.5,162.5,162.5,M,Masters 1,B,Raw
3,Harbinder Singh,1974-01-01,M P,105,101.2,140,142.5,145,145,145,M,Masters 1,B,Raw
4,Surrender Kumar,1978-03-12,DEL,105,101.1,130,137.5,-145,137.5,137.5,M,Masters 1,B,Raw
5,Jagtap Prashant,1975-02-15,MAH,105,98.2,120,-130,-130,120,120,M,Masters 1,B,Raw
6,Shiv Kumar Vyas,1975-03-12,RAJ,105,101.8,110,-125,-125,110,110,M,Masters 1,B,Raw
7,Jamesh John Britto,1975-01-29,T.N,105,100.16,90,105,-110,105,105,M,Masters 1,B,Raw
DQ,Gharjeet Singh,1977-05-07,J & K,105,102.42,-150,-150,-150,,,M,Masters 1,B,Raw
1,Juver Qureshi,1972-02-10,M P,120,111.5,150,157.5,-160,157.5,157.5,M,Masters 1,B,Raw
2,Ajay Kumar #4,1979-02-11,HAR,120,105.4,130,137.5,142.5,142.5,142.5,M,Masters 1,B,Raw
3,Shashi Kapoor,1977-02-26,PUN,120,105.4,130,135,140,140,140,M,Masters 1,B,Raw
4,Younis Ansari,1977-06-26,J & K,120,114.7,125,130,-140,130,130,M,Masters 1,B,Raw
5,Vinod Kumar,1979-04-01,KAR,120,114.2,100,110,125,125,125,M,Masters 1,B,Raw
6,Girish Binjwe,1971-01-10,MAH,120,106.43,-100,100,110,110,110,M,Masters 1,B,Raw
1,Rajesh Sutrave,1976-05-25,KAR,120+,126.12,135,140,142.5,142.5,142.5,M,Masters 1,B,Raw
2,Rahul Sawhney,1977-11-18,J & K,120+,120.5,110,122.5,127.5,127.5,127.5,M,Masters 1,B,Raw
3,Rinku Walia,1973-10-17,PUN,120+,122,-115,117.5,-120,117.5,117.5,M,Masters 1,B,Raw
4,Ravindra Kumar,1977-02-02,RAJ,120+,134.69,-90,90,-120,90,90,M,Masters 1,B,Raw
1,Ganesh,1968-02-01,KAR,59,57.7,80,85,92.5,92.5,92.5,M,Masters 2,B,Raw
2,Shubhakar Shetty,1967-09-19,KAR,59,58.1,80,87.5,90,90,90,M,Masters 2,B,Raw
3,Ravi B,1960-07-17,T.N,59,56.4,80,85,-90,85,85,M,Masters 2,B,Raw
1,Arun Sharma,1962-10-02,DEL,66,65.5,100,107.5,112.5,112.5,112.5,M,Masters 2,B,Raw
2,Narayan Sethy,1960-04-10,ODI,66,65.1,85,92.5,100,100,100,M,Masters 2,B,Raw
3,M Shankar Rao,1968-01-01,A P,66,63.4,80,85,-87.5,85,85,M,Masters 2,B,Raw
4,Roslein Kharkrang,1963-01-01,MEG,66,64.4,-40,40,-50,40,40,M,Masters 2,B,Raw
DQ,Surendra Tiwari,1968-08-01,M P,66,63.1,-80,-82.5,-82.5,,,M,Masters 2,B,Raw
1,Manoj Bohit,1968-09-01,M P,74,69.25,110,115,117.5,117.5,117.5,M,Masters 2,B,Raw
2,K Narasimha Rao,1968-07-15,A P,74,69.7,100,105,110,110,110,M,Masters 2,B,Raw
3,Hemachandra,1966-10-27,KAR,74,73.9,105,110,-115,110,110,M,Masters 2,B,Raw
4,Chinnadurai T,1960-01-25,T.N,74,67.3,100,-105,105,105,105,M,Masters 2,B,Raw
5,Pannalal Vanfule,1969-04-02,M P,74,72,100,105,-110,105,105,M,Masters 2,B,Raw
6,Jagannath P,1968-05-30,KER,74,70.2,100,102.5,-107.5,102.5,102.5,M,Masters 2,B,Raw
7,Upendra Pratap Singh,1961-04-06,BIH,74,73.6,95,102.5,-112.5,102.5,102.5,M,Masters 2,B,Raw
8,Arvind Tomar,1965-07-05,DEL,74,73.6,90,-95,-97.5,90,90,M,Masters 2,B,Raw
9,Arun Pal Singh,1968-01-22,DEL,74,73.6,75,82.5,90,90,90,M,Masters 2,B,Raw
10,Venkatesh R,1969-10-03,T.N,74,68,75,82.5,87.5,87.5,87.5,M,Masters 2,B,Raw
11,Sunil Tyagi,1967-01-01,RAJ,74,69.9,70,-80,87.5,87.5,87.5,M,Masters 2,B,Raw
12,Kushi Ram,1962-05-06,HAR,74,73.8,80,85,87.5,87.5,87.5,M,Masters 2,B,Raw
13,Rajesh Gupta,1969-07-03,J & K,74,69,75,-82.5,-82.5,75,75,M,Masters 2,B,Raw
1,Abdul Saleem A,1966-11-24,T.N,83,81,125,130,135,135,135,M,Masters 2,B,Raw
2,Pyare Lal,1966-08-11,CCSCSB,83,76.4,110,120,130,130,130,M,Masters 2,B,Raw
3,Avtar Singh #1,1968-11-23,PUN,83,82.2,120,127.5,-135,127.5,127.5,M,Masters 2,B,Raw
4,Gilbert Dias,1964-02-25,KAR,83,76.6,117.5,122.5,-127.5,122.5,122.5,M,Masters 2,B,Raw
5,Ajay Taribagil,1967-10-14,MAH,83,78.5,-115,122.5,-130,122.5,122.5,M,Masters 2,B,Raw
6,Elvis Kane,1965-06-14,M P,83,79,102.5,105,-107.5,105,105,M,Masters 2,B,Raw
7,Vijay Chavan,1969-01-02,MAH,83,80.6,90,100,102.5,102.5,102.5,M,Masters 2,B,Raw
8,Sadanandan C K E,1962-05-10,KER,83,75.5,90,100,-110,100,100,M,Masters 2,B,Raw
9,Suraj Ram Pawar,1968-04-10,JHA,83,81,87.5,-102.5,-127.5,87.5,87.5,M,Masters 2,B,Raw
10,Raj Kumar Pandey,1965-06-10,CHT,83,75.7,70,75,80,80,80,M,Masters 2,B,Raw
DQ,Rajivkumar Patel,1968-01-23,GUJ,83,80.3,-95,-95,-95,,,M,Masters 2,B,Raw
1,Bimal Indu Sharma,1964-12-16,J & K,93,91.9,130,137.5,142.5,142.5,142.5,M,Masters 2,B,Raw
2,Sanjiv Razdan,1960-11-13,M P,93,90,120,125,-130,125,125,M,Masters 2,B,Raw
3,Ram Nagina,1963-04-11,CHT,93,89.5,100,110,-115,110,110,M,Masters 2,B,Raw
4,Arun Kharat,1963-10-10,MAH,93,91,92.5,100,107.5,107.5,107.5,M,Masters 2,B,Raw
5,Bendict Gabrial,1966-11-17,MAH,93,87,90,100,-105,100,100,M,Masters 2,B,Raw
6,Phool Kumar,1966-05-10,DEL,93,88.6,90,95,100,100,100,M,Masters 2,B,Raw
7,Pradeepkumar V K,1963-02-10,KER,93,85.9,75,85,-92.5,85,85,M,Masters 2,B,Raw
8,Kishan Lal Khairaliya,1961-01-01,RAJ,93,90,40,45,-50,45,45,M,Masters 2,B,Raw
1,Vijay Kanchan,1967-07-24,KAR,105,104.6,160,167.5,175,175,175,M,Masters 2,B,Raw
2,Shailendra Edwin,1969-09-16,M P,105,97.2,140,150,155,155,155,M,Masters 2,B,Raw
3,Harviny Kumar,1961-08-28,PUN,105,93.4,87.5,95,-100,95,95,M,Masters 2,B,Raw
4,Bk Swain,1966-01-01,A P,105,97.3,-85,85,-90,85,85,M,Masters 2,B,Raw
5,Anant Ballal,1967-03-07,MAH,105,94.5,70,75,77.5,77.5,77.5,M,Masters 2,B,Raw
DQ,Veeraraghavan R,1961-06-15,T.N,105,95.3,-115,-115,-115,,,M,Masters 2,B,Raw
1,Jaswinder Kumar,1968-03-27,PUN,120,105.3,135,145,150,150,150,M,Masters 2,B,Raw
2,Bhimsen Sharma,1967-11-07,M P,120,105.1,120,127.5,132.5,132.5,132.5,M,Masters 2,B,Raw
3,Easo John,1961-07-10,KER,120,116.2,-70,70,75,75,75,M,Masters 2,B,Raw
1,Goutam Banerjee,1961-07-04,W.B,120+,137.1,100,-120,-120,100,100,M,Masters 2,B,Raw
1,Jagjeet Singh,1950-04-14,DEL,59,58,35,40,-45,40,40,M,Masters 3,B,Raw
1,Parveen Kumar,1952-06-05,DEL,66,62.2,82.5,87.5,-90,87.5,87.5,M,Masters 3,B,Raw
2,Gurumoorthy R,1953-06-26,T.N,66,65.1,75,80,85,85,85,M,Masters 3,B,Raw
3,Dayakar B,1958-07-03,KAR,66,65.7,-72.5,80,82.5,82.5,82.5,M,Masters 3,B,Raw
4,Madan Mohan Dawn,1958-08-19,W.B,66,66,70,75,-85,75,75,M,Masters 3,B,Raw
5,Hardeep Singh #3,1956-06-10,JHA,66,63.4,62.5,67.5,-72.5,67.5,67.5,M,Masters 3,B,Raw
6,K Dharmasing,1955-03-06,MAN,66,64.3,30,-35,,30,30,M,Masters 3,B,Raw
1,Jyotirmoy Burman,1956-12-30,W.B,74,73,95,105,-110,105,105,M,Masters 3,B,Raw
2,Yadava Suvarna,1950-05-08,KAR,74,73.6,72.5,80,87.5,87.5,87.5,M,Masters 3,B,Raw
3,Ashok Kumar Tiwari,1959-07-01,M P,74,70.4,72.5,80,-87.5,80,80,M,Masters 3,B,Raw
4,Harish Chawla,1951-07-05,RAJ,74,72.9,55,57.5,60,60,60,M,Masters 3,B,Raw
1,Inderjit Singh Sabharwal,1954-02-07,JHA,83,81.1,110,117.5,122.5,122.5,122.5,M,Masters 3,B,Raw
2,Kantilal Takle,1959-05-01,MAH,83,81,85,95,-100,95,95,M,Masters 3,B,Raw
3,Om Prakash Chouhan,1954-06-10,RAJ,83,79.5,80,82.5,87.5,87.5,87.5,M,Masters 3,B,Raw
4,Louis Noronha,1957-11-30,M P,83,82.4,75,82.5,87.5,87.5,87.5,M,Masters 3,B,Raw
5,Gurdev Singh,1955-12-07,PUN,83,75,72.5,75,-77.5,75,75,M,Masters 3,B,Raw
6,Satvinder Singh,1956-07-01,DEL,83,78.2,62.5,67.5,-70,67.5,67.5,M,Masters 3,B,Raw
7,Dinabandhu Das,1956-07-05,W.B,83,80,55,60,62.5,62.5,62.5,M,Masters 3,B,Raw
1,Anil Kumar Sharma,1957-02-05,DEL,93,91.8,105,112.5,-117.5,112.5,112.5,M,Masters 3,B,Raw
2,Gurveer Singh,1956-01-01,U.P,93,84.7,100,107.5,-110,107.5,107.5,M,Masters 3,B,Raw
3,Deepak Haldar,1958-01-01,U.P,93,83.7,92.5,100,-102.5,100,100,M,Masters 3,B,Raw
4,H.A Pradeep Kumar,1959-03-26,TEL,93,91.5,85,92.5,-95,92.5,92.5,M,Masters 3,B,Raw
5,Bir Parkash Kapoor,1957-11-18,PUN,93,85.4,65,70,72.5,72.5,72.5,M,Masters 3,B,Raw
6,Hari Gopal Thanvi,1955-08-10,RAJ,93,86.3,-65,72.5,-77.5,72.5,72.5,M,Masters 3,B,Raw
7,Tapas Kanti Dutta,1956-04-30,W.B,93,90.1,65,70,-77.5,70,70,M,Masters 3,B,Raw
8,Suresh Bansode,1952-04-01,MAH,93,84.8,60,65,-70,65,65,M,Masters 3,B,Raw
1,Mahesh Chndra Mahatma,1957-07-19,RAJ,105,102.1,110,115,-117.5,115,115,M,Masters 3,B,Raw
2,Manjunath Malya,1955-05-08,KAR,105,101.2,100,105,110,110,110,M,Masters 3,B,Raw
1,Shareef Khan,1959-05-15,M P,120,110.4,100,-120,120,120,120,M,Masters 3,B,Raw
2,Chander Kant Bhalla,1956-03-03,JHA,120,112.5,95,100,102.5,102.5,102.5,M,Masters 3,B,Raw
1,Sundararaj I,1949-10-24,T.N,59,55.5,65,70,-72.5,70,70,M,Masters 4,B,Raw
2,Anil Kumtekar,1941-06-26,MAH,59,54.8,40,45,50,50,50,M,Masters 4,B,Raw
1,Durgesh Kumar Beohar,1949-09-02,M P,66,62.2,30,-35,37.5,37.5,37.5,M,Masters 4,B,Raw
2,Raj Pal Singh Bawa,1935-05-03,DEL,66,64.7,27.5,32.5,-35,32.5,32.5,M,Masters 4,B,Raw
1,Gurcharan Singh,1939-05-18,DEL,74,67.8,-30,30,35,35,35,M,Masters 4,B,Raw
1,Nirmal Kumar Saha,1948-03-19,W.B,83,75.1,70,75,80,80,80,M,Masters 4,B,Raw
2,Ram Prakesh Matta,1949-03-28,DEL,83,75.9,60,65,,65,65,M,Masters 4,B,Raw
1,Humanshi Gurjar,2003-09-26,RAJ,43,43,60,-62.5,-62.5,60,60,F,Sub-Juniors,B,Single-ply
2,Mini Mathi M,2004-07-25,PUD,43,43,50,-52.5,-52.5,50,50,F,Sub-Juniors,B,Single-ply
3,Shalan Pinto,2004-03-02,KAR,43,43,40,45,-50,45,45,F,Sub-Juniors,B,Single-ply
1,Shipra Mishra,2003-10-13,RAJ,47,45.9,65,72.5,-77.5,72.5,72.5,F,Sub-Juniors,B,Single-ply
2,Sona Lakshmi V,2005-03-12,T.N,47,46.6,-50,50,55,55,55,F,Sub-Juniors,B,Single-ply
3,Mahi Chouhan,2004-04-30,RAJ,47,47,47.5,55,-60,55,55,F,Sub-Juniors,B,Single-ply
4,K Manju,2003-01-01,A P,47,46.6,-32.5,32.5,-35,32.5,32.5,F,Sub-Juniors,B,Single-ply
1,Mamta Choudhary,2002-01-04,RAJ,52,51.2,72.5,75,-77.5,75,75,F,Sub-Juniors,B,Single-ply
2,Santosh Godara,2001-07-22,RAJ,52,49.1,42.5,47.5,50,50,50,F,Sub-Juniors,B,Single-ply
3,Rishitaa Jain,2003-04-19,DEL,52,52,-45,45,-52.5,45,45,F,Sub-Juniors,B,Single-ply
4,Madineni Sailaja,2001-01-01,A P,52,50.7,30,-32.5,32.5,32.5,32.5,F,Sub-Juniors,B,Single-ply
1,Dhanashri Mahadik,2003-05-27,MAH,57,56.2,-65,65,72.5,72.5,72.5,F,Sub-Juniors,B,Single-ply
2,Konthoujam Thoibi Devi,2002-02-23,MAN,57,56.9,30,-37.5,40,40,40,F,Sub-Juniors,B,Single-ply
DQ,Pragya Sharma,2005-07-23,RAJ,57,55.1,-50,-50,-60,,,F,Sub-Juniors,B,Single-ply
1,Kumari Niketa,2002-02-11,DEL,63,60.9,-65,72.5,-77.5,72.5,72.5,F,Sub-Juniors,B,Single-ply
2,Geetika Jaggi,2004-06-20,M P,63,62.8,30,35,-40,35,35,F,Sub-Juniors,B,Single-ply
3,Navya Malhotra,2001-09-21,DEL,63,61.8,30,-35,-40,30,30,F,Sub-Juniors,B,Single-ply
1,Nandini Dhawan,2002-07-20,DEL,72,68.7,65,75,-85,75,75,F,Sub-Juniors,B,Single-ply
2,Elangbam Jeshika Devi,2004-03-20,MAN,72,67.4,25,30,-35,30,30,F,Sub-Juniors,B,Single-ply
1,Gayathri S,2004-11-02,PUD,84,82.5,60,65,70,70,70,F,Sub-Juniors,B,Single-ply
2,Hency Korat,2001-07-11,GUJ,84,74.2,55,60,62.5,62.5,62.5,F,Sub-Juniors,B,Single-ply
3,Mahalaxmi G,2004-12-03,KAR,84,76.8,40,47.5,50,50,50,F,Sub-Juniors,B,Single-ply
1,Deepthika J Puthran,2003-04-04,KAR,84+,89.6,-52.5,55,62.5,62.5,62.5,F,Sub-Juniors,B,Single-ply
2,Reshieal Roshni Monteiro,2005-12-07,KAR,84+,84.2,40,47.5,52.5,52.5,52.5,F,Sub-Juniors,B,Single-ply
1,Sushmita Deshmukh #1,1996-11-06,MAH,43,42.5,52.5,55,57.5,57.5,57.5,F,Juniors,B,Single-ply
1,Sayma,2001-04-23,DEL,47,47,-55,60,-62.5,60,60,F,Juniors,B,Single-ply
2,Kiran Bai Gurjar,1997-07-01,RAJ,47,46.1,-50,50,55,55,55,F,Juniors,B,Single-ply
1,Kanchan Swami,1999-08-01,RAJ,52,51.9,75,80,85,85,85,F,Juniors,B,Single-ply
2,Kriti Kumari,1998-11-07,KER,52,50.2,67.5,72.5,75,75,75,F,Juniors,B,Single-ply
3,Neema Kumari,1997-01-06,KAR,52,50.6,-70,70,75,75,75,F,Juniors,B,Single-ply
4,Himanshi,1998-01-14,DEL,52,51.5,65,-75,75,75,75,F,Juniors,B,Single-ply
5,Dhanashri Shelar,1996-02-19,MAH,52,50.9,50,57.5,-62.5,57.5,57.5,F,Juniors,B,Single-ply
1,Aditi Gupta,1996-06-25,KAR,57,55.5,85,90,-95,90,90,F,Juniors,B,Single-ply
2,Jyoti Singh,1997-01-01,U.P,57,56.9,-67.5,67.5,72.5,72.5,72.5,F,Juniors,B,Single-ply
3,Swathi. U.K,1997-03-27,KAR,57,56.9,60,70,-72.5,70,70,F,Juniors,B,Single-ply
4,Ajnu Mali,2000-01-01,RAJ,57,56.9,65,-72.5,-72.5,65,65,F,Juniors,B,Single-ply
5,Tutu Mandal,1999-05-25,ASA,57,57,65,-75,-75,65,65,F,Juniors,B,Single-ply
6,M. Vijaya Lakshmi,2000-01-01,A P,57,54.7,55,-65,-65,55,55,F,Juniors,B,Single-ply
7,Rachel David,1997-12-12,DEL,57,55.1,40,42.5,45,45,45,F,Juniors,B,Single-ply
1,Manju Rani,1999-12-27,HAR,63,62.2,-80,80,85,85,85,F,Juniors,B,Single-ply
2,Venizeia Annie Carlo,2000-02-07,KAR,63,63,-80,80,-87.5,80,80,F,Juniors,B,Single-ply
3,Hritvika Sardesai,2000-03-31,MAH,63,62.7,65,67.5,-70,67.5,67.5,F,Juniors,B,Single-ply
4,Harshitha K. L,1998-10-12,KAR,63,58.2,55,60,-65,60,60,F,Juniors,B,Single-ply
1,Om Kanwar,1997-10-05,RAJ,72,69.8,82.5,85,-87.5,85,85,F,Juniors,B,Single-ply
2,Unnati Sonawane,1997-06-05,MAH,72,67.2,62.5,65,-67.5,65,65,F,Juniors,B,Single-ply
1,Anuja Sawant,1999-08-06,MAH,84,81.5,-120,120,130,130,130,F,Juniors,B,Single-ply
2,Diksha Sain,2000-03-30,DEL,84,84,90,97.5,-102.5,97.5,97.5,F,Juniors,B,Single-ply
3,Simran Bumrah,1998-12-04,J & K,84,76.9,42.5,47.5,50,50,50,F,Juniors,B,Single-ply
DQ,Parul Modi,1999-01-22,RAJ,84,72.1,-60,-60,-60,,,F,Juniors,B,Single-ply
1,Pratiksha Salvi,1998-04-12,MAH,84+,85,100,-107.5,-107.5,100,100,F,Juniors,B,Single-ply
2,Shikha,1998-05-27,RAJ,84+,93.7,85,92.5,95,95,95,F,Juniors,B,Single-ply
3,Megha Nayak,2000-03-18,M P,84+,95.5,85,92.5,95,95,95,F,Juniors,B,Single-ply
4,Rachael Noronha,1999-12-08,KAR,84+,117.2,70,82.5,-90,82.5,82.5,F,Juniors,B,Single-ply
5,Gajala Trannum Bagwan,1999-10-17,RAJ,84+,87.7,60,-72.5,,60,60,F,Juniors,B,Single-ply
1,Sathya Kumari R,1974-09-03,KAR,47,41,27.5,32.5,-35,32.5,32.5,F,Masters 1,B,Single-ply
1,Arita Shrivastava,1978-07-01,RAJ,57,56.1,40,50,-55,50,50,F,Masters 1,B,Single-ply
1,Sima Dutta Chatterjee,1977-12-31,W.B,63,62.5,37.5,-42.5,42.5,42.5,42.5,F,Masters 1,B,Single-ply
2,Kajal Kundu,1977-03-17,W.B,63,62.2,27.5,30,32.5,32.5,32.5,F,Masters 1,B,Single-ply
1,Arathi Arun,1975-03-13,T.N,72,69.8,62.5,70,72.5,72.5,72.5,F,Masters 1,B,Single-ply
2,Sweta Sahni,1978-01-31,DEL,72,71.9,60,-70,-75,60,60,F,Masters 1,B,Single-ply
3,Jyothi Badekar,1977-10-20,MAH,72,67.5,32.5,35,37.5,37.5,37.5,F,Masters 1,B,Single-ply
DQ,Ch Marjuna Devi,1978-08-14,MAN,72,70.6,-30,-30,-35,,,F,Masters 1,B,Single-ply
DQ,Manisha Gupta,1979-06-07,DEL,72,72,-52.5,-52.5,-52.5,,,F,Masters 1,B,Single-ply
1,Sonika Khattar,1972-10-25,CCSCSB,84,79.4,65,70,75,75,75,F,Masters 1,B,Single-ply
2,Saswati Behera,1979-03-03,DEL,84,83.9,65,-70,-70,65,65,F,Masters 1,B,Single-ply
3,Anil Kumari,1974-04-05,DEL,84,78.5,52.5,55,-57.5,55,55,F,Masters 1,B,Single-ply
4,Madhushree Mukharjee,1977-10-29,W.B,84,73.2,30,32.5,35,35,35,F,Masters 1,B,Single-ply
1,Poonam Duneja,1974-12-08,DEL,84+,89.6,-60,60,67.5,67.5,67.5,F,Masters 1,B,Single-ply
2,Lavina Irene Perera,1971-10-20,KAR,84+,88.3,40,45,-47.5,45,45,F,Masters 1,B,Single-ply
3,Sikha Mondal,1977-06-01,W.B,84+,91.4,37.5,42.5,45,45,45,F,Masters 1,B,Single-ply
1,Nicey Mohanpeters,1968-04-07,KER,57,55,20,25,-30,25,25,F,Masters 2,B,Single-ply
1,Sreeja Sajeevan,1968-01-29,KER,72,69.5,25,30,-35,30,30,F,Masters 2,B,Single-ply
1,Gayatri Tomar,1966-11-04,M P,84+,84.5,57.5,67.5,-77.5,67.5,67.5,F,Masters 2,B,Single-ply
2,Kakali Sinha,1968-02-09,W.B,84+,100.5,27.5,30,32.5,32.5,32.5,F,Masters 2,B,Single-ply
3,Huirem Ibempishak Devi,1965-03-01,MAN,84+,84.4,20,-25,-25,20,20,F,Masters 2,B,Single-ply
1,Dhruv Raj Kure,2002-06-02,M P,53,52.4,102.5,-105,-105,102.5,102.5,M,Sub-Juniors,B,Single-ply
2,Dhiraj Kinger,2001-01-20,JHA,53,51.8,95,100,-102.5,100,100,M,Sub-Juniors,B,Single-ply
3,Chirag T Ganiga,2001-09-06,KAR,53,52.6,82.5,90,-95,90,90,M,Sub-Juniors,B,Single-ply
4,Dhiraj Puri,2001-07-01,RAJ,53,50.8,75,82.5,-90,82.5,82.5,M,Sub-Juniors,B,Single-ply
5,Samuel Vasanth S,2004-11-11,T.N,53,50.8,-80,80,-82.5,80,80,M,Sub-Juniors,B,Single-ply
7,Gousepeer M,2004-12-25,KAR,53,53,75,80,-92.5,80,80,M,Sub-Juniors,B,Single-ply
6,Maibam Ibomcha Meitei,2002-03-16,MAN,53,53,80,-85,-85,80,80,M,Sub-Juniors,B,Single-ply
8,Gaurav Sahu,2001-10-26,RAJ,53,52,65,-70,,65,65,M,Sub-Juniors,B,Single-ply
1,Prajwal,2002-05-23,KAR,59,58.4,110,115,-120,115,115,M,Sub-Juniors,B,Single-ply
2,Chandra Prakash Ojha,2003-06-27,RAJ,59,57,-110,110,-115,110,110,M,Sub-Juniors,B,Single-ply
3,Sandesh Kumar,2001-01-18,DEL,59,59,-95,110,-122.5,110,110,M,Sub-Juniors,B,Single-ply
4,Sonu Sharma,2003-01-03,JHA,59,57,-105,105,-117.5,105,105,M,Sub-Juniors,B,Single-ply
5,Aum Desai,2001-04-17,MAH,59,57.2,87.5,95,-105,95,95,M,Sub-Juniors,B,Single-ply
6,Tushar Kadam,2001-02-14,M P,59,58.9,95,-105,-105,95,95,M,Sub-Juniors,B,Single-ply
7,Amandeep Singh Dhillon,2001-01-19,PUN,59,59,90,-105,-112.5,90,90,M,Sub-Juniors,B,Single-ply
8,Daniel Easo John,2005-10-09,KER,59,54.4,25,30,-35,30,30,M,Sub-Juniors,B,Single-ply
1,Akshay Prajapati,2001-09-10,MAH,66,65.5,130,-135,-135,130,130,M,Sub-Juniors,B,Single-ply
2,Tourangbam Satish Meitei,2001-03-02,MAN,66,65.8,-110,-110,125,125,125,M,Sub-Juniors,B,Single-ply
3,Himanshu Kumar,2001-01-01,DEL,66,64.3,-115,120,-125,120,120,M,Sub-Juniors,B,Single-ply
4,Gurpreet Singh #7,2001-08-28,PUN,66,66,-110,115,117.5,117.5,117.5,M,Sub-Juniors,B,Single-ply
5,Khushal Samriya,2001-04-27,RAJ,66,66,-115,115,-122.5,115,115,M,Sub-Juniors,B,Single-ply
6,B. Naveen Kumar #2,2001-11-30,A P,66,61.5,75,82.5,-87.5,82.5,82.5,M,Sub-Juniors,B,Single-ply
1,Pranav Kumar Gahlot,2002-05-05,RAJ,74,72.4,117.5,120,132.5,132.5,132.5,M,Sub-Juniors,B,Single-ply
2,Haribaskar R,2001-09-25,T.N,74,70.3,-80,80,90,90,90,M,Sub-Juniors,B,Single-ply
3,Alfin M A,2001-03-12,KER,74,72.9,90,-100,-102.5,90,90,M,Sub-Juniors,B,Single-ply
DQ,P Vamsikrishna,2003-01-01,A P,74,71.2,-100,-100,-100,,,M,Sub-Juniors,B,Single-ply
DQ,Mr Pankaj,2002-03-14,DEL,74,71.6,-130,-130,-130,,,M,Sub-Juniors,B,Single-ply
1,Mannu Chaudhary,2003-03-05,DEL,83,81.2,145,150,160,160,160,M,Sub-Juniors,B,Single-ply
2,G Syamprakash,2001-01-01,A P,83,76,105,-115,117.5,117.5,117.5,M,Sub-Juniors,B,Single-ply
3,Sarfaraz Alam,2002-01-01,JHA,83,81.6,115,-120,-120,115,115,M,Sub-Juniors,B,Single-ply
4,Prawan D'Souza,2001-02-23,KAR,83,83,-115,-115,115,115,115,M,Sub-Juniors,B,Single-ply
5,Neeraj Singh,2004-06-20,J & K,83,83,100,105,110,110,110,M,Sub-Juniors,B,Single-ply
6,Ravindra Ravindra,2005-01-01,RAJ,83,74.2,105,-117.5,-117.5,105,105,M,Sub-Juniors,B,Single-ply
7,Rohit Jat,2002-06-28,M P,83,76.4,90,97.5,102.5,102.5,102.5,M,Sub-Juniors,B,Single-ply
DQ,Tamilarasan K,2001-03-27,T.N,83,74.3,-102.5,-102.5,-120,,,M,Sub-Juniors,B,Single-ply
DQ,Kartik Nayak,2001-08-15,MAH,83,81,-120,-120,-120,,,M,Sub-Juniors,B,Single-ply
DQ,Vikash,2002-08-20,HAR,83,82.1,-142.5,-142.5,-142.5,,,M,Sub-Juniors,B,Single-ply
1,Varshit V Rao,2002-02-25,KAR,93,90.6,140,150,-152.5,150,150,M,Sub-Juniors,B,Single-ply
2,Rakshith V,2002-12-25,KAR,93,84.1,127.5,-140,142.5,142.5,142.5,M,Sub-Juniors,B,Single-ply
3,Dharmender Sharma,2001-09-29,DEL,93,91.8,135,-142.5,-142.5,135,135,M,Sub-Juniors,B,Single-ply
4,Daksh Singh Chouhan,2004-04-19,RAJ,93,89.9,-117.5,125,127.5,127.5,127.5,M,Sub-Juniors,B,Single-ply
5,P. Lakshman Reddy,2001-05-29,A P,93,85.6,110,120,-125,120,120,M,Sub-Juniors,B,Single-ply
6,Mr Sanjeev,2002-10-23,DEL,93,91.4,100,105,110,110,110,M,Sub-Juniors,B,Single-ply
7,Nilesh Deshmukh,2002-02-06,MAH,93,86.4,95,-102.5,-102.5,95,95,M,Sub-Juniors,B,Single-ply
DQ,Atul Singh,2002-01-09,J & K,93,89.7,-125,,,,,M,Sub-Juniors,B,Single-ply
1,Hanuman Ojha,2002-10-10,RAJ,105,103.2,140,-147.5,152.5,152.5,152.5,M,Sub-Juniors,B,Single-ply
2,Prasad D'Souza,2001-02-23,KAR,105,98.2,140,147.5,150,150,150,M,Sub-Juniors,B,Single-ply
3,Sourav Dey,2002-05-27,JHA,105,99.5,-135,-135,135,135,135,M,Sub-Juniors,B,Single-ply
4,Mayank Dalal,2002-05-30,DEL,105,102.3,-107.5,110,-120,110,110,M,Sub-Juniors,B,Single-ply
1,Aniket Khatri,2001-04-20,DEL,120,117,190,197.5,-202.5,197.5,197.5,M,Sub-Juniors,B,Single-ply
2,Vinoth G,2001-01-06,T.N,120,110,-160,160,-170,160,160,M,Sub-Juniors,B,Single-ply
1,Tanishq Grover,2002-05-01,M P,120+,125.5,120,130,-135,130,130,M,Sub-Juniors,B,Single-ply
2,Rohit Ojha,2002-10-07,RAJ,120+,134.3,105,117.5,127.5,127.5,127.5,M,Sub-Juniors,B,Single-ply
3,Prathvi. P. Kumar,2001-05-10,KAR,120+,122.3,110,112.5,117.5,117.5,117.5,M,Sub-Juniors,B,Single-ply
1,Sunil B,1998-03-09,KAR,53,51.2,110,115,-120,115,115,M,Juniors,B,Single-ply
2,Harshul Sharma,1998-09-20,J & K,53,52.3,95,102.5,107.5,107.5,107.5,M,Juniors,B,Single-ply
3,Akash Kumar Rawani,1997-08-11,JHA,53,52.8,95,97.5,-105,97.5,97.5,M,Juniors,B,Single-ply
4,Nitin Kumar Kori,1998-01-27,M P,53,50.3,80,-90,-90,80,80,M,Juniors,B,Single-ply
DQ,Uday Sharma,1997-03-26,M P,53,51.9,-95,-95,-97.5,,,M,Juniors,B,Single-ply
1,Aditya Sharma #2,1996-03-20,J & K,59,58.6,125,130,-132.5,130,130,M,Juniors,B,Single-ply
2,Lucky Patel,1998-05-29,M P,59,59,117.5,-120,120,120,120,M,Juniors,B,Single-ply
3,Shailendra Pratap Singh,1998-12-08,M P,59,58.3,117.5,-125,-125,117.5,117.5,M,Juniors,B,Single-ply
4,Himadri Shekhar Chakroborty,1997-05-29,ASA,59,57,110,-115,-117.5,110,110,M,Juniors,B,Single-ply
5,Shardul Bhuvad,2000-04-11,MAH,59,59,80,87.5,92.5,92.5,92.5,M,Juniors,B,Single-ply
1,Priyanshu Vats,1998-04-11,DEL,66,65.1,-140,145,-150,145,145,M,Juniors,B,Single-ply
2,Adarsh Tanwar,1998-03-04,RAJ,66,66,-140,-140,140,140,140,M,Juniors,B,Single-ply
3,Vithesh Vithesh,1996-12-03,KAR,66,65.9,-127.5,-127.5,127.5,127.5,127.5,M,Juniors,B,Single-ply
4,Rabir Singh,2001-09-13,JHA,66,66,122.5,-132.5,-132.5,122.5,122.5,M,Juniors,B,Single-ply
5,Pawan Kumar Gupta,1997-02-21,M P,66,64.8,-115,-115,115,115,115,M,Juniors,B,Single-ply
6,Mohammed Farooq,1999-05-05,KER,66,60.5,70,80,90,90,90,M,Juniors,B,Single-ply
DQ,Shiv Muni Ram,1998-05-22,PUN,66,62.4,-110,-110,-110,,,M,Juniors,B,Single-ply
DQ,Devraj Saini,2002-07-01,HAR,66,66,-120,-120,-135,,,M,Juniors,B,Single-ply
1,Dharmendra Yadav #2,1998-03-30,U.P,74,73.6,190,192.5,-200,192.5,192.5,M,Juniors,B,Single-ply
2,Rahul Bhagat,1997-02-28,JHA,74,73.6,150,155,157.5,157.5,157.5,M,Juniors,B,Single-ply
3,Gurpreet Singh #10,1998-03-26,PUN,74,73.4,142.5,150,-157.5,150,150,M,Juniors,B,Single-ply
4,Bhagirath Saini,1996-10-28,RAJ,74,,140,-147.5,-157.5,140,140,M,Juniors,B,Single-ply
5,Gagan Raj P Shetty,1997-06-24,KAR,74,73.9,135,-142.5,-152.5,135,135,M,Juniors,B,Single-ply
6,Harsh Kumar,1997-08-29,PUN,74,72.7,130,-135,-135,130,130,M,Juniors,B,Single-ply
7,Lav Mali,2000-01-11,M P,74,73.7,100,107.5,110,110,110,M,Juniors,B,Single-ply
8,Anikeet Bhagat,1998-11-06,J & K,74,71.5,72.5,77.5,82.5,82.5,82.5,M,Juniors,B,Single-ply
DQ,Pritam Pandey,1996-01-11,DEL,74,73.6,-140,-140,-160,,,M,Juniors,B,Single-ply
1,Aditya Paliwal,1996-11-21,DEL,83,83,-190,200,-205,200,200,M,Juniors,B,Single-ply
2,Mohmd Farhan,1996-09-15,KAR,83,79.9,170,-180,180,180,180,M,Juniors,B,Single-ply
3,Ram Singh,1998-04-09,HAR,83,81.9,155,165,170,170,170,M,Juniors,B,Single-ply
4,Dhaneshwar Sahu,1998-12-10,JHA,83,83,147.5,157.5,167.5,167.5,167.5,M,Juniors,B,Single-ply
5,Vikas Sharma,2000-05-01,RAJ,83,81.4,155,165,-172.5,165,165,M,Juniors,B,Single-ply
6,Udhay Veer Singh #1,1998-08-03,J & K,83,82.5,155,165,-172.5,165,165,M,Juniors,B,Single-ply
7,Vishal Singh,1997-03-04,J & K,83,82.2,-155,155,-172.5,155,155,M,Juniors,B,Single-ply
8,Mohit Rajpurohit,1999-04-28,RAJ,83,82,142.5,-147.5,-147.5,142.5,142.5,M,Juniors,B,Single-ply
9,Mayur Dhanvi,1997-02-22,MAH,83,81.9,130,137.5,-145,137.5,137.5,M,Juniors,B,Single-ply
10,Amal John,1999-04-06,KER,83,82,100,110,-125,110,110,M,Juniors,B,Single-ply
DQ,Narender,1996-03-16,HAR,83,80.7,-162.5,-162.5,-172.5,,,M,Juniors,B,Single-ply
DQ,Lovepreet Banga,1996-02-05,PUN,83,81,-165,-165,-165,,,M,Juniors,B,Single-ply
1,Amandeep Bassan,1996-09-23,J & K,93,91.1,195,202.5,-225,202.5,202.5,M,Juniors,B,Single-ply
2,Mukesh Singh #2,2000-10-15,JHA,93,91,-165,172.5,177.5,177.5,177.5,M,Juniors,B,Single-ply
3,Sahil Shaikh,1998-02-10,MAH,93,92.2,-170,170,-180,170,170,M,Juniors,B,Single-ply
4,Shoy Gupta,1998-08-14,J & K,93,87.4,150,162.5,-175,162.5,162.5,M,Juniors,B,Single-ply
5,Vedaksha Wagh,1996-09-25,MAH,93,92.3,150,162.5,-177.5,162.5,162.5,M,Juniors,B,Single-ply
6,Ritanshu Khanna,2000-10-27,RAJ,93,84.9,150,-155,-155,150,150,M,Juniors,B,Single-ply
7,Kanhaiya Lal Vyas,1998-01-12,RAJ,93,90.8,-140,140,-170,140,140,M,Juniors,B,Single-ply
8,Abhilash H,1996-06-28,KER,93,91.3,130,140,-150,140,140,M,Juniors,B,Single-ply
DQ,Ananth Sripad Bhat,1996-07-10,KAR,93,90.6,-175,-175,-177.5,,,M,Juniors,B,Single-ply
DQ,Gaurav Ahlawat,1997-12-31,DEL,93,90.7,-155,-160,-172.5,,,M,Juniors,B,Single-ply
DQ,Jogender Ram,2000-05-05,JHA,93,92.1,-167.5,-167.5,-167.5,,,M,Juniors,B,Single-ply
1,Sandeep Kumar #7,1997-08-15,HAR,105,96.5,-180,-190,192.5,192.5,192.5,M,Juniors,B,Single-ply
2,Sachin Yadav,1996-03-27,RAJ,105,102.7,180,-192.5,-192.5,180,180,M,Juniors,B,Single-ply
3,Ram Chouhan,1997-01-27,M P,105,99.9,155,165,172.5,172.5,172.5,M,Juniors,B,Single-ply
4,Suraj P. Shet,1999-10-17,KAR,105,94.7,155,165,-172.5,165,165,M,Juniors,B,Single-ply
5,Harshvardhan Khadre,1999-09-08,MAH,105,93.9,140,150,-165,150,150,M,Juniors,B,Single-ply
6,Gourav Sharma #2,2000-09-11,J & K,105,101.3,-140,140,-160,140,140,M,Juniors,B,Single-ply
7,Abhiam Sharma,2000-04-06,J & K,105,100.7,107.5,112.5,115,115,115,M,Juniors,B,Single-ply
DQ,Inder Singh,1996-11-10,DEL,105,99.6,-195,-200,-202.5,,,M,Juniors,B,Single-ply
1,Israr Pasha,1999-01-26,KAR,120,110,145,-150,-150,145,145,M,Juniors,B,Single-ply
2,Rishab Rao,1999-03-02,KAR,120,112,135,142.5,-147.5,142.5,142.5,M,Juniors,B,Single-ply
3,Lokesh Khatri,1999-01-01,RAJ,120,116,130,-132.5,-132.5,130,130,M,Juniors,B,Single-ply
1,Paritesh Pal,1999-09-30,M P,120+,131.6,150,160,,160,160,M,Juniors,B,Single-ply
2,Nikhil Saini,2000-12-29,RAJ,120+,120.7,-140,140,-155,140,140,M,Juniors,B,Single-ply
1,Dileep Sharma,1979-08-10,M P,59,57.6,115,120,,120,120,M,Masters 1,B,Single-ply
2,Hanumanthe Gowda,1976-02-02,KAR,59,57.6,97.5,-102.5,-105,97.5,97.5,M,Masters 1,B,Single-ply
1,Devendra Diwan,1979-02-02,M P,66,66,147.5,150,,150,150,M,Masters 1,B,Single-ply
2,Naveen Arora,1976-11-24,DEL,66,65.8,137.5,-145,145,145,145,M,Masters 1,B,Single-ply
3,Sunil Nagouri,1976-02-07,RAJ,66,65.3,127.5,-137.5,-137.5,127.5,127.5,M,Masters 1,B,Single-ply
4,Prakash B #1,1975-06-11,T.N,66,65.4,115,120,-130,120,120,M,Masters 1,B,Single-ply
5,Prashant Verma,1979-09-10,CCSCSB,66,64.8,90,95,-100,95,95,M,Masters 1,B,Single-ply
6,Raikumar Naorem,1976-01-02,MAN,66,62.1,-85,85,-95,85,85,M,Masters 1,B,Single-ply
7,Sai Santhosh,1978-02-02,KER,66,65,85,-92.5,-92.5,85,85,M,Masters 1,B,Single-ply
8,Santosh Gawade,1976-06-11,MAH,66,61.1,70,80,-87.5,80,80,M,Masters 1,B,Single-ply
1,Nithin Malhaskar,1977-09-24,MAH,74,72,137.5,145,-152.5,145,145,M,Masters 1,B,Single-ply
2,Radhey Shayam Sen,1975-09-01,M P,74,73.1,120,125,130,130,130,M,Masters 1,B,Single-ply
3,Rajesh Rana,1978-08-14,PUN,74,68.8,-115,117.5,125,125,125,M,Masters 1,B,Single-ply
4,Hiralal Borasi,1978-07-24,M P,74,68.7,105,110,122.5,122.5,122.5,M,Masters 1,B,Single-ply
5,Sunil Kumar,1975-10-20,DEL,74,73.1,115,120,-125,120,120,M,Masters 1,B,Single-ply
6,Ashok Mate,1972-10-05,MAH,74,72.4,-115,115,-122.5,115,115,M,Masters 1,B,Single-ply
7,Ghanshyan Singh Goyal,1974-10-17,RAJ,74,70.1,105,-110,-122.5,105,105,M,Masters 1,B,Single-ply
1,Vincent P. Carlo,1972-01-26,KAR,83,81.5,-190,190,-197.5,190,190,M,Masters 1,B,Single-ply
2,Manmohan Kalla,1979-01-01,RAJ,83,82.8,140,-147.5,150,150,150,M,Masters 1,B,Single-ply
3,Anand S. Mandia,1971-10-07,CCSCSB,83,82.5,140,145,-147.5,145,145,M,Masters 1,B,Single-ply
4,Vinayagam D,1977-05-19,T.N,83,77.3,-130,-135,135,135,135,M,Masters 1,B,Single-ply
5,Dhirendra Kumar,1976-07-04,RAJ,83,80.7,120,130,-140,130,130,M,Masters 1,B,Single-ply
6,Mr Pradeep,1976-03-28,DEL,83,82.1,120,125,127.5,127.5,127.5,M,Masters 1,B,Single-ply
7,Amit Sonker,1978-11-30,DEL,83,79,105,110,115,115,115,M,Masters 1,B,Single-ply
8,Sugeshkumar C,1976-05-28,KER,83,82.9,90,92.5,100,100,100,M,Masters 1,B,Single-ply
DQ,Manikandan S,1976-07-13,T.N,83,79.8,-137.5,-142.5,-147.5,,,M,Masters 1,B,Single-ply
1,Golden Rathore,1978-07-13,DEL,93,92.6,180,-182.5,185,185,185,M,Masters 1,B,Single-ply
2,Vikram Singh Chouhan #1,1976-08-06,RAJ,93,93,167.5,180,-187.5,180,180,M,Masters 1,B,Single-ply
3,Rajesh Kumar Singh,1975-01-01,JHA,93,89.7,160,165,170,170,170,M,Masters 1,B,Single-ply
4,Arun Kumar A,1974-01-05,KAR,93,91.4,150,157.5,162.5,162.5,162.5,M,Masters 1,B,Single-ply
5,Balgovind Tiwari,1972-10-29,A P,93,88,140,150,-165,150,150,M,Masters 1,B,Single-ply
6,Mahendra Kr Sharma,1976-04-24,JHA,93,93,135,-145,-145,135,135,M,Masters 1,B,Single-ply
7,John William Lawarance,1979-04-06,T.N,93,86.5,120,130,-140,130,130,M,Masters 1,B,Single-ply
8,Rajinder Singh,1974-05-09,DEL,93,92.6,122.5,130,-135,130,130,M,Masters 1,B,Single-ply
9,Muhammed Muneer,1975-05-10,KER,93,85.3,95,105,115,115,115,M,Masters 1,B,Single-ply
10,Rajesh Parmar,1970-11-28,M P,93,87.7,80,87.5,-92.5,87.5,87.5,M,Masters 1,B,Single-ply
1,Satyendra Singh Rathore,1975-07-15,RAJ,105,102.4,190,200,215,215,215,M,Masters 1,B,Single-ply
2,Javed Mehta,1974-09-25,DEL,105,95,180,-190,,180,180,M,Masters 1,B,Single-ply
3,Jamesh John Britto,1975-01-29,T.N,105,100,90,-105,-105,90,90,M,Masters 1,B,Single-ply
DQ,Psn Anudeep,1978-01-01,A P,105,96.7,-100,-110,-115,,,M,Masters 1,B,Single-ply
1,Chetan Kapoor,1976-07-19,DEL,120,108.9,150,162.5,170,170,170,M,Masters 1,B,Single-ply
2,Vinod Kumar,1976-06-01,KAR,120,113.5,-135,145,-147.5,145,145,M,Masters 1,B,Single-ply
3,Sanjay Khatri,1976-01-01,RAJ,120,105.7,130,-142.5,142.5,142.5,142.5,M,Masters 1,B,Single-ply
4,Shiv Kumar Vyas,1975-03-12,RAJ,120,105.2,110,130,140,140,140,M,Masters 1,B,Single-ply
5,Girish Binjwe,1971-10-01,MAH,120,105.5,130,-137.5,-137.5,130,130,M,Masters 1,B,Single-ply
1,Sarath Kumar R,1975-10-30,KER,120+,122.7,180,-195,-195,180,180,M,Masters 1,B,Single-ply
2,Rajesh Sutrave,1976-05-25,KAR,120+,126.3,135,145,147.5,147.5,147.5,M,Masters 1,B,Single-ply
1,Ganesh Ganesh,1968-02-01,KAR,59,57.8,95,100,102.5,102.5,102.5,M,Masters 2,B,Single-ply
2,Sanjay Billore,1967-09-26,M P,59,59,-95,95,100,100,100,M,Masters 2,B,Single-ply
3,Ravi B,1960-07-17,T.N,59,55.8,90,92.5,-102.5,92.5,92.5,M,Masters 2,B,Single-ply
1,Arun Sharma,1962-10-02,DEL,66,65.6,110,115,117.5,117.5,117.5,M,Masters 2,B,Single-ply
2,Zafar Azmi,1968-04-10,M P,66,60,-90,-90,90,90,90,M,Masters 2,B,Single-ply
1,Hemachandra,1966-10-27,KAR,74,74,122.5,132.5,-137.5,132.5,132.5,M,Masters 2,B,Single-ply
2,Raj Kumar #1,1964-01-04,DEL,74,72.1,130,-140,-140,130,130,M,Masters 2,B,Single-ply
3,Jagannath P,1968-05-30,KER,74,68.9,110,-115,-115,110,110,M,Masters 2,B,Single-ply
1,Rajesh Rawle,1969-11-01,MAH,83,78.4,140,147.5,-152.5,147.5,147.5,M,Masters 2,B,Single-ply
2,Pyare Lal,1966-08-11,CCSCSB,83,74.4,125,132.5,137.5,137.5,137.5,M,Masters 2,B,Single-ply
3,Venu E. N,1966-05-03,KER,83,79.8,125,130,-140,130,130,M,Masters 2,B,Single-ply
4,Suraj Ram Pawar,1968-04-10,JHA,83,81.4,130,-135,-135,130,130,M,Masters 2,B,Single-ply
5,Gilbert Dias,1964-02-25,KAR,83,77.5,120,-125,-130,120,120,M,Masters 2,B,Single-ply
6,Sadanandan C K,1962-05-15,KER,83,75.8,-100,100,107.5,107.5,107.5,M,Masters 2,B,Single-ply
7,Vishwanath P,1967-05-24,KAR,83,81.1,40,,,40,40,M,Masters 2,B,Single-ply
1,Devendrappa H,1968-03-09,KAR,93,91.7,130,-145,150,150,150,M,Masters 2,B,Single-ply
2,Ganta Nooka Raju,1969-06-01,A P,93,83.4,125,130,132.5,132.5,132.5,M,Masters 2,B,Single-ply
3,Sanjiv Razdan,1960-11-13,M P,93,90,120,125,130,130,130,M,Masters 2,B,Single-ply
4,Ram Nagina,1963-04-11,CHT,93,89.4,110,117.5,127.5,127.5,127.5,M,Masters 2,B,Single-ply
5,Pradeepkumar V K,1963-02-10,KER,93,86.3,75,85,-95,85,85,M,Masters 2,B,Single-ply
DQ,Bimal Indu Sharma,1964-12-16,J & K,93,91.9,-125,,,,,M,Masters 2,B,Single-ply
1,Vijay Kanchan,1968-07-24,KAR,105,104.7,220,-227.5,-227.5,220,220,M,Masters 2,B,Single-ply
2,Ajay Kumar #5,1963-08-20,CCSCSB,105,102,130,140,145,145,145,M,Masters 2,B,Single-ply
3,Veeraraghavan R,1961-06-15,T.N,105,95.7,127.5,135,-145,135,135,M,Masters 2,B,Single-ply
1,Sanjay Saxena,1964-10-03,M P,120,105.4,125,145,160,160,160,M,Masters 2,B,Single-ply
2,Jaswinder Kumar,1968-03-27,PUN,120,105.5,150,-160,-162.5,150,150,M,Masters 2,B,Single-ply
3,Sivaramalingam G,1965-07-10,T.N,120,105.6,110,120,-125,120,120,M,Masters 2,B,Single-ply
4,Easo John,1961-07-10,KER,120,115.3,67.5,72.5,75,75,75,M,Masters 2,B,Single-ply
1,Goutam Banerjee,1961-07-04,W.B,120+,137.5,125,130,-140,130,130,M,Masters 2,B,Single-ply
DQ,Mahesh Kumar Khandelwal,1957-07-12,RAJ,59,55.5,-100,-100,-100,,,M,Masters 3,B,Single-ply
1,Dayakar B,1958-07-03,KAR,66,65.4,72.5,82.5,90,90,90,M,Masters 3,B,Single-ply
1,Jyotirmoy Burman,1956-12-30,W.B,74,73,115,-127.5,-127.5,115,115,M,Masters 3,B,Single-ply
2,Yadava Suvarna,1950-05-08,KAR,74,72.7,82.5,92.5,97.5,97.5,97.5,M,Masters 3,B,Single-ply
3,Ashok Kumar Tiwari,1959-07-01,M P,74,70.6,80,87.5,-95,87.5,87.5,M,Masters 3,B,Single-ply
1,Indejit Singh Sabharwal,1954-02-07,JHA,83,79.9,130,-140,-145,130,130,M,Masters 3,B,Single-ply
1,Anil Kumar Sharma,1957-02-05,DEL,93,90.5,-110,110,115,115,115,M,Masters 3,B,Single-ply
2,Jagdish Singh,1955-06-15,CHN,93,86,-95,95,,95,95,M,Masters 3,B,Single-ply
1,Mahesh Chandra Mahatma,1957-07-19,RAJ,105,103,-127.5,-127.5,132.5,132.5,132.5,M,Masters 3,B,Single-ply
2,Manjunath Malya,1956-05-08,KAR,105,96,-115,125,127.5,127.5,127.5,M,Masters 3,B,Single-ply
3,Joydeb Ghosh,1957-08-10,W.B,105,96.1,110,117.5,-130,117.5,117.5,M,Masters 3,B,Single-ply
4,Prakash Bhoir,1959-02-02,MAH,105,96.3,105,110,112.5,112.5,112.5,M,Masters 3,B,Single-ply
1,Chander Kant Bhalla,1956-03-03,JHA,120,112,100,105,,105,105,M,Masters 3,B,Single-ply
1,Durgesh Kumar Beohar,1949-09-02,M P,66,61.9,30,35,-40,35,35,M,Masters 4,B,Single-ply
1,Ram Prakesh Matta,1949-03-28,DEL,83,76.4,60,-65,-65,60,60,M,Masters 4,B,Single-ply
1,Shipra Mishra,2003-10-13,RAJ,47,46,65,70,75,75,75,F,Open,B,Single-ply
2,Usha Rohini,2004-04-03,KAR,47,46.7,60,67.5,-75,67.5,67.5,F,Open,B,Single-ply
3,Manisha Sharma,1994-08-01,U.P,47,47,-55,55,-57.5,55,55,F,Open,B,Single-ply
4,Nisha Balmik,1987-11-29,M P,47,46.4,25,-27.5,-27.5,25,25,F,Open,B,Single-ply
1,Jyoti Khandare,1980-10-19,MAH,52,51.3,77.5,82.5,-87.5,82.5,82.5,F,Open,B,Single-ply
2,Akshatha Poojary,1987-08-08,KAR,52,51.5,80,82.5,-85,82.5,82.5,F,Open,B,Single-ply
3,Kriti Kumari,1998-11-07,KER,52,50.5,-72.5,72.5,75,75,75,F,Open,B,Single-ply
4,Neema Kumari,1997-01-06,KAR,52,50.8,70,72.5,75,75,75,F,Open,B,Single-ply
5,Mamta Choudhary,2002-01-04,RAJ,52,51.4,72.5,75,-77.5,75,75,F,Open,B,Single-ply
6,Kumari Himanshi,1998-01-14,DEL,52,52,72.5,-77.5,-77.5,72.5,72.5,F,Open,B,Single-ply
7,Deeksha Sharma,1991-12-20,U.P,52,52,65,70,-77.5,70,70,F,Open,B,Single-ply
DQ,Sakshi Koul,1998-02-28,J & K,52,50.9,-70,-72.5,-72.5,,,F,Open,B,Single-ply
1,Sudha Kumari,1979-01-06,BIH,57,56.3,90,105,110,110,110,F,Open,B,Single-ply
2,Bharosa Ved,1996-07-20,RAJ,57,55.9,85,90,-95,90,90,F,Open,B,Single-ply
3,Swathi. U.K,1997-03-27,KAR,57,56.9,60,-70,70,70,70,F,Open,B,Single-ply
4,Sapna Bharti,2000-08-27,U.P,57,56.8,-55,55,-57.5,55,55,F,Open,B,Single-ply
5,Preeti Rani,1990-04-08,DEL,57,55.2,45,-47.5,-47.5,45,45,F,Open,B,Single-ply
1,Anjali Sharma #1,1999-05-25,RAJ,63,62.6,115,122.5,-125,122.5,122.5,F,Open,B,Single-ply
2,Manju Rani,1999-12-27,HAR,63,61.3,-85,85,87.5,87.5,87.5,F,Open,B,Single-ply
3,Venizeia Annie Carlo,2000-02-07,KAR,63,63,77.5,82.5,-85,82.5,82.5,F,Open,B,Single-ply
4,Aishwarya K,1992-12-21,KAR,63,63,80,-85,-85,80,80,F,Open,B,Single-ply
DQ,Surbhi Bali,1997-11-19,J & K,63,61.9,-70,,,,,F,Open,B,Single-ply
1,Om Kanwar,1997-05-10,RAJ,72,70.2,82.5,-87.5,87.5,87.5,87.5,F,Open,B,Single-ply
2,Iti Sehgal,1983-09-02,DEL,72,71,77.5,82.5,85,85,85,F,Open,B,Single-ply
3,Shruthi K V,1993-09-03,KAR,72,64.7,55,60,70,70,70,F,Open,B,Single-ply
4,Khushboo Solanki,1994-05-31,RAJ,72,64,-65,65,-70,65,65,F,Open,B,Single-ply
5,Monika Sharma,1986-02-02,J & K,72,64.7,65,-70,-70,65,65,F,Open,B,Single-ply
1,Bhakti Ambre,1982-03-19,MAH,84,82,-125,125,135,135,135,F,Open,B,Single-ply
2,Sajida Nefees,1989-11-17,DEL,84,84,80,85,-87.5,85,85,F,Open,B,Single-ply
3,Raj Kumari Yadav,1981-02-07,RAJ,84,73.8,-75,75,77.5,77.5,77.5,F,Open,B,Single-ply
4,Jagrati Junaniya,1998-08-06,M P,84,83,-75,75,,75,75,F,Open,B,Single-ply
1,Jayita Majumder,1991-09-15,W.B,84+,110,-145,145,152.5,152.5,152.5,F,Open,B,Single-ply
2,Tina Sharma,1986-01-02,DEL,84+,113.5,90,97.5,102.5,102.5,102.5,F,Open,B,Single-ply
3,Megha Nayak,2000-03-18,M P,84+,94.8,-87.5,87.5,90,90,90,F,Open,B,Single-ply
4,Rachael Noronha,1999-12-08,KAR,84+,117,70,85,-90,85,85,F,Open,B,Single-ply
5,Manisha Prajapat,1992-01-01,RAJ,84+,89.9,75,-82.5,-82.5,75,75,F,Open,B,Single-ply
6,Chhaya Bhatt,1985-04-18,F C I,84+,116.8,65,-75,,65,65,F,Open,B,Single-ply
7,Upasana Mahajan,1989-08-15,J & K,84+,135,50,55,60,60,60,F,Open,B,Single-ply
1,Dharmendra Yadav #1,1993-01-10,MAH,59,58.9,152.5,157.5,160,160,160,M,Open,B,Single-ply
2,Sawan Kumar,1995-05-02,J & K,59,58.8,150,-157.5,157.5,157.5,157.5,M,Open,B,Single-ply
3,Arjun,1983-05-17,RAJ,59,57.4,135,137.5,142.5,142.5,142.5,M,Open,B,Single-ply
4,Rajesh Shukraware,1983-05-10,M P,59,57.9,137.5,142.5,-147.5,142.5,142.5,M,Open,B,Single-ply
5,Theerthesh M K,1995-10-15,KAR,59,57.9,127.5,-132.5,-135,127.5,127.5,M,Open,B,Single-ply
6,T. Durai Raj,1979-04-10,OFSPB,59,58.4,105,-110,-110,105,105,M,Open,B,Single-ply
DQ,Fayaz Hussain,1989-09-28,KER,59,58.1,-70,-70,-70,,,M,Open,B,Single-ply
1,Prahlad Singh,1995-01-01,RAJ,66,66,152.5,157.5,160,160,160,M,Open,B,Single-ply
2,Priyarenjan P,1990-05-02,KER,66,64.2,140,150,157.5,157.5,157.5,M,Open,B,Single-ply
3,Devendra Diwan,1979-02-02,M P,66,65.7,-145,145,150,150,150,M,Open,B,Single-ply
4,Dhurv Naik,1994-12-05,M P,66,65.6,132.5,142.5,-150,142.5,142.5,M,Open,B,Single-ply
5,T Maswara Rao,1977-11-02,OFSPB,66,65.7,132.5,140,-147.5,140,140,M,Open,B,Single-ply
6,Amit Kumar Pathak,1985-01-31,BIH,66,65.9,-125,125,132.5,132.5,132.5,M,Open,B,Single-ply
7,Vithesh Vithesh,1996-03-12,KAR,66,65.5,122.5,130,-145,130,130,M,Open,B,Single-ply
8,Rehman Sharif,1980-08-20,TEL,66,65.1,110,120,-125,120,120,M,Open,B,Single-ply
9,Gurpreet Singh #8,1986-06-24,CHN,66,64.3,-107.5,-112.5,112.5,112.5,112.5,M,Open,B,Single-ply
DQ,Prashant Tyagi,1995-06-06,U.P,66,65.5,-135,-135,-135,,,M,Open,B,Single-ply
DQ,Sandeep Banmotra,1988-07-11,J & K,66,65.6,-140,-147.5,-147.5,,,M,Open,B,Single-ply
DQ,Amit #1,1997-11-09,HAR,66,65.9,-155,-155,-155,,,M,Open,B,Single-ply
1,Manish Kumar #3,1999-10-10,DEL,74,72.9,-195,200,205,205,205,M,Open,B,Single-ply
2,S. Tandelu,1976-12-28,OFSPB,74,73.6,190,195,202.5,202.5,202.5,M,Open,B,Single-ply
3,Yogesh Kumar Sain,1985-05-25,RAJ,74,73.4,165,167.5,-175,167.5,167.5,M,Open,B,Single-ply
4,P. Manjappa,1988-02-03,KAR,74,70.4,130,-155,-155,130,130,M,Open,B,Single-ply
5,Thomas P Mathew,1990-05-19,KER,74,70.1,-120,-120,120,120,120,M,Open,B,Single-ply
DQ,Naveen Kumar #1,1982-02-12,DEL,74,72.5,-190,-200,-205,,,M,Open,B,Single-ply
DQ,Md. Harish Tausif,1994-06-24,BIH,74,74,-190,-190,-200,,,M,Open,B,Single-ply
DQ,Vikrant Singh,1989-10-27,J & K,74,74,-180,-180,-192.5,,,M,Open,B,Single-ply
1,Mahip Kumar,1987-10-10,DEL,83,82.2,202.5,212.5,220,220,220,M,Open,B,Single-ply
2,Pradeep Kumar #3,1988-05-04,KAR,83,82.5,207.5,212.5,-220,212.5,212.5,M,Open,B,Single-ply
3,Mahendra Kumar Singh,1989-11-23,JHA,83,81.9,-192.5,-192.5,202.5,202.5,202.5,M,Open,B,Single-ply
4,Joginder Kumar,1986-10-24,J & K,83,82.6,192.5,200,-205,200,200,M,Open,B,Single-ply
5,Yogeet Chander,1989-10-07,PUN,83,80.5,182.5,195,-205,195,195,M,Open,B,Single-ply
6,Vincent P. Carlo,1972-01-26,KAR,83,80.9,185,195,-202.5,195,195,M,Open,B,Single-ply
7,Sunil Gujrati,1983-10-27,RAJ,83,79,175,-180,-185,175,175,M,Open,B,Single-ply
8,Mahesh Chile,1986-01-14,OFSPB,83,82.4,140,,,140,140,M,Open,B,Single-ply
9,Nikhil Sharma,1997-07-24,M P,83,80,-135,135,,135,135,M,Open,B,Single-ply
1,Pradeep Kumar #4,1986-09-15,DEL,93,89.9,205,215,220,220,220,M,Open,B,Single-ply
2,Nutan #1,1997-06-12,HAR,93,92.7,200,212.5,-217.5,212.5,212.5,M,Open,B,Single-ply
3,Ranjan Kumar Singh,1988-01-01,JHA,93,91.8,195,-202.5,210,210,210,M,Open,B,Single-ply
4,Vikram Deep,1995-04-23,J & K,93,91.6,-200,200,207.5,207.5,207.5,M,Open,B,Single-ply
5,Aryan Passi,1994-08-26,PUN,93,90.1,192.5,195,-205,195,195,M,Open,B,Single-ply
6,Sahil Shaikh,2008-05-07,MAH,93,92.7,175,-177.5,-180,175,175,M,Open,B,Single-ply
7,Ananth Sripad Bhat,1996-07-10,KAR,93,92.5,-172.5,172.5,-185,172.5,172.5,M,Open,B,Single-ply
8,Lalit Kumar Gothania,1980-05-14,RAJ,93,87.6,160,170,-177.5,170,170,M,Open,B,Single-ply
9,Nishant Kumar #2,1982-02-03,BIH,93,89.9,135,,,135,135,M,Open,B,Single-ply
DQ,Faisal Khan,1983-01-23,M P,93,91.5,-180,-180,-180,,,M,Open,B,Single-ply
DQ,Amit #2,1991-05-04,HAR,93,92.5,-205,-205,-210,,,M,Open,B,Single-ply
DQ,Ali Mohmmad,1998-03-15,PUN,93,92.9,-190,-190,-207.5,,,M,Open,B,Single-ply
1,Hari Om,,HAR,105,99,245,260,267.5,267.5,267.5,M,Open,B,Single-ply
2,Vijay Kanchan,1968-07-24,KAR,105,105,220,227.5,232.5,232.5,232.5,M,Open,B,Single-ply
3,Satyendra Singh Rathore,1975-07-15,RAJ,105,102,200,210,212.5,212.5,212.5,M,Open,B,Single-ply
4,Roshan Lal Sharma,1987-04-06,J & K,105,105,-200,-205,212.5,212.5,212.5,M,Open,B,Single-ply
5,Harinder Singh,1987-07-22,CHN,105,97.7,170,185,197.5,197.5,197.5,M,Open,B,Single-ply
6,Ajinkya Padwankar,,MAH,105,95,-165,175,190,190,190,M,Open,B,Single-ply
7,Inder Singh,1996-11-10,DEL,105,100.6,162.5,172.5,177.5,177.5,177.5,M,Open,B,Single-ply
8,Raj Prasad Rajak,1996-02-06,W.B,105,99.5,-160,160,-180,160,160,M,Open,B,Single-ply
9,Bhupendra Kumar Soni,1979-09-03,OFSPB,105,97.9,140,147.5,157.5,157.5,157.5,M,Open,B,Single-ply
10,Gaurav Martin,1987-01-01,U.P,105,93.3,120,130,-140,130,130,M,Open,B,Single-ply
1,Jagbir Singh Bahu,1992-02-14,J & K,120,117.5,-230,230,235,235,235,M,Open,B,Single-ply
2,Mr Dharmender,1993-04-24,DEL,120,116.4,210,222.5,232.5,232.5,232.5,M,Open,B,Single-ply
3,Gopi,1985-03-13,PUN,120,116.6,210,222.5,230,230,230,M,Open,B,Single-ply
4,Anoop Kumar #1,1985-09-05,KAR,120,108,-220,-220,225,225,225,M,Open,B,Single-ply
5,Devendra Singh Shekhawat,1992-01-01,RAJ,120,105.4,-215,-220,220,220,220,M,Open,B,Single-ply
6,Kalyan Karde,1989-03-21,MAH,120,113.8,-212.5,212.5,-222.5,212.5,212.5,M,Open,B,Single-ply
7,Ashish Singh Rajawat,1985-04-08,RAJ,120,115,185,205,-222.5,205,205,M,Open,B,Single-ply
8,Gopinath M,1984-09-08,T.N,120,108.3,170,-185,-185,170,170,M,Open,B,Single-ply
9,Siddharth Saikia,1993-04-20,ASA,120,109,157.5,167.5,-175,167.5,167.5,M,Open,B,Single-ply
DQ,Prashant Kumar,1995-08-25,U.P,120,110,-190,-195,-207.5,,,M,Open,B,Single-ply
DQ,Mohit Kumar #2,1989-06-21,HAR,120,111,-180,-185,-185,,,M,Open,B,Single-ply
DQ,Aurangzeb Khurram Hafiz,1974-11-16,W.B,120,113.2,-227.5,-227.5,,,,M,Open,B,Single-ply
1,Ankit Khatri #1,1996-12-19,DEL,120+,137.4,250,260,275,275,275,M,Open,B,Single-ply
2,Vickram Jeet Singh,1996-04-06,J & K,120+,151,230,237.5,242.5,242.5,242.5,M,Open,B,Single-ply
3,Sunil #3,1999-05-15,HAR,120+,120.9,-165,172.5,-180,172.5,172.5,M,Open,B,Single-ply
4,Tanmay Naik,1979-11-18,OFSPB,120+,120.9,130,140,,140,140,M,Open,B,Single-ply
5,Paritesh Pal,1999-09-30,M P,120+,131,120,,,120,120,M,Open,B,Single-ply
DQ,Asif Ali Khan,1994-09-06,CHT,120+,139,-235,-240,-242.5,,,M,Open,B,Single-ply
1,Sawan Kumar,1995-05-02,J & K,59,58.4,125,130,-135,130,130,M,Open,B,Raw
2,Raju Sharma,1993-08-01,HAR,59,57.86,122.5,125,-127.5,125,125,M,Open,B,Raw
3,Nilesh Hinge,1983-10-28,MAH,59,58.35,115,120,-122.5,120,120,M,Open,B,Raw
4,Manikandan V,1989-04-22,T.N,59,56.2,97.5,102.5,105,105,105,M,Open,B,Raw
5,Ibrar Ahamad,1994-07-07,BIH,59,58.75,95,102.5,-107.5,102.5,102.5,M,Open,B,Raw
6,Mr Sanjay,1975-09-25,DEL,59,59,100,102.5,-107.5,102.5,102.5,M,Open,B,Raw
7,Thirthesha M.K,1995-10-15,KAR,59,57.7,95,100,-105,100,100,M,Open,B,Raw
8,Ch. Ramesh,1996-02-09,A P,59,58.3,85,90,95,95,95,M,Open,B,Raw
9,Lasterly Sangma,1998-12-07,MEG,59,51.13,85,90,-92.5,90,90,M,Open,B,Raw
10,Noor Mohammad,1993-12-25,PUN,59,58.9,90,-95,-95,90,90,M,Open,B,Raw
DQ,Saiyad Haidarali,1992-04-07,GUJ,59,49.15,-90,-90,-90,,,M,Open,B,Raw
DQ,Fayaz Hussain,1989-09-28,KER,59,59,-75,-90,-90,,,M,Open,B,Raw
1,Satyajeet Singh Chib,1994-02-05,J & K,66,63.59,140,147.5,152.5,152.5,152.5,M,Open,B,Raw
2,Ashwani Dewangan,1990-06-06,CHT,66,64.75,120,122.5,130,130,130,M,Open,B,Raw
3,Mr Sagar,1983-08-30,DEL,66,66,125,-130,130,130,130,M,Open,B,Raw
4,Dhurv Naik,1994-12-05,M P,66,65.59,120,125,-132.5,125,125,M,Open,B,Raw
5,Priyarenjan P,1990-02-05,KER,66,64.23,110,120,-125,120,120,M,Open,B,Raw
6,D Raja Ramesh,1988-03-06,A P,66,59.29,100,107.5,115,115,115,M,Open,B,Raw
7,Kumud Prasad,1989-02-16,M P,66,64.5,110,115,-120,115,115,M,Open,B,Raw
8,Rehman Sharif,1980-08-20,TEL,66,66,115,-120,-120,115,115,M,Open,B,Raw
9,Prince David N,1994-01-11,T.N,66,59.2,100,-105,-105,100,100,M,Open,B,Raw
10,Shailendra Kumar,1992-01-10,U.P,66,65.6,95,100,-105,100,100,M,Open,B,Raw
11,K Ramakrishna,1991-01-01,A P,66,64.9,-97.5,97.5,-105,97.5,97.5,M,Open,B,Raw
12,Lamborme Nongsiej,1995-03-04,MEG,66,59.3,-90,90,-100,90,90,M,Open,B,Raw
13,Shashikant K,1989-07-20,U.P,66,64.75,-85,85,-105,85,85,M,Open,B,Raw
1,Bhavin Pawar,1992-01-27,GUJ,74,73.5,135,147.5,155,155,155,M,Open,B,Raw
2,Shanmughan Akshay,1982-03-23,MAH,74,73.7,150,152.5,155,155,155,M,Open,B,Raw
3,Md. Harish Tausif,1994-06-24,BIH,74,73.4,140,150,-155,150,150,M,Open,B,Raw
4,Punit #1,1990-06-03,HAR,74,74,140,145,-150,145,145,M,Open,B,Raw
5,Sandeep Singh #5,1992-11-12,J & K,74,73.81,142.5,-145,-150,142.5,142.5,M,Open,B,Raw
6,Aslam Khan,1986-12-18,M P,74,72.65,130,135,-140,135,135,M,Open,B,Raw
7,Mr Parvesh,1996-01-11,DEL,74,71.97,-125,132.5,-135,132.5,132.5,M,Open,B,Raw
8,Jatinder Singh #3,1993-05-20,PUN,74,72.65,130,-132.5,-132.5,130,130,M,Open,B,Raw
9,Gopal Bind,1995-06-04,U.P,74,74,125,127.5,-130,127.5,127.5,M,Open,B,Raw
10,C.H Aryan,1987-01-29,TEL,74,71.21,115,120,-125,120,120,M,Open,B,Raw
11,Avjit Singh,1991-09-07,CHN,74,74,107.5,117.5,120,120,120,M,Open,B,Raw
12,Yanest S,1971-03-21,T.N,74,67.7,110,-120,-120,110,110,M,Open,B,Raw
13,Pawan Joshi,1995-07-01,RAJ,74,66.1,107.5,-115,-115,107.5,107.5,M,Open,B,Raw
14,Thomas P Mathew,1990-05-19,KER,74,70.79,85,95,100,100,100,M,Open,B,Raw
15,Kaushik Sutradhar,1994-01-12,W.B,74,67.7,-80,80,82.5,82.5,82.5,M,Open,B,Raw
16,Nemat Sharma,1995-07-13,HIM,74,72.3,-70,70,-85,70,70,M,Open,B,Raw
1,Tamilarasan R,1993-07-04,T.N,83,83,152.5,165,170,170,170,M,Open,B,Raw
2,Rakesh Kumar Satapathy,1987-07-04,ODI,83,81.5,-162.5,162.5,167.5,167.5,167.5,M,Open,B,Raw
3,Pankaj Chib,1994-06-10,J & K,83,80.3,157.5,162.5,165,165,165,M,Open,B,Raw
4,Banwari Gurjar,1999-11-25,M P,83,82.5,160,162.5,-167.5,162.5,162.5,M,Open,B,Raw
5,Pradeep Kumar #3,1988-05-04,KAR,83,82,-150,150,160,160,160,M,Open,B,Raw
6,Mahendra Singh #2,1989-04-23,JHA,83,81.57,-155,155,-165,155,155,M,Open,B,Raw
7,Mr Narender,1982-06-06,DEL,83,80,152.5,-157.5,-157.5,152.5,152.5,M,Open,B,Raw
8,Sandeep #3,1993-02-20,HAR,83,80.85,145,150,-155,150,150,M,Open,B,Raw
9,Mr Devender,1989-07-24,CCSCSB,83,82,145,150,-152.5,150,150,M,Open,B,Raw
10,Gaurav Vite,1992-03-28,MAH,83,82.54,145,150,-165,150,150,M,Open,B,Raw
11,Sk. Nazeer,1988-01-01,A P,83,81.52,130,-145,-145,130,130,M,Open,B,Raw
12,Anthony Nongrum,1975-08-19,MEG,83,77.3,-100,100,-102.5,100,100,M,Open,B,Raw
13,Phransngi Kylla,1984-05-16,MEG,83,77.5,80,90,-100,90,90,M,Open,B,Raw
14,Virender Kumar,1988-04-26,HIM,83,74.65,70,75,80,80,80,M,Open,B,Raw
DQ,Huirem Punit Singh,1995-10-13,MAN,83,,-60,-60,-60,,,M,Open,B,Raw
1,Hardeep Singh #4,1994-09-17,PUN,93,90.4,180,187.5,190,190,190,M,Open,B,Raw
2,Parul Kumar #2,1986-02-06,U.P,93,90.24,180,185,-187.5,185,185,M,Open,B,Raw
3,Mr Shriom,1982-05-20,DEL,93,89.36,172.5,-175,-175,172.5,172.5,M,Open,B,Raw
4,Ranjeet Singh Chaudhri,1989-06-01,M P,93,91.1,170,172.5,-180,172.5,172.5,M,Open,B,Raw
5,Vikram Deep,1995-04-23,J & K,93,91.79,167.5,172.5,-177.5,172.5,172.5,M,Open,B,Raw
6,Amit #2,1991-05-04,HAR,93,92.1,170,-177.5,-177.5,170,170,M,Open,B,Raw
7,Nishant Kumar #2,1982-02-03,BIH,93,90,155,-162.5,-162.5,155,155,M,Open,B,Raw
8,Chand Singh,1989-02-13,PUN,93,86.1,150,-155,-155,150,150,M,Open,B,Raw
9,Abhishesh Singh,1985-08-05,M P,93,87.89,-150,150,-162.5,150,150,M,Open,B,Raw
10,Thaleshwar Singh Rathia,1989-11-10,CHT,93,86.5,135,145,,145,145,M,Open,B,Raw
11,Jibin Verghese,1986-03-31,KAR,93,91.1,135,142.5,-150,142.5,142.5,M,Open,B,Raw
12,Lalit Kumar Gothania,1980-05-14,RAJ,93,87.5,120,135,142.5,142.5,142.5,M,Open,B,Raw
13,Vijay Singh,1984-08-07,RAJ,93,93,-135,135,-140,135,135,M,Open,B,Raw
14,Zahid Ansari,1980-05-21,MAH,93,86.32,125,132.5,-140,132.5,132.5,M,Open,B,Raw
15,Rahul Patil,1992-09-08,MAH,93,91,112.5,122.5,127.5,127.5,127.5,M,Open,B,Raw
16,Sunny Bavcha,1988-07-10,GUJ,93,84.7,120,-122.5,-135,120,120,M,Open,B,Raw
DQ,Pradeep Kumar #4,1986-09-15,DEL,93,87.34,-150,-150,-180,,,M,Open,B,Raw
1,Rhubham Sharma,1995-11-06,J & K,105,103.3,180,187.5,190,190,190,M,Open,B,Raw
2,Suryakanta Pradhan,1992-12-24,ODI,105,96.8,157.5,167.5,175,175,175,M,Open,B,Raw
3,Vijay Kanchan,1967-07-24,KAR,105,104,170,-177.5,-177.5,170,170,M,Open,B,Raw
4,Sunil Jadhav,1987-06-16,MAH,105,104.6,150,160,-170,160,160,M,Open,B,Raw
5,Vikram #1,1990-03-20,HAR,105,101.8,145,-152.5,-152.5,145,145,M,Open,B,Raw
6,Yogesh Kumar #1,1989-07-05,M P,105,99.5,135,,,135,135,M,Open,B,Raw
7,Zakir Hussain Mallick,1994-02-13,W.B,105,98.7,80,82.5,85,85,85,M,Open,B,Raw
1,Devendra Singh Shekhawat,1992-12-14,RAJ,120,107.1,175,-177.5,177.5,177.5,177.5,M,Open,B,Raw
2,Anoop Kumar #1,1985-09-05,KAR,120,106.8,160,172.5,-177.5,172.5,172.5,M,Open,B,Raw
3,Kuntal Das,1984-07-26,W.B,120,111,160,165,167.5,167.5,167.5,M,Open,B,Raw
4,Amar Kumar,2000-06-10,DEL,120,112.8,145,155,160,160,160,M,Open,B,Raw
5,Amit Kishan,1994-02-14,BIH,120,110.4,140,155,-165,155,155,M,Open,B,Raw
6,Brijbhushan Singh,1991-07-01,GUJ,120,112.4,152.5,-157.5,-162.5,152.5,152.5,M,Open,B,Raw
7,Abhishek Vishal,1996-07-07,BIH,120,115.5,137.5,142.5,-145,142.5,142.5,M,Open,B,Raw
8,Surva Patra,1992-05-12,W.B,120,117.6,130,140,-150,140,140,M,Open,B,Raw
1,Ajay Gogna,1988-06-01,PUN,120+,143.4,165,-172.5,175,175,175,M,Open,B,Raw
2,Gurkirat Singh,1995-09-03,PUN,120+,126.5,150,160,172.5,172.5,172.5,M,Open,B,Raw
3,Vickram Jeet Singh,1996-04-06,J & K,120+,150.1,160,165,172.5,172.5,172.5,M,Open,B,Raw
4,Paritesh Pal,1999-02-13,M P,120+,131.1,150,160,-170,160,160,M,Open,B,Raw
5,Nikil More,1991-01-24,MAH,120+,131.1,130,137.5,-142.5,137.5,137.5,M,Open,B,Raw
DQ,Sri Kant Jadhusangat,1989-12-05,RAJ,120+,138.2,-120,-120,-145,,,M,Open,B,Raw
1,Usha Rohini,1993-05-01,KAR,47,46.8,45,50,52.5,52.5,52.5,F,Open,B,Raw
2,Meenakshi Joshi,1991-01-04,DEL,47,46,40,-42.5,-42.5,40,40,F,Open,B,Raw
1,Akshatha Poojary,1987-08-08,KAR,52,52,62.5,67.5,70,70,70,F,Open,B,Raw
2,Savita Kumari #2,1983-12-12,DEL,52,50.6,60,65,-67.5,65,65,F,Open,B,Raw
3,Jyoti Kandhare,1980-10-19,MAH,52,50.7,57.5,62.5,-65,62.5,62.5,F,Open,B,Raw
4,Kriti Kumari,1998-11-07,KER,52,50.2,55,57.5,-60,57.5,57.5,F,Open,B,Raw
5,Neema Kumari,1997-01-06,KAR,52,51.3,50,55,-57.5,55,55,F,Open,B,Raw
6,Amita Devi,1986-04-26,J & K,52,51.82,47.5,52.5,-60,52.5,52.5,F,Open,B,Raw
7,Shrungita Joshi,1991-05-30,M P,52,50.1,45,47.5,50,50,50,F,Open,B,Raw
8,Deeksha Sharma,1991-12-20,U.P,52,51.5,50,-55,-62.5,50,50,F,Open,B,Raw
9,Nileshwari Shankhla,1995-07-30,M P,52,50.39,37.5,-40,-40,37.5,37.5,F,Open,B,Raw
1,Sudha Kumari,1979-06-01,BIH,57,55,77.5,85,-90,85,85,F,Open,B,Raw
2,Rajani Upadhyay,1979-01-01,RAJ,57,57,60,67.5,-72.5,67.5,67.5,F,Open,B,Raw
3,Puja Kumari,1985-04-02,M P,57,57,50,-55,55,55,55,F,Open,B,Raw
4,Sapna Bharti,2000-08-27,U.P,57,55.75,45,-47.5,-47.5,45,45,F,Open,B,Raw
5,Preeti Rani,1990-04-08,DEL,57,55.88,42.5,45,-47.5,45,45,F,Open,B,Raw
6,Monika Shukla,1995-08-07,M P,57,53.4,40,-45,-45,40,40,F,Open,B,Raw
7,Shalini Sharma,1983-12-08,J & K,57,56,35,37.5,40,40,40,F,Open,B,Raw
8,Suman Lata,1995-11-15,J & K,57,53.8,25,27.5,30,30,30,F,Open,B,Raw
1,Poonam Sharma,1975-12-01,DEL,63,62.7,75,-85,-85,75,75,F,Open,B,Raw
2,Tapasi Chakraborty,1985-12-04,W.B,63,60.7,67.5,-70,70,70,70,F,Open,B,Raw
3,Priya Kandalkan,1985-12-16,MAH,63,62.8,65,70,-72.5,70,70,F,Open,B,Raw
4,Roni Shirat,1991-09-22,MAH,63,60.1,60,-62.5,62.5,62.5,62.5,F,Open,B,Raw
5,Venizeia Annie Carlo,2000-02-07,KAR,63,63,60,62.5,-67.5,62.5,62.5,F,Open,B,Raw
6,Sonia Sharma,1985-02-26,HAR,63,62.2,-60,60,-65,60,60,F,Open,B,Raw
7,Aishwarya K,1992-12-21,KAR,63,62.58,55,60,-67.5,60,60,F,Open,B,Raw
8,Sanjana Verma,1986-09-08,RAJ,63,62.7,-50,50,-55,50,50,F,Open,B,Raw
9,Neha Sahu,1992-02-25,M P,63,61.68,40,45,47.5,47.5,47.5,F,Open,B,Raw
10,Malika Taneja,1987-10-18,CCSCSB,63,57.4,45,-50,-50,45,45,F,Open,B,Raw
DQ,Surbhi Bali,1997-11-19,J & K,63,62,-70,,,,,F,Open,B,Raw
1,Kulwinder Kaur,1982-05-15,PUN,72,63.1,75,85,-87.5,85,85,F,Open,B,Raw
2,Parneet Kaur #1,1998-01-29,DEL,72,65.9,70,75,-80,75,75,F,Open,B,Raw
3,Ruby Sharma,1988-10-15,J & K,72,72,67.5,-70,-70,67.5,67.5,F,Open,B,Raw
4,Neelam Singh,1980-02-05,HAR,72,70,65,-70,-70,65,65,F,Open,B,Raw
5,Sunita Punch,1974-07-25,M P,72,70.3,60,65,-70,65,65,F,Open,B,Raw
6,Shruthi K V,1993-09-03,KAR,72,64.6,47.5,52.5,-55,52.5,52.5,F,Open,B,Raw
7,Om Kanwar,1997-05-10,RAJ,72,70,50,,,50,50,F,Open,B,Raw
1,Manisha Ekka,1995-10-25,JHA,84,82.6,82.5,87.5,-92.5,87.5,87.5,F,Open,B,Raw
2,Juhi Gupta,1993-10-05,J & K,84,81.3,75,80,82.5,82.5,82.5,F,Open,B,Raw
3,Geeta Teotia,1990-07-06,U.P,84,83.2,70,75,82.5,82.5,82.5,F,Open,B,Raw
4,Gayatri Tomar,1974-07-25,M P,84,83.5,60,67.5,-72.5,67.5,67.5,F,Open,B,Raw
5,Sajida Nefees,1989-11-17,DEL,84,83.9,65,-72.5,-75,65,65,F,Open,B,Raw
6,Raj Kumari Yadav,1981-07-02,RAJ,84,72.9,55,-60,,55,55,F,Open,B,Raw
7,Triparna Ghosal Chakraborty,1984-11-09,W.B,84,82.4,-45,45,52.5,52.5,52.5,F,Open,B,Raw
8,Viajyavani Viajyavani,1983-05-06,KAR,84,75.5,45,50,-55,50,50,F,Open,B,Raw
1,Rajni Parihar,1980-10-24,DEL,84+,95.9,77.5,-82.5,-82.5,77.5,77.5,F,Open,B,Raw
2,Chhaya Bhatt,1965-07-14,F C I,84+,116.2,65,70,-75,70,70,F,Open,B,Raw
3,Manisha Prajapat,1992-06-03,RAJ,84+,88.7,60,-65,65,65,65,F,Open,B,Raw
4,Rachael Noronha,1999-12-08,KAR,84+,115.5,55,62.5,-72.5,62.5,62.5,F,Open,B,Raw
5,Pranjal Solanki,2001-12-03,M P,84+,105.4,57.5,-60,-60,57.5,57.5,F,Open,B,Raw
6,Upasana Mahajan,1989-08-15,J & K,84+,135.9,55,-60,-60,55,55,F,Open,B,Raw
7,Gayathri S,1985-05-22,T.N,84+,87.6,40,45,-50,45,45,F,Open,B,Raw
