Place,Name,BirthDate,Sex,Equipment,Division,BodyweightKg,WeightClassKg,Squat1Kg,Squat2Kg,Squat3Kg,Best3SquatKg,Bench1Kg,Bench2Kg,Bench3Kg,Best3BenchKg,Deadlift1Kg,Deadlift2Kg,Deadlift3Kg,Best3DeadliftKg,TotalKg,Event
1,Vanesa Aleksandrova,,F,Bare,J20-23,66.3,67.5,85,95,100,100,42.5,50,-55,50,110,120,125,125,275,SBD
1,Djuliya Angelova,,F,Bare,J20-23,74.4,75,130,140,147.5,147.5,75,80,-82.5,80,150,160,-170,160,387.5,SBD
DQ,Margarita Hristoforova,,F,Bare,M40-44,76.7,82.5,-125,,,,-55,,,,-130,,,,,SBD
1,Denica Chakalova,,F,Bare,Open,61.1,67.5,-137.5,137.5,-147.5,137.5,65,70,-72.5,70,-172.5,172.5,180,180,387.5,SBD
2,Vanesa Aleksandrova,,F,Bare,Open,66.3,67.5,85,95,100,100,42.5,50,-55,50,110,120,125,125,275,SBD
3,Nevena Borisova,,F,Bare,Open,64.85,67.5,80,87.5,95,95,40,47.5,-50,47.5,110,120,127.5,127.5,270,SBD
1,Djuliya Angelova,,F,Bare,Open,74.4,75,130,140,147.5,147.5,75,80,-82.5,80,150,160,-170,160,387.5,SBD
1,Viktoriya Ilieva,,F,Bare,Open,77.6,82.5,190,200,207.5,207.5,130,135,-140,135,210,230,245,245,587.5,SBD
DQ,Margarita Hristoforova,,F,Bare,Open,76.7,82.5,-125,,,,-55,,,,-130,,,,,SBD
DQ,Ivaylo Gatev,,M,Bare,J20-23,64.95,67.5,140,-150,150,150,-75,75,80,80,-215,-215,-215,,,SBD
1,Boris Chorlov,,M,Bare,J20-23,73.6,75,180,190,200,200,140,147.5,152.5,152.5,210,230,-247.5,230,582.5,SBD
2,Nikolay Pyrvanov,,M,Bare,J20-23,74.8,75,-145,155,165,165,-95,100,107.5,107.5,195,205,227.5,227.5,500,SBD
3,Kaloyan Naydenov,,M,Bare,J20-23,74.9,75,125,-135,145,145,77.5,87.5,92.5,92.5,150,162.5,170,170,407.5,SBD
1,Danail Dimitrov,,M,Bare,J20-23,81.7,82.5,220,232.5,-240,232.5,145,152.5,-157.5,152.5,250,265,272.5,272.5,657.5,SBD
2,Ivaylo Ganchev,,M,Bare,J20-23,82.3,82.5,220,227.5,,227.5,130,140,-145,140,250,262.5,-265,262.5,630,SBD
3,Viktor Atanasov,,M,Bare,J20-23,81.6,82.5,-180,185,195,195,-145,152.5,160,160,230,242.5,245,245,600,SBD
4,Pavel Vylchev,,M,Bare,J20-23,81.7,82.5,160,-165,165,165,105,117.5,-122.5,117.5,195,210,215,215,497.5,SBD
5,Petko Petkov,,M,Bare,J20-23,82.5,82.5,180,-190,,180,-130,130,-135,130,180,-190,-190,180,490,SBD
1,Valentin Chivliev,,M,Bare,J20-23,86.9,90,205,215,-220,215,155,160,162.5,162.5,255,265,-267.5,265,642.5,SBD
2,Stilyan Lilov,,M,Bare,J20-23,89.2,90,-205,210,-225,210,140,-152.5,-152.5,140,230,245,-255,245,595,SBD
3,Anton Denikov,,M,Bare,J20-23,88.7,90,182.5,192.5,200,200,120,127.5,130,130,207.5,215,-222.5,215,545,SBD
4,Nikola Cheshmedjiev,,M,Bare,J20-23,90,90,160,170,177.5,177.5,112.5,122.5,127.5,127.5,200,-220,-220,200,505,SBD
5,Radostin Dimitrov,,M,Bare,J20-23,89.2,90,135,145,155,155,102.5,-110,110,110,195,215,-235,215,480,SBD
6,Rumen Stoyanov,,M,Bare,J20-23,83.6,90,160,-165,-167.5,160,-100,105,-110,105,180,190,195,195,460,SBD
7,Martin Georgiev,,M,Bare,J20-23,89.9,90,140,150,-160,150,82.5,-90,-90,82.5,180,195,-205,195,427.5,SBD
1,Marques Joao,,M,Bare,J20-23,96.2,100,265,-290,300,300,190,200,-205,200,260,280,-300,280,780,SBD
2,Grigor Stoyanov,,M,Bare,J20-23,98.9,100,230,240,250,250,145,155,162.5,162.5,290,307.5,-312.5,307.5,720,SBD
3,Aleksandyr Cholashki,,M,Bare,J20-23,94,100,220,230,,230,95,102.5,-105,102.5,270,285,-300,285,617.5,SBD
4,Borislav Antonov,,M,Bare,J20-23,98.8,100,180,200,212.5,212.5,145,155,-162.5,155,210,225,240,240,607.5,SBD
5,Aleks Ognyanov,,M,Bare,J20-23,97.2,100,180,190,200,200,110,115,-120,115,180,192.5,202.5,202.5,517.5,SBD
6,Konstantin Mihaylov,,M,Bare,J20-23,97.8,100,165,172.5,180,180,-110,110,120,120,165,175,182.5,182.5,482.5,SBD
1,Kiril Hadjiradkov,,M,Bare,J20-23,106.3,110,260,275,,275,210,-220,-220,210,320,330,,330,815,SBD
2,Berke Berkant,,M,Bare,J20-23,101.3,110,220,240,-250,240,170,-177.5,177.5,177.5,260,-280,-300,260,677.5,SBD
3,Georgi Sharbanov,,M,Bare,J20-23,100.4,110,210,-220,-220,210,110,120,125,125,220,227.5,235,235,570,SBD
1,Leon Vasilev,,M,Bare,M40-44,115.6,125,250,260,270,270,160,170,172.5,172.5,270,290,-301,290,732.5,SBD
1,Oleksii Titov,,M,Bare,Open,67.4,67.5,215,222.5,230.5,230.5,137.5,142.5,146,146,260,270.5,275,275,651.5,SBD
DQ,Ivaylo Gatev,,M,Bare,Open,64.95,67.5,140,-150,150,150,-75,75,80,80,-215,-215,-215,,,SBD
1,Miroslav Milanov,,M,Bare,Open,74.2,75,-190,200,210,210,150,160,-166,160,230,-240,240,240,610,SBD
2,Boris Chorlov,,M,Bare,Open,73.6,75,180,190,200,200,140,147.5,152.5,152.5,210,230,-247.5,230,582.5,SBD
3,Nikolay Pyrvanov,,M,Bare,Open,74.8,75,-145,155,165,165,-95,100,107.5,107.5,195,205,227.5,227.5,500,SBD
4,Kaloyan Naydenov,,M,Bare,Open,74.9,75,125,-135,145,145,77.5,87.5,92.5,92.5,150,162.5,170,170,407.5,SBD
1,Danail Dimitrov,,M,Bare,Open,81.7,82.5,220,232.5,-240,232.5,145,152.5,-157.5,152.5,250,265,272.5,272.5,657.5,SBD
2,Dobrin Goshov,,M,Bare,Open,82.3,82.5,220,230,-237.5,230,140,147.5,155,155,245,255,267.5,267.5,652.5,SBD
3,Ivan Ivanov,,M,Bare,Open,81.6,82.5,210,225,232.5,232.5,135,142.5,-147.5,142.5,255,270,-277.5,270,645,SBD
4,Ivaylo Ganchev,,M,Bare,Open,82.3,82.5,220,227.5,,227.5,130,140,-145,140,250,262.5,-265,262.5,630,SBD
5,Boyan Karov,,M,Bare,Open,80.5,82.5,200,210,215,215,140,145,-147.5,145,240,250,-257.5,250,610,SBD
6,Viktor Atanasov,,M,Bare,Open,81.6,82.5,-180,185,195,195,-145,152.5,160,160,230,242.5,245,245,600,SBD
7,Rosen Pandev,,M,Bare,Open,82.4,82.5,180,190,195,195,120,-125,125,125,225,235,247.5,247.5,567.5,SBD
8,Pavel Vylchev,,M,Bare,Open,81.7,82.5,160,-165,165,165,105,117.5,-122.5,117.5,195,210,215,215,497.5,SBD
9,Petko Petkov,,M,Bare,Open,82.5,82.5,180,-190,,180,-130,130,-135,130,180,-190,-190,180,490,SBD
10,Velislav Genchev,,M,Bare,Open,78.2,82.5,-130,140,147.5,147.5,100,-110,-112.5,100,-200,205,212.5,212.5,460,SBD
1,Svetlozar Markov,,M,Bare,Open,90,90,240,260,272.5,272.5,195,-205,210,210,260,280,-290,280,762.5,SBD
2,Valentin Chivliev,,M,Bare,Open,86.9,90,205,215,-220,215,155,160,162.5,162.5,255,265,-267.5,265,642.5,SBD
3,Darislav Nikolov,,M,Bare,Open,89.1,90,207.5,215,222.5,222.5,142.5,150,157.5,157.5,237.5,247.5,255,255,635,SBD
4,Vasil Hadjikolev,,M,Bare,Open,88.9,90,185,200,-215,200,135,145,155,155,215,235,250,250,605,SBD
5,Stilyan Lilov,,M,Bare,Open,89.2,90,-205,210,-225,210,140,-152.5,-152.5,140,230,245,-255,245,595,SBD
6,Svetoslav Atanasov,,M,Bare,Open,90,90,-175,175,185,185,130,140,-145,140,225,240,-260,240,565,SBD
7,Anton Denikov,,M,Bare,Open,88.7,90,182.5,192.5,200,200,120,127.5,130,130,207.5,215,-222.5,215,545,SBD
8,Nikola Cheshmedjiev,,M,Bare,Open,90,90,160,170,177.5,177.5,112.5,122.5,127.5,127.5,200,-220,-220,200,505,SBD
9,Radostin Dimitrov,,M,Bare,Open,89.2,90,135,145,155,155,102.5,-110,110,110,195,215,-235,215,480,SBD
10,Dimo Dimov,,M,Bare,Open,89.2,90,145,152.5,160,160,100,105,110,110,175,187.5,195,195,465,SBD
11,Rumen Stoyanov,,M,Bare,Open,83.6,90,160,-165,-167.5,160,-100,105,-110,105,180,190,195,195,460,SBD
12,Martin Georgiev,,M,Bare,Open,89.9,90,140,150,-160,150,82.5,-90,-90,82.5,180,195,-205,195,427.5,SBD
1,Marques Joao,,M,Bare,Open,96.2,100,265,-290,300,300,190,200,-205,200,260,280,-300,280,780,SBD
2,Grigor Stoyanov,,M,Bare,Open,98.9,100,230,240,250,250,145,155,162.5,162.5,290,307.5,-312.5,307.5,720,SBD
3,Aleksandyr Cholashki,,M,Bare,Open,94,100,220,230,,230,95,102.5,-105,102.5,270,285,-300,285,617.5,SBD
4,Borislav Antonov,,M,Bare,Open,98.8,100,180,200,212.5,212.5,145,155,-162.5,155,210,225,240,240,607.5,SBD
5,Aleks Ognyanov,,M,Bare,Open,97.2,100,180,190,200,200,110,115,-120,115,180,192.5,202.5,202.5,517.5,SBD
6,Konstantin Mihaylov,,M,Bare,Open,97.8,100,165,172.5,180,180,-110,110,120,120,165,175,182.5,182.5,482.5,SBD
1,Kiril Hadjiradkov,,M,Bare,Open,106.3,110,260,275,,275,210,-220,-220,210,320,330,,330,815,SBD
2,Rayan Tichané,,M,Bare,Open,105.5,110,230,240,260,260,160,170,175,175,280,300,-320,300,735,SBD
3,Borislav Georgiev,,M,Bare,Open,110,110,240,250,-262.5,250,170,180,-190,180,300,-315,,300,730,SBD
4,Berke Berkant,,M,Bare,Open,101.3,110,220,240,-250,240,170,-177.5,177.5,177.5,260,-280,-300,260,677.5,SBD
5,Nikolay Stankov,,M,Bare,Open,103.6,110,195,202.5,212.5,212.5,140,150,160,160,250,260,270,270,642.5,SBD
6,Georgi Sharbanov,,M,Bare,Open,100.4,110,210,-220,-220,210,110,120,125,125,220,227.5,235,235,570,SBD
1,Stoyan Stamenov,,M,Bare,Open,114.7,125,270,285,-292.5,285,180,190,-200,190,290,-305,,290,765,SBD
2,Leon Vasilev,,M,Bare,Open,115.6,125,250,260,270,270,160,170,172.5,172.5,270,290,-301,290,732.5,SBD
3,Dursun Ramadan,,M,Bare,Open,117.8,125,240,247.5,255,255,187.5,197.5,-202.5,197.5,250,260,-262.5,260,712.5,SBD
4,Alexis Mondot,,M,Bare,Open,118,125,215,230,,230,175,185,190,190,260,285,,285,705,SBD
5,Ivan Mitkov,,M,Bare,Open,112.8,125,230,245,-252.5,245,155,165,-175,165,240,255,270,270,680,SBD
6,Dimityr Banev,,M,Bare,Open,119.6,125,225,240,-252.5,240,130,135,-142.5,135,270,300,-310,300,675,SBD
7,Grozdan Lyubenov,,M,Bare,Open,114.2,125,185,202.5,212.5,212.5,140,147.5,155,155,235,250,262.5,262.5,630,SBD
8,Stiliyan Stoev,,M,Bare,Open,118.3,125,-200,200,210,210,132.5,140,145,145,235,250,260,260,615,SBD
DQ,Aleksandyr Yordanov,,M,Bare,Open,119.5,125,240,-250,250,250,-180,-190,-190,,-270,,,,,SBD
DQ,Bozhidar Peykov,,M,Bare,J20-23,73.6,75,205,215,,215,-145,-150,-150,,-220,,,,,SBD
DQ,Bozhidar Peykov,,M,Bare,Open,73.6,75,205,215,,215,-145,-150,-150,,-220,,,,,SBD
