Place,Name,BirthYear,Team,BodyweightKg,Bench1Kg,Bench2Kg,Bench3Kg,Best3BenchKg,TotalKg,Event,WeightClassKg,Division,Equipment,Sex,BirthDate
1,Fazekas Dániel,1995,RKA Erőm.,73.35,105.0,112.5,-117.5,112.5,112.5,B,74,Juniors,Raw,M,
1,Ráczkevy Salamon,1999,Erzsváros,78.35,120.0,125.0,127.5,127.5,127.5,B,83,Juniors,Raw,M,
1,Varga Viktor,1996,Marvel,100.9,110.0,125.0,130.0,130.0,130.0,B,105,Juniors,Raw,M,
1,Molnár Gábor,1978,RKA Erőm.,65.4,125.0,130.0,-135.5,130.0,130.0,B,66,Masters 1,Raw,M,
1,Uhrin Péter,1976,AttilaSE,85.15,115.0,120.0,-127.5,120.0,120.0,B,93,Masters 1,Raw,M,
1,Kelemen Richárd,1975,RKA Erőm.,94.15,140.0,150.0,-155.0,150.0,150.0,B,105,Masters 1,Raw,M,
1,Mikó Imre,1967,Marvel,90.5,120.0,125.0,130.0,130.0,130.0,B,93,Masters 2,Raw,M,
1,Bársony Attila,1966,SugóPower,93.15,150.0,160.0,167.5,167.5,167.5,B,105,Masters 2,Raw,M,
2,Kocsor Péter,1966,RKA Erőm.,103.6,60.0,-65.0,65.0,65.0,65.0,B,105,Masters 2,Raw,M,
1,Molnár Gábor,1978,RKA Erőm.,65.4,125.0,130.0,-135.5,130.0,130.0,B,66,Open,Raw,M,
1,Patai Gábor,1984,TabiFK,69.55,140.0,152.5,-155.0,152.5,152.5,B,74,Open,Raw,M,
2,Mike Péter,1994,DucsaiSzeg,73.0,122.5,130.0,-137.5,130.0,130.0,B,74,Open,Raw,M,
1,Csalami Norbert,1987,RKA Erőm.,82.8,150.0,155.0,162.5,162.5,162.5,B,83,Open,Raw,M,
2,Szívós Ádám,1992,Marvel,78.5,152.5,157.5,-162.5,157.5,157.5,B,83,Open,Raw,M,
3,György Károly,1989,Marvel,81.8,130.0,135.0,-140.0,135.0,135.0,B,83,Open,Raw,M,
4,Koszta László,1990,Marvel,74.1,-90.0,90.0,-95.0,90.0,90.0,B,83,Open,Raw,M,
DQ,Zavesicki Richárd,1993,RKA Erőm.,77.25,-130.0,-130.0,-130.0,,,B,83,Open,Raw,M,
1,Zakor Tibor,1979,RKA Erőm.,92.25,170.0,175.0,177.5,177.5,177.5,B,93,Open,Raw,M,
2,Deres Zsolt,1977,TabiFK,92.3,170.0,175.0,-177.5,175.0,175.0,B,93,Open,Raw,M,
1,Hugyecz Ádám,1991,Atlas SE,103.2,195.0,202.5,-205.0,202.5,202.5,B,105,Open,Raw,M,
2,Berke Lóránd,1979,Marvel,104.95,180.0,185.0,190.0,190.0,190.0,B,105,Open,Raw,M,
3,Fórizs Zoltán,1980,TabiFK,103.95,165.0,175.0,-185.0,175.0,175.0,B,105,Open,Raw,M,
4,Huszák Gábor,1980,VaultHunt,96.1,137.5,-142.5,-142.5,137.5,137.5,B,105,Open,Raw,M,
1,Schauer Kornél,1977,SugóPower,105.65,205.0,210.0,-215.0,210.0,210.0,B,120,Open,Raw,M,
2,Feigl István,1988,RKA Erőm.,118.4,190.0,-200.0,-200.0,190.0,190.0,B,120,Open,Raw,M,
1,Cserna János,1968,Marvel,123.0,200.0,210.0,-212.5,210.0,210.0,B,120+,Open,Raw,M,
2,Fogas Károly,1981,TabiFK,125.9,160.0,170.0,175.0,175.0,175.0,B,120+,Open,Raw,M,
3,Varga Endre,1991,Marvel,134.5,160.0,-170.0,-170.0,160.0,160.0,B,120+,Open,Raw,M,
1,Gaál Kinga,2000,RKA Erőm.,80.7,60.0,65.0,67.5,67.5,67.5,B,84,Sub-Juniors,Raw,F,
1,Cserna Petra,1996,Marvel,46.4,50.0,55.0,60.0,60.0,60.0,B,47,Juniors,Raw,F,
1,Irimiás Erika,1997,Erzsváros,62.85,60.0,65.0,-70.0,65.0,65.0,B,63,Juniors,Raw,F,
1,Gaál Kinga,2000,RKA Erőm.,80.7,60.0,65.0,67.5,67.5,67.5,B,84,Juniors,Raw,F,
1,Pogány Andrea,1974,Toldi SE,64.8,65.0,70.0,-75.0,70.0,70.0,B,72,Masters 1,Raw,F,
1,Szabó Anna,1964,RKA Erőm.,48.4,35.0,40.0,-42.5,40.0,40.0,B,52,Masters 2,Raw,F,
1,Farkas Lászlóné,1967,Fortius SE,69.85,72.5,77.5,-80.5,77.5,77.5,B,72,Masters 2,Raw,F,
1,Schneider Erzsébet,1965,Toldi SE,81.0,62.5,67.5,-71.5,67.5,67.5,B,84,Masters 2,Raw,F,
1,Cserna Petra,1996,Marvel,46.4,50.0,55.0,60.0,60.0,60.0,B,47,Open,Raw,F,
1,Rizán Katalin,1987,RKA Erőm.,55.15,57.5,62.5,-65.0,62.5,62.5,B,57,Open,Raw,F,
1,Palágyi Zsanett,1986,AttilaSE,61.0,-110.0,110.0,,110.0,110.0,B,63,Open,Raw,F,
2,Valter Adrienn,1987,TabiFK,61.75,60.0,-62.5,-62.5,60.0,60.0,B,63,Open,Raw,F,
1,Pogány Andrea,1974,Toldi SE,64.8,65.0,70.0,-75.0,70.0,70.0,B,72,Open,Raw,F,
2,Horváth Tímea,1985,RKA Erőm.,65.45,45.0,50.0,55.0,55.0,55.0,B,72,Open,Raw,F,
1,Evelyn Eisensehr,1973,Erzsváros,78.05,95.0,100.0,103.0,103.0,103.0,B,84,Open,Raw,F,
2,Olajos Tünde,1989,RKA Erőm.,83.15,90.0,95.0,-100.0,95.0,95.0,B,84,Open,Raw,F,
3,Schneider Erzsébet,1965,Toldi SE,81.0,62.5,67.5,-71.5,67.5,67.5,B,84,Open,Raw,F,
1,Melinda Lombosi,1978,RKA Erőm.,132.95,125.0,135.5,140.0,140.0,140.0,B,84+,Open,Raw,F,
