Division,WeightClassKg,Place,Name,Team,BodyweightKg,Best3SquatKg,Best3BenchKg,Best3DeadliftKg,TotalKg,Equipment,Event,Sex
Boys,51.71,1,Jonathan Flores,Mexia,51.53,108.86,63.5,142.88,315.25,Single-ply,SBD,M
Boys,51.71,2,Chance Paschal,Blooming Grove,51.53,122.47,58.97,127.01,308.44,Single-ply,SBD,M
Boys,51.71,3,Weslee Duke,Groesbeck,49.26,111.13,61.23,124.74,297.1,Single-ply,SBD,M
Boys,51.71,4,Sebastian Urteaga,Eustace,50.8,127.01,54.43,113.4,294.84,Single-ply,SBD,M
Boys,51.71,5,Jason Boykin,Corsicana,48.53,102.06,56.7,122.47,281.23,Single-ply,SBD,M
Boys,51.71,6,Elijah Norcross,Wortham,51.53,97.52,61.23,122.47,281.23,Single-ply,SBD,M
Boys,51.71,7,Garrett Kwast,West,44.09,99.79,49.9,102.06,251.74,Single-ply,SBD,M
Boys,51.71,8,Austin Michael,Palmer,49.71,83.91,45.36,106.59,235.87,Single-ply,SBD,M
Boys,51.71,9,Dillon Hopson,Dawson,48.53,77.11,47.63,83.91,208.65,Single-ply,SBD,M
Boys,51.71,10,Hagan Webster,Blooming Grove,42.73,70.31,34.02,83.91,188.24,Single-ply,SBD,M
Boys,51.71,11,Robert Morin,Wills Point,46.99,77.11,34.02,74.84,185.97,Single-ply,SBD,M
Boys,55.79,1,Bernardo Garcia,Itasca,55.79,145.15,74.84,147.42,367.41,Single-ply,SBD,M
Boys,55.79,2,Chase Paschal,Blooming Grove,52.62,131.54,65.77,131.54,328.85,Single-ply,SBD,M
Boys,55.79,3,Stephen Smith,Wills Point,55.79,108.86,72.57,136.08,317.51,Single-ply,SBD,M
Boys,55.79,4,Marcos Botello,Red Oak,55.34,120.2,68.04,106.59,294.84,Single-ply,SBD,M
Boys,55.79,5,Wesley Hughes,Whitney,54.16,106.59,68.04,117.93,292.57,Single-ply,SBD,M
Boys,55.79,6,Caden Kocian,West,55.79,113.4,56.7,115.67,285.76,Single-ply,SBD,M
Boys,55.79,7,Ariel Pimienta,Mexia,55.79,102.06,52.16,106.59,260.82,Single-ply,SBD,M
Boys,59.87,1,Trevor Uptmor,West,59.33,170.1,102.06,172.37,444.52,Single-ply,SBD,M
Boys,59.87,2,Zaahid Abdullah,Waxahachie Life,59.15,158.76,106.59,174.63,439.98,Single-ply,SBD,M
Boys,59.87,3,Joe Velasquez,Blooming Grove,57.61,158.76,88.45,154.22,401.43,Single-ply,SBD,M
Boys,59.87,4,Logan Heller,Mexia,58.6,142.88,86.18,154.22,383.29,Single-ply,SBD,M
Boys,59.87,5,Dalton Wooten,Whitney,58.88,127.01,65.77,138.35,331.12,Single-ply,SBD,M
Boys,59.87,DQ,Hayden Jenson,Whitney,56.61,92.99,,,,Single-ply,SBD,M
Boys,59.87,DQ,Ruben Salazar,West,58.97,145.15,,,,Single-ply,SBD,M
Boys,67.13,1,Fausto Rodriguez,West,63.14,217.72,131.54,190.51,539.77,Single-ply,SBD,M
Boys,67.13,2,Austin Caldwell,Wills Point,64.95,172.37,106.59,185.97,464.93,Single-ply,SBD,M
Boys,67.13,3,Matthew Beacum,Blooming Grove,63.87,154.22,102.06,167.83,424.11,Single-ply,SBD,M
Boys,67.13,4,Gaige Corey,Palmer,65.41,158.76,86.18,176.9,421.84,Single-ply,SBD,M
Boys,67.13,5,Ricardo Martinez #2,Hillsboro,67.13,163.29,72.57,176.9,412.77,Single-ply,SBD,M
Boys,67.13,6,Ryan Kapil,Wills Point,66.22,147.42,83.91,167.83,399.16,Single-ply,SBD,M
Boys,67.13,7,Connor Luke,Scurry-Rosser,66.32,154.22,68.04,172.37,394.63,Single-ply,SBD,M
Boys,67.13,8,Coby Bolling,Whitney,63.5,154.22,79.38,158.76,392.36,Single-ply,SBD,M
Boys,67.13,9,Hayden Braswell,Corsicana,66.41,136.08,83.91,165.56,385.55,Single-ply,SBD,M
Boys,67.13,10,Anthony Martinez #14,Wills Point,65.77,133.81,83.91,165.56,383.29,Single-ply,SBD,M
Boys,67.13,11,Keondre Lane,Wills Point,65.95,136.08,86.18,158.76,381.02,Single-ply,SBD,M
Boys,67.13,12,Christian Clark,Mexia,63.68,145.15,79.38,151.95,376.48,Single-ply,SBD,M
Boys,67.13,13,Marcus Gonzalez,Hillsboro,67.04,129.27,83.91,163.29,376.48,Single-ply,SBD,M
Boys,67.13,14,Abe Garrett,Whitney,65.86,122.47,72.57,167.83,362.87,Single-ply,SBD,M
Boys,67.13,15,Andrew Silva,Rice,63.96,122.47,61.23,136.08,319.78,Single-ply,SBD,M
Boys,67.13,16,Jonathan Lopez,Hillsboro,61.05,136.08,74.84,102.06,312.98,Single-ply,SBD,M
Boys,67.13,17,Juan Galindo,Rice,63.05,113.4,77.11,122.47,312.98,Single-ply,SBD,M
Boys,67.13,18,Peyton Dyess,Cayuga,66.86,88.45,65.77,131.54,285.76,Single-ply,SBD,M
Boys,67.13,19,Cody Cogdill,Mabank,64.77,102.06,65.77,106.59,274.42,Single-ply,SBD,M
Boys,67.13,DQ,Miek Putters,Wortham,63.41,,,,,Single-ply,SBD,M
Boys,67.13,DQ,Hunter Hart,Fruitvale,64.5,133.81,83.91,,,Single-ply,SBD,M
Boys,67.13,DQ,Coker Holloway,Groesbeck,66.68,163.29,,,,Single-ply,SBD,M
Boys,67.13,DQ,Deandre Brown,Corsicana,67.13,208.65,113.4,,,Single-ply,SBD,M
Boys,67.13,DQ,Lucas Zepeda,Waxahachie Life,66.95,172.37,92.99,,,Single-ply,SBD,M
Boys,74.84,1,Colby Skarpa,West,67.68,185.97,122.47,190.51,498.95,Single-ply,SBD,M
Boys,74.84,2,Marcos Meza,Hillsboro,70.4,215.46,92.99,183.7,492.15,Single-ply,SBD,M
Boys,74.84,3,Gilbert Smith,West,72.21,188.24,111.13,190.51,489.88,Single-ply,SBD,M
Boys,74.84,4,Dakota Lewis,Blooming Grove,70.58,167.83,113.4,190.51,471.74,Single-ply,SBD,M
Boys,74.84,5,Ashton Williams,Waxahachie Life,74.75,181.44,86.18,188.24,455.86,Single-ply,SBD,M
Boys,74.84,6,Christopher Acevedo,Dallas Life Oak Cliff,73.57,165.56,113.4,165.56,444.52,Single-ply,SBD,M
Boys,74.84,7,Jordan Nguyen #1,Mabank,70.85,172.37,102.06,167.83,442.25,Single-ply,SBD,M
Boys,74.84,8,Da'Mariyea Hamilton,Dawson,72.57,163.29,92.99,185.97,442.25,Single-ply,SBD,M
Boys,74.84,9,Toby Cook,West,73.94,170.1,102.06,161.03,433.18,Single-ply,SBD,M
Boys,74.84,10,Levi Elkins,Dawson,74.84,176.9,88.45,165.56,430.91,Single-ply,SBD,M
Boys,74.84,11,Rj Cormier,Hubbard,73.75,170.1,102.06,147.42,419.57,Single-ply,SBD,M
Boys,74.84,12,Davonte Grisham,Itasca,71.4,156.49,90.72,163.29,410.5,Single-ply,SBD,M
Boys,74.84,13,Trey Atkeisson,Corsicana Mildred,72.39,142.88,90.72,149.69,383.29,Single-ply,SBD,M
Boys,74.84,14,Arturo Gonzales #1,Palmer,73.21,129.27,90.72,158.76,378.75,Single-ply,SBD,M
Boys,74.84,15,Samuel Bowker,Mabank,73.84,138.35,90.72,145.15,374.21,Single-ply,SBD,M
Boys,74.84,16,Trey Holdman,Mexia,73.94,147.42,83.91,142.88,374.21,Single-ply,SBD,M
Boys,74.84,17,Collin Graves,Palmer,74.03,136.08,90.72,145.15,371.95,Single-ply,SBD,M
Boys,74.84,18,Preston Shields,Groesbeck,69.04,131.54,90.72,129.27,351.53,Single-ply,SBD,M
Boys,74.84,19,Corey Caldwell,Cayuga,74.84,129.27,86.18,115.67,331.12,Single-ply,SBD,M
Boys,74.84,20,Christian Morales,Mabank,74.21,122.47,72.57,122.47,317.51,Single-ply,SBD,M
Boys,74.84,21,Caleb Chase,Mabank,70.94,120.2,72.57,120.2,312.98,Single-ply,SBD,M
Boys,74.84,DQ,Dylan Slade,Hubbard,71.4,120.2,117.93,,,Single-ply,SBD,M
Boys,74.84,DQ,Kyle Kennerk,Cayuga,70.4,,,,,Single-ply,SBD,M
Boys,74.84,DQ,Lucas Hendrix,Fruitvale,72.67,,,,,Single-ply,SBD,M
Boys,74.84,DQ,Jacob Lynch,Rice,69.22,,,,,Single-ply,SBD,M
Boys,74.84,DQ,Tommy Bernal,Rice,74.48,154.22,,,,Single-ply,SBD,M
Boys,74.84,DQ,Daniel Cleveland,Rice,72.12,92.99,,,,Single-ply,SBD,M
Boys,74.84,DQ,William Lyndecker,Hubbard,71.94,81.65,,,,Single-ply,SBD,M
Boys,74.84,DQ,Nolan Kinsley,Wills Point,74.48,,,,,Single-ply,SBD,M
Boys,82.1,1,Nate Gerik,West,81.65,240.4,149.69,240.4,630.49,Single-ply,SBD,M
Boys,82.1,2,Lawson Kendrick,West,80.29,208.65,133.81,201.85,544.31,Single-ply,SBD,M
Boys,82.1,3,Gavin Wright,Mexia,78.11,174.63,111.13,183.7,469.47,Single-ply,SBD,M
Boys,82.1,4,Terrell Conn,Groesbeck,81.56,174.63,120.2,158.76,453.59,Single-ply,SBD,M
Boys,82.1,5,Casen Grasch,Cayuga,81.28,161.03,106.59,174.63,442.25,Single-ply,SBD,M
Boys,82.1,6,Kelley Rainer,Groesbeck,81.92,158.76,99.79,172.37,430.91,Single-ply,SBD,M
Boys,82.1,7,Caleb Hayes,Corsicana Mildred,76.93,142.88,74.84,190.51,408.23,Single-ply,SBD,M
Boys,82.1,8,Eddie Guerra,Dawson,79.38,151.95,90.72,149.69,392.36,Single-ply,SBD,M
Boys,82.1,9,Jorge Soria,Hillsboro,79.56,151.95,86.18,142.88,381.02,Single-ply,SBD,M
Boys,82.1,10,Hunter Boatright,Dawson,76.02,142.88,81.65,145.15,369.68,Single-ply,SBD,M
Boys,82.1,11,Brian Stroud,Hubbard,77.38,124.74,90.72,140.61,356.07,Single-ply,SBD,M
Boys,82.1,12,Aaron Torres,Hubbard,76.02,113.4,49.9,133.81,297.1,Single-ply,SBD,M
Boys,82.1,13,Jaden Henry,Cayuga,78.47,113.4,56.7,113.4,283.5,Single-ply,SBD,M
Boys,82.1,DQ,Gibson Coleman,Hubbard,78.29,124.74,,,,Single-ply,SBD,M
Boys,82.1,DQ,Mason Wooten,Whitney,78.74,,,,,Single-ply,SBD,M
Boys,82.1,DQ,Damon Harp,Groesbeck,80.2,,,,,Single-ply,SBD,M
Boys,82.1,DQ,Johnathan Hernandez,Trinidad,79.2,,,,,Single-ply,SBD,M
Boys,82.1,DQ,Adrian Santoyo,Rice,78.2,124.74,,,,Single-ply,SBD,M
Boys,82.1,DQ,Blayke Wilson,Mabank,75.84,145.15,92.99,,,Single-ply,SBD,M
Boys,89.81,1,Bryan Harwell,Waxahachie Life,89.63,235.87,131.54,247.21,614.62,Single-ply,SBD,M
Boys,89.81,2,Rolando Ramirez,Hillsboro,88.72,222.26,140.61,226.8,589.67,Single-ply,SBD,M
Boys,89.81,3,Anthony Perales,Red Oak,86.45,213.19,129.27,229.06,571.53,Single-ply,SBD,M
Boys,89.81,4,Michael Flores #7,Hillsboro,87.72,226.8,127.01,174.63,528.44,Single-ply,SBD,M
Boys,89.81,5,Garett Lander,Mabank,87,188.24,115.67,217.72,521.63,Single-ply,SBD,M
Boys,89.81,6,Jerry Montgomery,Rice,89.45,192.78,142.88,183.7,519.36,Single-ply,SBD,M
Boys,89.81,7,Drew Denbow,Corsicana,87.36,201.85,122.47,192.78,517.1,Single-ply,SBD,M
Boys,89.81,8,Marc Zagala,Palmer,88.45,188.24,117.93,210.92,517.1,Single-ply,SBD,M
Boys,89.81,9,Andrew Acosta,Scurry-Rosser,86.27,192.78,124.74,195.04,512.56,Single-ply,SBD,M
Boys,89.81,10,Aaron Watson,Red Oak,86.18,179.17,120.2,210.92,510.29,Single-ply,SBD,M
Boys,89.81,11,Angel Martinez #1,Mabank,88.09,183.7,131.54,174.63,489.88,Single-ply,SBD,M
Boys,89.81,12,Silas Prickett,West,84.46,174.63,104.33,190.51,469.47,Single-ply,SBD,M
Boys,89.81,13,Héctor Sánchez,Hillsboro,86.73,188.24,106.59,163.29,458.13,Single-ply,SBD,M
Boys,89.81,14,Kevin Kennerk,Cayuga,83.01,174.63,95.25,185.97,455.86,Single-ply,SBD,M
Boys,89.81,15,Jordan Mata,Hillsboro,84.64,181.44,113.4,158.76,453.59,Single-ply,SBD,M
Boys,89.81,16,Zorian Burley,Red Oak,84.91,179.17,83.91,188.24,451.32,Single-ply,SBD,M
Boys,89.81,17,David Lopez #4,West,82.55,181.44,106.59,161.03,449.06,Single-ply,SBD,M
Boys,89.81,18,AJ Zamora,Whitney,85.46,170.1,92.99,181.44,444.52,Single-ply,SBD,M
Boys,89.81,19,Michael Davis #7,Mabank,89.72,170.1,95.25,163.29,428.64,Single-ply,SBD,M
Boys,89.81,20,Cameron Englehart,Eustace,86,145.15,97.52,170.1,412.77,Single-ply,SBD,M
Boys,89.81,21,Michael Chasteen,Wortham,82.28,102.06,65.77,142.88,310.71,Single-ply,SBD,M
Boys,89.81,22,Abraham Valdez,Dallas Life Oak Cliff,86.48,90.72,52.16,111.13,254.01,Single-ply,SBD,M
Boys,89.81,DQ,Heraclyo Rodriguez,Fruitvale,89.27,120.2,74.84,,,Single-ply,SBD,M
Boys,89.81,DQ,Jeremiah Corley,Fruitvale,89.27,102.06,,,,Single-ply,SBD,M
Boys,89.81,DQ,Kenya Glasco,Blooming Grove,87.27,197.31,,,,Single-ply,SBD,M
Boys,89.81,DQ,Jacob Wiggins,Mabank,88.99,165.56,115.67,,,Single-ply,SBD,M
Boys,99.79,1,Dre'Vaun Cooper,Mexia,94.8,247.21,129.27,215.46,591.94,Single-ply,SBD,M
Boys,99.79,2,Bryan Luna,Mexia,97.16,206.38,127.01,192.78,526.17,Single-ply,SBD,M
Boys,99.79,3,JR Deicher,Mexia,94.89,183.7,104.33,195.04,483.08,Single-ply,SBD,M
Boys,99.79,4,David Mirafuentes,Blooming Grove,94.26,204.12,99.79,172.37,476.27,Single-ply,SBD,M
Boys,99.79,5,Geronimo Rodriguez,Whitney,95.16,192.78,95.25,181.44,469.47,Single-ply,SBD,M
Boys,99.79,6,Britten Taylor,Mabank,93.35,181.44,113.4,172.37,467.2,Single-ply,SBD,M
Boys,99.79,7,Harrison Grant,Corsicana,93.71,170.1,102.06,174.63,446.79,Single-ply,SBD,M
Boys,99.79,8,Diego D'Lorm,Scurry-Rosser,97.98,167.83,97.52,158.76,424.11,Single-ply,SBD,M
Boys,99.79,9,Angel Villa,Scurry-Rosser,90.72,158.76,113.4,149.69,421.84,Single-ply,SBD,M
Boys,99.79,10,Aj Molina,Wortham,90.54,188.24,72.57,156.49,417.3,Single-ply,SBD,M
Boys,99.79,11,Jaden Kistler,Corsicana Mildred,89.99,142.88,92.99,163.29,399.16,Single-ply,SBD,M
Boys,99.79,12,Cody Byrd,Eustace,94.89,138.35,77.11,154.22,369.68,Single-ply,SBD,M
Boys,99.79,13,Justace Starkey,Dawson,93.62,127.01,81.65,154.22,362.87,Single-ply,SBD,M
Boys,99.79,DQ,Tyler Burrell,Whitney,94.44,172.37,,,,Single-ply,SBD,M
Boys,99.79,DQ,Cody Green,Hubbard,99.79,,,,,Single-ply,SBD,M
Boys,99.79,DQ,Kaden Anderson,Trinidad,90.54,,,,,Single-ply,SBD,M
Boys,109.77,1,Logan Blake,Waxahachie Life,100.79,276.69,176.9,244.94,698.53,Single-ply,SBD,M
Boys,109.77,2,Saul Diaz,Rice,107.68,244.94,151.95,240.4,637.3,Single-ply,SBD,M
Boys,109.77,3,Jack Bussey,Scurry-Rosser,106.59,242.67,138.35,213.19,594.21,Single-ply,SBD,M
Boys,109.77,4,Konnor McNeil,Mexia,105.23,226.8,147.42,206.38,580.6,Single-ply,SBD,M
Boys,109.77,5,Joseph Brotherton,Groesbeck,108.41,226.8,142.88,201.85,571.53,Single-ply,SBD,M
Boys,109.77,6,Ben Lancone,Palmer,108.59,204.12,138.35,217.72,560.19,Single-ply,SBD,M
Boys,109.77,7,Zyaun Jones,Red Oak,106.96,183.7,124.74,197.31,505.76,Single-ply,SBD,M
Boys,109.77,8,Tyler Johnson,Dallas Life Oak Cliff,108.86,183.7,129.27,192.78,505.76,Single-ply,SBD,M
Boys,109.77,9,Carson Reneau,Scurry-Rosser,107.14,199.58,113.4,174.63,487.61,Single-ply,SBD,M
Boys,109.77,10,Kitt Wilder,Waxahachie Life,106.32,188.24,102.06,176.9,467.2,Single-ply,SBD,M
Boys,109.77,11,Wesley Kirchenbaur,Eustace,101.97,188.24,108.86,161.03,458.13,Single-ply,SBD,M
Boys,109.77,12,Cameron Spain,Dawson,104.87,163.29,90.72,172.37,426.38,Single-ply,SBD,M
Boys,109.77,13,Jon McLean,Scurry-Rosser,99.97,142.88,106.59,174.63,424.11,Single-ply,SBD,M
Boys,109.77,14,Carlos Gonzalez,Itasca,101.15,161.03,102.06,161.03,424.11,Single-ply,SBD,M
Boys,109.77,15,Alex Ramirez #1,Dallas Life Oak Cliff,102.87,92.99,70.31,120.2,283.5,Single-ply,SBD,M
Boys,109.77,DQ,Dalton Fitzpatrick,Cayuga,103.15,165.56,104.33,,,Single-ply,SBD,M
Boys,109.77,DQ,Zion Barnes,Hubbard,106.41,,,,,Single-ply,SBD,M
Boys,109.77,DQ,Ruben Vera,West,106.32,229.06,113.4,,,Single-ply,SBD,M
Boys,109.77,DQ,Zane Guerra,Dawson,102.51,222.26,136.08,,,Single-ply,SBD,M
Boys,124.74,1,Juan Martinez,Wills Point,111.04,249.48,136.08,251.74,637.3,Single-ply,SBD,M
Boys,124.74,2,Angel Banda,Rice,111.86,235.87,156.49,222.26,614.62,Single-ply,SBD,M
Boys,124.74,3,Jacob Gonzales,Wills Point,117.3,238.14,127.01,235.87,601.01,Single-ply,SBD,M
Boys,124.74,4,Shelby Wilder,Waxahachie Life,118.12,231.33,140.61,222.26,594.21,Single-ply,SBD,M
Boys,124.74,5,Jorde Del Rio,Groesbeck,118.3,226.8,138.35,226.8,591.94,Single-ply,SBD,M
Boys,124.74,6,Clayton Herridge,Groesbeck,124.1,215.46,174.63,199.58,589.67,Single-ply,SBD,M
Boys,124.74,7,Josh Aguilera,Red Oak,114.31,226.8,136.08,219.99,582.87,Single-ply,SBD,M
Boys,124.74,8,Luis Garcia #7,Eustace,120.84,249.48,129.27,204.12,582.87,Single-ply,SBD,M
Boys,124.74,9,Kenny Castro,Corsicana,119.75,213.19,138.35,219.99,571.53,Single-ply,SBD,M
Boys,124.74,10,Damon Herrera,Palmer,118.39,204.12,122.47,235.87,562.45,Single-ply,SBD,M
Boys,124.74,11,Sam Duran,Waxahachie Life,116.57,208.65,115.67,213.19,537.51,Single-ply,SBD,M
Boys,124.74,12,Jahaziel Copeon,Hillsboro,121.93,215.46,120.2,199.58,535.24,Single-ply,SBD,M
Boys,124.74,13,Kaleb Ferguson,Blooming Grove,112.85,158.76,127.01,190.51,476.27,Single-ply,SBD,M
Boys,124.74,14,Elden McKinney,Dallas Life Oak Cliff,117.57,165.56,97.52,195.04,458.13,Single-ply,SBD,M
Boys,124.74,15,Adrian Rose,Hillsboro,110.4,185.97,102.06,156.49,444.52,Single-ply,SBD,M
Boys,124.74,16,Case Dylan,Mabank,116.48,172.37,92.99,176.9,442.25,Single-ply,SBD,M
Boys,124.74,17,Benjamin Librado,Hillsboro,124.74,124.74,102.06,136.08,362.87,Single-ply,SBD,M
Boys,124.74,DQ,Brian Flores,Fruitvale,123.92,136.08,136.08,,,Single-ply,SBD,M
Boys,124.74+,1,Eddie Zuniga,Waxahachie Life,139.07,272.16,172.37,224.53,669.05,Single-ply,SBD,M
Boys,124.74+,2,Shawntay Owens,Whitney,125.1,251.74,140.61,251.74,644.1,Single-ply,SBD,M
Boys,124.74+,3,Chad Fancher,Eustace,131.09,233.6,156.49,217.72,607.81,Single-ply,SBD,M
Boys,124.74+,4,Colton Deal,Waxahachie Life,141.52,240.4,129.27,233.6,603.28,Single-ply,SBD,M
Boys,124.74+,5,Clayton Johnson #3,Scurry-Rosser,130,242.67,113.4,204.12,560.19,Single-ply,SBD,M
Boys,124.74+,6,Ak Medlock,Mexia,152.41,224.53,124.74,204.12,553.38,Single-ply,SBD,M
Boys,124.74+,7,Josh Encinia,Dawson,144.15,226.8,131.54,181.44,539.77,Single-ply,SBD,M
Boys,124.74+,8,Anthony Barnes,Waxahachie Life,139.98,217.72,104.33,185.97,508.02,Single-ply,SBD,M
Boys,124.74+,9,Trent Tidwell,Hillsboro,140.34,183.7,129.27,185.97,498.95,Single-ply,SBD,M
Boys,124.74+,10,Nathan Tomerlin,Wills Point,136.8,192.78,97.52,188.24,478.54,Single-ply,SBD,M
Boys,124.74+,11,Kain Cooper,Red Oak,126.64,210.92,92.99,142.88,446.79,Single-ply,SBD,M
Boys,124.74+,12,Chris Mayes,Wills Point,143.97,181.44,92.99,158.76,433.18,Single-ply,SBD,M
Boys,124.74+,DQ,Seth Bynum-Graham,Hillsboro,180.35,195.04,,,,Single-ply,SBD,M
Boys,124.74+,DQ,Chris Kortes,Trinidad,161.84,274.42,122.47,,,Single-ply,SBD,M
Boys,124.74+,DQ,Colton McClain,Red Oak,144.24,204.12,142.88,,,Single-ply,SBD,M
