Place,Name,BirthDate,Sex,BirthYear,Age,Country,State,Equipment,Division,BodyweightKg,WeightClassKg,Squat1Kg,Squat2Kg,Squat3Kg,Best3SquatKg,Bench1Kg,Bench2Kg,Bench3Kg,Best3BenchKg,Deadlift1Kg,Deadlift2Kg,Deadlift3Kg,Best3DeadliftKg,TotalKg,Event
1,Leah Sattler,,F,2001,23,,VA,Raw,J20-23T,54.2,56,100,110,-115,110,60,67.5,-72.5,67.5,122.5,140,145,145,322.5,SBD
1,Hailey Moore,,F,2002,22,,VA,Raw,J20-23T,81.4,82.5,132.5,142.5,150,150,77.5,82.5,-92.5,82.5,142.5,152.5,162.5,162.5,395,SBD
1,Emely Baez Salazar,,F,2001,23,,VA,Raw,J20-23T,96.1,100,-107.5,107.5,-117.5,107.5,45,50,55,55,75,85,95,95,257.5,SBD
1,Jessica Healy,,F,1982,42,,VA,Raw,M40-44T,70.2,75,57.5,-65,-65,57.5,47.5,50,-52.5,50,75,82.5,-92.5,82.5,190,SBD
1,Timesha Conner,,F,1998,26,,VA,Raw,OpenT,57.9,60,115,122.5,-130,122.5,45,50,-60,50,115,125,147.5,147.5,320,SBD
1,Allison Alger,,F,1997,27,,VA,Raw,OpenT,62.1,67.5,95,100,,100,57.5,60,-62.5,60,132.5,142.5,-147.5,142.5,302.5,SBD
2,Miriam Ramirez,,F,1990,34,,VA,Raw,OpenT,65.9,67.5,67.5,70,77.5,77.5,30,35,45,45,80,85,92.5,92.5,215,SBD
1,Christabelle Briens,,F,1999,25,,VA,Raw,OpenT,69.6,75,85,90,100,100,37.5,40,-42.5,40,105,115,-125,115,255,SBD
2,Jessica Healy,,F,1982,42,,VA,Raw,OpenT,70.2,75,57.5,-65,-65,57.5,47.5,50,-52.5,50,75,82.5,-92.5,82.5,190,SBD
1,Yasmine Vidal,,F,1993,31,,VA,Raw,OpenT,80.4,82.5,160,170,-177.5,170,82.5,90,93,93,162.5,172.5,-183,172.5,435.5,SBD
2,Alana Housden,,F,1994,30,,VA,Raw,OpenT,78.6,82.5,150,162.5,-170,162.5,72.5,77.5,82.5,82.5,160,175,-191,175,420,SBD
3,Amanda Michetti,,F,1989,35,,VA,Raw,OpenT,79,82.5,95,105,120,120,52.5,57.5,60,60,120,130,137.5,137.5,317.5,SBD
1,Jessica Riquelme,,F,1996,28,,VA,Raw,OpenT,88.1,90,155,165,170,170,72.5,75,77.5,77.5,162.5,172.5,182.5,182.5,430,SBD
1,Catelyn Constable,,F,1996,28,,VA,Raw,OpenT,95.5,100,120,130,137.5,137.5,70,72.5,,72.5,140,152.5,-165,152.5,362.5,SBD
1,Jenny Scanlon,,F,1992,31,,VA,Raw,OpenT,129.2,140,75,87.5,95,95,50,55,-57.5,55,112.5,122.5,-130,122.5,272.5,SBD
1,Vega Snyder,,F,1985,39,,VA,Raw,S35-39T,73.1,75,112.5,-122.5,-122.5,112.5,55,60,62.5,62.5,120,130,142.5,142.5,317.5,SBD
1,Kristine Clingenpeel,,F,1987,37,,VA,Raw,S35-39T,89.3,90,142.5,147.5,152.5,152.5,65,67.5,72.5,72.5,142.5,152.5,-160,152.5,377.5,SBD
G,Cora Fesler,,F,2012,12,,VA,Raw,Open,50.9,52,80,85,92.5,92.5,40,42.5,47.5,47.5,72.5,85,97.5,97.5,237.5,SBD
1,Sebastian Ray,,M,2009,15,,VA,Raw,J13-15T,,100,152.5,165,175.5,175.5,80,90,95,95,157.5,172.5,177.5,177.5,448,SBD
1,Colby Fesler,,M,2008,16,,VA,Raw,J16-17T,79.5,82.5,152.5,167.5,172.5,172.5,85,92.5,97.5,97.5,177.5,193,200,200,470,SBD
1,Jackson Plogger,,M,2008,16,,VA,Raw,J16-17T,84.8,90,177.5,182.5,205,205,95,102.5,,102.5,202.5,215,227.5,227.5,535,SBD
1,Tyler Smith #15,,M,2003,21,,VA,Raw,J20-23T,87.8,90,232.5,247.5,260,260,130,-137.5,,130,260,280,291,291,681,SBD
1,Nick LeDonne,,M,1981,43,,PA,Raw,M40-44T,98.6,100,170,185,192.5,192.5,110,117.5,122.5,122.5,195,215,225,225,540,SBD
1,Benjamin Rader Bailey,,M,1999,24,,VA,Raw,OpenT,77.8,82.5,220,235,-242.5,235,120,127.5,,127.5,232.5,247.5,260,260,622.5,SBD
2,Nick Anderson #6,,M,1989,35,,VA,Raw,OpenT,82,82.5,150,160,165,165,100,105,107.5,107.5,172.5,180,187.5,187.5,460,SBD
1,Jackson Plogger,,M,2008,16,,VA,Raw,OpenT,84.8,90,177.5,182.5,205,205,95,102.5,,102.5,202.5,215,227.5,227.5,535,SBD
1,Evan Davis,,M,1996,28,,DC,Raw,OpenT,100.6,110,245,260,272.5,272.5,175.5,-185,-185,175.5,292.5,307.5,325,325,773,SBD
2,Darreon Harrison,,M,1990,34,,VA,Raw,OpenT,108.7,110,210,225,240,240,127.5,137.5,145,145,-260,272.5,285,285,670,SBD
3,Elias Olmedo,,M,1996,28,,VA,Raw,OpenT,103.4,110,187.5,200,212.5,212.5,125,132.5,140,140,212.5,225,242.5,242.5,595,SBD
1,Mikhail Ramos,,M,1990,34,,VA,Raw,OpenT,123.5,125,225,242.5,250,250,185,200,-210,200,250,272.5,277.5,277.5,727.5,SBD
1,Christopher Felty,,M,2002,22,,,Raw,OpenT,134.8,140,255,270,285,285,170,185,-190,185,290,305,-320,305,775,SBD
2,Chandler Monahan,,M,1997,27,,VA,Raw,OpenT,135.4,140,200,220,247.5,247.5,125,135,-150,135,200,222.5,-237.5,222.5,605,SBD
1,Kory D Davis,,M,1990,34,,VA,Raw,OpenT,144.2,140+,170,180,197.5,197.5,125,145,160,160,170,180,220,220,577.5,SBD
1,Nick Anderson #6,,M,1989,35,,VA,Raw,S35-39T,82,82.5,150,160,165,165,100,105,107.5,107.5,172.5,180,187.5,187.5,460,SBD
1,Josedaniel Perez,,M,1985,38,,VA,Raw,S35-39T,140,140,170,190,-200,190,122.5,132.5,140,140,175,200,227.5,227.5,557.5,SBD
1,Neil Davis,,M,2001,23,,TN,Raw,J20-23,96.1,100,205,217.5,227.5,227.5,117.5,127.5,-132.5,127.5,252.5,272.5,291.5,291.5,646.5,SBD
1,Alexander Solomon,,M,1982,42,,VA,Raw,M40-44,97.3,100,197.5,215,227.5,227.5,135,140,145,145,245,260,-272.5,260,632.5,SBD
1,Silas Filliaux,,M,1999,25,,DE,Raw,Open,80.8,82.5,250,262.5,270,270,157.5,165,170,170,280,295,305,305,745,SBD
1,Saeed Janbaz,,M,1989,35,,VA,Raw,Open,99.1,100,230,235,240,240,170,175,-180,175,280,-290,,280,695,SBD
2,Neil Davis,,M,2001,23,,TN,Raw,Open,96.1,100,205,217.5,227.5,227.5,117.5,127.5,-132.5,127.5,252.5,272.5,291.5,291.5,646.5,SBD
3,Alexander Solomon,,M,1982,42,,VA,Raw,Open,97.3,100,197.5,215,227.5,227.5,135,140,145,145,245,260,-272.5,260,632.5,SBD
1,Dawson Surrell,,M,2000,24,,VA,Raw,Open,113,125,310,330,345,345,195,210,,210,330,-355,-355,330,885,SBD
1,Saeed Janbaz,,M,1989,35,,VA,Raw,S35-39,99.1,100,230,235,240,240,170,175,-180,175,280,-290,,280,695,SBD
1,John Davis #21,,M,1965,59,,VA,Raw,M55-59T,108.6,110,,,,,127.5,137.5,-140,137.5,,,,,137.5,B
1,Josh Conley,,M,1991,32,,VA,Raw,OpenT,109.6,110,,,,,177.5,185,-195,185,,,,,185,B
1,Samuel Moats,,M,2008,16,,VA,Raw,J16-17T,61.4,67.5,,,,,,,,,182.5,195,-202.5,195,195,D
